{"count":295,"next":"https://backend.dev.woowbe.com/api/v1/offers/public/?page=2","previous":null,"results":[{"id":6,"business":{"id":12,"name":"Scalpers","square_picture":"https://woowbe-dev.s3.amazonaws.com/media/pictures/square_picture_z5KHodR.jpg","widescreen_picture":"https://woowbe-dev.s3.amazonaws.com/media/pictures/1664288041.jpeg","cover":"https://woowbe-dev.s3.amazonaws.com/media/covers/cover_71arDkc.jpg","offers_count":0,"return_period":30},"name":"Scalpers test","kind":"B","reward":"30.00","reward_type":"fixed","standalone":false,"minimum_purchase_amount":"150.00","maximum_reward_amount":null,"campaign":null,"categories":[],"purchases":null,"start_date":"2021-06-17","finish_date":null,"start_time":"10:37:31","finish_time":null,"budget":"1000.00","instant":false,"offline":true,"online":false,"weekdays":[1,2,3,4,5,6,7],"status":"finished","available_percentage":1,"available_rewards":33,"points_of_sale":[6],"created":"2021-06-17T10:36:57.613413Z","access_link":null,"last_reward":null,"applicable":false,"is_used":false},{"id":211,"business":{"id":12,"name":"Scalpers","square_picture":"https://woowbe-dev.s3.amazonaws.com/media/pictures/square_picture_z5KHodR.jpg","widescreen_picture":"https://woowbe-dev.s3.amazonaws.com/media/pictures/1664288041.jpeg","cover":"https://woowbe-dev.s3.amazonaws.com/media/covers/cover_71arDkc.jpg","offers_count":0,"return_period":30},"name":"Scalpers devolucion evolucion","kind":"B","reward":"25.00","reward_type":"fixed","standalone":false,"minimum_purchase_amount":null,"maximum_reward_amount":null,"campaign":null,"categories":[],"purchases":null,"start_date":"2021-11-26","finish_date":null,"start_time":"00:00:00","finish_time":null,"budget":"25.00","instant":false,"offline":true,"online":false,"weekdays":[6,7],"status":"finished","available_percentage":0,"available_rewards":0,"points_of_sale":[],"created":"2021-11-27T09:42:58.457404Z","access_link":null,"last_reward":null,"applicable":false,"is_used":false},{"id":169,"business":{"id":93,"name":"Go Sushing","square_picture":"https://woowbe-dev.s3.amazonaws.com/media/pictures/go-sushing-logo-1-1.png","widescreen_picture":"https://woowbe-dev.s3.amazonaws.com/media/pictures/1634843662.png","cover":"https://woowbe-dev.s3.amazonaws.com/media/covers/cover_Edp12ch.jpg","offers_count":0,"return_period":0},"name":"20% para todos","kind":"A","reward":"20.00","reward_type":"percentage","standalone":false,"minimum_purchase_amount":null,"maximum_reward_amount":null,"campaign":null,"categories":[],"purchases":null,"start_date":"2021-10-22","finish_date":null,"start_time":"20:00:00","finish_time":"00:30:00","budget":"1.00","instant":false,"offline":true,"online":false,"weekdays":[4,5,6,7],"status":"finished","available_percentage":1,"available_rewards":null,"points_of_sale":[262,261,260,259,258,257,256,255,254,253,252,251,250,249,248,247,246,245,244,243],"created":"2021-10-22T18:37:28.164835Z","access_link":null,"last_reward":null,"applicable":false,"is_used":false},{"id":589,"business":{"id":236,"name":"Yogui QA","square_picture":"https://woowbe-dev.s3.amazonaws.com/media/pictures/1676631810.jpeg","widescreen_picture":"https://woowbe-dev.s3.amazonaws.com/media/pictures/1665492408_Z9SKuNG.jpeg","cover":"https://woowbe-dev.s3.amazonaws.com/media/covers/cover_HYuhoAb.jpg","offers_count":1,"return_period":0},"name":"ropamos el wallet","kind":"B","reward":"20.00","reward_type":"fixed","standalone":false,"minimum_purchase_amount":null,"maximum_reward_amount":null,"campaign":null,"categories":[],"purchases":null,"start_date":"2023-05-31","finish_date":"2023-06-30","start_time":null,"finish_time":null,"budget":"0.00","instant":false,"offline":true,"online":false,"weekdays":[1,2,3,4,5,6,7],"status":"finished","available_percentage":0,"available_rewards":0,"points_of_sale":[942],"created":"2023-05-31T15:23:22.772258Z","access_link":null,"last_reward":null,"applicable":false,"is_used":false},{"id":15,"business":{"id":20,"name":"Delina's","square_picture":"https://woowbe-dev.s3.amazonaws.com/media/pictures/delinas-logo-1-1.png","widescreen_picture":"https://woowbe-dev.s3.amazonaws.com/media/pictures/1635415771.png","cover":"https://woowbe-dev.s3.amazonaws.com/media/covers/delinas-portada.png","offers_count":1,"return_period":0},"name":"Delinas test Sellos","kind":"C","reward":"15.00","reward_type":"fixed","standalone":false,"minimum_purchase_amount":"15.00","maximum_reward_amount":null,"campaign":null,"categories":[],"purchases":6,"start_date":"2021-06-17","finish_date":null,"start_time":"13:30:58","finish_time":null,"budget":"1000.00","instant":true,"offline":true,"online":false,"weekdays":[],"status":"active","available_percentage":1,"available_rewards":66,"points_of_sale":[37,36],"created":"2021-06-17T13:31:57.348500Z","access_link":null,"last_reward":null,"applicable":false,"is_used":false},{"id":171,"business":{"id":95,"name":"Grosso Napoletano","square_picture":"https://woowbe-dev.s3.amazonaws.com/media/pictures/square_picture_zTR4rhR.jpg","widescreen_picture":"https://woowbe-dev.s3.amazonaws.com/media/pictures/1634847890.jpeg","cover":"https://woowbe-dev.s3.amazonaws.com/media/covers/cover_J5Qu0Se.jpg","offers_count":0,"return_period":0},"name":"15€ por 6 comidas","kind":"C","reward":"15.00","reward_type":"fixed","standalone":false,"minimum_purchase_amount":"15.00","maximum_reward_amount":null,"campaign":null,"categories":[],"purchases":6,"start_date":"2021-10-22","finish_date":"2021-12-22","start_time":"13:00:00","finish_time":"17:00:00","budget":"0.00","instant":false,"offline":true,"online":false,"weekdays":[1,2,3,4,5,6],"status":"finished","available_percentage":0,"available_rewards":0,"points_of_sale":[287,286,285,284,283,282,281,280,279,278,277,276,275],"created":"2021-10-22T18:50:34.437279Z","access_link":null,"last_reward":null,"applicable":false,"is_used":false},{"id":190,"business":{"id":101,"name":"Udon","square_picture":"https://woowbe-dev.s3.amazonaws.com/media/pictures/square_picture_HE3Up8p.jpg","widescreen_picture":"https://woowbe-dev.s3.amazonaws.com/media/pictures/1635068691.jpeg","cover":"https://woowbe-dev.s3.amazonaws.com/media/covers/cover_jUju1r9.jpg","offers_count":0,"return_period":0},"name":"15% Udon","kind":"A","reward":"15.00","reward_type":"percentage","standalone":false,"minimum_purchase_amount":null,"maximum_reward_amount":null,"campaign":null,"categories":[],"purchases":null,"start_date":"2021-10-24","finish_date":null,"start_time":null,"finish_time":null,"budget":"1.00","instant":false,"offline":true,"online":false,"weekdays":[1,2,3,4,5,6],"status":"finished","available_percentage":1,"available_rewards":null,"points_of_sale":[330,329,328,327,326,325,324,323,322,321,320,319],"created":"2021-10-24T09:52:07.179762Z","access_link":null,"last_reward":null,"applicable":false,"is_used":false},{"id":32,"business":{"id":23,"name":"llaollao","square_picture":"https://woowbe-dev.s3.amazonaws.com/media/pictures/llao-llao-logo-1-1.png","widescreen_picture":"https://woowbe-dev.s3.amazonaws.com/media/pictures/1635419152.png","cover":"https://woowbe-dev.s3.amazonaws.com/media/covers/llao-llao-portada.png","offers_count":1,"return_period":0},"name":"Llao Llao test","kind":"A","reward":"15.00","reward_type":"percentage","standalone":false,"minimum_purchase_amount":null,"maximum_reward_amount":null,"campaign":null,"categories":[],"purchases":null,"start_date":"2021-06-18","finish_date":null,"start_time":null,"finish_time":null,"budget":"1000.00","instant":true,"offline":true,"online":false,"weekdays":[1,2,3,4,5],"status":"active","available_percentage":1,"available_rewards":null,"points_of_sale":[101,100,99],"created":"2021-06-18T07:48:34.133986Z","access_link":null,"last_reward":null,"applicable":false,"is_used":false},{"id":214,"business":{"id":118,"name":"New York Burger","square_picture":"https://woowbe-dev.s3.amazonaws.com/media/pictures/newyorkburger-logo-1-1.jpeg","widescreen_picture":"https://woowbe-dev.s3.amazonaws.com/media/pictures/newyorkburger-logo-16-9.jpeg","cover":"https://woowbe-dev.s3.amazonaws.com/media/covers/newyorkburger-portada.jpeg","offers_count":3,"return_period":0},"name":"New York Burger 15%","kind":"A","reward":"15.00","reward_type":"percentage","standalone":false,"minimum_purchase_amount":"30.00","maximum_reward_amount":null,"campaign":null,"categories":[],"purchases":null,"start_date":"2021-11-29","finish_date":null,"start_time":"20:30:00","finish_time":"01:00:00","budget":"200.00","instant":false,"offline":true,"online":false,"weekdays":[1,2,3,4],"status":"active","available_percentage":1,"available_rewards":null,"points_of_sale":[599,598,597,596,479],"created":"2021-11-29T09:43:59.950200Z","access_link":null,"last_reward":null,"applicable":false,"is_used":false},{"id":215,"business":{"id":118,"name":"New York Burger","square_picture":"https://woowbe-dev.s3.amazonaws.com/media/pictures/newyorkburger-logo-1-1.jpeg","widescreen_picture":"https://woowbe-dev.s3.amazonaws.com/media/pictures/newyorkburger-logo-16-9.jpeg","cover":"https://woowbe-dev.s3.amazonaws.com/media/covers/newyorkburger-portada.jpeg","offers_count":3,"return_period":0},"name":"New York Burger 15€","kind":"C","reward":"15.00","reward_type":"fixed","standalone":false,"minimum_purchase_amount":"30.00","maximum_reward_amount":null,"campaign":null,"categories":[],"purchases":4,"start_date":"2021-11-29","finish_date":"2022-01-28","start_time":null,"finish_time":null,"budget":"0.00","instant":false,"offline":true,"online":false,"weekdays":[1,2,3,4,5,6,7],"status":"finished","available_percentage":0,"available_rewards":0,"points_of_sale":[599,598,597,596],"created":"2021-11-29T09:45:30.162418Z","access_link":null,"last_reward":null,"applicable":false,"is_used":false}]}