{"count":295,"next":"https://backend.dev.woowbe.com/api/v1/offers/public/?page=11","previous":"https://backend.dev.woowbe.com/api/v1/offers/public/?page=9","results":[{"id":277,"business":{"id":174,"name":"SPAIN GOURMET INVESTMENTS SL","square_picture":"https://woowbe-dev.s3.amazonaws.com/media/pictures/square_picture_wxeFMMD.jpg","widescreen_picture":"https://woowbe-dev.s3.amazonaws.com/media/pictures/1657624076.jpeg","cover":"https://woowbe-dev.s3.amazonaws.com/media/covers/cover_RvYX6Fj.jpg","offers_count":0,"return_period":0},"name":"reembolso","kind":"B","reward":"10.00","reward_type":"fixed","standalone":true,"minimum_purchase_amount":"40.00","maximum_reward_amount":null,"campaign":null,"categories":[],"purchases":null,"start_date":"2022-07-12","finish_date":"2022-11-12","start_time":null,"finish_time":null,"budget":"0.00","instant":false,"offline":true,"online":false,"weekdays":[1,2,3,4,5],"status":"finished","available_percentage":0,"available_rewards":0,"points_of_sale":[651],"created":"2022-07-12T11:12:18.964993Z","access_link":null,"last_reward":null,"applicable":false,"is_used":false},{"id":387,"business":{"id":184,"name":"Floristeria MariPepis QA","square_picture":"https://woowbe-dev.s3.amazonaws.com/media/pictures/square_picture_wRtqmQ7.jpg","widescreen_picture":"https://woowbe-dev.s3.amazonaws.com/media/pictures/1662040876.jpeg","cover":"https://woowbe-dev.s3.amazonaws.com/media/covers/cover_J8HYh2d.jpg","offers_count":1,"return_period":0},"name":"reward porcentaje","kind":"A","reward":"10.00","reward_type":"percentage","standalone":false,"minimum_purchase_amount":null,"maximum_reward_amount":null,"campaign":null,"categories":[],"purchases":null,"start_date":"2023-01-19","finish_date":"2023-01-31","start_time":null,"finish_time":null,"budget":"10.00","instant":false,"offline":true,"online":false,"weekdays":[1,2,3,4,5,6,7],"status":"finished","available_percentage":0,"available_rewards":null,"points_of_sale":[],"created":"2023-01-19T16:36:44.768230Z","access_link":null,"last_reward":null,"applicable":false,"is_used":false},{"id":363,"business":{"id":254,"name":"prueba FRANQUICIAS MARCA iñigo","square_picture":"https://woowbe-dev.s3.amazonaws.com/media/pictures/square_picture_re1giyA.jpg","widescreen_picture":"https://woowbe-dev.s3.amazonaws.com/media/pictures/1671614454.jpeg","cover":"https://woowbe-dev.s3.amazonaws.com/media/covers/cover_YpmEHUW.jpg","offers_count":0,"return_period":12},"name":"Copia2 iñigo test franquicias","kind":"A","reward":"10.00","reward_type":"percentage","standalone":false,"minimum_purchase_amount":"12.00","maximum_reward_amount":"3.00","campaign":null,"categories":[],"purchases":null,"start_date":"2023-01-19","finish_date":"2023-01-21","start_time":null,"finish_time":null,"budget":"0.00","instant":false,"offline":true,"online":false,"weekdays":[1,2,3,4,5,6,7],"status":"finished","available_percentage":0,"available_rewards":null,"points_of_sale":[773,772,770,769,768,766,760,759],"created":"2023-01-04T11:20:35.058785Z","access_link":null,"last_reward":null,"applicable":false,"is_used":false},{"id":246,"business":{"id":134,"name":"Taj Mahal","square_picture":"https://woowbe-dev.s3.amazonaws.com/media/pictures/taj-mahal-logo-1-1_oY8rPRm.png","widescreen_picture":"https://woowbe-dev.s3.amazonaws.com/media/pictures/1638367485.png","cover":"https://woowbe-dev.s3.amazonaws.com/media/covers/cover_fhbL2r4.jpg","offers_count":1,"return_period":1},"name":"Oferta Sellos","kind":"C","reward":"10.00","reward_type":"fixed","standalone":false,"minimum_purchase_amount":"20.00","maximum_reward_amount":null,"campaign":null,"categories":[],"purchases":6,"start_date":"2021-12-01","finish_date":"2022-01-31","start_time":null,"finish_time":null,"budget":"60.00","instant":false,"offline":true,"online":false,"weekdays":[],"status":"finished","available_percentage":1,"available_rewards":6,"points_of_sale":[],"created":"2021-12-01T14:06:58.701450Z","access_link":null,"last_reward":null,"applicable":false,"is_used":false},{"id":276,"business":{"id":174,"name":"SPAIN GOURMET INVESTMENTS SL","square_picture":"https://woowbe-dev.s3.amazonaws.com/media/pictures/square_picture_wxeFMMD.jpg","widescreen_picture":"https://woowbe-dev.s3.amazonaws.com/media/pictures/1657624076.jpeg","cover":"https://woowbe-dev.s3.amazonaws.com/media/covers/cover_RvYX6Fj.jpg","offers_count":0,"return_period":0},"name":"reembolso","kind":"B","reward":"10.00","reward_type":"fixed","standalone":true,"minimum_purchase_amount":"40.00","maximum_reward_amount":null,"campaign":null,"categories":[],"purchases":null,"start_date":"2022-07-12","finish_date":"2022-11-12","start_time":null,"finish_time":null,"budget":"0.00","instant":false,"offline":true,"online":false,"weekdays":[1,2,3,4,5],"status":"finished","available_percentage":0,"available_rewards":0,"points_of_sale":[651],"created":"2022-07-12T11:12:16.786725Z","access_link":null,"last_reward":null,"applicable":false,"is_used":false},{"id":358,"business":{"id":118,"name":"New York Burger","square_picture":"https://woowbe-dev.s3.amazonaws.com/media/pictures/newyorkburger-logo-1-1.jpeg","widescreen_picture":"https://woowbe-dev.s3.amazonaws.com/media/pictures/newyorkburger-logo-16-9.jpeg","cover":"https://woowbe-dev.s3.amazonaws.com/media/covers/newyorkburger-portada.jpeg","offers_count":3,"return_period":0},"name":"Copy \"/><script>alert(1)</script>","kind":"C","reward":"10.00","reward_type":"fixed","standalone":false,"minimum_purchase_amount":"19.00","maximum_reward_amount":null,"campaign":null,"categories":[],"purchases":4,"start_date":"2022-12-16","finish_date":"2022-12-23","start_time":null,"finish_time":null,"budget":"0.00","instant":false,"offline":true,"online":false,"weekdays":[1,2,3,4,5,6,7],"status":"finished","available_percentage":0,"available_rewards":0,"points_of_sale":[479],"created":"2022-12-16T19:16:40.252286Z","access_link":null,"last_reward":null,"applicable":false,"is_used":false},{"id":503,"business":{"id":143,"name":"Test App","square_picture":"https://woowbe-dev.s3.amazonaws.com/media/pictures/1667494635.jpeg","widescreen_picture":"https://woowbe-dev.s3.amazonaws.com/media/pictures/widescreen_picture_ZiLjO4p.jpg","cover":"https://woowbe-dev.s3.amazonaws.com/media/covers/cover_kvUvSKN.jpg","offers_count":16,"return_period":0},"name":"test borrar","kind":"A","reward":"10.00","reward_type":"percentage","standalone":false,"minimum_purchase_amount":null,"maximum_reward_amount":null,"campaign":null,"categories":[],"purchases":null,"start_date":"2023-03-03","finish_date":"2023-07-03","start_time":null,"finish_time":null,"budget":"0.00","instant":false,"offline":true,"online":false,"weekdays":[1,2],"status":"finished","available_percentage":0,"available_rewards":null,"points_of_sale":[],"created":"2023-03-03T12:27:12.367089Z","access_link":null,"last_reward":null,"applicable":false,"is_used":false},{"id":518,"business":{"id":236,"name":"Yogui QA","square_picture":"https://woowbe-dev.s3.amazonaws.com/media/pictures/1676631810.jpeg","widescreen_picture":"https://woowbe-dev.s3.amazonaws.com/media/pictures/1665492408_Z9SKuNG.jpeg","cover":"https://woowbe-dev.s3.amazonaws.com/media/covers/cover_HYuhoAb.jpg","offers_count":1,"return_period":0},"name":"Finalizacion","kind":"A","reward":"10.00","reward_type":"percentage","standalone":false,"minimum_purchase_amount":null,"maximum_reward_amount":null,"campaign":null,"categories":[],"purchases":null,"start_date":"2023-03-08","finish_date":"2023-03-08","start_time":null,"finish_time":null,"budget":"0.00","instant":false,"offline":true,"online":false,"weekdays":[1,3],"status":"finished","available_percentage":0,"available_rewards":null,"points_of_sale":[792],"created":"2023-03-08T12:41:12.538489Z","access_link":null,"last_reward":null,"applicable":false,"is_used":false},{"id":321,"business":{"id":225,"name":"Scalpers prueba 4","square_picture":"https://woowbe-dev.s3.amazonaws.com/media/pictures/square_picture_z5KHodR.jpg","widescreen_picture":"https://woowbe-dev.s3.amazonaws.com/media/pictures/1664288041.jpeg","cover":"https://woowbe-dev.s3.amazonaws.com/media/covers/cover_71arDkc.jpg","offers_count":0,"return_period":30},"name":"activación manual","kind":"A","reward":"10.00","reward_type":"percentage","standalone":false,"minimum_purchase_amount":"20.00","maximum_reward_amount":null,"campaign":null,"categories":[],"purchases":null,"start_date":"2022-10-03","finish_date":"2023-04-03","start_time":null,"finish_time":null,"budget":"0.00","instant":false,"offline":true,"online":false,"weekdays":[1,2,3,4],"status":"finished","available_percentage":0,"available_rewards":null,"points_of_sale":[712,711],"created":"2022-10-03T14:52:57.336080Z","access_link":null,"last_reward":null,"applicable":false,"is_used":false},{"id":526,"business":{"id":143,"name":"Test App","square_picture":"https://woowbe-dev.s3.amazonaws.com/media/pictures/1667494635.jpeg","widescreen_picture":"https://woowbe-dev.s3.amazonaws.com/media/pictures/widescreen_picture_ZiLjO4p.jpg","cover":"https://woowbe-dev.s3.amazonaws.com/media/covers/cover_kvUvSKN.jpg","offers_count":16,"return_period":0},"name":"Programado","kind":"A","reward":"10.00","reward_type":"percentage","standalone":false,"minimum_purchase_amount":null,"maximum_reward_amount":null,"campaign":null,"categories":[],"purchases":null,"start_date":"2023-07-14","finish_date":"2023-12-22","start_time":null,"finish_time":null,"budget":"0.00","instant":false,"offline":true,"online":false,"weekdays":[1,2,3,5,6],"status":"finished","available_percentage":0,"available_rewards":null,"points_of_sale":[],"created":"2023-03-16T12:32:05.968208Z","access_link":null,"last_reward":null,"applicable":false,"is_used":false}]}