{"count":295,"next":"https://backend.dev.woowbe.com/api/v1/offers/public/?page=12","previous":"https://backend.dev.woowbe.com/api/v1/offers/public/?page=10","results":[{"id":564,"business":{"id":236,"name":"Yogui QA","square_picture":"https://woowbe-dev.s3.amazonaws.com/media/pictures/1676631810.jpeg","widescreen_picture":"https://woowbe-dev.s3.amazonaws.com/media/pictures/1665492408_Z9SKuNG.jpeg","cover":"https://woowbe-dev.s3.amazonaws.com/media/covers/cover_HYuhoAb.jpg","offers_count":1,"return_period":0},"name":"Si tag 2","kind":"A","reward":"10.00","reward_type":"percentage","standalone":false,"minimum_purchase_amount":null,"maximum_reward_amount":null,"campaign":null,"categories":[],"purchases":null,"start_date":"2023-04-26","finish_date":"2023-04-27","start_time":null,"finish_time":null,"budget":"0.00","instant":false,"offline":true,"online":false,"weekdays":[2],"status":"finished","available_percentage":0,"available_rewards":null,"points_of_sale":[888],"created":"2023-04-27T13:37:46.828122Z","access_link":null,"last_reward":null,"applicable":false,"is_used":false},{"id":586,"business":{"id":337,"name":"Niubiz","square_picture":"https://woowbe-dev.s3.amazonaws.com/media/pictures/square_picture_QL4OVCY.jpg","widescreen_picture":"https://woowbe-dev.s3.amazonaws.com/media/pictures/1685457967.jpeg","cover":"https://woowbe-dev.s3.amazonaws.com/media/covers/cover_OY7jSZl.jpg","offers_count":4,"return_period":0},"name":"programa recompensa mayor","kind":"B","reward":"10.00","reward_type":"fixed","standalone":false,"minimum_purchase_amount":null,"maximum_reward_amount":null,"campaign":null,"categories":[],"purchases":null,"start_date":"2023-05-31","finish_date":"2023-08-31","start_time":null,"finish_time":null,"budget":"10000001.00","instant":false,"offline":true,"online":false,"weekdays":[1,2,3,4,5,6,7],"status":"active","available_percentage":0.9999970000003,"available_rewards":999997,"points_of_sale":[940,938],"created":"2023-05-31T14:27:25.982507Z","access_link":null,"last_reward":null,"applicable":false,"is_used":false},{"id":203,"business":{"id":111,"name":"Carlos Conde peluqueros","square_picture":"https://woowbe-dev.s3.amazonaws.com/media/pictures/square_picture_NNjVQc5.jpg","widescreen_picture":"https://woowbe-dev.s3.amazonaws.com/media/pictures/1635234170.jpeg","cover":"https://woowbe-dev.s3.amazonaws.com/media/covers/cover_tvoOUZh.jpg","offers_count":0,"return_period":0},"name":"10€ por corte de pelo","kind":"C","reward":"10.00","reward_type":"fixed","standalone":false,"minimum_purchase_amount":null,"maximum_reward_amount":null,"campaign":null,"categories":[],"purchases":6,"start_date":"2021-10-26","finish_date":"2021-12-26","start_time":null,"finish_time":null,"budget":"0.00","instant":false,"offline":true,"online":false,"weekdays":[1,2,3,4,5,6],"status":"finished","available_percentage":0,"available_rewards":0,"points_of_sale":[443,442,441,440,439,438,437,436,435,434,433,432,431,430,429,428,427,426,425,424],"created":"2021-10-26T08:00:07.266437Z","access_link":null,"last_reward":null,"applicable":false,"is_used":false},{"id":326,"business":{"id":184,"name":"Floristeria MariPepis QA","square_picture":"https://woowbe-dev.s3.amazonaws.com/media/pictures/square_picture_wRtqmQ7.jpg","widescreen_picture":"https://woowbe-dev.s3.amazonaws.com/media/pictures/1662040876.jpeg","cover":"https://woowbe-dev.s3.amazonaws.com/media/covers/cover_J8HYh2d.jpg","offers_count":1,"return_period":0},"name":"programa reembolso octu","kind":"B","reward":"10.00","reward_type":"fixed","standalone":false,"minimum_purchase_amount":null,"maximum_reward_amount":null,"campaign":null,"categories":[],"purchases":null,"start_date":"2022-10-04","finish_date":"2023-04-04","start_time":null,"finish_time":null,"budget":"50.00","instant":false,"offline":true,"online":false,"weekdays":[1,2,3,4,5],"status":"finished","available_percentage":0,"available_rewards":0,"points_of_sale":[],"created":"2022-10-04T14:56:47.346471Z","access_link":null,"last_reward":null,"applicable":false,"is_used":false},{"id":238,"business":{"id":128,"name":"Viena Capellanes","square_picture":"https://woowbe-dev.s3.amazonaws.com/media/pictures/viena-capellanes-logo-1-1.png","widescreen_picture":"https://woowbe-dev.s3.amazonaws.com/media/pictures/1638194107.png","cover":"https://woowbe-dev.s3.amazonaws.com/media/covers/viena-capellanes-portada.jpeg","offers_count":1,"return_period":0},"name":"Viena Capellanes 9%","kind":"A","reward":"9.00","reward_type":"percentage","standalone":false,"minimum_purchase_amount":"18.00","maximum_reward_amount":null,"campaign":null,"categories":[],"purchases":null,"start_date":"2021-11-29","finish_date":null,"start_time":null,"finish_time":null,"budget":"300.00","instant":false,"offline":true,"online":false,"weekdays":[1,2,3,4,5],"status":"active","available_percentage":0.985,"available_rewards":null,"points_of_sale":[637,636,635,545,544,543,542,541,540,539,538,537,536,535,534,533,532,531,530,529,528,527,526],"created":"2021-11-29T14:14:37.276087Z","access_link":null,"last_reward":null,"applicable":false,"is_used":false},{"id":256,"business":{"id":140,"name":"Pako's Donuts","square_picture":"https://woowbe-dev.s3.amazonaws.com/media/pictures/square_picture_d0YTkuG.jpg","widescreen_picture":"https://woowbe-dev.s3.amazonaws.com/media/pictures/1652178849.jpeg","cover":"https://woowbe-dev.s3.amazonaws.com/media/covers/cover_sMkXPAU.jpg","offers_count":0,"return_period":0},"name":"ioeiroe","kind":"C","reward":"8.00","reward_type":"fixed","standalone":false,"minimum_purchase_amount":"10.00","maximum_reward_amount":null,"campaign":null,"categories":[],"purchases":8,"start_date":"2022-05-10","finish_date":"2022-07-14","start_time":null,"finish_time":null,"budget":"0.00","instant":false,"offline":true,"online":false,"weekdays":[1,2,3,4,5,6,7],"status":"finished","available_percentage":0,"available_rewards":0,"points_of_sale":[591],"created":"2022-05-10T11:10:20.571066Z","access_link":null,"last_reward":null,"applicable":false,"is_used":false},{"id":202,"business":{"id":110,"name":"Marco Aldany","square_picture":"https://woowbe-dev.s3.amazonaws.com/media/pictures/square_picture_SjjTIjm.jpg","widescreen_picture":"https://woowbe-dev.s3.amazonaws.com/media/pictures/1635167238.jpeg","cover":"https://woowbe-dev.s3.amazonaws.com/media/covers/cover_UAKZThD.jpg","offers_count":0,"return_period":0},"name":"8€ por tu corte","kind":"C","reward":"8.00","reward_type":"fixed","standalone":false,"minimum_purchase_amount":"10.00","maximum_reward_amount":null,"campaign":null,"categories":[],"purchases":6,"start_date":"2021-10-25","finish_date":"2021-12-31","start_time":null,"finish_time":null,"budget":"0.00","instant":false,"offline":true,"online":false,"weekdays":[1,2,3,4,5],"status":"finished","available_percentage":0,"available_rewards":0,"points_of_sale":[423,422,421,420,419,418,417,416,415,414,413,412,411,410,409,408,407,406,405,404],"created":"2021-10-25T13:15:06.908929Z","access_link":null,"last_reward":null,"applicable":false,"is_used":false},{"id":339,"business":{"id":12,"name":"Scalpers","square_picture":"https://woowbe-dev.s3.amazonaws.com/media/pictures/square_picture_z5KHodR.jpg","widescreen_picture":"https://woowbe-dev.s3.amazonaws.com/media/pictures/1664288041.jpeg","cover":"https://woowbe-dev.s3.amazonaws.com/media/covers/cover_71arDkc.jpg","offers_count":0,"return_period":30},"name":"Prueba MX","kind":"A","reward":"8.00","reward_type":"percentage","standalone":false,"minimum_purchase_amount":"20.00","maximum_reward_amount":"50.00","campaign":null,"categories":[],"purchases":null,"start_date":"2022-11-11","finish_date":"2022-11-20","start_time":null,"finish_time":null,"budget":"0.00","instant":false,"offline":true,"online":false,"weekdays":[1,2,3,4,5],"status":"finished","available_percentage":0,"available_rewards":null,"points_of_sale":[6],"created":"2022-11-11T15:15:25.202567Z","access_link":null,"last_reward":null,"applicable":false,"is_used":false},{"id":245,"business":{"id":133,"name":"RAWCOCO","square_picture":"https://woowbe-dev.s3.amazonaws.com/media/pictures/rawcoco-logo-1-1.png","widescreen_picture":"https://woowbe-dev.s3.amazonaws.com/media/pictures/1638198240.png","cover":"https://woowbe-dev.s3.amazonaws.com/media/covers/rawcoco-portada.jpeg","offers_count":0,"return_period":0},"name":"Rawcoco 8€ sellos","kind":"C","reward":"8.00","reward_type":"fixed","standalone":false,"minimum_purchase_amount":"15.00","maximum_reward_amount":null,"campaign":null,"categories":[],"purchases":6,"start_date":"2021-11-29","finish_date":"2022-01-31","start_time":"17:00:00","finish_time":"20:30:00","budget":"0.00","instant":false,"offline":true,"online":false,"weekdays":[1,2,3,4,5],"status":"finished","available_percentage":0,"available_rewards":0,"points_of_sale":[580,579],"created":"2021-11-29T15:07:23.232304Z","access_link":null,"last_reward":null,"applicable":false,"is_used":false},{"id":243,"business":{"id":131,"name":"Makkila","square_picture":"https://woowbe-dev.s3.amazonaws.com/media/pictures/makkila-logo-1-1.png","widescreen_picture":"https://woowbe-dev.s3.amazonaws.com/media/pictures/1638197128.png","cover":"https://woowbe-dev.s3.amazonaws.com/media/covers/makkila-portada.png","offers_count":1,"return_period":0},"name":"Makkila 8%","kind":"A","reward":"8.00","reward_type":"percentage","standalone":false,"minimum_purchase_amount":"15.00","maximum_reward_amount":null,"campaign":null,"categories":[],"purchases":null,"start_date":"2021-11-29","finish_date":null,"start_time":"18:30:00","finish_time":"00:00:00","budget":"300.00","instant":false,"offline":true,"online":false,"weekdays":[1,2,3,4,5],"status":"active","available_percentage":1,"available_rewards":null,"points_of_sale":[631,630,629,558,557,556,555,554],"created":"2021-11-29T14:49:02.978216Z","access_link":null,"last_reward":null,"applicable":false,"is_used":false}]}