{"count":295,"next":"https://backend.dev.woowbe.com/api/v1/offers/public/?page=13","previous":"https://backend.dev.woowbe.com/api/v1/offers/public/?page=11","results":[{"id":243,"business":{"id":131,"name":"Makkila","square_picture":"https://woowbe-dev.s3.amazonaws.com/media/pictures/makkila-logo-1-1.png","widescreen_picture":"https://woowbe-dev.s3.amazonaws.com/media/pictures/1638197128.png","cover":"https://woowbe-dev.s3.amazonaws.com/media/covers/makkila-portada.png","offers_count":1,"return_period":0},"name":"Makkila 8%","kind":"A","reward":"8.00","reward_type":"percentage","standalone":false,"minimum_purchase_amount":"15.00","maximum_reward_amount":null,"campaign":null,"categories":[],"purchases":null,"start_date":"2021-11-29","finish_date":null,"start_time":"18:30:00","finish_time":"00:00:00","budget":"300.00","instant":false,"offline":true,"online":false,"weekdays":[1,2,3,4,5],"status":"active","available_percentage":1,"available_rewards":null,"points_of_sale":[631,630,629,558,557,556,555,554],"created":"2021-11-29T14:49:02.978216Z","access_link":null,"last_reward":null,"applicable":false,"is_used":false},{"id":293,"business":{"id":177,"name":"Cafeteria QA","square_picture":"https://woowbe-dev.s3.amazonaws.com/media/pictures/square_picture_L5L56Sl.jpg","widescreen_picture":"https://woowbe-dev.s3.amazonaws.com/media/pictures/1664189138.jpeg","cover":"https://woowbe-dev.s3.amazonaws.com/media/covers/cover_vO8upz4.jpg","offers_count":0,"return_period":0},"name":"Programa tutorial","kind":"C","reward":"8.00","reward_type":"fixed","standalone":false,"minimum_purchase_amount":null,"maximum_reward_amount":null,"campaign":null,"categories":[],"purchases":4,"start_date":"2022-08-23","finish_date":"2022-08-26","start_time":"13:00:00","finish_time":"17:00:00","budget":"0.00","instant":false,"offline":true,"online":false,"weekdays":[1,2,3,4,5],"status":"finished","available_percentage":0,"available_rewards":0,"points_of_sale":[663],"created":"2022-08-23T07:12:10.715425Z","access_link":null,"last_reward":null,"applicable":false,"is_used":false},{"id":441,"business":{"id":236,"name":"Yogui QA","square_picture":"https://woowbe-dev.s3.amazonaws.com/media/pictures/1676631810.jpeg","widescreen_picture":"https://woowbe-dev.s3.amazonaws.com/media/pictures/1665492408_Z9SKuNG.jpeg","cover":"https://woowbe-dev.s3.amazonaws.com/media/covers/cover_HYuhoAb.jpg","offers_count":1,"return_period":0},"name":"sellos parcial plural","kind":"C","reward":"8.00","reward_type":"fixed","standalone":false,"minimum_purchase_amount":null,"maximum_reward_amount":null,"campaign":null,"categories":[],"purchases":4,"start_date":"2023-02-23","finish_date":"2023-06-23","start_time":null,"finish_time":null,"budget":"2.00","instant":false,"offline":true,"online":false,"weekdays":[1,2,3,4,5,6,7],"status":"finished","available_percentage":0,"available_rewards":0,"points_of_sale":[],"created":"2023-02-23T15:41:34.157106Z","access_link":null,"last_reward":null,"applicable":false,"is_used":false},{"id":194,"business":{"id":103,"name":"Supermercado Suma","square_picture":"https://woowbe-dev.s3.amazonaws.com/media/pictures/square_picture_DQaAhb4.jpg","widescreen_picture":"https://woowbe-dev.s3.amazonaws.com/media/pictures/1635147636.jpeg","cover":"https://woowbe-dev.s3.amazonaws.com/media/covers/cover_XW3kvzk.jpg","offers_count":0,"return_period":0},"name":"8% por tu compra","kind":"A","reward":"8.00","reward_type":"percentage","standalone":false,"minimum_purchase_amount":"30.00","maximum_reward_amount":null,"campaign":null,"categories":[],"purchases":null,"start_date":"2021-10-25","finish_date":null,"start_time":null,"finish_time":null,"budget":"1.00","instant":false,"offline":true,"online":false,"weekdays":[1,2,3,4,5,6],"status":"finished","available_percentage":1,"available_rewards":null,"points_of_sale":[338],"created":"2021-10-25T07:44:08.484187Z","access_link":null,"last_reward":null,"applicable":false,"is_used":false},{"id":399,"business":{"id":89,"name":"Aloha Poke","square_picture":"https://woowbe-dev.s3.amazonaws.com/media/pictures/aloha-poke-logo-1-1.png","widescreen_picture":"https://woowbe-dev.s3.amazonaws.com/media/pictures/1634827016.jpeg","cover":"https://woowbe-dev.s3.amazonaws.com/media/covers/cover_0XysFRk.jpg","offers_count":4,"return_period":0},"name":"prueba 3 franq","kind":"C","reward":"8.00","reward_type":"fixed","standalone":false,"minimum_purchase_amount":null,"maximum_reward_amount":null,"campaign":null,"categories":[],"purchases":6,"start_date":"2023-01-31","finish_date":"2024-01-31","start_time":null,"finish_time":null,"budget":"20.00","instant":false,"offline":true,"online":false,"weekdays":[2,3,4],"status":"active","available_percentage":1,"available_rewards":2,"points_of_sale":[796,795,794,764,763,762,603,601,600,203,202,201,200,199,198,197,196,195,194,193,192],"created":"2023-01-31T16:05:54.873727Z","access_link":null,"last_reward":null,"applicable":false,"is_used":false},{"id":274,"business":{"id":171,"name":"CALCAPO GASTRONOMIA SL","square_picture":"https://woowbe-dev.s3.amazonaws.com/media/pictures/square_picture_KbKlQpV.jpg","widescreen_picture":"https://woowbe-dev.s3.amazonaws.com/media/pictures/1656346787.jpeg","cover":"https://woowbe-dev.s3.amazonaws.com/media/covers/cover_DBBSCaJ.jpg","offers_count":0,"return_period":0},"name":"recompensa a clientes fieles","kind":"C","reward":"7.00","reward_type":"fixed","standalone":false,"minimum_purchase_amount":"10.00","maximum_reward_amount":null,"campaign":null,"categories":[],"purchases":4,"start_date":"2022-06-27","finish_date":"2022-08-27","start_time":null,"finish_time":null,"budget":"0.00","instant":false,"offline":true,"online":false,"weekdays":[1,2,3,4,5,6],"status":"finished","available_percentage":0,"available_rewards":0,"points_of_sale":[647],"created":"2022-06-27T16:28:24.132736Z","access_link":null,"last_reward":null,"applicable":false,"is_used":false},{"id":254,"business":{"id":140,"name":"Pako's Donuts","square_picture":"https://woowbe-dev.s3.amazonaws.com/media/pictures/square_picture_d0YTkuG.jpg","widescreen_picture":"https://woowbe-dev.s3.amazonaws.com/media/pictures/1652178849.jpeg","cover":"https://woowbe-dev.s3.amazonaws.com/media/covers/cover_sMkXPAU.jpg","offers_count":0,"return_period":0},"name":"Programa entre semana","kind":"A","reward":"7.00","reward_type":"percentage","standalone":false,"minimum_purchase_amount":"10.00","maximum_reward_amount":null,"campaign":{"id":32,"name":"El dia del padre"},"categories":[{"id":36,"name":"Desayuno"},{"id":35,"name":"Donuts"}],"purchases":null,"start_date":"2022-05-10","finish_date":"2022-07-21","start_time":"12:00:00","finish_time":"21:00:00","budget":"0.00","instant":false,"offline":true,"online":false,"weekdays":[1,2,3,4,5],"status":"finished","available_percentage":0,"available_rewards":null,"points_of_sale":[591],"created":"2022-05-10T10:54:23.066336Z","access_link":null,"last_reward":null,"applicable":false,"is_used":false},{"id":198,"business":{"id":106,"name":"Lateral","square_picture":"https://woowbe-dev.s3.amazonaws.com/media/pictures/square_picture_Dw0X61I.jpg","widescreen_picture":"https://woowbe-dev.s3.amazonaws.com/media/pictures/1635151647.jpeg","cover":"https://woowbe-dev.s3.amazonaws.com/media/covers/cover_e0g2OVc.jpg","offers_count":0,"return_period":0},"name":"7% por tus cenas","kind":"A","reward":"7.00","reward_type":"percentage","standalone":false,"minimum_purchase_amount":"30.00","maximum_reward_amount":null,"campaign":null,"categories":[],"purchases":null,"start_date":"2021-10-25","finish_date":null,"start_time":"21:00:00","finish_time":"00:30:00","budget":"1.00","instant":false,"offline":true,"online":false,"weekdays":[1,2,3,4],"status":"finished","available_percentage":1,"available_rewards":null,"points_of_sale":[376,375,374,373,372,371,370,369,368,367,366],"created":"2021-10-25T08:58:34.838357Z","access_link":null,"last_reward":null,"applicable":false,"is_used":false},{"id":367,"business":{"id":89,"name":"Aloha Poke","square_picture":"https://woowbe-dev.s3.amazonaws.com/media/pictures/aloha-poke-logo-1-1.png","widescreen_picture":"https://woowbe-dev.s3.amazonaws.com/media/pictures/1634827016.jpeg","cover":"https://woowbe-dev.s3.amazonaws.com/media/covers/cover_0XysFRk.jpg","offers_count":4,"return_period":0},"name":"test victor","kind":"A","reward":"7.00","reward_type":"percentage","standalone":false,"minimum_purchase_amount":"20.00","maximum_reward_amount":"5.00","campaign":null,"categories":[],"purchases":null,"start_date":"2023-01-13","finish_date":"2023-07-13","start_time":null,"finish_time":null,"budget":"200.00","instant":false,"offline":true,"online":false,"weekdays":[1,2,3,4,5],"status":"active","available_percentage":1,"available_rewards":null,"points_of_sale":[763,762,601,202,201,200,199,198,197,196,195,194,193,192],"created":"2023-01-13T12:19:38.654988Z","access_link":null,"last_reward":null,"applicable":false,"is_used":false},{"id":228,"business":{"id":125,"name":"Le Coq","square_picture":"https://woowbe-dev.s3.amazonaws.com/media/pictures/le-coq-logo-1-1.png","widescreen_picture":"https://woowbe-dev.s3.amazonaws.com/media/pictures/1638190657.png","cover":"https://woowbe-dev.s3.amazonaws.com/media/covers/le-coq-portada.jpeg","offers_count":1,"return_period":0},"name":"Le Coq 7%","kind":"A","reward":"7.00","reward_type":"percentage","standalone":false,"minimum_purchase_amount":"18.00","maximum_reward_amount":null,"campaign":null,"categories":[],"purchases":null,"start_date":"2021-11-29","finish_date":null,"start_time":"12:30:00","finish_time":"17:00:00","budget":"300.00","instant":false,"offline":true,"online":false,"weekdays":[1,2,3,4],"status":"active","available_percentage":1,"available_rewards":null,"points_of_sale":[619,618,617,516,515,514,513,512,511,510],"created":"2021-11-29T13:04:00.741378Z","access_link":null,"last_reward":null,"applicable":false,"is_used":false}]}