{
	"count": 295,
	"next": "https://backend.dev.woowbe.com/api/v1/offers/public/?page=14",
	"previous": "https://backend.dev.woowbe.com/api/v1/offers/public/?page=12",
	"results": [
		{
			"id": 251,
			"business": {
				"id": 30,
				"name": "Empanadas Malvon",
				"square_picture": "https://woowbe-dev.s3.amazonaws.com/media/pictures/square_picture_GeCFiw9.jpg",
				"widescreen_picture": "https://woowbe-dev.s3.amazonaws.com/media/pictures/1624001112.jpeg",
				"cover": "https://woowbe-dev.s3.amazonaws.com/media/covers/cover_Xt19oj5.jpg",
				"offers_count": 1,
				"return_period": 0
			},
			"name": "Sellos malvon",
			"kind": "C",
			"reward": "6.00",
			"reward_type": "fixed",
			"standalone": false,
			"minimum_purchase_amount": "20.00",
			"maximum_reward_amount": null,
			"campaign": null,
			"categories": [],
			"purchases": 8,
			"start_date": "2022-02-23",
			"finish_date": "2022-05-23",
			"start_time": "13:30:00",
			"finish_time": "17:00:00",
			"budget": "0.00",
			"instant": false,
			"offline": true,
			"online": false,
			"weekdays": [
				1,
				2,
				3,
				7
			],
			"status": "finished",
			"available_percentage": 0,
			"available_rewards": 0,
			"points_of_sale": [
				87,
				85,
				84
			],
			"created": "2022-02-23T15:40:47.947900Z",
			"access_link": null,
			"last_reward": null,
			"applicable": false,
			"is_used": false
		},
		{
			"id": 316,
			"business": {
				"id": 198,
				"name": "inigotest10",
				"square_picture": "https://woowbe-dev.s3.amazonaws.com/media/pictures/square_picture_1UCivDt.jpg",
				"widescreen_picture": "https://woowbe-dev.s3.amazonaws.com/media/pictures/widescreen_picture_hUT0VnC.jpg",
				"cover": "https://woowbe-dev.s3.amazonaws.com/media/covers/cover_k7ZkeQ7.jpg",
				"offers_count": 0,
				"return_period": 0
			},
			"name": "test",
			"kind": "C",
			"reward": "6.00",
			"reward_type": "fixed",
			"standalone": true,
			"minimum_purchase_amount": "3.00",
			"maximum_reward_amount": null,
			"campaign": null,
			"categories": [],
			"purchases": 10,
			"start_date": "2022-09-12",
			"finish_date": "2022-11-12",
			"start_time": null,
			"finish_time": null,
			"budget": "0.00",
			"instant": false,
			"offline": true,
			"online": false,
			"weekdays": [
				1,
				3,
				5
			],
			"status": "finished",
			"available_percentage": 0,
			"available_rewards": 0,
			"points_of_sale": [
				696
			],
			"created": "2022-09-12T15:45:43.917444Z",
			"access_link": null,
			"last_reward": null,
			"applicable": false,
			"is_used": false
		},
		{
			"id": 379,
			"business": {
				"id": 260,
				"name": "Prueba devolucion presupuesto",
				"square_picture": "https://woowbe-dev.s3.amazonaws.com/media/pictures/square_picture_wGfyXAX.jpg",
				"widescreen_picture": "https://woowbe-dev.s3.amazonaws.com/media/pictures/1673614842.jpeg",
				"cover": "https://woowbe-dev.s3.amazonaws.com/media/covers/cover_H4n5vL4.jpg",
				"offers_count": 0,
				"return_period": 3
			},
			"name": "devolucion 3 test",
			"kind": "C",
			"reward": "6.00",
			"reward_type": "fixed",
			"standalone": false,
			"minimum_purchase_amount": null,
			"maximum_reward_amount": null,
			"campaign": null,
			"categories": [],
			"purchases": 6,
			"start_date": "2023-01-17",
			"finish_date": "2023-01-17",
			"start_time": null,
			"finish_time": null,
			"budget": "6.00",
			"instant": false,
			"offline": true,
			"online": false,
			"weekdays": [
				1,
				2,
				3,
				4,
				5,
				6,
				7
			],
			"status": "finished",
			"available_percentage": 1,
			"available_rewards": 1,
			"points_of_sale": [
				776
			],
			"created": "2023-01-17T14:29:13.092793Z",
			"access_link": null,
			"last_reward": null,
			"applicable": false,
			"is_used": false
		},
		{
			"id": 378,
			"business": {
				"id": 260,
				"name": "Prueba devolucion presupuesto",
				"square_picture": "https://woowbe-dev.s3.amazonaws.com/media/pictures/square_picture_wGfyXAX.jpg",
				"widescreen_picture": "https://woowbe-dev.s3.amazonaws.com/media/pictures/1673614842.jpeg",
				"cover": "https://woowbe-dev.s3.amazonaws.com/media/covers/cover_H4n5vL4.jpg",
				"offers_count": 0,
				"return_period": 3
			},
			"name": "devolucion 2 intento 2",
			"kind": "C",
			"reward": "6.00",
			"reward_type": "fixed",
			"standalone": false,
			"minimum_purchase_amount": null,
			"maximum_reward_amount": null,
			"campaign": null,
			"categories": [],
			"purchases": 6,
			"start_date": "2023-01-16",
			"finish_date": "2023-01-16",
			"start_time": null,
			"finish_time": null,
			"budget": "6.00",
			"instant": false,
			"offline": true,
			"online": false,
			"weekdays": [
				1,
				2,
				3,
				4,
				5,
				6,
				7
			],
			"status": "finished",
			"available_percentage": 1,
			"available_rewards": 1,
			"points_of_sale": [
				776
			],
			"created": "2023-01-17T14:05:08.435087Z",
			"access_link": null,
			"last_reward": null,
			"applicable": false,
			"is_used": false
		},
		{
			"id": 242,
			"business": {
				"id": 130,
				"name": "La Mafia",
				"square_picture": "https://woowbe-dev.s3.amazonaws.com/media/pictures/la-mafia-logo-1-1.png",
				"widescreen_picture": "https://woowbe-dev.s3.amazonaws.com/media/pictures/1638196750.png",
				"cover": "https://woowbe-dev.s3.amazonaws.com/media/covers/la-mafia-portada.jpeg",
				"offers_count": 1,
				"return_period": 0
			},
			"name": "La Mafia 6%",
			"kind": "A",
			"reward": "6.00",
			"reward_type": "percentage",
			"standalone": false,
			"minimum_purchase_amount": "25.00",
			"maximum_reward_amount": null,
			"campaign": null,
			"categories": [],
			"purchases": null,
			"start_date": "2021-11-29",
			"finish_date": null,
			"start_time": null,
			"finish_time": null,
			"budget": "300.00",
			"instant": false,
			"offline": true,
			"online": false,
			"weekdays": [
				1,
				2,
				3,
				4
			],
			"status": "active",
			"available_percentage": 1,
			"available_rewards": null,
			"points_of_sale": [
				634,
				633,
				632,
				553,
				552,
				551
			],
			"created": "2021-11-29T14:43:12.665292Z",
			"access_link": null,
			"last_reward": null,
			"applicable": false,
			"is_used": false
		},
		{
			"id": 511,
			"business": {
				"id": 143,
				"name": "Test App",
				"square_picture": "https://woowbe-dev.s3.amazonaws.com/media/pictures/1667494635.jpeg",
				"widescreen_picture": "https://woowbe-dev.s3.amazonaws.com/media/pictures/widescreen_picture_ZiLjO4p.jpg",
				"cover": "https://woowbe-dev.s3.amazonaws.com/media/covers/cover_kvUvSKN.jpg",
				"offers_count": 16,
				"return_period": 0
			},
			"name": "Oferta",
			"kind": "C",
			"reward": "6.00",
			"reward_type": "fixed",
			"standalone": false,
			"minimum_purchase_amount": null,
			"maximum_reward_amount": null,
			"campaign": null,
			"categories": [],
			"purchases": 6,
			"start_date": "2023-03-07",
			"finish_date": "2023-07-07",
			"start_time": null,
			"finish_time": null,
			"budget": "0.00",
			"instant": false,
			"offline": true,
			"online": false,
			"weekdays": [
				1,
				2,
				4
			],
			"status": "finished",
			"available_percentage": 0,
			"available_rewards": 0,
			"points_of_sale": [],
			"created": "2023-03-07T15:09:09.103758Z",
			"access_link": null,
			"last_reward": null,
			"applicable": false,
			"is_used": false
		},
		{
			"id": 353,
			"business": {
				"id": 251,
				"name": "Starbucks",
				"square_picture": "https://woowbe-dev.s3.amazonaws.com/media/pictures/square_picture_ZWnzePl.jpg",
				"widescreen_picture": "https://woowbe-dev.s3.amazonaws.com/media/pictures/1669300395.jpeg",
				"cover": "https://woowbe-dev.s3.amazonaws.com/media/covers/cover_W8n00mn.jpg",
				"offers_count": 0,
				"return_period": 0
			},
			"name": "Tazas",
			"kind": "B",
			"reward": "5.00",
			"reward_type": "fixed",
			"standalone": true,
			"minimum_purchase_amount": "20.00",
			"maximum_reward_amount": null,
			"campaign": null,
			"categories": [],
			"purchases": null,
			"start_date": "2022-11-24",
			"finish_date": "2023-02-24",
			"start_time": null,
			"finish_time": null,
			"budget": "0.00",
			"instant": false,
			"offline": true,
			"online": false,
			"weekdays": [
				1,
				2,
				3,
				4,
				5,
				6,
				7
			],
			"status": "finished",
			"available_percentage": 0,
			"available_rewards": 0,
			"points_of_sale": [
				742,
				741,
				740,
				739,
				738
			],
			"created": "2022-11-24T14:57:08.949469Z",
			"access_link": null,
			"last_reward": null,
			"applicable": false,
			"is_used": false
		},
		{
			"id": 362,
			"business": {
				"id": 254,
				"name": "prueba FRANQUICIAS MARCA iñigo",
				"square_picture": "https://woowbe-dev.s3.amazonaws.com/media/pictures/square_picture_re1giyA.jpg",
				"widescreen_picture": "https://woowbe-dev.s3.amazonaws.com/media/pictures/1671614454.jpeg",
				"cover": "https://woowbe-dev.s3.amazonaws.com/media/covers/cover_YpmEHUW.jpg",
				"offers_count": 0,
				"return_period": 12
			},
			"name": "iñigo test franquicias",
			"kind": "A",
			"reward": "5.00",
			"reward_type": "percentage",
			"standalone": false,
			"minimum_purchase_amount": "30.00",
			"maximum_reward_amount": "3.00",
			"campaign": null,
			"categories": [],
			"purchases": null,
			"start_date": "2022-12-21",
			"finish_date": "2023-06-23",
			"start_time": null,
			"finish_time": null,
			"budget": "0.00",
			"instant": false,
			"offline": true,
			"online": false,
			"weekdays": [
				1,
				2,
				3,
				4,
				5,
				6,
				7
			],
			"status": "finished",
			"available_percentage": 0,
			"available_rewards": null,
			"points_of_sale": [
				760,
				759
			],
			"created": "2022-12-21T09:43:59.099672Z",
			"access_link": null,
			"last_reward": null,
			"applicable": false,
			"is_used": false
		},
		{
			"id": 394,
			"business": {
				"id": 243,
				"name": "Negocio Facturacion",
				"square_picture": "https://woowbe-dev.s3.amazonaws.com/media/pictures/1676631813.jpeg",
				"widescreen_picture": "https://woowbe-dev.s3.amazonaws.com/media/pictures/1666952262_2VZ6Qea.jpeg",
				"cover": "https://woowbe-dev.s3.amazonaws.com/media/covers/cover_PjPUN60.jpg",
				"offers_count": 0,
				"return_period": 0
			},
			"name": "test 2",
			"kind": "A",
			"reward": "5.00",
			"reward_type": "percentage",
			"standalone": false,
			"minimum_purchase_amount": null,
			"maximum_reward_amount": null,
			"campaign": null,
			"categories": [],
			"purchases": null,
			"start_date": "2023-01-31",
			"finish_date": "2023-03-31",
			"start_time": null,
			"finish_time": null,
			"budget": "0.00",
			"instant": false,
			"offline": true,
			"online": false,
			"weekdays": [
				2
			],
			"status": "finished",
			"available_percentage": 0,
			"available_rewards": null,
			"points_of_sale": [
				786
			],
			"created": "2023-01-31T13:46:23.514216Z",
			"access_link": null,
			"last_reward": null,
			"applicable": false,
			"is_used": false
		},
		{
			"id": 271,
			"business": {
				"id": 170,
				"name": "cafeteria de la reina",
				"square_picture": "https://woowbe-dev.s3.amazonaws.com/media/pictures/square_picture_GEd8GVF.jpg",
				"widescreen_picture": "https://woowbe-dev.s3.amazonaws.com/media/pictures/1655705897.jpeg",
				"cover": "https://woowbe-dev.s3.amazonaws.com/media/covers/cover_ltj2AO6.jpg",
				"offers_count": 0,
				"return_period": 0
			},
			"name": "oferta de verano",
			"kind": "A",
			"reward": "5.00",
			"reward_type": "percentage",
			"standalone": false,
			"minimum_purchase_amount": "12.00",
			"maximum_reward_amount": "5.00",
			"campaign": null,
			"categories": [],
			"purchases": null,
			"start_date": "2022-06-20",
			"finish_date": "2022-07-20",
			"start_time": "06:00:00",
			"finish_time": "12:00:00",
			"budget": "0.00",
			"instant": false,
			"offline": true,
			"online": false,
			"weekdays": [
				1,
				2,
				3,
				4
			],
			"status": "finished",
			"available_percentage": 0,
			"available_rewards": null,
			"points_of_sale": [
				646
			],
			"created": "2022-06-20T06:25:16.790878Z",
			"access_link": null,
			"last_reward": null,
			"applicable": false,
			"is_used": false
		}
	]
}
