{
	"count": 295,
	"next": "https://backend.dev.woowbe.com/api/v1/offers/public/?page=15",
	"previous": "https://backend.dev.woowbe.com/api/v1/offers/public/?page=13",
	"results": [
		{
			"id": 336,
			"business": {
				"id": 245,
				"name": "dale´s test",
				"square_picture": "https://woowbe-dev.s3.amazonaws.com/media/pictures/1667833547.jpeg",
				"widescreen_picture": "https://woowbe-dev.s3.amazonaws.com/media/pictures/1667833548.jpeg",
				"cover": "https://woowbe-dev.s3.amazonaws.com/media/covers/cover_w6x6uEg.jpg",
				"offers_count": 0,
				"return_period": 0
			},
			"name": "dale test",
			"kind": "A",
			"reward": "5.00",
			"reward_type": "percentage",
			"standalone": false,
			"minimum_purchase_amount": "50.00",
			"maximum_reward_amount": null,
			"campaign": null,
			"categories": [],
			"purchases": null,
			"start_date": "2022-11-07",
			"finish_date": "2023-01-07",
			"start_time": null,
			"finish_time": null,
			"budget": "0.00",
			"instant": false,
			"offline": true,
			"online": false,
			"weekdays": [
				1,
				2,
				3,
				4,
				5
			],
			"status": "finished",
			"available_percentage": 0,
			"available_rewards": null,
			"points_of_sale": [
				725
			],
			"created": "2022-11-07T15:14:28.094769Z",
			"access_link": null,
			"last_reward": null,
			"applicable": false,
			"is_used": false
		},
		{
			"id": 27,
			"business": {
				"id": 30,
				"name": "Empanadas Malvon",
				"square_picture": "https://woowbe-dev.s3.amazonaws.com/media/pictures/square_picture_GeCFiw9.jpg",
				"widescreen_picture": "https://woowbe-dev.s3.amazonaws.com/media/pictures/1624001112.jpeg",
				"cover": "https://woowbe-dev.s3.amazonaws.com/media/covers/cover_Xt19oj5.jpg",
				"offers_count": 1,
				"return_period": 0
			},
			"name": "Empanadas malvon test",
			"kind": "A",
			"reward": "5.00",
			"reward_type": "percentage",
			"standalone": false,
			"minimum_purchase_amount": null,
			"maximum_reward_amount": null,
			"campaign": null,
			"categories": [],
			"purchases": null,
			"start_date": "2021-06-18",
			"finish_date": null,
			"start_time": null,
			"finish_time": null,
			"budget": "1000.00",
			"instant": true,
			"offline": true,
			"online": false,
			"weekdays": [],
			"status": "finished",
			"available_percentage": 1,
			"available_rewards": null,
			"points_of_sale": [
				87,
				85,
				84
			],
			"created": "2021-06-18T07:16:23.835342Z",
			"access_link": null,
			"last_reward": null,
			"applicable": false,
			"is_used": false
		},
		{
			"id": 413,
			"business": {
				"id": 236,
				"name": "Yogui QA",
				"square_picture": "https://woowbe-dev.s3.amazonaws.com/media/pictures/1676631810.jpeg",
				"widescreen_picture": "https://woowbe-dev.s3.amazonaws.com/media/pictures/1665492408_Z9SKuNG.jpeg",
				"cover": "https://woowbe-dev.s3.amazonaws.com/media/covers/cover_HYuhoAb.jpg",
				"offers_count": 1,
				"return_period": 0
			},
			"name": "programa fixed",
			"kind": "A",
			"reward": "5.00",
			"reward_type": "percentage",
			"standalone": false,
			"minimum_purchase_amount": null,
			"maximum_reward_amount": null,
			"campaign": null,
			"categories": [],
			"purchases": null,
			"start_date": "2023-02-09",
			"finish_date": "2023-02-23",
			"start_time": null,
			"finish_time": null,
			"budget": "0.00",
			"instant": false,
			"offline": true,
			"online": false,
			"weekdays": [
				1,
				2,
				3,
				4,
				5,
				6,
				7
			],
			"status": "finished",
			"available_percentage": 0,
			"available_rewards": null,
			"points_of_sale": [],
			"created": "2023-02-06T09:51:04.163526Z",
			"access_link": null,
			"last_reward": null,
			"applicable": false,
			"is_used": false
		},
		{
			"id": 495,
			"business": {
				"id": 143,
				"name": "Test App",
				"square_picture": "https://woowbe-dev.s3.amazonaws.com/media/pictures/1667494635.jpeg",
				"widescreen_picture": "https://woowbe-dev.s3.amazonaws.com/media/pictures/widescreen_picture_ZiLjO4p.jpg",
				"cover": "https://woowbe-dev.s3.amazonaws.com/media/covers/cover_kvUvSKN.jpg",
				"offers_count": 16,
				"return_period": 0
			},
			"name": "Solo FQ",
			"kind": "A",
			"reward": "5.00",
			"reward_type": "percentage",
			"standalone": false,
			"minimum_purchase_amount": null,
			"maximum_reward_amount": null,
			"campaign": null,
			"categories": [],
			"purchases": null,
			"start_date": "2023-02-28",
			"finish_date": "2023-04-28",
			"start_time": null,
			"finish_time": null,
			"budget": "0.00",
			"instant": false,
			"offline": true,
			"online": false,
			"weekdays": [
				1,
				2,
				3,
				4
			],
			"status": "finished",
			"available_percentage": 0,
			"available_rewards": null,
			"points_of_sale": [],
			"created": "2023-02-28T08:06:52.106163Z",
			"access_link": null,
			"last_reward": null,
			"applicable": false,
			"is_used": false
		},
		{
			"id": 404,
			"business": {
				"id": 236,
				"name": "Yogui QA",
				"square_picture": "https://woowbe-dev.s3.amazonaws.com/media/pictures/1676631810.jpeg",
				"widescreen_picture": "https://woowbe-dev.s3.amazonaws.com/media/pictures/1665492408_Z9SKuNG.jpeg",
				"cover": "https://woowbe-dev.s3.amazonaws.com/media/covers/cover_HYuhoAb.jpg",
				"offers_count": 1,
				"return_period": 0
			},
			"name": "programado",
			"kind": "A",
			"reward": "5.00",
			"reward_type": "percentage",
			"standalone": false,
			"minimum_purchase_amount": null,
			"maximum_reward_amount": null,
			"campaign": null,
			"categories": [],
			"purchases": null,
			"start_date": "2023-02-02",
			"finish_date": "2023-02-06",
			"start_time": null,
			"finish_time": null,
			"budget": "0.00",
			"instant": false,
			"offline": true,
			"online": false,
			"weekdays": [
				1,
				2,
				3,
				4,
				5,
				6,
				7
			],
			"status": "finished",
			"available_percentage": 0,
			"available_rewards": null,
			"points_of_sale": [],
			"created": "2023-02-02T14:06:16.991009Z",
			"access_link": null,
			"last_reward": null,
			"applicable": false,
			"is_used": false
		},
		{
			"id": 490,
			"business": {
				"id": 143,
				"name": "Test App",
				"square_picture": "https://woowbe-dev.s3.amazonaws.com/media/pictures/1667494635.jpeg",
				"widescreen_picture": "https://woowbe-dev.s3.amazonaws.com/media/pictures/widescreen_picture_ZiLjO4p.jpg",
				"cover": "https://woowbe-dev.s3.amazonaws.com/media/covers/cover_kvUvSKN.jpg",
				"offers_count": 16,
				"return_period": 0
			},
			"name": "Another",
			"kind": "A",
			"reward": "5.00",
			"reward_type": "percentage",
			"standalone": false,
			"minimum_purchase_amount": null,
			"maximum_reward_amount": null,
			"campaign": null,
			"categories": [],
			"purchases": null,
			"start_date": "2023-02-27",
			"finish_date": "2023-03-01",
			"start_time": null,
			"finish_time": null,
			"budget": "0.00",
			"instant": false,
			"offline": true,
			"online": false,
			"weekdays": [
				1,
				2,
				3
			],
			"status": "finished",
			"available_percentage": 0,
			"available_rewards": null,
			"points_of_sale": [],
			"created": "2023-02-27T16:23:48.939729Z",
			"access_link": null,
			"last_reward": null,
			"applicable": false,
			"is_used": false
		},
		{
			"id": 252,
			"business": {
				"id": 138,
				"name": "NewCOM Business",
				"square_picture": "https://woowbe-dev.s3.amazonaws.com/media/pictures/square_picture_ojLUO22.jpg",
				"widescreen_picture": "https://woowbe-dev.s3.amazonaws.com/media/pictures/1649862498.jpeg",
				"cover": "https://woowbe-dev.s3.amazonaws.com/media/covers/cover_BYp7Oqs.jpg",
				"offers_count": 0,
				"return_period": 0
			},
			"name": "first offer",
			"kind": "A",
			"reward": "5.00",
			"reward_type": "percentage",
			"standalone": true,
			"minimum_purchase_amount": "25.00",
			"maximum_reward_amount": "50.00",
			"campaign": {
				"id": 31,
				"name": "First Campaign"
			},
			"categories": [
				{
					"id": 34,
					"name": "Comida"
				}
			],
			"purchases": null,
			"start_date": "2022-04-28",
			"finish_date": "2022-05-27",
			"start_time": null,
			"finish_time": null,
			"budget": "0.00",
			"instant": false,
			"offline": true,
			"online": false,
			"weekdays": [
				1,
				2
			],
			"status": "finished",
			"available_percentage": 0,
			"available_rewards": null,
			"points_of_sale": [
				587
			],
			"created": "2022-04-26T13:40:09.610639Z",
			"access_link": null,
			"last_reward": null,
			"applicable": false,
			"is_used": false
		},
		{
			"id": 325,
			"business": {
				"id": 12,
				"name": "Scalpers",
				"square_picture": "https://woowbe-dev.s3.amazonaws.com/media/pictures/square_picture_z5KHodR.jpg",
				"widescreen_picture": "https://woowbe-dev.s3.amazonaws.com/media/pictures/1664288041.jpeg",
				"cover": "https://woowbe-dev.s3.amazonaws.com/media/covers/cover_71arDkc.jpg",
				"offers_count": 0,
				"return_period": 30
			},
			"name": "prueba automatica",
			"kind": "B",
			"reward": "5.00",
			"reward_type": "fixed",
			"standalone": false,
			"minimum_purchase_amount": null,
			"maximum_reward_amount": null,
			"campaign": null,
			"categories": [],
			"purchases": null,
			"start_date": "2022-10-03",
			"finish_date": "2023-04-03",
			"start_time": null,
			"finish_time": null,
			"budget": "0.00",
			"instant": false,
			"offline": true,
			"online": false,
			"weekdays": [
				6,
				7
			],
			"status": "finished",
			"available_percentage": 0,
			"available_rewards": 0,
			"points_of_sale": [
				714,
				713,
				712,
				711,
				710,
				704,
				703
			],
			"created": "2022-10-03T15:07:25.652969Z",
			"access_link": null,
			"last_reward": null,
			"applicable": false,
			"is_used": false
		},
		{
			"id": 491,
			"business": {
				"id": 143,
				"name": "Test App",
				"square_picture": "https://woowbe-dev.s3.amazonaws.com/media/pictures/1667494635.jpeg",
				"widescreen_picture": "https://woowbe-dev.s3.amazonaws.com/media/pictures/widescreen_picture_ZiLjO4p.jpg",
				"cover": "https://woowbe-dev.s3.amazonaws.com/media/covers/cover_kvUvSKN.jpg",
				"offers_count": 16,
				"return_period": 0
			},
			"name": "solo para FQ",
			"kind": "A",
			"reward": "5.00",
			"reward_type": "percentage",
			"standalone": false,
			"minimum_purchase_amount": null,
			"maximum_reward_amount": null,
			"campaign": null,
			"categories": [],
			"purchases": null,
			"start_date": "2023-02-27",
			"finish_date": "2023-04-27",
			"start_time": null,
			"finish_time": null,
			"budget": "0.00",
			"instant": false,
			"offline": true,
			"online": false,
			"weekdays": [
				2,
				4,
				7
			],
			"status": "finished",
			"available_percentage": 0,
			"available_rewards": null,
			"points_of_sale": [],
			"created": "2023-02-27T16:24:13.925906Z",
			"access_link": null,
			"last_reward": null,
			"applicable": false,
			"is_used": false
		},
		{
			"id": 322,
			"business": {
				"id": 225,
				"name": "Scalpers prueba 4",
				"square_picture": "https://woowbe-dev.s3.amazonaws.com/media/pictures/square_picture_z5KHodR.jpg",
				"widescreen_picture": "https://woowbe-dev.s3.amazonaws.com/media/pictures/1664288041.jpeg",
				"cover": "https://woowbe-dev.s3.amazonaws.com/media/covers/cover_71arDkc.jpg",
				"offers_count": 0,
				"return_period": 30
			},
			"name": "Prueba activación 2",
			"kind": "B",
			"reward": "5.00",
			"reward_type": "fixed",
			"standalone": false,
			"minimum_purchase_amount": null,
			"maximum_reward_amount": null,
			"campaign": null,
			"categories": [],
			"purchases": null,
			"start_date": "2022-10-03",
			"finish_date": "2023-04-03",
			"start_time": null,
			"finish_time": null,
			"budget": "0.00",
			"instant": false,
			"offline": true,
			"online": false,
			"weekdays": [
				1,
				2
			],
			"status": "finished",
			"available_percentage": 0,
			"available_rewards": 0,
			"points_of_sale": [
				712
			],
			"created": "2022-10-03T15:01:36.888721Z",
			"access_link": null,
			"last_reward": null,
			"applicable": false,
			"is_used": false
		}
	]
}
