{"count":295,"next":"https://backend.dev.woowbe.com/api/v1/offers/public/?page=16","previous":"https://backend.dev.woowbe.com/api/v1/offers/public/?page=14","results":[{"id":325,"business":{"id":12,"name":"Scalpers","square_picture":"https://woowbe-dev.s3.amazonaws.com/media/pictures/square_picture_z5KHodR.jpg","widescreen_picture":"https://woowbe-dev.s3.amazonaws.com/media/pictures/1664288041.jpeg","cover":"https://woowbe-dev.s3.amazonaws.com/media/covers/cover_71arDkc.jpg","offers_count":0,"return_period":30},"name":"prueba automatica","kind":"B","reward":"5.00","reward_type":"fixed","standalone":false,"minimum_purchase_amount":null,"maximum_reward_amount":null,"campaign":null,"categories":[],"purchases":null,"start_date":"2022-10-03","finish_date":"2023-04-03","start_time":null,"finish_time":null,"budget":"0.00","instant":false,"offline":true,"online":false,"weekdays":[6,7],"status":"finished","available_percentage":0,"available_rewards":0,"points_of_sale":[714,713,712,711,710,704,703],"created":"2022-10-03T15:07:25.652969Z","access_link":null,"last_reward":null,"applicable":false,"is_used":false},{"id":336,"business":{"id":245,"name":"dale´s test","square_picture":"https://woowbe-dev.s3.amazonaws.com/media/pictures/1667833547.jpeg","widescreen_picture":"https://woowbe-dev.s3.amazonaws.com/media/pictures/1667833548.jpeg","cover":"https://woowbe-dev.s3.amazonaws.com/media/covers/cover_w6x6uEg.jpg","offers_count":0,"return_period":0},"name":"dale test","kind":"A","reward":"5.00","reward_type":"percentage","standalone":false,"minimum_purchase_amount":"50.00","maximum_reward_amount":null,"campaign":null,"categories":[],"purchases":null,"start_date":"2022-11-07","finish_date":"2023-01-07","start_time":null,"finish_time":null,"budget":"0.00","instant":false,"offline":true,"online":false,"weekdays":[1,2,3,4,5],"status":"finished","available_percentage":0,"available_rewards":null,"points_of_sale":[725],"created":"2022-11-07T15:14:28.094769Z","access_link":null,"last_reward":null,"applicable":false,"is_used":false},{"id":353,"business":{"id":251,"name":"Starbucks","square_picture":"https://woowbe-dev.s3.amazonaws.com/media/pictures/square_picture_ZWnzePl.jpg","widescreen_picture":"https://woowbe-dev.s3.amazonaws.com/media/pictures/1669300395.jpeg","cover":"https://woowbe-dev.s3.amazonaws.com/media/covers/cover_W8n00mn.jpg","offers_count":0,"return_period":0},"name":"Tazas","kind":"B","reward":"5.00","reward_type":"fixed","standalone":true,"minimum_purchase_amount":"20.00","maximum_reward_amount":null,"campaign":null,"categories":[],"purchases":null,"start_date":"2022-11-24","finish_date":"2023-02-24","start_time":null,"finish_time":null,"budget":"0.00","instant":false,"offline":true,"online":false,"weekdays":[1,2,3,4,5,6,7],"status":"finished","available_percentage":0,"available_rewards":0,"points_of_sale":[742,741,740,739,738],"created":"2022-11-24T14:57:08.949469Z","access_link":null,"last_reward":null,"applicable":false,"is_used":false},{"id":356,"business":{"id":252,"name":"Cosméticos QA Franquiciado","square_picture":"https://woowbe-dev.s3.amazonaws.com/media/pictures/1669720371.jpeg","widescreen_picture":"https://woowbe-dev.s3.amazonaws.com/media/pictures/1669720371_Aga8oWX.jpeg","cover":"https://woowbe-dev.s3.amazonaws.com/media/covers/cover_PNbDalT.jpg","offers_count":0,"return_period":0},"name":"programado cosmetica","kind":"B","reward":"5.00","reward_type":"fixed","standalone":false,"minimum_purchase_amount":null,"maximum_reward_amount":null,"campaign":null,"categories":[],"purchases":null,"start_date":"2022-11-29","finish_date":"2023-01-29","start_time":null,"finish_time":null,"budget":"0.00","instant":false,"offline":true,"online":false,"weekdays":[1,2],"status":"finished","available_percentage":0,"available_rewards":0,"points_of_sale":[744,743],"created":"2022-11-29T11:32:24.356045Z","access_link":null,"last_reward":null,"applicable":false,"is_used":false},{"id":360,"business":{"id":252,"name":"Cosméticos QA Franquiciado","square_picture":"https://woowbe-dev.s3.amazonaws.com/media/pictures/1669720371.jpeg","widescreen_picture":"https://woowbe-dev.s3.amazonaws.com/media/pictures/1669720371_Aga8oWX.jpeg","cover":"https://woowbe-dev.s3.amazonaws.com/media/covers/cover_PNbDalT.jpg","offers_count":0,"return_period":0},"name":"solo franquicias automatico","kind":"B","reward":"5.00","reward_type":"fixed","standalone":false,"minimum_purchase_amount":null,"maximum_reward_amount":null,"campaign":null,"categories":[],"purchases":null,"start_date":"2022-12-20","finish_date":"2023-02-20","start_time":null,"finish_time":null,"budget":"0.00","instant":false,"offline":true,"online":false,"weekdays":[1,2,3,4,5,6,7],"status":"finished","available_percentage":0,"available_rewards":0,"points_of_sale":[758],"created":"2022-12-20T10:50:34.237171Z","access_link":null,"last_reward":null,"applicable":false,"is_used":false},{"id":362,"business":{"id":254,"name":"prueba FRANQUICIAS MARCA iñigo","square_picture":"https://woowbe-dev.s3.amazonaws.com/media/pictures/square_picture_re1giyA.jpg","widescreen_picture":"https://woowbe-dev.s3.amazonaws.com/media/pictures/1671614454.jpeg","cover":"https://woowbe-dev.s3.amazonaws.com/media/covers/cover_YpmEHUW.jpg","offers_count":0,"return_period":12},"name":"iñigo test franquicias","kind":"A","reward":"5.00","reward_type":"percentage","standalone":false,"minimum_purchase_amount":"30.00","maximum_reward_amount":"3.00","campaign":null,"categories":[],"purchases":null,"start_date":"2022-12-21","finish_date":"2023-06-23","start_time":null,"finish_time":null,"budget":"0.00","instant":false,"offline":true,"online":false,"weekdays":[1,2,3,4,5,6,7],"status":"finished","available_percentage":0,"available_rewards":null,"points_of_sale":[760,759],"created":"2022-12-21T09:43:59.099672Z","access_link":null,"last_reward":null,"applicable":false,"is_used":false},{"id":376,"business":{"id":143,"name":"Test App","square_picture":"https://woowbe-dev.s3.amazonaws.com/media/pictures/1667494635.jpeg","widescreen_picture":"https://woowbe-dev.s3.amazonaws.com/media/pictures/widescreen_picture_ZiLjO4p.jpg","cover":"https://woowbe-dev.s3.amazonaws.com/media/covers/cover_kvUvSKN.jpg","offers_count":16,"return_period":0},"name":"Ejemplo de programa","kind":"A","reward":"5.00","reward_type":"percentage","standalone":false,"minimum_purchase_amount":null,"maximum_reward_amount":null,"campaign":null,"categories":[],"purchases":null,"start_date":"2023-01-17","finish_date":"2023-01-17","start_time":null,"finish_time":null,"budget":"0.00","instant":false,"offline":true,"online":false,"weekdays":[2,3],"status":"finished","available_percentage":0,"available_rewards":null,"points_of_sale":[],"created":"2023-01-17T13:04:19.081571Z","access_link":null,"last_reward":null,"applicable":false,"is_used":false},{"id":389,"business":{"id":89,"name":"Aloha Poke","square_picture":"https://woowbe-dev.s3.amazonaws.com/media/pictures/aloha-poke-logo-1-1.png","widescreen_picture":"https://woowbe-dev.s3.amazonaws.com/media/pictures/1634827016.jpeg","cover":"https://woowbe-dev.s3.amazonaws.com/media/covers/cover_0XysFRk.jpg","offers_count":4,"return_period":0},"name":"Prueba","kind":"C","reward":"5.00","reward_type":"fixed","standalone":false,"minimum_purchase_amount":"12.00","maximum_reward_amount":null,"campaign":null,"categories":[],"purchases":6,"start_date":"2023-01-26","finish_date":"2023-04-26","start_time":null,"finish_time":null,"budget":"0.00","instant":false,"offline":true,"online":false,"weekdays":[1,2,3,4,5],"status":"finished","available_percentage":0,"available_rewards":0,"points_of_sale":[764],"created":"2023-01-26T09:51:02.435247Z","access_link":null,"last_reward":null,"applicable":false,"is_used":false},{"id":393,"business":{"id":243,"name":"Negocio Facturacion","square_picture":"https://woowbe-dev.s3.amazonaws.com/media/pictures/1676631813.jpeg","widescreen_picture":"https://woowbe-dev.s3.amazonaws.com/media/pictures/1666952262_2VZ6Qea.jpeg","cover":"https://woowbe-dev.s3.amazonaws.com/media/covers/cover_PjPUN60.jpg","offers_count":0,"return_period":0},"name":"TEST","kind":"A","reward":"5.00","reward_type":"percentage","standalone":false,"minimum_purchase_amount":null,"maximum_reward_amount":null,"campaign":null,"categories":[],"purchases":null,"start_date":"2023-01-31","finish_date":"2023-03-31","start_time":null,"finish_time":null,"budget":"0.00","instant":false,"offline":true,"online":false,"weekdays":[1],"status":"finished","available_percentage":0,"available_rewards":null,"points_of_sale":[789,786],"created":"2023-01-31T13:45:44.501151Z","access_link":null,"last_reward":null,"applicable":false,"is_used":false},{"id":394,"business":{"id":243,"name":"Negocio Facturacion","square_picture":"https://woowbe-dev.s3.amazonaws.com/media/pictures/1676631813.jpeg","widescreen_picture":"https://woowbe-dev.s3.amazonaws.com/media/pictures/1666952262_2VZ6Qea.jpeg","cover":"https://woowbe-dev.s3.amazonaws.com/media/covers/cover_PjPUN60.jpg","offers_count":0,"return_period":0},"name":"test 2","kind":"A","reward":"5.00","reward_type":"percentage","standalone":false,"minimum_purchase_amount":null,"maximum_reward_amount":null,"campaign":null,"categories":[],"purchases":null,"start_date":"2023-01-31","finish_date":"2023-03-31","start_time":null,"finish_time":null,"budget":"0.00","instant":false,"offline":true,"online":false,"weekdays":[2],"status":"finished","available_percentage":0,"available_rewards":null,"points_of_sale":[786],"created":"2023-01-31T13:46:23.514216Z","access_link":null,"last_reward":null,"applicable":false,"is_used":false}]}