{
	"count": 295,
	"next": "https://backend.dev.woowbe.com/api/v1/offers/public/?page=18",
	"previous": "https://backend.dev.woowbe.com/api/v1/offers/public/?page=16",
	"results": [
		{
			"id": 491,
			"business": {
				"id": 143,
				"name": "Test App",
				"square_picture": "https://woowbe-dev.s3.amazonaws.com/media/pictures/1667494635.jpeg",
				"widescreen_picture": "https://woowbe-dev.s3.amazonaws.com/media/pictures/widescreen_picture_ZiLjO4p.jpg",
				"cover": "https://woowbe-dev.s3.amazonaws.com/media/covers/cover_kvUvSKN.jpg",
				"offers_count": 16,
				"return_period": 0
			},
			"name": "solo para FQ",
			"kind": "A",
			"reward": "5.00",
			"reward_type": "percentage",
			"standalone": false,
			"minimum_purchase_amount": null,
			"maximum_reward_amount": null,
			"campaign": null,
			"categories": [],
			"purchases": null,
			"start_date": "2023-02-27",
			"finish_date": "2023-04-27",
			"start_time": null,
			"finish_time": null,
			"budget": "0.00",
			"instant": false,
			"offline": true,
			"online": false,
			"weekdays": [
				2,
				4,
				7
			],
			"status": "finished",
			"available_percentage": 0,
			"available_rewards": null,
			"points_of_sale": [],
			"created": "2023-02-27T16:24:13.925906Z",
			"access_link": null,
			"last_reward": null,
			"applicable": false,
			"is_used": false
		},
		{
			"id": 492,
			"business": {
				"id": 143,
				"name": "Test App",
				"square_picture": "https://woowbe-dev.s3.amazonaws.com/media/pictures/1667494635.jpeg",
				"widescreen_picture": "https://woowbe-dev.s3.amazonaws.com/media/pictures/widescreen_picture_ZiLjO4p.jpg",
				"cover": "https://woowbe-dev.s3.amazonaws.com/media/covers/cover_kvUvSKN.jpg",
				"offers_count": 16,
				"return_period": 0
			},
			"name": "FQ",
			"kind": "A",
			"reward": "5.00",
			"reward_type": "percentage",
			"standalone": false,
			"minimum_purchase_amount": null,
			"maximum_reward_amount": null,
			"campaign": null,
			"categories": [],
			"purchases": null,
			"start_date": "2023-02-27",
			"finish_date": "2023-03-27",
			"start_time": null,
			"finish_time": null,
			"budget": "0.00",
			"instant": false,
			"offline": true,
			"online": false,
			"weekdays": [
				2,
				3
			],
			"status": "finished",
			"available_percentage": 0,
			"available_rewards": null,
			"points_of_sale": [],
			"created": "2023-02-27T16:31:26.952742Z",
			"access_link": null,
			"last_reward": null,
			"applicable": false,
			"is_used": false
		},
		{
			"id": 495,
			"business": {
				"id": 143,
				"name": "Test App",
				"square_picture": "https://woowbe-dev.s3.amazonaws.com/media/pictures/1667494635.jpeg",
				"widescreen_picture": "https://woowbe-dev.s3.amazonaws.com/media/pictures/widescreen_picture_ZiLjO4p.jpg",
				"cover": "https://woowbe-dev.s3.amazonaws.com/media/covers/cover_kvUvSKN.jpg",
				"offers_count": 16,
				"return_period": 0
			},
			"name": "Solo FQ",
			"kind": "A",
			"reward": "5.00",
			"reward_type": "percentage",
			"standalone": false,
			"minimum_purchase_amount": null,
			"maximum_reward_amount": null,
			"campaign": null,
			"categories": [],
			"purchases": null,
			"start_date": "2023-02-28",
			"finish_date": "2023-04-28",
			"start_time": null,
			"finish_time": null,
			"budget": "0.00",
			"instant": false,
			"offline": true,
			"online": false,
			"weekdays": [
				1,
				2,
				3,
				4
			],
			"status": "finished",
			"available_percentage": 0,
			"available_rewards": null,
			"points_of_sale": [],
			"created": "2023-02-28T08:06:52.106163Z",
			"access_link": null,
			"last_reward": null,
			"applicable": false,
			"is_used": false
		},
		{
			"id": 497,
			"business": {
				"id": 260,
				"name": "Prueba devolucion presupuesto",
				"square_picture": "https://woowbe-dev.s3.amazonaws.com/media/pictures/square_picture_wGfyXAX.jpg",
				"widescreen_picture": "https://woowbe-dev.s3.amazonaws.com/media/pictures/1673614842.jpeg",
				"cover": "https://woowbe-dev.s3.amazonaws.com/media/covers/cover_H4n5vL4.jpg",
				"offers_count": 0,
				"return_period": 3
			},
			"name": "cierre manual devolucion",
			"kind": "A",
			"reward": "5.00",
			"reward_type": "percentage",
			"standalone": false,
			"minimum_purchase_amount": null,
			"maximum_reward_amount": null,
			"campaign": null,
			"categories": [],
			"purchases": null,
			"start_date": "2023-02-28",
			"finish_date": "2023-02-28",
			"start_time": null,
			"finish_time": null,
			"budget": "0.00",
			"instant": false,
			"offline": true,
			"online": false,
			"weekdays": [
				1,
				2,
				3,
				4,
				5,
				6,
				7
			],
			"status": "finished",
			"available_percentage": 0,
			"available_rewards": null,
			"points_of_sale": [
				850
			],
			"created": "2023-02-28T14:40:09.417746Z",
			"access_link": null,
			"last_reward": null,
			"applicable": false,
			"is_used": false
		},
		{
			"id": 501,
			"business": {
				"id": 260,
				"name": "Prueba devolucion presupuesto",
				"square_picture": "https://woowbe-dev.s3.amazonaws.com/media/pictures/square_picture_wGfyXAX.jpg",
				"widescreen_picture": "https://woowbe-dev.s3.amazonaws.com/media/pictures/1673614842.jpeg",
				"cover": "https://woowbe-dev.s3.amazonaws.com/media/covers/cover_H4n5vL4.jpg",
				"offers_count": 0,
				"return_period": 3
			},
			"name": "alerta fecha fin",
			"kind": "A",
			"reward": "5.00",
			"reward_type": "percentage",
			"standalone": false,
			"minimum_purchase_amount": null,
			"maximum_reward_amount": null,
			"campaign": null,
			"categories": [],
			"purchases": null,
			"start_date": "2023-03-02",
			"finish_date": "2023-03-02",
			"start_time": null,
			"finish_time": null,
			"budget": "0.00",
			"instant": false,
			"offline": true,
			"online": false,
			"weekdays": [
				1,
				2,
				3,
				4,
				5,
				6,
				7
			],
			"status": "finished",
			"available_percentage": 0,
			"available_rewards": null,
			"points_of_sale": [],
			"created": "2023-03-03T11:42:53.027142Z",
			"access_link": null,
			"last_reward": null,
			"applicable": false,
			"is_used": false
		},
		{
			"id": 502,
			"business": {
				"id": 260,
				"name": "Prueba devolucion presupuesto",
				"square_picture": "https://woowbe-dev.s3.amazonaws.com/media/pictures/square_picture_wGfyXAX.jpg",
				"widescreen_picture": "https://woowbe-dev.s3.amazonaws.com/media/pictures/1673614842.jpeg",
				"cover": "https://woowbe-dev.s3.amazonaws.com/media/covers/cover_H4n5vL4.jpg",
				"offers_count": 0,
				"return_period": 3
			},
			"name": "fecha fin con actividad",
			"kind": "A",
			"reward": "5.00",
			"reward_type": "percentage",
			"standalone": false,
			"minimum_purchase_amount": null,
			"maximum_reward_amount": null,
			"campaign": null,
			"categories": [],
			"purchases": null,
			"start_date": "2023-03-02",
			"finish_date": "2023-03-02",
			"start_time": null,
			"finish_time": null,
			"budget": "0.05",
			"instant": false,
			"offline": true,
			"online": false,
			"weekdays": [
				1,
				2,
				3,
				4,
				5,
				6,
				7
			],
			"status": "finished",
			"available_percentage": 0,
			"available_rewards": null,
			"points_of_sale": [],
			"created": "2023-03-03T11:46:39.513652Z",
			"access_link": null,
			"last_reward": null,
			"applicable": false,
			"is_used": false
		},
		{
			"id": 504,
			"business": {
				"id": 143,
				"name": "Test App",
				"square_picture": "https://woowbe-dev.s3.amazonaws.com/media/pictures/1667494635.jpeg",
				"widescreen_picture": "https://woowbe-dev.s3.amazonaws.com/media/pictures/widescreen_picture_ZiLjO4p.jpg",
				"cover": "https://woowbe-dev.s3.amazonaws.com/media/covers/cover_kvUvSKN.jpg",
				"offers_count": 16,
				"return_period": 0
			},
			"name": "FQ FQ FQ",
			"kind": "A",
			"reward": "5.00",
			"reward_type": "percentage",
			"standalone": false,
			"minimum_purchase_amount": null,
			"maximum_reward_amount": null,
			"campaign": null,
			"categories": [],
			"purchases": null,
			"start_date": "2023-03-03",
			"finish_date": "2023-03-03",
			"start_time": null,
			"finish_time": null,
			"budget": "0.00",
			"instant": false,
			"offline": true,
			"online": false,
			"weekdays": [
				2,
				3
			],
			"status": "finished",
			"available_percentage": 0,
			"available_rewards": null,
			"points_of_sale": [],
			"created": "2023-03-03T12:27:56.510753Z",
			"access_link": null,
			"last_reward": null,
			"applicable": false,
			"is_used": false
		},
		{
			"id": 505,
			"business": {
				"id": 143,
				"name": "Test App",
				"square_picture": "https://woowbe-dev.s3.amazonaws.com/media/pictures/1667494635.jpeg",
				"widescreen_picture": "https://woowbe-dev.s3.amazonaws.com/media/pictures/widescreen_picture_ZiLjO4p.jpg",
				"cover": "https://woowbe-dev.s3.amazonaws.com/media/covers/cover_kvUvSKN.jpg",
				"offers_count": 16,
				"return_period": 0
			},
			"name": "FQ VALENCIA 12",
			"kind": "A",
			"reward": "5.00",
			"reward_type": "percentage",
			"standalone": false,
			"minimum_purchase_amount": null,
			"maximum_reward_amount": null,
			"campaign": null,
			"categories": [],
			"purchases": null,
			"start_date": "2023-03-03",
			"finish_date": "2023-06-03",
			"start_time": null,
			"finish_time": null,
			"budget": "0.00",
			"instant": false,
			"offline": true,
			"online": false,
			"weekdays": [
				1,
				2,
				3
			],
			"status": "finished",
			"available_percentage": 0,
			"available_rewards": null,
			"points_of_sale": [],
			"created": "2023-03-03T12:30:54.297502Z",
			"access_link": null,
			"last_reward": null,
			"applicable": false,
			"is_used": false
		},
		{
			"id": 506,
			"business": {
				"id": 260,
				"name": "Prueba devolucion presupuesto",
				"square_picture": "https://woowbe-dev.s3.amazonaws.com/media/pictures/square_picture_wGfyXAX.jpg",
				"widescreen_picture": "https://woowbe-dev.s3.amazonaws.com/media/pictures/1673614842.jpeg",
				"cover": "https://woowbe-dev.s3.amazonaws.com/media/covers/cover_H4n5vL4.jpg",
				"offers_count": 0,
				"return_period": 3
			},
			"name": "alerta eliminar punto de venta",
			"kind": "A",
			"reward": "5.00",
			"reward_type": "percentage",
			"standalone": false,
			"minimum_purchase_amount": null,
			"maximum_reward_amount": null,
			"campaign": null,
			"categories": [],
			"purchases": null,
			"start_date": "2023-03-06",
			"finish_date": "2023-03-31",
			"start_time": null,
			"finish_time": null,
			"budget": "0.00",
			"instant": false,
			"offline": true,
			"online": false,
			"weekdays": [
				1,
				2,
				3,
				4,
				5,
				6,
				7
			],
			"status": "finished",
			"available_percentage": 0,
			"available_rewards": null,
			"points_of_sale": [],
			"created": "2023-03-06T11:14:32.112199Z",
			"access_link": null,
			"last_reward": null,
			"applicable": false,
			"is_used": false
		},
		{
			"id": 507,
			"business": {
				"id": 260,
				"name": "Prueba devolucion presupuesto",
				"square_picture": "https://woowbe-dev.s3.amazonaws.com/media/pictures/square_picture_wGfyXAX.jpg",
				"widescreen_picture": "https://woowbe-dev.s3.amazonaws.com/media/pictures/1673614842.jpeg",
				"cover": "https://woowbe-dev.s3.amazonaws.com/media/covers/cover_H4n5vL4.jpg",
				"offers_count": 0,
				"return_period": 3
			},
			"name": "alerta eliminar con actividad",
			"kind": "A",
			"reward": "5.00",
			"reward_type": "percentage",
			"standalone": false,
			"minimum_purchase_amount": null,
			"maximum_reward_amount": null,
			"campaign": null,
			"categories": [],
			"purchases": null,
			"start_date": "2023-03-07",
			"finish_date": "2023-03-31",
			"start_time": null,
			"finish_time": null,
			"budget": "0.05",
			"instant": false,
			"offline": true,
			"online": false,
			"weekdays": [
				1,
				2,
				3,
				4,
				5,
				6,
				7
			],
			"status": "finished",
			"available_percentage": 0,
			"available_rewards": null,
			"points_of_sale": [],
			"created": "2023-03-07T13:43:49.847594Z",
			"access_link": null,
			"last_reward": null,
			"applicable": false,
			"is_used": false
		}
	]
}
