{
	"count": 295,
	"next": "https://backend.dev.woowbe.com/api/v1/offers/public/?page=20",
	"previous": "https://backend.dev.woowbe.com/api/v1/offers/public/?page=18",
	"results": [
		{
			"id": 534,
			"business": {
				"id": 236,
				"name": "Yogui QA",
				"square_picture": "https://woowbe-dev.s3.amazonaws.com/media/pictures/1676631810.jpeg",
				"widescreen_picture": "https://woowbe-dev.s3.amazonaws.com/media/pictures/1665492408_Z9SKuNG.jpeg",
				"cover": "https://woowbe-dev.s3.amazonaws.com/media/covers/cover_HYuhoAb.jpg",
				"offers_count": 1,
				"return_period": 0
			},
			"name": "programado",
			"kind": "A",
			"reward": "5.00",
			"reward_type": "percentage",
			"standalone": false,
			"minimum_purchase_amount": null,
			"maximum_reward_amount": null,
			"campaign": null,
			"categories": [],
			"purchases": null,
			"start_date": "2023-03-24",
			"finish_date": "2023-03-31",
			"start_time": null,
			"finish_time": null,
			"budget": "0.00",
			"instant": false,
			"offline": true,
			"online": false,
			"weekdays": [
				4,
				3
			],
			"status": "finished",
			"available_percentage": 0,
			"available_rewards": null,
			"points_of_sale": [
				888
			],
			"created": "2023-03-21T14:04:53.286020Z",
			"access_link": null,
			"last_reward": null,
			"applicable": false,
			"is_used": false
		},
		{
			"id": 536,
			"business": {
				"id": 236,
				"name": "Yogui QA",
				"square_picture": "https://woowbe-dev.s3.amazonaws.com/media/pictures/1676631810.jpeg",
				"widescreen_picture": "https://woowbe-dev.s3.amazonaws.com/media/pictures/1665492408_Z9SKuNG.jpeg",
				"cover": "https://woowbe-dev.s3.amazonaws.com/media/covers/cover_HYuhoAb.jpg",
				"offers_count": 1,
				"return_period": 0
			},
			"name": "automatico email",
			"kind": "A",
			"reward": "5.00",
			"reward_type": "percentage",
			"standalone": false,
			"minimum_purchase_amount": null,
			"maximum_reward_amount": null,
			"campaign": null,
			"categories": [],
			"purchases": null,
			"start_date": "2023-03-21",
			"finish_date": "2023-03-31",
			"start_time": null,
			"finish_time": null,
			"budget": "0.00",
			"instant": false,
			"offline": true,
			"online": false,
			"weekdays": [
				1,
				2
			],
			"status": "finished",
			"available_percentage": 0,
			"available_rewards": null,
			"points_of_sale": [
				896,
				824
			],
			"created": "2023-03-21T14:19:55.694075Z",
			"access_link": null,
			"last_reward": null,
			"applicable": false,
			"is_used": false
		},
		{
			"id": 537,
			"business": {
				"id": 236,
				"name": "Yogui QA",
				"square_picture": "https://woowbe-dev.s3.amazonaws.com/media/pictures/1676631810.jpeg",
				"widescreen_picture": "https://woowbe-dev.s3.amazonaws.com/media/pictures/1665492408_Z9SKuNG.jpeg",
				"cover": "https://woowbe-dev.s3.amazonaws.com/media/covers/cover_HYuhoAb.jpg",
				"offers_count": 1,
				"return_period": 0
			},
			"name": "programado automatico",
			"kind": "A",
			"reward": "5.00",
			"reward_type": "percentage",
			"standalone": false,
			"minimum_purchase_amount": null,
			"maximum_reward_amount": null,
			"campaign": null,
			"categories": [],
			"purchases": null,
			"start_date": "2023-03-24",
			"finish_date": "2023-03-31",
			"start_time": "16:00:00",
			"finish_time": "20:00:00",
			"budget": "0.00",
			"instant": false,
			"offline": true,
			"online": false,
			"weekdays": [
				1
			],
			"status": "finished",
			"available_percentage": 0,
			"available_rewards": null,
			"points_of_sale": [
				896,
				824
			],
			"created": "2023-03-21T14:23:38.009952Z",
			"access_link": null,
			"last_reward": null,
			"applicable": false,
			"is_used": false
		},
		{
			"id": 538,
			"business": {
				"id": 236,
				"name": "Yogui QA",
				"square_picture": "https://woowbe-dev.s3.amazonaws.com/media/pictures/1676631810.jpeg",
				"widescreen_picture": "https://woowbe-dev.s3.amazonaws.com/media/pictures/1665492408_Z9SKuNG.jpeg",
				"cover": "https://woowbe-dev.s3.amazonaws.com/media/covers/cover_HYuhoAb.jpg",
				"offers_count": 1,
				"return_period": 0
			},
			"name": "programa notificaciones",
			"kind": "A",
			"reward": "5.00",
			"reward_type": "percentage",
			"standalone": false,
			"minimum_purchase_amount": null,
			"maximum_reward_amount": null,
			"campaign": null,
			"categories": [],
			"purchases": null,
			"start_date": "2023-03-20",
			"finish_date": "2023-03-31",
			"start_time": null,
			"finish_time": null,
			"budget": "0.15",
			"instant": false,
			"offline": true,
			"online": false,
			"weekdays": [
				1,
				2,
				3,
				4,
				5,
				6,
				7
			],
			"status": "finished",
			"available_percentage": 0,
			"available_rewards": null,
			"points_of_sale": [],
			"created": "2023-03-23T14:20:21.949320Z",
			"access_link": null,
			"last_reward": null,
			"applicable": false,
			"is_used": false
		},
		{
			"id": 539,
			"business": {
				"id": 246,
				"name": "Veterinaria QA aaaaaddddddbbbbbbb",
				"square_picture": "https://woowbe-dev.s3.amazonaws.com/media/pictures/1667842927.jpeg",
				"widescreen_picture": "https://woowbe-dev.s3.amazonaws.com/media/pictures/1669722210.jpeg",
				"cover": "https://woowbe-dev.s3.amazonaws.com/media/covers/cover_0hwbWev.jpg",
				"offers_count": 1,
				"return_period": 0
			},
			"name": "tags",
			"kind": "A",
			"reward": "5.00",
			"reward_type": "percentage",
			"standalone": true,
			"minimum_purchase_amount": null,
			"maximum_reward_amount": null,
			"campaign": null,
			"categories": [],
			"purchases": null,
			"start_date": "2023-03-27",
			"finish_date": "2023-03-31",
			"start_time": null,
			"finish_time": null,
			"budget": "0.00",
			"instant": false,
			"offline": true,
			"online": false,
			"weekdays": [
				1,
				2,
				3,
				4,
				5,
				6,
				7
			],
			"status": "finished",
			"available_percentage": 0,
			"available_rewards": null,
			"points_of_sale": [
				774
			],
			"created": "2023-03-27T14:02:57.189852Z",
			"access_link": null,
			"last_reward": null,
			"applicable": false,
			"is_used": false
		},
		{
			"id": 541,
			"business": {
				"id": 246,
				"name": "Veterinaria QA aaaaaddddddbbbbbbb",
				"square_picture": "https://woowbe-dev.s3.amazonaws.com/media/pictures/1667842927.jpeg",
				"widescreen_picture": "https://woowbe-dev.s3.amazonaws.com/media/pictures/1669722210.jpeg",
				"cover": "https://woowbe-dev.s3.amazonaws.com/media/covers/cover_0hwbWev.jpg",
				"offers_count": 1,
				"return_period": 0
			},
			"name": "tags 3",
			"kind": "B",
			"reward": "5.00",
			"reward_type": "fixed",
			"standalone": true,
			"minimum_purchase_amount": null,
			"maximum_reward_amount": null,
			"campaign": null,
			"categories": [],
			"purchases": null,
			"start_date": "2023-03-27",
			"finish_date": "2023-03-31",
			"start_time": null,
			"finish_time": null,
			"budget": "0.00",
			"instant": false,
			"offline": true,
			"online": false,
			"weekdays": [
				1,
				2,
				3,
				4,
				5,
				6,
				7
			],
			"status": "finished",
			"available_percentage": 0,
			"available_rewards": 0,
			"points_of_sale": [
				774,
				726
			],
			"created": "2023-03-27T14:37:03.710515Z",
			"access_link": null,
			"last_reward": null,
			"applicable": false,
			"is_used": false
		},
		{
			"id": 549,
			"business": {
				"id": 143,
				"name": "Test App",
				"square_picture": "https://woowbe-dev.s3.amazonaws.com/media/pictures/1667494635.jpeg",
				"widescreen_picture": "https://woowbe-dev.s3.amazonaws.com/media/pictures/widescreen_picture_ZiLjO4p.jpg",
				"cover": "https://woowbe-dev.s3.amazonaws.com/media/covers/cover_kvUvSKN.jpg",
				"offers_count": 16,
				"return_period": 0
			},
			"name": "gtgt",
			"kind": "A",
			"reward": "5.00",
			"reward_type": "percentage",
			"standalone": false,
			"minimum_purchase_amount": null,
			"maximum_reward_amount": null,
			"campaign": null,
			"categories": [],
			"purchases": null,
			"start_date": "2023-04-13",
			"finish_date": "2023-05-13",
			"start_time": null,
			"finish_time": null,
			"budget": "0.00",
			"instant": false,
			"offline": true,
			"online": false,
			"weekdays": [
				2,
				3
			],
			"status": "finished",
			"available_percentage": 0,
			"available_rewards": null,
			"points_of_sale": [],
			"created": "2023-04-13T14:40:00.034714Z",
			"access_link": null,
			"last_reward": null,
			"applicable": false,
			"is_used": false
		},
		{
			"id": 555,
			"business": {
				"id": 143,
				"name": "Test App",
				"square_picture": "https://woowbe-dev.s3.amazonaws.com/media/pictures/1667494635.jpeg",
				"widescreen_picture": "https://woowbe-dev.s3.amazonaws.com/media/pictures/widescreen_picture_ZiLjO4p.jpg",
				"cover": "https://woowbe-dev.s3.amazonaws.com/media/covers/cover_kvUvSKN.jpg",
				"offers_count": 16,
				"return_period": 0
			},
			"name": "programa",
			"kind": "A",
			"reward": "5.00",
			"reward_type": "percentage",
			"standalone": false,
			"minimum_purchase_amount": null,
			"maximum_reward_amount": null,
			"campaign": null,
			"categories": [],
			"purchases": null,
			"start_date": "2023-04-25",
			"finish_date": "2023-06-25",
			"start_time": null,
			"finish_time": null,
			"budget": "0.00",
			"instant": false,
			"offline": true,
			"online": false,
			"weekdays": [
				3,
				4
			],
			"status": "finished",
			"available_percentage": 0,
			"available_rewards": null,
			"points_of_sale": [
				881
			],
			"created": "2023-04-25T09:22:38.321474Z",
			"access_link": null,
			"last_reward": null,
			"applicable": false,
			"is_used": false
		},
		{
			"id": 558,
			"business": {
				"id": 118,
				"name": "New York Burger",
				"square_picture": "https://woowbe-dev.s3.amazonaws.com/media/pictures/newyorkburger-logo-1-1.jpeg",
				"widescreen_picture": "https://woowbe-dev.s3.amazonaws.com/media/pictures/newyorkburger-logo-16-9.jpeg",
				"cover": "https://woowbe-dev.s3.amazonaws.com/media/covers/newyorkburger-portada.jpeg",
				"offers_count": 3,
				"return_period": 0
			},
			"name": "Finish today",
			"kind": "A",
			"reward": "5.00",
			"reward_type": "percentage",
			"standalone": false,
			"minimum_purchase_amount": null,
			"maximum_reward_amount": null,
			"campaign": null,
			"categories": [],
			"purchases": null,
			"start_date": "2023-04-27",
			"finish_date": "2023-04-27",
			"start_time": null,
			"finish_time": null,
			"budget": "0.00",
			"instant": false,
			"offline": true,
			"online": false,
			"weekdays": [
				2,
				3
			],
			"status": "finished",
			"available_percentage": 0,
			"available_rewards": null,
			"points_of_sale": [
				479
			],
			"created": "2023-04-27T08:22:40.371995Z",
			"access_link": null,
			"last_reward": null,
			"applicable": false,
			"is_used": false
		},
		{
			"id": 559,
			"business": {
				"id": 143,
				"name": "Test App",
				"square_picture": "https://woowbe-dev.s3.amazonaws.com/media/pictures/1667494635.jpeg",
				"widescreen_picture": "https://woowbe-dev.s3.amazonaws.com/media/pictures/widescreen_picture_ZiLjO4p.jpg",
				"cover": "https://woowbe-dev.s3.amazonaws.com/media/covers/cover_kvUvSKN.jpg",
				"offers_count": 16,
				"return_period": 0
			},
			"name": "Programa borrado mañana",
			"kind": "A",
			"reward": "5.00",
			"reward_type": "percentage",
			"standalone": false,
			"minimum_purchase_amount": null,
			"maximum_reward_amount": null,
			"campaign": null,
			"categories": [],
			"purchases": null,
			"start_date": "2023-04-27",
			"finish_date": "2023-05-27",
			"start_time": null,
			"finish_time": null,
			"budget": "0.00",
			"instant": false,
			"offline": true,
			"online": false,
			"weekdays": [
				2,
				3
			],
			"status": "finished",
			"available_percentage": 0,
			"available_rewards": null,
			"points_of_sale": [],
			"created": "2023-04-27T08:30:04.699366Z",
			"access_link": null,
			"last_reward": null,
			"applicable": false,
			"is_used": false
		}
	]
}
