{
	"count": 295,
	"next": "https://backend.dev.woowbe.com/api/v1/offers/public/?page=3",
	"previous": "https://backend.dev.woowbe.com/api/v1/offers/public/",
	"results": [
		{
			"id": 15,
			"business": {
				"id": 20,
				"name": "Delina's",
				"square_picture": "https://woowbe-dev.s3.amazonaws.com/media/pictures/delinas-logo-1-1.png",
				"widescreen_picture": "https://woowbe-dev.s3.amazonaws.com/media/pictures/1635415771.png",
				"cover": "https://woowbe-dev.s3.amazonaws.com/media/covers/delinas-portada.png",
				"offers_count": 1,
				"return_period": 0
			},
			"name": "Delinas test Sellos",
			"kind": "C",
			"reward": "15.00",
			"reward_type": "fixed",
			"standalone": false,
			"minimum_purchase_amount": "15.00",
			"maximum_reward_amount": null,
			"campaign": null,
			"categories": [],
			"purchases": 6,
			"start_date": "2021-06-17",
			"finish_date": null,
			"start_time": "13:30:58",
			"finish_time": null,
			"budget": "1000.00",
			"instant": true,
			"offline": true,
			"online": false,
			"weekdays": [],
			"status": "active",
			"available_percentage": 1,
			"available_rewards": 66,
			"points_of_sale": [
				37,
				36
			],
			"created": "2021-06-17T13:31:57.348500Z",
			"access_link": null,
			"last_reward": null,
			"applicable": false,
			"is_used": false
		},
		{
			"id": 323,
			"business": {
				"id": 225,
				"name": "Scalpers prueba 4",
				"square_picture": "https://woowbe-dev.s3.amazonaws.com/media/pictures/square_picture_z5KHodR.jpg",
				"widescreen_picture": "https://woowbe-dev.s3.amazonaws.com/media/pictures/1664288041.jpeg",
				"cover": "https://woowbe-dev.s3.amazonaws.com/media/covers/cover_71arDkc.jpg",
				"offers_count": 0,
				"return_period": 30
			},
			"name": "Prueba 3 activación",
			"kind": "A",
			"reward": "15.00",
			"reward_type": "percentage",
			"standalone": false,
			"minimum_purchase_amount": null,
			"maximum_reward_amount": null,
			"campaign": null,
			"categories": [],
			"purchases": null,
			"start_date": "2022-10-03",
			"finish_date": "2023-04-03",
			"start_time": null,
			"finish_time": null,
			"budget": "0.00",
			"instant": false,
			"offline": true,
			"online": false,
			"weekdays": [
				6,
				7
			],
			"status": "finished",
			"available_percentage": 0,
			"available_rewards": null,
			"points_of_sale": [
				712,
				711
			],
			"created": "2022-10-03T15:02:17.072784Z",
			"access_link": null,
			"last_reward": null,
			"applicable": false,
			"is_used": false
		},
		{
			"id": 214,
			"business": {
				"id": 118,
				"name": "New York Burger",
				"square_picture": "https://woowbe-dev.s3.amazonaws.com/media/pictures/newyorkburger-logo-1-1.jpeg",
				"widescreen_picture": "https://woowbe-dev.s3.amazonaws.com/media/pictures/newyorkburger-logo-16-9.jpeg",
				"cover": "https://woowbe-dev.s3.amazonaws.com/media/covers/newyorkburger-portada.jpeg",
				"offers_count": 3,
				"return_period": 0
			},
			"name": "New York Burger 15%",
			"kind": "A",
			"reward": "15.00",
			"reward_type": "percentage",
			"standalone": false,
			"minimum_purchase_amount": "30.00",
			"maximum_reward_amount": null,
			"campaign": null,
			"categories": [],
			"purchases": null,
			"start_date": "2021-11-29",
			"finish_date": null,
			"start_time": "20:30:00",
			"finish_time": "01:00:00",
			"budget": "200.00",
			"instant": false,
			"offline": true,
			"online": false,
			"weekdays": [
				1,
				2,
				3,
				4
			],
			"status": "active",
			"available_percentage": 1,
			"available_rewards": null,
			"points_of_sale": [
				599,
				598,
				597,
				596,
				479
			],
			"created": "2021-11-29T09:43:59.950200Z",
			"access_link": null,
			"last_reward": null,
			"applicable": false,
			"is_used": false
		},
		{
			"id": 190,
			"business": {
				"id": 101,
				"name": "Udon",
				"square_picture": "https://woowbe-dev.s3.amazonaws.com/media/pictures/square_picture_HE3Up8p.jpg",
				"widescreen_picture": "https://woowbe-dev.s3.amazonaws.com/media/pictures/1635068691.jpeg",
				"cover": "https://woowbe-dev.s3.amazonaws.com/media/covers/cover_jUju1r9.jpg",
				"offers_count": 0,
				"return_period": 0
			},
			"name": "15% Udon",
			"kind": "A",
			"reward": "15.00",
			"reward_type": "percentage",
			"standalone": false,
			"minimum_purchase_amount": null,
			"maximum_reward_amount": null,
			"campaign": null,
			"categories": [],
			"purchases": null,
			"start_date": "2021-10-24",
			"finish_date": null,
			"start_time": null,
			"finish_time": null,
			"budget": "1.00",
			"instant": false,
			"offline": true,
			"online": false,
			"weekdays": [
				1,
				2,
				3,
				4,
				5,
				6
			],
			"status": "finished",
			"available_percentage": 1,
			"available_rewards": null,
			"points_of_sale": [
				330,
				329,
				328,
				327,
				326,
				325,
				324,
				323,
				322,
				321,
				320,
				319
			],
			"created": "2021-10-24T09:52:07.179762Z",
			"access_link": null,
			"last_reward": null,
			"applicable": false,
			"is_used": false
		},
		{
			"id": 291,
			"business": {
				"id": 177,
				"name": "Cafeteria QA",
				"square_picture": "https://woowbe-dev.s3.amazonaws.com/media/pictures/square_picture_L5L56Sl.jpg",
				"widescreen_picture": "https://woowbe-dev.s3.amazonaws.com/media/pictures/1664189138.jpeg",
				"cover": "https://woowbe-dev.s3.amazonaws.com/media/covers/cover_vO8upz4.jpg",
				"offers_count": 0,
				"return_period": 0
			},
			"name": "programa 2",
			"kind": "A",
			"reward": "15.00",
			"reward_type": "percentage",
			"standalone": false,
			"minimum_purchase_amount": null,
			"maximum_reward_amount": null,
			"campaign": null,
			"categories": [],
			"purchases": null,
			"start_date": "2022-08-22",
			"finish_date": "2022-08-24",
			"start_time": null,
			"finish_time": null,
			"budget": "0.00",
			"instant": false,
			"offline": true,
			"online": false,
			"weekdays": [
				1
			],
			"status": "finished",
			"available_percentage": 0,
			"available_rewards": null,
			"points_of_sale": [
				663
			],
			"created": "2022-08-22T13:00:07.004670Z",
			"access_link": null,
			"last_reward": null,
			"applicable": false,
			"is_used": false
		},
		{
			"id": 226,
			"business": {
				"id": 123,
				"name": "Mistura",
				"square_picture": "https://woowbe-dev.s3.amazonaws.com/media/pictures/mistura-logo-1-1.png",
				"widescreen_picture": "https://woowbe-dev.s3.amazonaws.com/media/pictures/1638187452.png",
				"cover": "https://woowbe-dev.s3.amazonaws.com/media/covers/mistura-portada.jpeg",
				"offers_count": 1,
				"return_period": 0
			},
			"name": "Mistura 15%",
			"kind": "A",
			"reward": "15.00",
			"reward_type": "percentage",
			"standalone": false,
			"minimum_purchase_amount": "10.00",
			"maximum_reward_amount": null,
			"campaign": null,
			"categories": [],
			"purchases": null,
			"start_date": "2021-11-29",
			"finish_date": null,
			"start_time": "17:00:00",
			"finish_time": "21:00:00",
			"budget": "300.00",
			"instant": false,
			"offline": true,
			"online": false,
			"weekdays": [
				1,
				2,
				3,
				4
			],
			"status": "active",
			"available_percentage": 1,
			"available_rewards": null,
			"points_of_sale": [
				624,
				623,
				505,
				504,
				503,
				502,
				501
			],
			"created": "2021-11-29T12:10:37.939562Z",
			"access_link": null,
			"last_reward": null,
			"applicable": false,
			"is_used": false
		},
		{
			"id": 295,
			"business": {
				"id": 180,
				"name": "Comercio Pilar",
				"square_picture": "https://woowbe-dev.s3.amazonaws.com/media/pictures/1673868213.jpeg",
				"widescreen_picture": "https://woowbe-dev.s3.amazonaws.com/media/pictures/1673868214.jpeg",
				"cover": "https://woowbe-dev.s3.amazonaws.com/media/covers/cover_qCWtnT8.jpg",
				"offers_count": 0,
				"return_period": 0
			},
			"name": "categorias programa 2",
			"kind": "A",
			"reward": "15.00",
			"reward_type": "percentage",
			"standalone": false,
			"minimum_purchase_amount": null,
			"maximum_reward_amount": null,
			"campaign": null,
			"categories": [],
			"purchases": null,
			"start_date": "2022-08-25",
			"finish_date": "2022-08-27",
			"start_time": null,
			"finish_time": null,
			"budget": "0.00",
			"instant": false,
			"offline": true,
			"online": false,
			"weekdays": [
				2
			],
			"status": "finished",
			"available_percentage": 0,
			"available_rewards": null,
			"points_of_sale": [],
			"created": "2022-08-25T11:42:22.452764Z",
			"access_link": null,
			"last_reward": null,
			"applicable": false,
			"is_used": false
		},
		{
			"id": 287,
			"business": {
				"id": 178,
				"name": "Mahourizio",
				"square_picture": "https://woowbe-dev.s3.amazonaws.com/media/pictures/square_picture_a1ZviDm.jpg",
				"widescreen_picture": "https://woowbe-dev.s3.amazonaws.com/media/pictures/1676631745.jpeg",
				"cover": "https://woowbe-dev.s3.amazonaws.com/media/covers/cover_SNLXm9U.jpg",
				"offers_count": 0,
				"return_period": 0
			},
			"name": "Porcentaje",
			"kind": "A",
			"reward": "15.00",
			"reward_type": "percentage",
			"standalone": false,
			"minimum_purchase_amount": "15.00",
			"maximum_reward_amount": null,
			"campaign": null,
			"categories": [],
			"purchases": null,
			"start_date": "2022-08-22",
			"finish_date": "2022-09-01",
			"start_time": null,
			"finish_time": null,
			"budget": "8.70",
			"instant": false,
			"offline": true,
			"online": false,
			"weekdays": [
				1,
				2,
				3,
				4
			],
			"status": "finished",
			"available_percentage": 0,
			"available_rewards": null,
			"points_of_sale": [
				656,
				652
			],
			"created": "2022-08-19T08:55:33.345653Z",
			"access_link": null,
			"last_reward": null,
			"applicable": false,
			"is_used": false
		},
		{
			"id": 319,
			"business": {
				"id": 180,
				"name": "Comercio Pilar",
				"square_picture": "https://woowbe-dev.s3.amazonaws.com/media/pictures/1673868213.jpeg",
				"widescreen_picture": "https://woowbe-dev.s3.amazonaws.com/media/pictures/1673868214.jpeg",
				"cover": "https://woowbe-dev.s3.amazonaws.com/media/covers/cover_qCWtnT8.jpg",
				"offers_count": 0,
				"return_period": 0
			},
			"name": "progrmas refresco",
			"kind": "A",
			"reward": "15.00",
			"reward_type": "percentage",
			"standalone": false,
			"minimum_purchase_amount": null,
			"maximum_reward_amount": null,
			"campaign": null,
			"categories": [],
			"purchases": null,
			"start_date": "2022-09-21",
			"finish_date": "2022-09-23",
			"start_time": null,
			"finish_time": null,
			"budget": "0.00",
			"instant": false,
			"offline": true,
			"online": false,
			"weekdays": [
				1
			],
			"status": "finished",
			"available_percentage": 0,
			"available_rewards": null,
			"points_of_sale": [],
			"created": "2022-09-21T08:36:32.579232Z",
			"access_link": null,
			"last_reward": null,
			"applicable": false,
			"is_used": false
		},
		{
			"id": 347,
			"business": {
				"id": 246,
				"name": "Veterinaria QA aaaaaddddddbbbbbbb",
				"square_picture": "https://woowbe-dev.s3.amazonaws.com/media/pictures/1667842927.jpeg",
				"widescreen_picture": "https://woowbe-dev.s3.amazonaws.com/media/pictures/1669722210.jpeg",
				"cover": "https://woowbe-dev.s3.amazonaws.com/media/covers/cover_0hwbWev.jpg",
				"offers_count": 1,
				"return_period": 0
			},
			"name": "sellos vete",
			"kind": "C",
			"reward": "15.00",
			"reward_type": "fixed",
			"standalone": false,
			"minimum_purchase_amount": null,
			"maximum_reward_amount": null,
			"campaign": null,
			"categories": [],
			"purchases": 4,
			"start_date": "2022-11-16",
			"finish_date": "2023-03-16",
			"start_time": null,
			"finish_time": null,
			"budget": "0.00",
			"instant": false,
			"offline": true,
			"online": false,
			"weekdays": [
				1,
				2,
				3,
				4,
				5
			],
			"status": "finished",
			"available_percentage": 0,
			"available_rewards": 0,
			"points_of_sale": [
				726
			],
			"created": "2022-11-16T16:14:36.243002Z",
			"access_link": null,
			"last_reward": null,
			"applicable": false,
			"is_used": false
		}
	]
}
