{
	"count": 295,
	"next": "https://backend.dev.woowbe.com/api/v1/offers/public/?page=21",
	"previous": "https://backend.dev.woowbe.com/api/v1/offers/public/?page=19",
	"results": [
		{
			"id": 560,
			"business": {
				"id": 143,
				"name": "Test App",
				"square_picture": "https://woowbe-dev.s3.amazonaws.com/media/pictures/1667494635.jpeg",
				"widescreen_picture": "https://woowbe-dev.s3.amazonaws.com/media/pictures/widescreen_picture_ZiLjO4p.jpg",
				"cover": "https://woowbe-dev.s3.amazonaws.com/media/covers/cover_kvUvSKN.jpg",
				"offers_count": 16,
				"return_period": 0
			},
			"name": "Presupuesto",
			"kind": "A",
			"reward": "5.00",
			"reward_type": "percentage",
			"standalone": false,
			"minimum_purchase_amount": null,
			"maximum_reward_amount": null,
			"campaign": null,
			"categories": [],
			"purchases": null,
			"start_date": "2023-04-27",
			"finish_date": "2023-07-27",
			"start_time": null,
			"finish_time": null,
			"budget": "990.00",
			"instant": false,
			"offline": true,
			"online": false,
			"weekdays": [
				1,
				2
			],
			"status": "active",
			"available_percentage": 1,
			"available_rewards": null,
			"points_of_sale": [
				881
			],
			"created": "2023-04-27T08:39:25.235077Z",
			"access_link": null,
			"last_reward": null,
			"applicable": false,
			"is_used": false
		},
		{
			"id": 565,
			"business": {
				"id": 143,
				"name": "Test App",
				"square_picture": "https://woowbe-dev.s3.amazonaws.com/media/pictures/1667494635.jpeg",
				"widescreen_picture": "https://woowbe-dev.s3.amazonaws.com/media/pictures/widescreen_picture_ZiLjO4p.jpg",
				"cover": "https://woowbe-dev.s3.amazonaws.com/media/covers/cover_kvUvSKN.jpg",
				"offers_count": 16,
				"return_period": 0
			},
			"name": "Ejemplo de programa",
			"kind": "A",
			"reward": "5.00",
			"reward_type": "percentage",
			"standalone": false,
			"minimum_purchase_amount": null,
			"maximum_reward_amount": null,
			"campaign": null,
			"categories": [],
			"purchases": null,
			"start_date": "2023-04-28",
			"finish_date": "2023-10-28",
			"start_time": null,
			"finish_time": null,
			"budget": "10.00",
			"instant": false,
			"offline": true,
			"online": false,
			"weekdays": [
				1,
				2
			],
			"status": "active",
			"available_percentage": 1,
			"available_rewards": null,
			"points_of_sale": [
				881
			],
			"created": "2023-04-28T08:13:10.914447Z",
			"access_link": null,
			"last_reward": null,
			"applicable": false,
			"is_used": false
		},
		{
			"id": 566,
			"business": {
				"id": 248,
				"name": "Adidas",
				"square_picture": "https://woowbe-dev.s3.amazonaws.com/media/pictures/square_picture_mk5CEIv.jpg",
				"widescreen_picture": "https://woowbe-dev.s3.amazonaws.com/media/pictures/1668529037.jpeg",
				"cover": "https://woowbe-dev.s3.amazonaws.com/media/covers/cover_RYgACZk.jpg",
				"offers_count": 0,
				"return_period": 5
			},
			"name": "test",
			"kind": "A",
			"reward": "5.00",
			"reward_type": "percentage",
			"standalone": false,
			"minimum_purchase_amount": null,
			"maximum_reward_amount": null,
			"campaign": null,
			"categories": [],
			"purchases": null,
			"start_date": "2023-05-03",
			"finish_date": "2023-05-03",
			"start_time": null,
			"finish_time": null,
			"budget": "0.00",
			"instant": false,
			"offline": true,
			"online": false,
			"weekdays": [
				1
			],
			"status": "finished",
			"available_percentage": 0,
			"available_rewards": null,
			"points_of_sale": [
				785
			],
			"created": "2023-05-03T15:38:34.681972Z",
			"access_link": null,
			"last_reward": null,
			"applicable": false,
			"is_used": false
		},
		{
			"id": 568,
			"business": {
				"id": 236,
				"name": "Yogui QA",
				"square_picture": "https://woowbe-dev.s3.amazonaws.com/media/pictures/1676631810.jpeg",
				"widescreen_picture": "https://woowbe-dev.s3.amazonaws.com/media/pictures/1665492408_Z9SKuNG.jpeg",
				"cover": "https://woowbe-dev.s3.amazonaws.com/media/covers/cover_HYuhoAb.jpg",
				"offers_count": 1,
				"return_period": 0
			},
			"name": "minimo wallet",
			"kind": "A",
			"reward": "5.00",
			"reward_type": "percentage",
			"standalone": false,
			"minimum_purchase_amount": null,
			"maximum_reward_amount": null,
			"campaign": null,
			"categories": [],
			"purchases": null,
			"start_date": "2023-05-11",
			"finish_date": "2023-05-18",
			"start_time": null,
			"finish_time": null,
			"budget": "0.00",
			"instant": false,
			"offline": true,
			"online": false,
			"weekdays": [
				2
			],
			"status": "finished",
			"available_percentage": 0,
			"available_rewards": null,
			"points_of_sale": [
				888
			],
			"created": "2023-05-11T06:34:58.614958Z",
			"access_link": null,
			"last_reward": null,
			"applicable": false,
			"is_used": false
		},
		{
			"id": 569,
			"business": {
				"id": 89,
				"name": "Aloha Poke",
				"square_picture": "https://woowbe-dev.s3.amazonaws.com/media/pictures/aloha-poke-logo-1-1.png",
				"widescreen_picture": "https://woowbe-dev.s3.amazonaws.com/media/pictures/1634827016.jpeg",
				"cover": "https://woowbe-dev.s3.amazonaws.com/media/covers/cover_0XysFRk.jpg",
				"offers_count": 4,
				"return_period": 0
			},
			"name": "wallet",
			"kind": "A",
			"reward": "5.00",
			"reward_type": "percentage",
			"standalone": false,
			"minimum_purchase_amount": null,
			"maximum_reward_amount": null,
			"campaign": null,
			"categories": [],
			"purchases": null,
			"start_date": "2023-05-11",
			"finish_date": "2023-05-25",
			"start_time": null,
			"finish_time": null,
			"budget": "0.00",
			"instant": false,
			"offline": true,
			"online": false,
			"weekdays": [
				1
			],
			"status": "finished",
			"available_percentage": 0,
			"available_rewards": null,
			"points_of_sale": [
				764
			],
			"created": "2023-05-11T06:41:46.428105Z",
			"access_link": null,
			"last_reward": null,
			"applicable": false,
			"is_used": false
		},
		{
			"id": 571,
			"business": {
				"id": 118,
				"name": "New York Burger",
				"square_picture": "https://woowbe-dev.s3.amazonaws.com/media/pictures/newyorkburger-logo-1-1.jpeg",
				"widescreen_picture": "https://woowbe-dev.s3.amazonaws.com/media/pictures/newyorkburger-logo-16-9.jpeg",
				"cover": "https://woowbe-dev.s3.amazonaws.com/media/covers/newyorkburger-portada.jpeg",
				"offers_count": 3,
				"return_period": 0
			},
			"name": "Programmed",
			"kind": "A",
			"reward": "5.00",
			"reward_type": "percentage",
			"standalone": false,
			"minimum_purchase_amount": null,
			"maximum_reward_amount": null,
			"campaign": null,
			"categories": [],
			"purchases": null,
			"start_date": "2024-01-12",
			"finish_date": "2024-09-20",
			"start_time": null,
			"finish_time": null,
			"budget": "10.00",
			"instant": false,
			"offline": true,
			"online": false,
			"weekdays": [
				1,
				2
			],
			"status": "scheduled",
			"available_percentage": 1,
			"available_rewards": null,
			"points_of_sale": [
				599
			],
			"created": "2023-05-22T11:15:49.331371Z",
			"access_link": null,
			"last_reward": null,
			"applicable": false,
			"is_used": false
		},
		{
			"id": 574,
			"business": {
				"id": 143,
				"name": "Test App",
				"square_picture": "https://woowbe-dev.s3.amazonaws.com/media/pictures/1667494635.jpeg",
				"widescreen_picture": "https://woowbe-dev.s3.amazonaws.com/media/pictures/widescreen_picture_ZiLjO4p.jpg",
				"cover": "https://woowbe-dev.s3.amazonaws.com/media/covers/cover_kvUvSKN.jpg",
				"offers_count": 16,
				"return_period": 0
			},
			"name": "Ejemplo de programa",
			"kind": "A",
			"reward": "5.00",
			"reward_type": "percentage",
			"standalone": false,
			"minimum_purchase_amount": null,
			"maximum_reward_amount": null,
			"campaign": null,
			"categories": [],
			"purchases": null,
			"start_date": "2023-05-29",
			"finish_date": "2023-09-29",
			"start_time": "11:00:00",
			"finish_time": "18:00:00",
			"budget": "1.00",
			"instant": false,
			"offline": true,
			"online": false,
			"weekdays": [
				1,
				2
			],
			"status": "active",
			"available_percentage": 1,
			"available_rewards": null,
			"points_of_sale": [
				881
			],
			"created": "2023-05-29T10:05:52.978656Z",
			"access_link": null,
			"last_reward": null,
			"applicable": false,
			"is_used": false
		},
		{
			"id": 582,
			"business": {
				"id": 338,
				"name": "Negocio Adquiriencia",
				"square_picture": "https://woowbe-dev.s3.amazonaws.com/media/pictures/1685522153.jpeg",
				"widescreen_picture": "https://woowbe-dev.s3.amazonaws.com/media/pictures/widescreen_picture_sAk1iMX.jpg",
				"cover": "https://woowbe-dev.s3.amazonaws.com/media/covers/cover_w9oM7Sz.jpg",
				"offers_count": 1,
				"return_period": 0
			},
			"name": "Ejemplo",
			"kind": "A",
			"reward": "5.00",
			"reward_type": "percentage",
			"standalone": false,
			"minimum_purchase_amount": null,
			"maximum_reward_amount": null,
			"campaign": null,
			"categories": [],
			"purchases": null,
			"start_date": "2023-05-31",
			"finish_date": "2023-11-30",
			"start_time": null,
			"finish_time": null,
			"budget": "100.00",
			"instant": false,
			"offline": true,
			"online": false,
			"weekdays": [
				1,
				2
			],
			"status": "active",
			"available_percentage": 1,
			"available_rewards": null,
			"points_of_sale": [
				939
			],
			"created": "2023-05-31T11:15:09.987961Z",
			"access_link": null,
			"last_reward": null,
			"applicable": false,
			"is_used": false
		},
		{
			"id": 587,
			"business": {
				"id": 337,
				"name": "Niubiz",
				"square_picture": "https://woowbe-dev.s3.amazonaws.com/media/pictures/square_picture_QL4OVCY.jpg",
				"widescreen_picture": "https://woowbe-dev.s3.amazonaws.com/media/pictures/1685457967.jpeg",
				"cover": "https://woowbe-dev.s3.amazonaws.com/media/covers/cover_OY7jSZl.jpg",
				"offers_count": 4,
				"return_period": 0
			},
			"name": "iñigo test",
			"kind": "A",
			"reward": "5.00",
			"reward_type": "percentage",
			"standalone": false,
			"minimum_purchase_amount": "2.00",
			"maximum_reward_amount": "10.00",
			"campaign": null,
			"categories": [],
			"purchases": null,
			"start_date": "2023-05-31",
			"finish_date": "2023-11-30",
			"start_time": null,
			"finish_time": null,
			"budget": "34.00",
			"instant": false,
			"offline": true,
			"online": false,
			"weekdays": [
				1,
				2,
				3,
				4,
				5,
				6
			],
			"status": "active",
			"available_percentage": 1,
			"available_rewards": null,
			"points_of_sale": [
				938
			],
			"created": "2023-05-31T14:28:25.019220Z",
			"access_link": null,
			"last_reward": null,
			"applicable": false,
			"is_used": false
		},
		{
			"id": 590,
			"business": {
				"id": 143,
				"name": "Test App",
				"square_picture": "https://woowbe-dev.s3.amazonaws.com/media/pictures/1667494635.jpeg",
				"widescreen_picture": "https://woowbe-dev.s3.amazonaws.com/media/pictures/widescreen_picture_ZiLjO4p.jpg",
				"cover": "https://woowbe-dev.s3.amazonaws.com/media/covers/cover_kvUvSKN.jpg",
				"offers_count": 16,
				"return_period": 0
			},
			"name": "Copy Ejemplo de programa",
			"kind": "A",
			"reward": "5.00",
			"reward_type": "percentage",
			"standalone": false,
			"minimum_purchase_amount": null,
			"maximum_reward_amount": null,
			"campaign": null,
			"categories": [],
			"purchases": null,
			"start_date": "2023-06-15",
			"finish_date": "2023-07-15",
			"start_time": null,
			"finish_time": null,
			"budget": "1.00",
			"instant": false,
			"offline": true,
			"online": false,
			"weekdays": [
				1,
				2
			],
			"status": "active",
			"available_percentage": 1,
			"available_rewards": null,
			"points_of_sale": [
				881
			],
			"created": "2023-06-15T14:02:02.617752Z",
			"access_link": null,
			"last_reward": null,
			"applicable": false,
			"is_used": false
		}
	]
}
