{"count":295,"next":"https://backend.dev.woowbe.com/api/v1/offers/public/?page=22","previous":"https://backend.dev.woowbe.com/api/v1/offers/public/?page=20","results":[{"id":591,"business":{"id":143,"name":"Test App","square_picture":"https://woowbe-dev.s3.amazonaws.com/media/pictures/1667494635.jpeg","widescreen_picture":"https://woowbe-dev.s3.amazonaws.com/media/pictures/widescreen_picture_ZiLjO4p.jpg","cover":"https://woowbe-dev.s3.amazonaws.com/media/covers/cover_kvUvSKN.jpg","offers_count":16,"return_period":0},"name":"Ejemplo","kind":"A","reward":"5.00","reward_type":"percentage","standalone":false,"minimum_purchase_amount":null,"maximum_reward_amount":null,"campaign":null,"categories":[],"purchases":null,"start_date":"2023-06-16","finish_date":"2023-09-16","start_time":"08:00:00","finish_time":"21:00:00","budget":"1.00","instant":false,"offline":true,"online":false,"weekdays":[2,3],"status":"active","available_percentage":1,"available_rewards":null,"points_of_sale":[881],"created":"2023-06-16T11:42:19.516073Z","access_link":null,"last_reward":null,"applicable":false,"is_used":false},{"id":595,"business":{"id":143,"name":"Test App","square_picture":"https://woowbe-dev.s3.amazonaws.com/media/pictures/1667494635.jpeg","widescreen_picture":"https://woowbe-dev.s3.amazonaws.com/media/pictures/widescreen_picture_ZiLjO4p.jpg","cover":"https://woowbe-dev.s3.amazonaws.com/media/covers/cover_kvUvSKN.jpg","offers_count":16,"return_period":0},"name":"vsvdv","kind":"A","reward":"5.00","reward_type":"percentage","standalone":false,"minimum_purchase_amount":null,"maximum_reward_amount":null,"campaign":null,"categories":[],"purchases":null,"start_date":"2023-06-19","finish_date":"2023-09-19","start_time":"22:00:00","finish_time":"16:04:00","budget":"1.00","instant":false,"offline":true,"online":false,"weekdays":[1,2],"status":"active","available_percentage":1,"available_rewards":null,"points_of_sale":[881],"created":"2023-06-19T14:54:25.594537Z","access_link":null,"last_reward":null,"applicable":false,"is_used":false},{"id":440,"business":{"id":236,"name":"Yogui QA","square_picture":"https://woowbe-dev.s3.amazonaws.com/media/pictures/1676631810.jpeg","widescreen_picture":"https://woowbe-dev.s3.amazonaws.com/media/pictures/1665492408_Z9SKuNG.jpeg","cover":"https://woowbe-dev.s3.amazonaws.com/media/covers/cover_HYuhoAb.jpg","offers_count":1,"return_period":0},"name":"sellos parcial singular","kind":"C","reward":"4.00","reward_type":"fixed","standalone":false,"minimum_purchase_amount":null,"maximum_reward_amount":null,"campaign":null,"categories":[],"purchases":4,"start_date":"2023-02-23","finish_date":"2023-05-23","start_time":null,"finish_time":null,"budget":"1.00","instant":false,"offline":true,"online":false,"weekdays":[1,2,3,4,5,6,7],"status":"finished","available_percentage":0,"available_rewards":0,"points_of_sale":[],"created":"2023-02-23T15:31:07.910059Z","access_link":null,"last_reward":null,"applicable":false,"is_used":false},{"id":439,"business":{"id":184,"name":"Floristeria MariPepis QA","square_picture":"https://woowbe-dev.s3.amazonaws.com/media/pictures/square_picture_wRtqmQ7.jpg","widescreen_picture":"https://woowbe-dev.s3.amazonaws.com/media/pictures/1662040876.jpeg","cover":"https://woowbe-dev.s3.amazonaws.com/media/covers/cover_J8HYh2d.jpg","offers_count":1,"return_period":0},"name":"sellos app","kind":"C","reward":"4.00","reward_type":"fixed","standalone":false,"minimum_purchase_amount":null,"maximum_reward_amount":null,"campaign":null,"categories":[],"purchases":4,"start_date":"2023-02-22","finish_date":"2023-02-28","start_time":null,"finish_time":null,"budget":"0.00","instant":false,"offline":true,"online":false,"weekdays":[1,2,3,4,5,6,7],"status":"finished","available_percentage":0,"available_rewards":0,"points_of_sale":[826],"created":"2023-02-22T17:00:45.889150Z","access_link":null,"last_reward":null,"applicable":false,"is_used":false},{"id":561,"business":{"id":118,"name":"New York Burger","square_picture":"https://woowbe-dev.s3.amazonaws.com/media/pictures/newyorkburger-logo-1-1.jpeg","widescreen_picture":"https://woowbe-dev.s3.amazonaws.com/media/pictures/newyorkburger-logo-16-9.jpeg","cover":"https://woowbe-dev.s3.amazonaws.com/media/covers/newyorkburger-portada.jpeg","offers_count":3,"return_period":0},"name":"tipo c","kind":"C","reward":"4.00","reward_type":"fixed","standalone":false,"minimum_purchase_amount":null,"maximum_reward_amount":null,"campaign":null,"categories":[],"purchases":6,"start_date":"2023-04-27","finish_date":"2023-04-27","start_time":null,"finish_time":null,"budget":"0.00","instant":false,"offline":true,"online":false,"weekdays":[3,4],"status":"finished","available_percentage":0,"available_rewards":0,"points_of_sale":[479],"created":"2023-04-27T12:46:51.497279Z","access_link":null,"last_reward":null,"applicable":false,"is_used":false},{"id":368,"business":{"id":260,"name":"Prueba devolucion presupuesto","square_picture":"https://woowbe-dev.s3.amazonaws.com/media/pictures/square_picture_wGfyXAX.jpg","widescreen_picture":"https://woowbe-dev.s3.amazonaws.com/media/pictures/1673614842.jpeg","cover":"https://woowbe-dev.s3.amazonaws.com/media/covers/cover_H4n5vL4.jpg","offers_count":0,"return_period":3},"name":"sellos reembolso","kind":"C","reward":"4.00","reward_type":"fixed","standalone":false,"minimum_purchase_amount":null,"maximum_reward_amount":null,"campaign":null,"categories":[],"purchases":4,"start_date":"2023-01-14","finish_date":"2023-01-15","start_time":null,"finish_time":null,"budget":"0.00","instant":false,"offline":true,"online":false,"weekdays":[1,2,3,4,5,6,7],"status":"finished","available_percentage":0,"available_rewards":0,"points_of_sale":[776],"created":"2023-01-16T09:08:49.660228Z","access_link":null,"last_reward":null,"applicable":false,"is_used":false},{"id":318,"business":{"id":184,"name":"Floristeria MariPepis QA","square_picture":"https://woowbe-dev.s3.amazonaws.com/media/pictures/square_picture_wRtqmQ7.jpg","widescreen_picture":"https://woowbe-dev.s3.amazonaws.com/media/pictures/1662040876.jpeg","cover":"https://woowbe-dev.s3.amazonaws.com/media/covers/cover_J8HYh2d.jpg","offers_count":1,"return_period":0},"name":"Copia programa sellos","kind":"C","reward":"4.00","reward_type":"fixed","standalone":false,"minimum_purchase_amount":null,"maximum_reward_amount":null,"campaign":null,"categories":[],"purchases":4,"start_date":"2022-09-15","finish_date":"2023-01-15","start_time":null,"finish_time":null,"budget":"0.00","instant":false,"offline":true,"online":false,"weekdays":[1,2,3,4,5],"status":"finished","available_percentage":0,"available_rewards":0,"points_of_sale":[682],"created":"2022-09-15T08:07:33.035743Z","access_link":null,"last_reward":null,"applicable":false,"is_used":false},{"id":542,"business":{"id":246,"name":"Veterinaria QA aaaaaddddddbbbbbbb","square_picture":"https://woowbe-dev.s3.amazonaws.com/media/pictures/1667842927.jpeg","widescreen_picture":"https://woowbe-dev.s3.amazonaws.com/media/pictures/1669722210.jpeg","cover":"https://woowbe-dev.s3.amazonaws.com/media/covers/cover_0hwbWev.jpg","offers_count":1,"return_period":0},"name":"sellos 1 compra","kind":"C","reward":"4.00","reward_type":"fixed","standalone":true,"minimum_purchase_amount":null,"maximum_reward_amount":null,"campaign":null,"categories":[],"purchases":null,"start_date":"2023-03-27","finish_date":"2023-03-31","start_time":null,"finish_time":null,"budget":"0.00","instant":false,"offline":true,"online":false,"weekdays":[1,2,3,4,5,6,7],"status":"finished","available_percentage":0,"available_rewards":0,"points_of_sale":[900,899,774,735,726],"created":"2023-03-27T14:56:22.197176Z","access_link":null,"last_reward":null,"applicable":false,"is_used":false},{"id":509,"business":{"id":236,"name":"Yogui QA","square_picture":"https://woowbe-dev.s3.amazonaws.com/media/pictures/1676631810.jpeg","widescreen_picture":"https://woowbe-dev.s3.amazonaws.com/media/pictures/1665492408_Z9SKuNG.jpeg","cover":"https://woowbe-dev.s3.amazonaws.com/media/covers/cover_HYuhoAb.jpg","offers_count":1,"return_period":0},"name":"mensaje sellos borrar pov","kind":"C","reward":"4.00","reward_type":"fixed","standalone":false,"minimum_purchase_amount":null,"maximum_reward_amount":null,"campaign":null,"categories":[],"purchases":4,"start_date":"2023-03-07","finish_date":"2023-03-23","start_time":null,"finish_time":null,"budget":"0.00","instant":false,"offline":true,"online":false,"weekdays":[1,2,3,4,5,6,7],"status":"finished","available_percentage":0,"available_rewards":0,"points_of_sale":[],"created":"2023-03-07T14:05:36.614953Z","access_link":null,"last_reward":null,"applicable":false,"is_used":false},{"id":377,"business":{"id":260,"name":"Prueba devolucion presupuesto","square_picture":"https://woowbe-dev.s3.amazonaws.com/media/pictures/square_picture_wGfyXAX.jpg","widescreen_picture":"https://woowbe-dev.s3.amazonaws.com/media/pictures/1673614842.jpeg","cover":"https://woowbe-dev.s3.amazonaws.com/media/covers/cover_H4n5vL4.jpg","offers_count":0,"return_period":3},"name":"devolucion 2 intento","kind":"C","reward":"4.00","reward_type":"fixed","standalone":false,"minimum_purchase_amount":null,"maximum_reward_amount":null,"campaign":null,"categories":[],"purchases":4,"start_date":"2023-01-17","finish_date":"2023-01-31","start_time":null,"finish_time":null,"budget":"0.00","instant":false,"offline":true,"online":false,"weekdays":[1,2,3,4,5,6,7],"status":"finished","available_percentage":0,"available_rewards":0,"points_of_sale":[776],"created":"2023-01-17T14:04:21.625121Z","access_link":null,"last_reward":null,"applicable":false,"is_used":false}]}