{
	"count": 295,
	"next": "https://backend.dev.woowbe.com/api/v1/offers/public/?page=23",
	"previous": "https://backend.dev.woowbe.com/api/v1/offers/public/?page=21",
	"results": [
		{
			"id": 540,
			"business": {
				"id": 246,
				"name": "Veterinaria QA aaaaaddddddbbbbbbb",
				"square_picture": "https://woowbe-dev.s3.amazonaws.com/media/pictures/1667842927.jpeg",
				"widescreen_picture": "https://woowbe-dev.s3.amazonaws.com/media/pictures/1669722210.jpeg",
				"cover": "https://woowbe-dev.s3.amazonaws.com/media/covers/cover_0hwbWev.jpg",
				"offers_count": 1,
				"return_period": 0
			},
			"name": "tags 2",
			"kind": "C",
			"reward": "4.00",
			"reward_type": "fixed",
			"standalone": false,
			"minimum_purchase_amount": null,
			"maximum_reward_amount": null,
			"campaign": null,
			"categories": [],
			"purchases": 4,
			"start_date": "2023-03-27",
			"finish_date": "2023-04-18",
			"start_time": null,
			"finish_time": null,
			"budget": "0.00",
			"instant": false,
			"offline": true,
			"online": false,
			"weekdays": [
				1,
				2,
				3,
				4,
				5,
				6,
				7
			],
			"status": "finished",
			"available_percentage": 0,
			"available_rewards": 0,
			"points_of_sale": [
				726
			],
			"created": "2023-03-27T14:04:30.904166Z",
			"access_link": null,
			"last_reward": null,
			"applicable": false,
			"is_used": false
		},
		{
			"id": 512,
			"business": {
				"id": 236,
				"name": "Yogui QA",
				"square_picture": "https://woowbe-dev.s3.amazonaws.com/media/pictures/1676631810.jpeg",
				"widescreen_picture": "https://woowbe-dev.s3.amazonaws.com/media/pictures/1665492408_Z9SKuNG.jpeg",
				"cover": "https://woowbe-dev.s3.amazonaws.com/media/covers/cover_HYuhoAb.jpg",
				"offers_count": 1,
				"return_period": 0
			},
			"name": "sellos borrar pos",
			"kind": "C",
			"reward": "4.00",
			"reward_type": "fixed",
			"standalone": false,
			"minimum_purchase_amount": null,
			"maximum_reward_amount": null,
			"campaign": null,
			"categories": [],
			"purchases": 4,
			"start_date": "2023-03-07",
			"finish_date": "2023-03-31",
			"start_time": null,
			"finish_time": null,
			"budget": "0.00",
			"instant": false,
			"offline": true,
			"online": false,
			"weekdays": [
				1,
				2,
				3,
				4,
				5,
				6,
				7
			],
			"status": "finished",
			"available_percentage": 0,
			"available_rewards": 0,
			"points_of_sale": [],
			"created": "2023-03-07T15:12:24.328944Z",
			"access_link": null,
			"last_reward": null,
			"applicable": false,
			"is_used": false
		},
		{
			"id": 380,
			"business": {
				"id": 260,
				"name": "Prueba devolucion presupuesto",
				"square_picture": "https://woowbe-dev.s3.amazonaws.com/media/pictures/square_picture_wGfyXAX.jpg",
				"widescreen_picture": "https://woowbe-dev.s3.amazonaws.com/media/pictures/1673614842.jpeg",
				"cover": "https://woowbe-dev.s3.amazonaws.com/media/covers/cover_H4n5vL4.jpg",
				"offers_count": 0,
				"return_period": 3
			},
			"name": "devolucion 3 test 2",
			"kind": "C",
			"reward": "4.00",
			"reward_type": "fixed",
			"standalone": false,
			"minimum_purchase_amount": null,
			"maximum_reward_amount": null,
			"campaign": null,
			"categories": [],
			"purchases": 4,
			"start_date": "2023-01-17",
			"finish_date": "2023-01-28",
			"start_time": null,
			"finish_time": null,
			"budget": "0.00",
			"instant": false,
			"offline": true,
			"online": false,
			"weekdays": [
				1,
				2,
				3,
				4,
				5,
				6,
				7
			],
			"status": "finished",
			"available_percentage": 0,
			"available_rewards": 0,
			"points_of_sale": [
				776
			],
			"created": "2023-01-17T14:29:45.651579Z",
			"access_link": null,
			"last_reward": null,
			"applicable": false,
			"is_used": false
		},
		{
			"id": 386,
			"business": {
				"id": 184,
				"name": "Floristeria MariPepis QA",
				"square_picture": "https://woowbe-dev.s3.amazonaws.com/media/pictures/square_picture_wRtqmQ7.jpg",
				"widescreen_picture": "https://woowbe-dev.s3.amazonaws.com/media/pictures/1662040876.jpeg",
				"cover": "https://woowbe-dev.s3.amazonaws.com/media/covers/cover_J8HYh2d.jpg",
				"offers_count": 1,
				"return_period": 0
			},
			"name": "reward sellos",
			"kind": "C",
			"reward": "4.00",
			"reward_type": "fixed",
			"standalone": false,
			"minimum_purchase_amount": null,
			"maximum_reward_amount": null,
			"campaign": null,
			"categories": [],
			"purchases": 4,
			"start_date": "2023-01-19",
			"finish_date": "2023-01-31",
			"start_time": null,
			"finish_time": null,
			"budget": "0.00",
			"instant": false,
			"offline": true,
			"online": false,
			"weekdays": [
				1,
				2,
				3,
				4,
				5,
				6,
				7
			],
			"status": "finished",
			"available_percentage": 0,
			"available_rewards": 0,
			"points_of_sale": [
				682
			],
			"created": "2023-01-19T12:13:28.848842Z",
			"access_link": null,
			"last_reward": null,
			"applicable": false,
			"is_used": false
		},
		{
			"id": 403,
			"business": {
				"id": 184,
				"name": "Floristeria MariPepis QA",
				"square_picture": "https://woowbe-dev.s3.amazonaws.com/media/pictures/square_picture_wRtqmQ7.jpg",
				"widescreen_picture": "https://woowbe-dev.s3.amazonaws.com/media/pictures/1662040876.jpeg",
				"cover": "https://woowbe-dev.s3.amazonaws.com/media/covers/cover_J8HYh2d.jpg",
				"offers_count": 1,
				"return_period": 0
			},
			"name": "geo lejos torremolinos",
			"kind": "C",
			"reward": "4.00",
			"reward_type": "fixed",
			"standalone": false,
			"minimum_purchase_amount": null,
			"maximum_reward_amount": null,
			"campaign": null,
			"categories": [
				{
					"id": 33,
					"name": "todo bien"
				}
			],
			"purchases": 4,
			"start_date": "2023-02-01",
			"finish_date": "2023-08-01",
			"start_time": null,
			"finish_time": null,
			"budget": "10.00",
			"instant": false,
			"offline": true,
			"online": false,
			"weekdays": [
				1,
				2,
				3,
				4,
				5,
				6,
				7
			],
			"status": "active",
			"available_percentage": 0.6,
			"available_rewards": 1,
			"points_of_sale": [
				805
			],
			"created": "2023-02-01T17:17:54.185656Z",
			"access_link": null,
			"last_reward": null,
			"applicable": false,
			"is_used": false
		},
		{
			"id": 369,
			"business": {
				"id": 260,
				"name": "Prueba devolucion presupuesto",
				"square_picture": "https://woowbe-dev.s3.amazonaws.com/media/pictures/square_picture_wGfyXAX.jpg",
				"widescreen_picture": "https://woowbe-dev.s3.amazonaws.com/media/pictures/1673614842.jpeg",
				"cover": "https://woowbe-dev.s3.amazonaws.com/media/covers/cover_H4n5vL4.jpg",
				"offers_count": 0,
				"return_period": 3
			},
			"name": "sellos reembolso 2",
			"kind": "C",
			"reward": "4.00",
			"reward_type": "fixed",
			"standalone": false,
			"minimum_purchase_amount": null,
			"maximum_reward_amount": null,
			"campaign": null,
			"categories": [],
			"purchases": 4,
			"start_date": "2023-01-14",
			"finish_date": "2023-01-15",
			"start_time": null,
			"finish_time": null,
			"budget": "0.00",
			"instant": false,
			"offline": true,
			"online": false,
			"weekdays": [
				1,
				2,
				3,
				4,
				5,
				6,
				7
			],
			"status": "finished",
			"available_percentage": 0,
			"available_rewards": 0,
			"points_of_sale": [
				776
			],
			"created": "2023-01-16T10:11:29.196926Z",
			"access_link": null,
			"last_reward": null,
			"applicable": false,
			"is_used": false
		},
		{
			"id": 551,
			"business": {
				"id": 236,
				"name": "Yogui QA",
				"square_picture": "https://woowbe-dev.s3.amazonaws.com/media/pictures/1676631810.jpeg",
				"widescreen_picture": "https://woowbe-dev.s3.amazonaws.com/media/pictures/1665492408_Z9SKuNG.jpeg",
				"cover": "https://woowbe-dev.s3.amazonaws.com/media/covers/cover_HYuhoAb.jpg",
				"offers_count": 1,
				"return_period": 0
			},
			"name": "sellos pull to refresh",
			"kind": "C",
			"reward": "4.00",
			"reward_type": "fixed",
			"standalone": false,
			"minimum_purchase_amount": null,
			"maximum_reward_amount": null,
			"campaign": null,
			"categories": [],
			"purchases": 4,
			"start_date": "2023-04-19",
			"finish_date": "2023-08-19",
			"start_time": null,
			"finish_time": null,
			"budget": "12.00",
			"instant": false,
			"offline": true,
			"online": false,
			"weekdays": [
				1,
				2,
				3,
				4,
				5,
				6,
				7
			],
			"status": "active",
			"available_percentage": 0.6666666666666666,
			"available_rewards": 2,
			"points_of_sale": [
				715
			],
			"created": "2023-04-19T15:24:25.988894Z",
			"access_link": null,
			"last_reward": null,
			"applicable": false,
			"is_used": false
		},
		{
			"id": 168,
			"business": {
				"id": 92,
				"name": "Tierra Burrito",
				"square_picture": "https://woowbe-dev.s3.amazonaws.com/media/pictures/tierra-burrito-logo-1-1.png",
				"widescreen_picture": "https://woowbe-dev.s3.amazonaws.com/media/pictures/1634832127.jpeg",
				"cover": "https://woowbe-dev.s3.amazonaws.com/media/covers/cover_UuinGHQ.jpg",
				"offers_count": 1,
				"return_period": 0
			},
			"name": "4€ por cada comida",
			"kind": "B",
			"reward": "4.00",
			"reward_type": "fixed",
			"standalone": false,
			"minimum_purchase_amount": "30.00",
			"maximum_reward_amount": null,
			"campaign": null,
			"categories": [],
			"purchases": null,
			"start_date": "2021-10-22",
			"finish_date": null,
			"start_time": null,
			"finish_time": null,
			"budget": "1.00",
			"instant": false,
			"offline": true,
			"online": false,
			"weekdays": [
				1,
				2,
				3
			],
			"status": "active",
			"available_percentage": 1,
			"available_rewards": 0,
			"points_of_sale": [
				616,
				615,
				614,
				241,
				240,
				239,
				238,
				237,
				236,
				235,
				234,
				233,
				232,
				231,
				230
			],
			"created": "2021-10-22T18:24:12.401664Z",
			"access_link": null,
			"last_reward": null,
			"applicable": false,
			"is_used": false
		},
		{
			"id": 516,
			"business": {
				"id": 236,
				"name": "Yogui QA",
				"square_picture": "https://woowbe-dev.s3.amazonaws.com/media/pictures/1676631810.jpeg",
				"widescreen_picture": "https://woowbe-dev.s3.amazonaws.com/media/pictures/1665492408_Z9SKuNG.jpeg",
				"cover": "https://woowbe-dev.s3.amazonaws.com/media/covers/cover_HYuhoAb.jpg",
				"offers_count": 1,
				"return_period": 0
			},
			"name": "sellos sin actividad 3",
			"kind": "C",
			"reward": "4.00",
			"reward_type": "fixed",
			"standalone": false,
			"minimum_purchase_amount": null,
			"maximum_reward_amount": null,
			"campaign": null,
			"categories": [],
			"purchases": 4,
			"start_date": "2023-03-08",
			"finish_date": "2023-03-31",
			"start_time": null,
			"finish_time": null,
			"budget": "0.00",
			"instant": false,
			"offline": true,
			"online": false,
			"weekdays": [
				1,
				2,
				3,
				4,
				5,
				6,
				7
			],
			"status": "finished",
			"available_percentage": 0,
			"available_rewards": 0,
			"points_of_sale": [],
			"created": "2023-03-08T11:50:12.987234Z",
			"access_link": null,
			"last_reward": null,
			"applicable": false,
			"is_used": false
		},
		{
			"id": 304,
			"business": {
				"id": 184,
				"name": "Floristeria MariPepis QA",
				"square_picture": "https://woowbe-dev.s3.amazonaws.com/media/pictures/square_picture_wRtqmQ7.jpg",
				"widescreen_picture": "https://woowbe-dev.s3.amazonaws.com/media/pictures/1662040876.jpeg",
				"cover": "https://woowbe-dev.s3.amazonaws.com/media/covers/cover_J8HYh2d.jpg",
				"offers_count": 1,
				"return_period": 0
			},
			"name": "programa sellos",
			"kind": "C",
			"reward": "4.00",
			"reward_type": "fixed",
			"standalone": false,
			"minimum_purchase_amount": null,
			"maximum_reward_amount": null,
			"campaign": null,
			"categories": [],
			"purchases": 4,
			"start_date": "2022-09-01",
			"finish_date": "2022-10-31",
			"start_time": null,
			"finish_time": null,
			"budget": "12.00",
			"instant": false,
			"offline": true,
			"online": false,
			"weekdays": [
				1,
				2,
				3,
				5,
				4
			],
			"status": "finished",
			"available_percentage": 1,
			"available_rewards": 3,
			"points_of_sale": [
				682
			],
			"created": "2022-09-01T14:43:10.250235Z",
			"access_link": null,
			"last_reward": null,
			"applicable": false,
			"is_used": false
		}
	]
}
