{"count":295,"next":"https://backend.dev.woowbe.com/api/v1/offers/public/?page=25","previous":"https://backend.dev.woowbe.com/api/v1/offers/public/?page=23","results":[{"id":227,"business":{"id":124,"name":"BaRRa de Pintxos","square_picture":"https://woowbe-dev.s3.amazonaws.com/media/pictures/barra-de-pintxos-logo-1-1.png","widescreen_picture":"https://woowbe-dev.s3.amazonaws.com/media/pictures/1638189433.png","cover":"https://woowbe-dev.s3.amazonaws.com/media/covers/barra-de-pintxos-portada.jpeg","offers_count":1,"return_period":0},"name":"Barra de pintxos 3€","kind":"B","reward":"3.00","reward_type":"fixed","standalone":false,"minimum_purchase_amount":"25.00","maximum_reward_amount":null,"campaign":null,"categories":[],"purchases":null,"start_date":"2021-11-29","finish_date":null,"start_time":null,"finish_time":null,"budget":"300.00","instant":false,"offline":true,"online":false,"weekdays":[1,2,3,4,5],"status":"active","available_percentage":1,"available_rewards":100,"points_of_sale":[622,621,620,509,508,507,506],"created":"2021-11-29T12:44:10.827524Z","access_link":null,"last_reward":null,"applicable":false,"is_used":false},{"id":196,"business":{"id":104,"name":"Subway","square_picture":"https://woowbe-dev.s3.amazonaws.com/media/pictures/square_picture_ZDYBoWe.jpg","widescreen_picture":"https://woowbe-dev.s3.amazonaws.com/media/pictures/1635148401.jpeg","cover":"https://woowbe-dev.s3.amazonaws.com/media/covers/cover_bpjdx7E.jpg","offers_count":1,"return_period":0},"name":"3€ por tus menus sandwich","kind":"B","reward":"3.00","reward_type":"fixed","standalone":false,"minimum_purchase_amount":"15.00","maximum_reward_amount":null,"campaign":null,"categories":[],"purchases":null,"start_date":"2021-10-25","finish_date":null,"start_time":null,"finish_time":null,"budget":"1.00","instant":false,"offline":true,"online":false,"weekdays":[2,3,4,5],"status":"active","available_percentage":1,"available_rewards":0,"points_of_sale":[357,356,355,354,353,352,351,350,349,348,347,346,345,344,343,342,341,340,339],"created":"2021-10-25T08:03:39.730676Z","access_link":null,"last_reward":null,"applicable":false,"is_used":false},{"id":191,"business":{"id":102,"name":"Sushita","square_picture":"https://woowbe-dev.s3.amazonaws.com/media/pictures/square_picture_VmoZjKe.jpg","widescreen_picture":"https://woowbe-dev.s3.amazonaws.com/media/pictures/1635069991.jpeg","cover":"https://woowbe-dev.s3.amazonaws.com/media/covers/cover_d4UJ9zz.jpg","offers_count":1,"return_period":0},"name":"3€ por cenas de +25€","kind":"B","reward":"3.00","reward_type":"fixed","standalone":false,"minimum_purchase_amount":"25.00","maximum_reward_amount":null,"campaign":null,"categories":[],"purchases":null,"start_date":"2021-10-24","finish_date":null,"start_time":"20:00:00","finish_time":"00:00:00","budget":"1.00","instant":false,"offline":true,"online":false,"weekdays":[3,4,5,6],"status":"active","available_percentage":1,"available_rewards":0,"points_of_sale":[613,612,611,337,336,335,334,333,332,331],"created":"2021-10-24T10:15:24.497236Z","access_link":null,"last_reward":null,"applicable":false,"is_used":false},{"id":435,"business":{"id":246,"name":"Veterinaria QA aaaaaddddddbbbbbbb","square_picture":"https://woowbe-dev.s3.amazonaws.com/media/pictures/1667842927.jpeg","widescreen_picture":"https://woowbe-dev.s3.amazonaws.com/media/pictures/1669722210.jpeg","cover":"https://woowbe-dev.s3.amazonaws.com/media/covers/cover_0hwbWev.jpg","offers_count":1,"return_period":0},"name":"fr ambos","kind":"B","reward":"2.00","reward_type":"fixed","standalone":false,"minimum_purchase_amount":null,"maximum_reward_amount":null,"campaign":null,"categories":[],"purchases":null,"start_date":"2023-02-22","finish_date":"2023-02-28","start_time":null,"finish_time":null,"budget":"0.00","instant":false,"offline":true,"online":false,"weekdays":[1,2,3,4,5,6,7],"status":"finished","available_percentage":0,"available_rewards":0,"points_of_sale":[822,774],"created":"2023-02-22T10:51:33.624454Z","access_link":null,"last_reward":null,"applicable":false,"is_used":false},{"id":306,"business":{"id":185,"name":"inigotest2","square_picture":"https://woowbe-dev.s3.amazonaws.com/media/pictures/square_picture_AMzbBii.jpg","widescreen_picture":"https://woowbe-dev.s3.amazonaws.com/media/pictures/1676631772.jpeg","cover":"https://woowbe-dev.s3.amazonaws.com/media/covers/cover_ejZs8a8.jpg","offers_count":0,"return_period":0},"name":"inigotest programa","kind":"B","reward":"2.00","reward_type":"fixed","standalone":true,"minimum_purchase_amount":"50.00","maximum_reward_amount":null,"campaign":null,"categories":[],"purchases":null,"start_date":"2022-09-07","finish_date":"2022-09-25","start_time":"11:00:00","finish_time":"17:00:00","budget":"0.00","instant":false,"offline":true,"online":false,"weekdays":[1,3,6],"status":"finished","available_percentage":0,"available_rewards":0,"points_of_sale":[685],"created":"2022-09-07T07:52:13.694643Z","access_link":null,"last_reward":null,"applicable":false,"is_used":false},{"id":562,"business":{"id":236,"name":"Yogui QA","square_picture":"https://woowbe-dev.s3.amazonaws.com/media/pictures/1676631810.jpeg","widescreen_picture":"https://woowbe-dev.s3.amazonaws.com/media/pictures/1665492408_Z9SKuNG.jpeg","cover":"https://woowbe-dev.s3.amazonaws.com/media/covers/cover_HYuhoAb.jpg","offers_count":1,"return_period":0},"name":"si tag","kind":"B","reward":"2.00","reward_type":"fixed","standalone":false,"minimum_purchase_amount":null,"maximum_reward_amount":null,"campaign":null,"categories":[],"purchases":null,"start_date":"2023-04-27","finish_date":"2023-04-29","start_time":null,"finish_time":null,"budget":"0.00","instant":false,"offline":true,"online":false,"weekdays":[1,2,3,4,5,6,7],"status":"finished","available_percentage":0,"available_rewards":0,"points_of_sale":[],"created":"2023-04-27T13:11:42.726336Z","access_link":null,"last_reward":null,"applicable":false,"is_used":false},{"id":563,"business":{"id":236,"name":"Yogui QA","square_picture":"https://woowbe-dev.s3.amazonaws.com/media/pictures/1676631810.jpeg","widescreen_picture":"https://woowbe-dev.s3.amazonaws.com/media/pictures/1665492408_Z9SKuNG.jpeg","cover":"https://woowbe-dev.s3.amazonaws.com/media/covers/cover_HYuhoAb.jpg","offers_count":1,"return_period":0},"name":"no tag","kind":"B","reward":"2.00","reward_type":"fixed","standalone":false,"minimum_purchase_amount":null,"maximum_reward_amount":null,"campaign":null,"categories":[],"purchases":null,"start_date":"2023-04-26","finish_date":"2023-04-27","start_time":null,"finish_time":null,"budget":"0.00","instant":false,"offline":true,"online":false,"weekdays":[1,2,3,4,5,6,7],"status":"finished","available_percentage":0,"available_rewards":0,"points_of_sale":[880],"created":"2023-04-27T13:14:01.352963Z","access_link":null,"last_reward":null,"applicable":false,"is_used":false},{"id":241,"business":{"id":129,"name":"Le Pain Quotidien","square_picture":"https://woowbe-dev.s3.amazonaws.com/media/pictures/le-pain-quotidien-logo-1-1.png","widescreen_picture":"https://woowbe-dev.s3.amazonaws.com/media/pictures/1638195543.png","cover":"https://woowbe-dev.s3.amazonaws.com/media/covers/le-pain-quotidien-portada.png","offers_count":0,"return_period":0},"name":"Le Pain Quotidien 2€","kind":"B","reward":"2.00","reward_type":"fixed","standalone":false,"minimum_purchase_amount":"10.00","maximum_reward_amount":null,"campaign":null,"categories":[],"purchases":null,"start_date":"2021-11-29","finish_date":"2022-01-31","start_time":null,"finish_time":null,"budget":"2.00","instant":false,"offline":true,"online":false,"weekdays":[1,2,3,4],"status":"finished","available_percentage":0,"available_rewards":0,"points_of_sale":[550,549,548],"created":"2021-11-29T14:23:29.150639Z","access_link":null,"last_reward":null,"applicable":false,"is_used":false},{"id":303,"business":{"id":184,"name":"Floristeria MariPepis QA","square_picture":"https://woowbe-dev.s3.amazonaws.com/media/pictures/square_picture_wRtqmQ7.jpg","widescreen_picture":"https://woowbe-dev.s3.amazonaws.com/media/pictures/1662040876.jpeg","cover":"https://woowbe-dev.s3.amazonaws.com/media/covers/cover_J8HYh2d.jpg","offers_count":1,"return_period":0},"name":"programa reembolso","kind":"B","reward":"2.00","reward_type":"fixed","standalone":false,"minimum_purchase_amount":null,"maximum_reward_amount":null,"campaign":null,"categories":[],"purchases":null,"start_date":"2022-09-01","finish_date":"2023-03-10","start_time":null,"finish_time":null,"budget":"54.00","instant":false,"offline":true,"online":false,"weekdays":[1,2,3,5,4],"status":"finished","available_percentage":0,"available_rewards":0,"points_of_sale":[683],"created":"2022-09-01T14:41:54.480827Z","access_link":null,"last_reward":null,"applicable":false,"is_used":false},{"id":167,"business":{"id":91,"name":"Juan Valdez","square_picture":"https://woowbe-dev.s3.amazonaws.com/media/pictures/juan-valdez-logo-1-1.png","widescreen_picture":"https://woowbe-dev.s3.amazonaws.com/media/pictures/1634830938.jpeg","cover":"https://woowbe-dev.s3.amazonaws.com/media/covers/cover_ORmai6S.jpg","offers_count":0,"return_period":0},"name":"1 café gratis cada 4 - 2€","kind":"C","reward":"2.00","reward_type":"fixed","standalone":false,"minimum_purchase_amount":null,"maximum_reward_amount":null,"campaign":null,"categories":[],"purchases":4,"start_date":"2021-10-22","finish_date":"2021-12-22","start_time":null,"finish_time":null,"budget":"0.00","instant":false,"offline":true,"online":false,"weekdays":[1,2,3,4,5],"status":"finished","available_percentage":0,"available_rewards":0,"points_of_sale":[228,227,226],"created":"2021-10-22T12:31:19.938119Z","access_link":null,"last_reward":null,"applicable":false,"is_used":false}]}