{"count":295,"next":"https://backend.dev.woowbe.com/api/v1/offers/public/?page=26","previous":"https://backend.dev.woowbe.com/api/v1/offers/public/?page=24","results":[{"id":272,"business":{"id":170,"name":"cafeteria de la reina","square_picture":"https://woowbe-dev.s3.amazonaws.com/media/pictures/square_picture_GEd8GVF.jpg","widescreen_picture":"https://woowbe-dev.s3.amazonaws.com/media/pictures/1655705897.jpeg","cover":"https://woowbe-dev.s3.amazonaws.com/media/covers/cover_ltj2AO6.jpg","offers_count":0,"return_period":0},"name":"ofertón finde semana","kind":"B","reward":"2.00","reward_type":"fixed","standalone":false,"minimum_purchase_amount":"6.00","maximum_reward_amount":null,"campaign":null,"categories":[],"purchases":null,"start_date":"2022-06-20","finish_date":"2022-07-20","start_time":null,"finish_time":null,"budget":"0.00","instant":false,"offline":true,"online":false,"weekdays":[6,7],"status":"finished","available_percentage":0,"available_rewards":0,"points_of_sale":[646],"created":"2022-06-20T07:30:11.223293Z","access_link":null,"last_reward":null,"applicable":false,"is_used":false},{"id":189,"business":{"id":100,"name":"Juicy Avenue","square_picture":"https://woowbe-dev.s3.amazonaws.com/media/pictures/juicy-avenue-logo-16-9.png","widescreen_picture":"https://woowbe-dev.s3.amazonaws.com/media/pictures/1634978514.jpeg","cover":"https://woowbe-dev.s3.amazonaws.com/media/covers/cover_vNoSs89.jpg","offers_count":0,"return_period":0},"name":"2€ por 4 batidos","kind":"C","reward":"2.00","reward_type":"fixed","standalone":false,"minimum_purchase_amount":"6.00","maximum_reward_amount":null,"campaign":null,"categories":[],"purchases":4,"start_date":"2021-10-23","finish_date":"2021-12-23","start_time":null,"finish_time":null,"budget":"0.00","instant":false,"offline":true,"online":false,"weekdays":[1,2,3,4,5],"status":"finished","available_percentage":0,"available_rewards":0,"points_of_sale":[318,317,316,315,314,313,312,311,310],"created":"2021-10-23T08:48:32.502851Z","access_link":null,"last_reward":null,"applicable":false,"is_used":false},{"id":532,"business":{"id":236,"name":"Yogui QA","square_picture":"https://woowbe-dev.s3.amazonaws.com/media/pictures/1676631810.jpeg","widescreen_picture":"https://woowbe-dev.s3.amazonaws.com/media/pictures/1665492408_Z9SKuNG.jpeg","cover":"https://woowbe-dev.s3.amazonaws.com/media/covers/cover_HYuhoAb.jpg","offers_count":1,"return_period":0},"name":"programa par ver ventas","kind":"B","reward":"2.00","reward_type":"fixed","standalone":false,"minimum_purchase_amount":null,"maximum_reward_amount":null,"campaign":null,"categories":[],"purchases":null,"start_date":"2023-03-21","finish_date":"2023-03-29","start_time":null,"finish_time":null,"budget":"2.00","instant":false,"offline":true,"online":false,"weekdays":[1,2,3,4,5,6,7],"status":"finished","available_percentage":0,"available_rewards":0,"points_of_sale":[824],"created":"2023-03-21T12:21:15.305807Z","access_link":null,"last_reward":null,"applicable":false,"is_used":false},{"id":166,"business":{"id":90,"name":"Taco Bell","square_picture":"https://woowbe-dev.s3.amazonaws.com/media/pictures/taco-bell-logo-1-1.png","widescreen_picture":"https://woowbe-dev.s3.amazonaws.com/media/pictures/1634828991.jpeg","cover":"https://woowbe-dev.s3.amazonaws.com/media/covers/cover_hu1AWga.jpg","offers_count":0,"return_period":0},"name":"2€ por compras de 20","kind":"B","reward":"2.00","reward_type":"fixed","standalone":false,"minimum_purchase_amount":"20.00","maximum_reward_amount":null,"campaign":null,"categories":[],"purchases":null,"start_date":"2021-10-22","finish_date":null,"start_time":null,"finish_time":null,"budget":"1.00","instant":false,"offline":true,"online":false,"weekdays":[4,5,6,7],"status":"finished","available_percentage":1,"available_rewards":0,"points_of_sale":[224,223,222,221,220,219,218,217,216,215,214,213,212,211,210,209,208,207,206,205],"created":"2021-10-22T11:49:27.793468Z","access_link":null,"last_reward":null,"applicable":false,"is_used":false},{"id":535,"business":{"id":236,"name":"Yogui QA","square_picture":"https://woowbe-dev.s3.amazonaws.com/media/pictures/1676631810.jpeg","widescreen_picture":"https://woowbe-dev.s3.amazonaws.com/media/pictures/1665492408_Z9SKuNG.jpeg","cover":"https://woowbe-dev.s3.amazonaws.com/media/covers/cover_HYuhoAb.jpg","offers_count":1,"return_period":0},"name":"formato horario","kind":"B","reward":"2.00","reward_type":"fixed","standalone":false,"minimum_purchase_amount":null,"maximum_reward_amount":null,"campaign":null,"categories":[],"purchases":null,"start_date":"2023-03-21","finish_date":"2023-03-29","start_time":"17:00:00","finish_time":"18:00:00","budget":"0.00","instant":false,"offline":true,"online":false,"weekdays":[2],"status":"finished","available_percentage":0,"available_rewards":0,"points_of_sale":[888],"created":"2023-03-21T14:09:32.811333Z","access_link":null,"last_reward":null,"applicable":false,"is_used":false},{"id":371,"business":{"id":180,"name":"Comercio Pilar","square_picture":"https://woowbe-dev.s3.amazonaws.com/media/pictures/1673868213.jpeg","widescreen_picture":"https://woowbe-dev.s3.amazonaws.com/media/pictures/1673868214.jpeg","cover":"https://woowbe-dev.s3.amazonaws.com/media/covers/cover_qCWtnT8.jpg","offers_count":0,"return_period":0},"name":"issue punto inicial","kind":"B","reward":"2.00","reward_type":"fixed","standalone":false,"minimum_purchase_amount":null,"maximum_reward_amount":null,"campaign":null,"categories":[],"purchases":null,"start_date":"2023-01-14","finish_date":"2023-01-15","start_time":null,"finish_time":null,"budget":"0.00","instant":false,"offline":true,"online":false,"weekdays":[1,2,3,4,5,6,7],"status":"finished","available_percentage":0,"available_rewards":0,"points_of_sale":[],"created":"2023-01-16T11:29:51.579571Z","access_link":null,"last_reward":null,"applicable":false,"is_used":false},{"id":370,"business":{"id":180,"name":"Comercio Pilar","square_picture":"https://woowbe-dev.s3.amazonaws.com/media/pictures/1673868213.jpeg","widescreen_picture":"https://woowbe-dev.s3.amazonaws.com/media/pictures/1673868214.jpeg","cover":"https://woowbe-dev.s3.amazonaws.com/media/covers/cover_qCWtnT8.jpg","offers_count":0,"return_period":0},"name":"last rewards reembolso","kind":"B","reward":"2.00","reward_type":"fixed","standalone":false,"minimum_purchase_amount":null,"maximum_reward_amount":null,"campaign":null,"categories":[],"purchases":null,"start_date":"2023-01-16","finish_date":"2023-01-31","start_time":null,"finish_time":null,"budget":"2.00","instant":false,"offline":true,"online":false,"weekdays":[1,2,3,4,5,6,7],"status":"finished","available_percentage":0,"available_rewards":0,"points_of_sale":[],"created":"2023-01-16T11:25:59.819229Z","access_link":null,"last_reward":null,"applicable":false,"is_used":false},{"id":390,"business":{"id":243,"name":"Negocio Facturacion","square_picture":"https://woowbe-dev.s3.amazonaws.com/media/pictures/1676631813.jpeg","widescreen_picture":"https://woowbe-dev.s3.amazonaws.com/media/pictures/1666952262_2VZ6Qea.jpeg","cover":"https://woowbe-dev.s3.amazonaws.com/media/covers/cover_PjPUN60.jpg","offers_count":0,"return_period":0},"name":"marca + franquicia","kind":"B","reward":"2.00","reward_type":"fixed","standalone":false,"minimum_purchase_amount":null,"maximum_reward_amount":null,"campaign":null,"categories":[],"purchases":null,"start_date":"2023-01-26","finish_date":"2023-02-26","start_time":null,"finish_time":null,"budget":"0.00","instant":false,"offline":true,"online":false,"weekdays":[1,2,3,4,5,6,7],"status":"finished","available_percentage":0,"available_rewards":0,"points_of_sale":[786],"created":"2023-01-26T16:48:37.601574Z","access_link":null,"last_reward":null,"applicable":false,"is_used":false},{"id":391,"business":{"id":243,"name":"Negocio Facturacion","square_picture":"https://woowbe-dev.s3.amazonaws.com/media/pictures/1676631813.jpeg","widescreen_picture":"https://woowbe-dev.s3.amazonaws.com/media/pictures/1666952262_2VZ6Qea.jpeg","cover":"https://woowbe-dev.s3.amazonaws.com/media/covers/cover_PjPUN60.jpg","offers_count":0,"return_period":0},"name":"aaa","kind":"B","reward":"2.00","reward_type":"fixed","standalone":false,"minimum_purchase_amount":null,"maximum_reward_amount":null,"campaign":null,"categories":[],"purchases":null,"start_date":"2023-01-30","finish_date":"2023-03-30","start_time":null,"finish_time":null,"budget":"0.00","instant":false,"offline":true,"online":false,"weekdays":[3],"status":"finished","available_percentage":0,"available_rewards":0,"points_of_sale":[],"created":"2023-01-30T17:00:10.096359Z","access_link":null,"last_reward":null,"applicable":false,"is_used":false},{"id":392,"business":{"id":243,"name":"Negocio Facturacion","square_picture":"https://woowbe-dev.s3.amazonaws.com/media/pictures/1676631813.jpeg","widescreen_picture":"https://woowbe-dev.s3.amazonaws.com/media/pictures/1666952262_2VZ6Qea.jpeg","cover":"https://woowbe-dev.s3.amazonaws.com/media/covers/cover_PjPUN60.jpg","offers_count":0,"return_period":0},"name":"detalle programa franquiciad","kind":"B","reward":"2.00","reward_type":"fixed","standalone":false,"minimum_purchase_amount":null,"maximum_reward_amount":null,"campaign":null,"categories":[],"purchases":null,"start_date":"2023-01-31","finish_date":"2023-02-28","start_time":null,"finish_time":null,"budget":"0.00","instant":false,"offline":true,"online":false,"weekdays":[1,2,3],"status":"finished","available_percentage":0,"available_rewards":0,"points_of_sale":[],"created":"2023-01-31T13:34:27.643957Z","access_link":null,"last_reward":null,"applicable":false,"is_used":false}]}