{"count":295,"next":"https://backend.dev.woowbe.com/api/v1/offers/public/?page=27","previous":"https://backend.dev.woowbe.com/api/v1/offers/public/?page=25","results":[{"id":395,"business":{"id":236,"name":"Yogui QA","square_picture":"https://woowbe-dev.s3.amazonaws.com/media/pictures/1676631810.jpeg","widescreen_picture":"https://woowbe-dev.s3.amazonaws.com/media/pictures/1665492408_Z9SKuNG.jpeg","cover":"https://woowbe-dev.s3.amazonaws.com/media/covers/cover_HYuhoAb.jpg","offers_count":1,"return_period":0},"name":"programa unico PV","kind":"B","reward":"2.00","reward_type":"fixed","standalone":false,"minimum_purchase_amount":null,"maximum_reward_amount":null,"campaign":null,"categories":[],"purchases":null,"start_date":"2023-01-31","finish_date":"2023-03-31","start_time":null,"finish_time":null,"budget":"0.00","instant":false,"offline":true,"online":false,"weekdays":[1,2,3,4,5,6,7],"status":"finished","available_percentage":0,"available_rewards":0,"points_of_sale":[],"created":"2023-01-31T14:50:08.092531Z","access_link":null,"last_reward":null,"applicable":false,"is_used":false},{"id":398,"business":{"id":89,"name":"Aloha Poke","square_picture":"https://woowbe-dev.s3.amazonaws.com/media/pictures/aloha-poke-logo-1-1.png","widescreen_picture":"https://woowbe-dev.s3.amazonaws.com/media/pictures/1634827016.jpeg","cover":"https://woowbe-dev.s3.amazonaws.com/media/covers/cover_0XysFRk.jpg","offers_count":4,"return_period":0},"name":"Pruba 2 franquiciados","kind":"B","reward":"2.00","reward_type":"fixed","standalone":false,"minimum_purchase_amount":null,"maximum_reward_amount":null,"campaign":null,"categories":[],"purchases":null,"start_date":"2023-01-31","finish_date":"2023-07-31","start_time":null,"finish_time":null,"budget":"20.00","instant":false,"offline":true,"online":false,"weekdays":[4,5],"status":"active","available_percentage":1,"available_rewards":10,"points_of_sale":[797,796,795,794,197,196,195,194,193,192],"created":"2023-01-31T16:05:06.725242Z","access_link":null,"last_reward":null,"applicable":false,"is_used":false},{"id":364,"business":{"id":254,"name":"prueba FRANQUICIAS MARCA iñigo","square_picture":"https://woowbe-dev.s3.amazonaws.com/media/pictures/square_picture_re1giyA.jpg","widescreen_picture":"https://woowbe-dev.s3.amazonaws.com/media/pictures/1671614454.jpeg","cover":"https://woowbe-dev.s3.amazonaws.com/media/covers/cover_YpmEHUW.jpg","offers_count":0,"return_period":12},"name":"iñigo enero","kind":"A","reward":"2.00","reward_type":"percentage","standalone":false,"minimum_purchase_amount":"2.00","maximum_reward_amount":"10.00","campaign":null,"categories":[],"purchases":null,"start_date":"2023-01-04","finish_date":"2023-07-04","start_time":null,"finish_time":null,"budget":"0.00","instant":false,"offline":true,"online":false,"weekdays":[1,2,3,4,5,6,7],"status":"finished","available_percentage":0,"available_rewards":null,"points_of_sale":[770,760,759],"created":"2023-01-04T12:04:41.033609Z","access_link":null,"last_reward":null,"applicable":false,"is_used":false},{"id":355,"business":{"id":252,"name":"Cosméticos QA Franquiciado","square_picture":"https://woowbe-dev.s3.amazonaws.com/media/pictures/1669720371.jpeg","widescreen_picture":"https://woowbe-dev.s3.amazonaws.com/media/pictures/1669720371_Aga8oWX.jpeg","cover":"https://woowbe-dev.s3.amazonaws.com/media/covers/cover_PNbDalT.jpg","offers_count":0,"return_period":0},"name":"cosmeticos chulis","kind":"B","reward":"2.00","reward_type":"fixed","standalone":false,"minimum_purchase_amount":null,"maximum_reward_amount":null,"campaign":null,"categories":[],"purchases":null,"start_date":"2022-11-29","finish_date":"2022-12-30","start_time":"10:00:00","finish_time":"18:00:00","budget":"0.00","instant":false,"offline":true,"online":false,"weekdays":[1,2,3,4,5,6],"status":"finished","available_percentage":0,"available_rewards":0,"points_of_sale":[744,743],"created":"2022-11-29T11:29:18.728808Z","access_link":null,"last_reward":null,"applicable":false,"is_used":false},{"id":402,"business":{"id":236,"name":"Yogui QA","square_picture":"https://woowbe-dev.s3.amazonaws.com/media/pictures/1676631810.jpeg","widescreen_picture":"https://woowbe-dev.s3.amazonaws.com/media/pictures/1665492408_Z9SKuNG.jpeg","cover":"https://woowbe-dev.s3.amazonaws.com/media/covers/cover_HYuhoAb.jpg","offers_count":1,"return_period":0},"name":"test","kind":"B","reward":"2.00","reward_type":"fixed","standalone":false,"minimum_purchase_amount":null,"maximum_reward_amount":null,"campaign":null,"categories":[],"purchases":null,"start_date":"2023-02-01","finish_date":"2023-04-01","start_time":null,"finish_time":null,"budget":"2.00","instant":false,"offline":true,"online":false,"weekdays":[1,2,3,4,5,6,7],"status":"finished","available_percentage":0,"available_rewards":0,"points_of_sale":[],"created":"2023-02-01T15:45:42.823104Z","access_link":null,"last_reward":null,"applicable":false,"is_used":false},{"id":350,"business":{"id":246,"name":"Veterinaria QA aaaaaddddddbbbbbbb","square_picture":"https://woowbe-dev.s3.amazonaws.com/media/pictures/1667842927.jpeg","widescreen_picture":"https://woowbe-dev.s3.amazonaws.com/media/pictures/1669722210.jpeg","cover":"https://woowbe-dev.s3.amazonaws.com/media/covers/cover_0hwbWev.jpg","offers_count":1,"return_period":0},"name":"vete devolucion","kind":"B","reward":"2.00","reward_type":"fixed","standalone":false,"minimum_purchase_amount":null,"maximum_reward_amount":null,"campaign":null,"categories":[],"purchases":null,"start_date":"2022-11-22","finish_date":"2023-02-22","start_time":null,"finish_time":null,"budget":"0.00","instant":false,"offline":true,"online":false,"weekdays":[1,2,3,4,5,6,7],"status":"finished","available_percentage":0,"available_rewards":0,"points_of_sale":[735],"created":"2022-11-22T16:12:29.191882Z","access_link":null,"last_reward":null,"applicable":false,"is_used":false},{"id":543,"business":{"id":236,"name":"Yogui QA","square_picture":"https://woowbe-dev.s3.amazonaws.com/media/pictures/1676631810.jpeg","widescreen_picture":"https://woowbe-dev.s3.amazonaws.com/media/pictures/1665492408_Z9SKuNG.jpeg","cover":"https://woowbe-dev.s3.amazonaws.com/media/covers/cover_HYuhoAb.jpg","offers_count":1,"return_period":0},"name":"notificaciones ultimo punto de venta borrado","kind":"B","reward":"2.00","reward_type":"fixed","standalone":false,"minimum_purchase_amount":null,"maximum_reward_amount":null,"campaign":null,"categories":[],"purchases":null,"start_date":"2023-03-23","finish_date":"2023-03-31","start_time":null,"finish_time":null,"budget":"4.00","instant":false,"offline":true,"online":false,"weekdays":[1,2,3,4,5,6,7],"status":"finished","available_percentage":0,"available_rewards":0,"points_of_sale":[],"created":"2023-03-28T14:06:18.011251Z","access_link":null,"last_reward":null,"applicable":false,"is_used":false},{"id":544,"business":{"id":236,"name":"Yogui QA","square_picture":"https://woowbe-dev.s3.amazonaws.com/media/pictures/1676631810.jpeg","widescreen_picture":"https://woowbe-dev.s3.amazonaws.com/media/pictures/1665492408_Z9SKuNG.jpeg","cover":"https://woowbe-dev.s3.amazonaws.com/media/covers/cover_HYuhoAb.jpg","offers_count":1,"return_period":0},"name":"noti 2","kind":"B","reward":"2.00","reward_type":"fixed","standalone":false,"minimum_purchase_amount":null,"maximum_reward_amount":null,"campaign":null,"categories":[],"purchases":null,"start_date":"2023-03-28","finish_date":"2023-04-07","start_time":null,"finish_time":null,"budget":"2.00","instant":false,"offline":true,"online":false,"weekdays":[1,2,3,4,5,6,7],"status":"finished","available_percentage":0,"available_rewards":0,"points_of_sale":[],"created":"2023-03-30T15:43:26.803007Z","access_link":null,"last_reward":null,"applicable":false,"is_used":false},{"id":546,"business":{"id":246,"name":"Veterinaria QA aaaaaddddddbbbbbbb","square_picture":"https://woowbe-dev.s3.amazonaws.com/media/pictures/1667842927.jpeg","widescreen_picture":"https://woowbe-dev.s3.amazonaws.com/media/pictures/1669722210.jpeg","cover":"https://woowbe-dev.s3.amazonaws.com/media/covers/cover_0hwbWev.jpg","offers_count":1,"return_period":0},"name":"mail programado a activo","kind":"B","reward":"2.00","reward_type":"fixed","standalone":false,"minimum_purchase_amount":null,"maximum_reward_amount":null,"campaign":null,"categories":[],"purchases":null,"start_date":"2023-04-04","finish_date":"2023-04-08","start_time":null,"finish_time":null,"budget":"0.00","instant":false,"offline":true,"online":false,"weekdays":[1,2,3,4,5,6,7],"status":"finished","available_percentage":0,"available_rewards":0,"points_of_sale":[822],"created":"2023-04-04T15:31:29.818235Z","access_link":null,"last_reward":null,"applicable":false,"is_used":false},{"id":434,"business":{"id":246,"name":"Veterinaria QA aaaaaddddddbbbbbbb","square_picture":"https://woowbe-dev.s3.amazonaws.com/media/pictures/1667842927.jpeg","widescreen_picture":"https://woowbe-dev.s3.amazonaws.com/media/pictures/1669722210.jpeg","cover":"https://woowbe-dev.s3.amazonaws.com/media/covers/cover_0hwbWev.jpg","offers_count":1,"return_period":0},"name":"fr solo franquicia auto","kind":"B","reward":"2.00","reward_type":"fixed","standalone":false,"minimum_purchase_amount":null,"maximum_reward_amount":null,"campaign":null,"categories":[],"purchases":null,"start_date":"2023-02-22","finish_date":"2023-02-28","start_time":null,"finish_time":null,"budget":"0.00","instant":false,"offline":true,"online":false,"weekdays":[1,2,3,4,5,6,7],"status":"finished","available_percentage":0,"available_rewards":0,"points_of_sale":[822],"created":"2023-02-22T10:45:43.673753Z","access_link":null,"last_reward":null,"applicable":false,"is_used":false}]}