{
	"count": 295,
	"next": "https://backend.dev.woowbe.com/api/v1/offers/public/?page=28",
	"previous": "https://backend.dev.woowbe.com/api/v1/offers/public/?page=26",
	"results": [
		{
			"id": 500,
			"business": {
				"id": 241,
				"name": "Churreria churrito feliz",
				"square_picture": "https://woowbe-dev.s3.amazonaws.com/media/pictures/1676631812.jpeg",
				"widescreen_picture": "https://woowbe-dev.s3.amazonaws.com/media/pictures/1676631812_lJI83Xu.jpeg",
				"cover": "https://woowbe-dev.s3.amazonaws.com/media/covers/cover_sYvVFYh.jpg",
				"offers_count": 0,
				"return_period": 0
			},
			"name": "solo franquicia mail",
			"kind": "B",
			"reward": "2.00",
			"reward_type": "fixed",
			"standalone": false,
			"minimum_purchase_amount": null,
			"maximum_reward_amount": null,
			"campaign": null,
			"categories": [],
			"purchases": null,
			"start_date": "2023-03-03",
			"finish_date": "2023-05-03",
			"start_time": null,
			"finish_time": null,
			"budget": "2.00",
			"instant": false,
			"offline": true,
			"online": false,
			"weekdays": [
				1,
				2,
				3,
				4,
				5,
				6,
				7
			],
			"status": "finished",
			"available_percentage": 0,
			"available_rewards": 0,
			"points_of_sale": [],
			"created": "2023-03-03T09:42:18.669743Z",
			"access_link": null,
			"last_reward": null,
			"applicable": false,
			"is_used": false
		},
		{
			"id": 436,
			"business": {
				"id": 246,
				"name": "Veterinaria QA aaaaaddddddbbbbbbb",
				"square_picture": "https://woowbe-dev.s3.amazonaws.com/media/pictures/1667842927.jpeg",
				"widescreen_picture": "https://woowbe-dev.s3.amazonaws.com/media/pictures/1669722210.jpeg",
				"cover": "https://woowbe-dev.s3.amazonaws.com/media/covers/cover_0hwbWev.jpg",
				"offers_count": 1,
				"return_period": 0
			},
			"name": "fr ambos auto",
			"kind": "B",
			"reward": "2.00",
			"reward_type": "fixed",
			"standalone": false,
			"minimum_purchase_amount": null,
			"maximum_reward_amount": null,
			"campaign": null,
			"categories": [],
			"purchases": null,
			"start_date": "2023-02-22",
			"finish_date": "2023-02-28",
			"start_time": null,
			"finish_time": null,
			"budget": "0.00",
			"instant": false,
			"offline": true,
			"online": false,
			"weekdays": [
				1,
				2,
				3,
				4,
				5,
				6,
				7
			],
			"status": "finished",
			"available_percentage": 0,
			"available_rewards": 0,
			"points_of_sale": [
				822,
				735
			],
			"created": "2023-02-22T10:55:41.678219Z",
			"access_link": null,
			"last_reward": null,
			"applicable": false,
			"is_used": false
		},
		{
			"id": 333,
			"business": {
				"id": 236,
				"name": "Yogui QA",
				"square_picture": "https://woowbe-dev.s3.amazonaws.com/media/pictures/1676631810.jpeg",
				"widescreen_picture": "https://woowbe-dev.s3.amazonaws.com/media/pictures/1665492408_Z9SKuNG.jpeg",
				"cover": "https://woowbe-dev.s3.amazonaws.com/media/covers/cover_HYuhoAb.jpg",
				"offers_count": 1,
				"return_period": 0
			},
			"name": "Yogui franquicias",
			"kind": "B",
			"reward": "2.00",
			"reward_type": "fixed",
			"standalone": false,
			"minimum_purchase_amount": null,
			"maximum_reward_amount": null,
			"campaign": null,
			"categories": [],
			"purchases": null,
			"start_date": "2022-10-24",
			"finish_date": "2023-01-24",
			"start_time": null,
			"finish_time": null,
			"budget": "0.00",
			"instant": false,
			"offline": true,
			"online": false,
			"weekdays": [
				1,
				2,
				3,
				4,
				5,
				6,
				7
			],
			"status": "finished",
			"available_percentage": 0,
			"available_rewards": 0,
			"points_of_sale": [],
			"created": "2022-10-24T10:24:32.333224Z",
			"access_link": null,
			"last_reward": null,
			"applicable": false,
			"is_used": false
		},
		{
			"id": 317,
			"business": {
				"id": 208,
				"name": "demomartes",
				"square_picture": "https://woowbe-dev.s3.amazonaws.com/media/pictures/square_picture_SQGSdpA.jpg",
				"widescreen_picture": "https://woowbe-dev.s3.amazonaws.com/media/pictures/widescreen_picture_6WSy6BM.jpg",
				"cover": "https://woowbe-dev.s3.amazonaws.com/media/covers/cover_I54WtiB.jpg",
				"offers_count": 0,
				"return_period": 0
			},
			"name": "test",
			"kind": "C",
			"reward": "2.00",
			"reward_type": "fixed",
			"standalone": true,
			"minimum_purchase_amount": "15.00",
			"maximum_reward_amount": null,
			"campaign": null,
			"categories": [],
			"purchases": 6,
			"start_date": "2022-09-13",
			"finish_date": "2022-10-13",
			"start_time": "12:00:00",
			"finish_time": "16:00:00",
			"budget": "0.00",
			"instant": false,
			"offline": true,
			"online": false,
			"weekdays": [
				1,
				2,
				3,
				4,
				5
			],
			"status": "finished",
			"available_percentage": 0,
			"available_rewards": 0,
			"points_of_sale": [
				697
			],
			"created": "2022-09-13T09:43:11.923957Z",
			"access_link": null,
			"last_reward": null,
			"applicable": false,
			"is_used": false
		},
		{
			"id": 499,
			"business": {
				"id": 260,
				"name": "Prueba devolucion presupuesto",
				"square_picture": "https://woowbe-dev.s3.amazonaws.com/media/pictures/square_picture_wGfyXAX.jpg",
				"widescreen_picture": "https://woowbe-dev.s3.amazonaws.com/media/pictures/1673614842.jpeg",
				"cover": "https://woowbe-dev.s3.amazonaws.com/media/covers/cover_H4n5vL4.jpg",
				"offers_count": 0,
				"return_period": 3
			},
			"name": "cierre manual dev con tx",
			"kind": "B",
			"reward": "2.00",
			"reward_type": "fixed",
			"standalone": false,
			"minimum_purchase_amount": null,
			"maximum_reward_amount": null,
			"campaign": null,
			"categories": [],
			"purchases": null,
			"start_date": "2023-02-23",
			"finish_date": "2023-02-28",
			"start_time": null,
			"finish_time": null,
			"budget": "2.00",
			"instant": false,
			"offline": true,
			"online": false,
			"weekdays": [
				1,
				2,
				3,
				4,
				5,
				6,
				7
			],
			"status": "finished",
			"available_percentage": 0,
			"available_rewards": 0,
			"points_of_sale": [
				850
			],
			"created": "2023-03-01T11:12:07.099855Z",
			"access_link": null,
			"last_reward": null,
			"applicable": false,
			"is_used": false
		},
		{
			"id": 375,
			"business": {
				"id": 180,
				"name": "Comercio Pilar",
				"square_picture": "https://woowbe-dev.s3.amazonaws.com/media/pictures/1673868213.jpeg",
				"widescreen_picture": "https://woowbe-dev.s3.amazonaws.com/media/pictures/1673868214.jpeg",
				"cover": "https://woowbe-dev.s3.amazonaws.com/media/covers/cover_qCWtnT8.jpg",
				"offers_count": 0,
				"return_period": 0
			},
			"name": "last reward sellos",
			"kind": "C",
			"reward": "1.00",
			"reward_type": "fixed",
			"standalone": false,
			"minimum_purchase_amount": null,
			"maximum_reward_amount": null,
			"campaign": null,
			"categories": [],
			"purchases": 4,
			"start_date": "2023-01-16",
			"finish_date": "2023-01-31",
			"start_time": null,
			"finish_time": null,
			"budget": "0.00",
			"instant": false,
			"offline": true,
			"online": false,
			"weekdays": [],
			"status": "finished",
			"available_percentage": 0,
			"available_rewards": 0,
			"points_of_sale": [],
			"created": "2023-01-16T17:10:41.282055Z",
			"access_link": null,
			"last_reward": null,
			"applicable": false,
			"is_used": false
		},
		{
			"id": 365,
			"business": {
				"id": 236,
				"name": "Yogui QA",
				"square_picture": "https://woowbe-dev.s3.amazonaws.com/media/pictures/1676631810.jpeg",
				"widescreen_picture": "https://woowbe-dev.s3.amazonaws.com/media/pictures/1665492408_Z9SKuNG.jpeg",
				"cover": "https://woowbe-dev.s3.amazonaws.com/media/covers/cover_HYuhoAb.jpg",
				"offers_count": 1,
				"return_period": 0
			},
			"name": "programa 1 sello",
			"kind": "C",
			"reward": "1.00",
			"reward_type": "fixed",
			"standalone": false,
			"minimum_purchase_amount": null,
			"maximum_reward_amount": null,
			"campaign": null,
			"categories": [],
			"purchases": 1,
			"start_date": "2023-01-05",
			"finish_date": "2023-01-22",
			"start_time": null,
			"finish_time": null,
			"budget": "1.00",
			"instant": false,
			"offline": true,
			"online": false,
			"weekdays": [
				1,
				2,
				3,
				4,
				5,
				6,
				7
			],
			"status": "finished",
			"available_percentage": 0,
			"available_rewards": 0,
			"points_of_sale": [
				715
			],
			"created": "2023-01-05T16:44:22.024438Z",
			"access_link": null,
			"last_reward": null,
			"applicable": false,
			"is_used": false
		},
		{
			"id": 257,
			"business": {
				"id": 143,
				"name": "Test App",
				"square_picture": "https://woowbe-dev.s3.amazonaws.com/media/pictures/1667494635.jpeg",
				"widescreen_picture": "https://woowbe-dev.s3.amazonaws.com/media/pictures/widescreen_picture_ZiLjO4p.jpg",
				"cover": "https://woowbe-dev.s3.amazonaws.com/media/covers/cover_kvUvSKN.jpg",
				"offers_count": 16,
				"return_period": 0
			},
			"name": "asd",
			"kind": "A",
			"reward": "15.00",
			"reward_type": "percentage",
			"standalone": false,
			"minimum_purchase_amount": null,
			"maximum_reward_amount": null,
			"campaign": null,
			"categories": [],
			"purchases": null,
			"start_date": "2022-05-24",
			"finish_date": "2022-05-30",
			"start_time": null,
			"finish_time": null,
			"budget": "0.00",
			"instant": false,
			"offline": false,
			"online": true,
			"weekdays": [
				3,
				4
			],
			"status": "finished",
			"available_percentage": 0,
			"available_rewards": null,
			"points_of_sale": [
				849
			],
			"created": "2022-05-24T21:05:43.757510Z",
			"access_link": "https://backend.dev.woowbe.com/points/access/6412e7dab4f8db594a8254e3f7f0060924f342df65e35947821dded0d2288d9a2b47cde90d2aa5f37dbaca583cb430c4587b36a65e2756a2452ba2b5f9f35ad5/00ba6c3aedda378021dd1d1aac7d7f626b168c4ffcdcc27b69d1ba835c850422b76885b642a67dbcfabd88a8371409cd75f2876af8b55d4899becb082d4ca659/",
			"last_reward": null,
			"applicable": false,
			"is_used": false
		},
		{
			"id": 328,
			"business": {
				"id": 177,
				"name": "Cafeteria QA",
				"square_picture": "https://woowbe-dev.s3.amazonaws.com/media/pictures/square_picture_L5L56Sl.jpg",
				"widescreen_picture": "https://woowbe-dev.s3.amazonaws.com/media/pictures/1664189138.jpeg",
				"cover": "https://woowbe-dev.s3.amazonaws.com/media/covers/cover_vO8upz4.jpg",
				"offers_count": 0,
				"return_period": 0
			},
			"name": "online",
			"kind": "A",
			"reward": "15.00",
			"reward_type": "percentage",
			"standalone": false,
			"minimum_purchase_amount": null,
			"maximum_reward_amount": null,
			"campaign": null,
			"categories": [],
			"purchases": null,
			"start_date": "2022-10-11",
			"finish_date": "2022-10-31",
			"start_time": null,
			"finish_time": null,
			"budget": "0.00",
			"instant": false,
			"offline": false,
			"online": true,
			"weekdays": [
				1,
				2,
				3,
				4,
				5,
				6,
				7
			],
			"status": "finished",
			"available_percentage": 0,
			"available_rewards": null,
			"points_of_sale": [
				661
			],
			"created": "2022-10-11T09:02:53.081167Z",
			"access_link": "https://backend.dev.woowbe.com/points/access/90304855810b02c800e61b998dec901b5a72c406ddf89c5b452bd3f3d48e55252724fcfee37453ff146e1ec2e19a34f5b86d6ddcc4e4ae49d3c8375c6ab04a20/00ba6c3aedda378021dd1d1aac7d7f626b168c4ffcdcc27b69d1ba835c850422b76885b642a67dbcfabd88a8371409cd75f2876af8b55d4899becb082d4ca659/",
			"last_reward": null,
			"applicable": false,
			"is_used": false
		},
		{
			"id": 292,
			"business": {
				"id": 177,
				"name": "Cafeteria QA",
				"square_picture": "https://woowbe-dev.s3.amazonaws.com/media/pictures/square_picture_L5L56Sl.jpg",
				"widescreen_picture": "https://woowbe-dev.s3.amazonaws.com/media/pictures/1664189138.jpeg",
				"cover": "https://woowbe-dev.s3.amazonaws.com/media/covers/cover_vO8upz4.jpg",
				"offers_count": 0,
				"return_period": 0
			},
			"name": "programa 3",
			"kind": "A",
			"reward": "15.00",
			"reward_type": "percentage",
			"standalone": false,
			"minimum_purchase_amount": null,
			"maximum_reward_amount": null,
			"campaign": null,
			"categories": [],
			"purchases": null,
			"start_date": "2022-08-22",
			"finish_date": "2022-08-24",
			"start_time": null,
			"finish_time": null,
			"budget": "0.00",
			"instant": false,
			"offline": false,
			"online": true,
			"weekdays": [
				3
			],
			"status": "finished",
			"available_percentage": 0,
			"available_rewards": null,
			"points_of_sale": [
				661
			],
			"created": "2022-08-22T13:44:24.608256Z",
			"access_link": "https://backend.dev.woowbe.com/points/access/90304855810b02c800e61b998dec901b5a72c406ddf89c5b452bd3f3d48e55252724fcfee37453ff146e1ec2e19a34f5b86d6ddcc4e4ae49d3c8375c6ab04a20/00ba6c3aedda378021dd1d1aac7d7f626b168c4ffcdcc27b69d1ba835c850422b76885b642a67dbcfabd88a8371409cd75f2876af8b55d4899becb082d4ca659/",
			"last_reward": null,
			"applicable": false,
			"is_used": false
		}
	]
}
