{
	"count": 295,
	"next": "https://backend.dev.woowbe.com/api/v1/offers/public/?page=29",
	"previous": "https://backend.dev.woowbe.com/api/v1/offers/public/?page=27",
	"results": [
		{
			"id": 553,
			"business": {
				"id": 118,
				"name": "New York Burger",
				"square_picture": "https://woowbe-dev.s3.amazonaws.com/media/pictures/newyorkburger-logo-1-1.jpeg",
				"widescreen_picture": "https://woowbe-dev.s3.amazonaws.com/media/pictures/newyorkburger-logo-16-9.jpeg",
				"cover": "https://woowbe-dev.s3.amazonaws.com/media/covers/newyorkburger-portada.jpeg",
				"offers_count": 3,
				"return_period": 0
			},
			"name": "example",
			"kind": "A",
			"reward": "10.00",
			"reward_type": "percentage",
			"standalone": false,
			"minimum_purchase_amount": null,
			"maximum_reward_amount": null,
			"campaign": null,
			"categories": [],
			"purchases": null,
			"start_date": "2023-04-20",
			"finish_date": "2023-05-20",
			"start_time": null,
			"finish_time": null,
			"budget": "0.00",
			"instant": false,
			"offline": false,
			"online": true,
			"weekdays": [
				3,
				4
			],
			"status": "finished",
			"available_percentage": 0,
			"available_rewards": null,
			"points_of_sale": [
				757,
				756,
				755,
				754
			],
			"created": "2023-04-20T09:15:53.086958Z",
			"access_link": "https://backend.dev.woowbe.com/points/access/c581f37c39b1e9aafc04ad9e0cbcd003844dc3d34d1a83d5a45f95cbf24aee341debc6fc297e1f5d169975c1b1311af756f132773fd02ddb55057834851e2f9e/00ba6c3aedda378021dd1d1aac7d7f626b168c4ffcdcc27b69d1ba835c850422b76885b642a67dbcfabd88a8371409cd75f2876af8b55d4899becb082d4ca659/",
			"last_reward": null,
			"applicable": false,
			"is_used": false
		},
		{
			"id": 354,
			"business": {
				"id": 251,
				"name": "Starbucks",
				"square_picture": "https://woowbe-dev.s3.amazonaws.com/media/pictures/square_picture_ZWnzePl.jpg",
				"widescreen_picture": "https://woowbe-dev.s3.amazonaws.com/media/pictures/1669300395.jpeg",
				"cover": "https://woowbe-dev.s3.amazonaws.com/media/covers/cover_W8n00mn.jpg",
				"offers_count": 0,
				"return_period": 0
			},
			"name": "Black Friday",
			"kind": "A",
			"reward": "10.00",
			"reward_type": "percentage",
			"standalone": false,
			"minimum_purchase_amount": "15.00",
			"maximum_reward_amount": "15.00",
			"campaign": null,
			"categories": [],
			"purchases": null,
			"start_date": "2022-11-24",
			"finish_date": "2022-12-24",
			"start_time": null,
			"finish_time": null,
			"budget": "0.00",
			"instant": false,
			"offline": false,
			"online": true,
			"weekdays": [
				1,
				2,
				3,
				4,
				5
			],
			"status": "finished",
			"available_percentage": 0,
			"available_rewards": null,
			"points_of_sale": [
				737
			],
			"created": "2022-11-24T15:00:21.986363Z",
			"access_link": "https://backend.dev.woowbe.com/points/access/95696184268dcb9b32c10ef4e208172a4fd2b12424643bcb2389d83ea46e25947003447fa50954808197dda7f2365ad1d5fcaa6dd3e59846e7e139988ab1ebaa/00ba6c3aedda378021dd1d1aac7d7f626b168c4ffcdcc27b69d1ba835c850422b76885b642a67dbcfabd88a8371409cd75f2876af8b55d4899becb082d4ca659/",
			"last_reward": null,
			"applicable": false,
			"is_used": false
		},
		{
			"id": 578,
			"business": {
				"id": 143,
				"name": "Test App",
				"square_picture": "https://woowbe-dev.s3.amazonaws.com/media/pictures/1667494635.jpeg",
				"widescreen_picture": "https://woowbe-dev.s3.amazonaws.com/media/pictures/widescreen_picture_ZiLjO4p.jpg",
				"cover": "https://woowbe-dev.s3.amazonaws.com/media/covers/cover_kvUvSKN.jpg",
				"offers_count": 16,
				"return_period": 0
			},
			"name": "Ejemplpo",
			"kind": "A",
			"reward": "10.00",
			"reward_type": "percentage",
			"standalone": false,
			"minimum_purchase_amount": null,
			"maximum_reward_amount": null,
			"campaign": null,
			"categories": [],
			"purchases": null,
			"start_date": "2023-05-29",
			"finish_date": "2023-08-29",
			"start_time": "12:00:00",
			"finish_time": "18:00:00",
			"budget": "1.00",
			"instant": false,
			"offline": false,
			"online": true,
			"weekdays": [
				1,
				2,
				3,
				4
			],
			"status": "active",
			"available_percentage": 1,
			"available_rewards": null,
			"points_of_sale": [
				849
			],
			"created": "2023-05-29T14:07:37.662338Z",
			"access_link": "https://backend.dev.woowbe.com/points/access/6412e7dab4f8db594a8254e3f7f0060924f342df65e35947821dded0d2288d9a2b47cde90d2aa5f37dbaca583cb430c4587b36a65e2756a2452ba2b5f9f35ad5/00ba6c3aedda378021dd1d1aac7d7f626b168c4ffcdcc27b69d1ba835c850422b76885b642a67dbcfabd88a8371409cd75f2876af8b55d4899becb082d4ca659/",
			"last_reward": null,
			"applicable": false,
			"is_used": false
		},
		{
			"id": 253,
			"business": {
				"id": 30,
				"name": "Empanadas Malvon",
				"square_picture": "https://woowbe-dev.s3.amazonaws.com/media/pictures/square_picture_GeCFiw9.jpg",
				"widescreen_picture": "https://woowbe-dev.s3.amazonaws.com/media/pictures/1624001112.jpeg",
				"cover": "https://woowbe-dev.s3.amazonaws.com/media/covers/cover_Xt19oj5.jpg",
				"offers_count": 1,
				"return_period": 0
			},
			"name": "Oferta para finalizar",
			"kind": "A",
			"reward": "10.00",
			"reward_type": "percentage",
			"standalone": false,
			"minimum_purchase_amount": "25.00",
			"maximum_reward_amount": null,
			"campaign": null,
			"categories": [],
			"purchases": null,
			"start_date": "2022-05-05",
			"finish_date": null,
			"start_time": "08:57:42",
			"finish_time": "11:57:44",
			"budget": "3000.00",
			"instant": false,
			"offline": false,
			"online": true,
			"weekdays": [
				1,
				2,
				3,
				4
			],
			"status": "active",
			"available_percentage": 1,
			"available_rewards": null,
			"points_of_sale": [
				87,
				85,
				84
			],
			"created": "2022-05-05T08:10:06.673304Z",
			"access_link": null,
			"last_reward": null,
			"applicable": false,
			"is_used": false
		},
		{
			"id": 275,
			"business": {
				"id": 138,
				"name": "NewCOM Business",
				"square_picture": "https://woowbe-dev.s3.amazonaws.com/media/pictures/square_picture_ojLUO22.jpg",
				"widescreen_picture": "https://woowbe-dev.s3.amazonaws.com/media/pictures/1649862498.jpeg",
				"cover": "https://woowbe-dev.s3.amazonaws.com/media/covers/cover_BYp7Oqs.jpg",
				"offers_count": 0,
				"return_period": 0
			},
			"name": "prueba contrato",
			"kind": "B",
			"reward": "10.00",
			"reward_type": "fixed",
			"standalone": false,
			"minimum_purchase_amount": "30.00",
			"maximum_reward_amount": null,
			"campaign": null,
			"categories": [],
			"purchases": null,
			"start_date": "2022-07-01",
			"finish_date": "2022-09-01",
			"start_time": null,
			"finish_time": null,
			"budget": "0.00",
			"instant": false,
			"offline": false,
			"online": true,
			"weekdays": [
				1,
				2,
				3,
				4,
				5,
				6,
				7
			],
			"status": "finished",
			"available_percentage": 0,
			"available_rewards": 0,
			"points_of_sale": [
				585
			],
			"created": "2022-07-01T13:45:28.644273Z",
			"access_link": "https://backend.dev.woowbe.com/points/access/c5a8faffbcb8206223c855c0fce7cf6403e508252066fc0f2910dc9466d382433acbad4f2c34c3f0781e6a3b0714c46a30b02841fdba84f4772229b088bdb9ed/00ba6c3aedda378021dd1d1aac7d7f626b168c4ffcdcc27b69d1ba835c850422b76885b642a67dbcfabd88a8371409cd75f2876af8b55d4899becb082d4ca659/",
			"last_reward": null,
			"applicable": false,
			"is_used": false
		},
		{
			"id": 273,
			"business": {
				"id": 138,
				"name": "NewCOM Business",
				"square_picture": "https://woowbe-dev.s3.amazonaws.com/media/pictures/square_picture_ojLUO22.jpg",
				"widescreen_picture": "https://woowbe-dev.s3.amazonaws.com/media/pictures/1649862498.jpeg",
				"cover": "https://woowbe-dev.s3.amazonaws.com/media/covers/cover_BYp7Oqs.jpg",
				"offers_count": 0,
				"return_period": 0
			},
			"name": "NewCo  online",
			"kind": "A",
			"reward": "10.00",
			"reward_type": "percentage",
			"standalone": false,
			"minimum_purchase_amount": "15.00",
			"maximum_reward_amount": null,
			"campaign": null,
			"categories": [],
			"purchases": null,
			"start_date": "2022-06-27",
			"finish_date": "2022-09-30",
			"start_time": null,
			"finish_time": null,
			"budget": "0.00",
			"instant": false,
			"offline": false,
			"online": true,
			"weekdays": [
				1,
				2,
				3,
				4,
				5,
				6,
				7
			],
			"status": "finished",
			"available_percentage": 0,
			"available_rewards": null,
			"points_of_sale": [
				585
			],
			"created": "2022-06-27T09:07:59.078847Z",
			"access_link": "https://backend.dev.woowbe.com/points/access/c5a8faffbcb8206223c855c0fce7cf6403e508252066fc0f2910dc9466d382433acbad4f2c34c3f0781e6a3b0714c46a30b02841fdba84f4772229b088bdb9ed/00ba6c3aedda378021dd1d1aac7d7f626b168c4ffcdcc27b69d1ba835c850422b76885b642a67dbcfabd88a8371409cd75f2876af8b55d4899becb082d4ca659/",
			"last_reward": null,
			"applicable": false,
			"is_used": false
		},
		{
			"id": 195,
			"business": {
				"id": 96,
				"name": "Mahou",
				"square_picture": "https://woowbe-dev.s3.amazonaws.com/media/pictures/square_picture_fLIwzqv.jpg",
				"widescreen_picture": "https://woowbe-dev.s3.amazonaws.com/media/pictures/1634848825.jpeg",
				"cover": "https://woowbe-dev.s3.amazonaws.com/media/covers/mahou-solana-portada.jpeg",
				"offers_count": 1,
				"return_period": 0
			},
			"name": "oferta",
			"kind": "A",
			"reward": "10.00",
			"reward_type": "percentage",
			"standalone": false,
			"minimum_purchase_amount": null,
			"maximum_reward_amount": null,
			"campaign": null,
			"categories": [],
			"purchases": null,
			"start_date": "2021-10-25",
			"finish_date": null,
			"start_time": null,
			"finish_time": null,
			"budget": "1.00",
			"instant": false,
			"offline": false,
			"online": true,
			"weekdays": [
				1
			],
			"status": "active",
			"available_percentage": 1,
			"available_rewards": null,
			"points_of_sale": [
				308
			],
			"created": "2021-10-25T08:02:08.830784Z",
			"access_link": "https://backend.dev.woowbe.com/points/access/192d4f6ab8fa4678e8133d574f558e8046906f29773fc4d61b51735b991a076aaf8084519164b74530f8fad076126b68e3dd1db9688abd5a4bd4e01527171c1f/00ba6c3aedda378021dd1d1aac7d7f626b168c4ffcdcc27b69d1ba835c850422b76885b642a67dbcfabd88a8371409cd75f2876af8b55d4899becb082d4ca659/",
			"last_reward": null,
			"applicable": false,
			"is_used": false
		},
		{
			"id": 255,
			"business": {
				"id": 140,
				"name": "Pako's Donuts",
				"square_picture": "https://woowbe-dev.s3.amazonaws.com/media/pictures/square_picture_d0YTkuG.jpg",
				"widescreen_picture": "https://woowbe-dev.s3.amazonaws.com/media/pictures/1652178849.jpeg",
				"cover": "https://woowbe-dev.s3.amazonaws.com/media/covers/cover_sMkXPAU.jpg",
				"offers_count": 0,
				"return_period": 0
			},
			"name": "ok",
			"kind": "B",
			"reward": "8.00",
			"reward_type": "fixed",
			"standalone": false,
			"minimum_purchase_amount": null,
			"maximum_reward_amount": null,
			"campaign": null,
			"categories": [],
			"purchases": null,
			"start_date": "2022-05-10",
			"finish_date": null,
			"start_time": null,
			"finish_time": null,
			"budget": "0.00",
			"instant": false,
			"offline": false,
			"online": true,
			"weekdays": [
				6,
				7
			],
			"status": "finished",
			"available_percentage": 0,
			"available_rewards": 0,
			"points_of_sale": [],
			"created": "2022-05-10T11:08:31.638204Z",
			"access_link": null,
			"last_reward": null,
			"applicable": false,
			"is_used": false
		},
		{
			"id": 258,
			"business": {
				"id": 143,
				"name": "Test App",
				"square_picture": "https://woowbe-dev.s3.amazonaws.com/media/pictures/1667494635.jpeg",
				"widescreen_picture": "https://woowbe-dev.s3.amazonaws.com/media/pictures/widescreen_picture_ZiLjO4p.jpg",
				"cover": "https://woowbe-dev.s3.amazonaws.com/media/covers/cover_kvUvSKN.jpg",
				"offers_count": 16,
				"return_period": 0
			},
			"name": "asd",
			"kind": "C",
			"reward": "6.00",
			"reward_type": "fixed",
			"standalone": false,
			"minimum_purchase_amount": null,
			"maximum_reward_amount": null,
			"campaign": null,
			"categories": [],
			"purchases": 8,
			"start_date": "2022-05-25",
			"finish_date": "2022-05-27",
			"start_time": null,
			"finish_time": null,
			"budget": "0.00",
			"instant": false,
			"offline": false,
			"online": true,
			"weekdays": [
				3,
				5,
				6
			],
			"status": "finished",
			"available_percentage": 0,
			"available_rewards": 0,
			"points_of_sale": [
				849
			],
			"created": "2022-05-24T21:18:43.841887Z",
			"access_link": "https://backend.dev.woowbe.com/points/access/6412e7dab4f8db594a8254e3f7f0060924f342df65e35947821dded0d2288d9a2b47cde90d2aa5f37dbaca583cb430c4587b36a65e2756a2452ba2b5f9f35ad5/00ba6c3aedda378021dd1d1aac7d7f626b168c4ffcdcc27b69d1ba835c850422b76885b642a67dbcfabd88a8371409cd75f2876af8b55d4899becb082d4ca659/",
			"last_reward": null,
			"applicable": false,
			"is_used": false
		},
		{
			"id": 487,
			"business": {
				"id": 143,
				"name": "Test App",
				"square_picture": "https://woowbe-dev.s3.amazonaws.com/media/pictures/1667494635.jpeg",
				"widescreen_picture": "https://woowbe-dev.s3.amazonaws.com/media/pictures/widescreen_picture_ZiLjO4p.jpg",
				"cover": "https://woowbe-dev.s3.amazonaws.com/media/covers/cover_kvUvSKN.jpg",
				"offers_count": 16,
				"return_period": 0
			},
			"name": "Ecommerce",
			"kind": "A",
			"reward": "5.00",
			"reward_type": "percentage",
			"standalone": false,
			"minimum_purchase_amount": null,
			"maximum_reward_amount": null,
			"campaign": null,
			"categories": [],
			"purchases": null,
			"start_date": "2023-02-27",
			"finish_date": "2023-06-27",
			"start_time": null,
			"finish_time": null,
			"budget": "0.00",
			"instant": false,
			"offline": false,
			"online": true,
			"weekdays": [
				1,
				2,
				3
			],
			"status": "finished",
			"available_percentage": 0,
			"available_rewards": null,
			"points_of_sale": [
				849
			],
			"created": "2023-02-27T16:20:36.810912Z",
			"access_link": "https://backend.dev.woowbe.com/points/access/6412e7dab4f8db594a8254e3f7f0060924f342df65e35947821dded0d2288d9a2b47cde90d2aa5f37dbaca583cb430c4587b36a65e2756a2452ba2b5f9f35ad5/00ba6c3aedda378021dd1d1aac7d7f626b168c4ffcdcc27b69d1ba835c850422b76885b642a67dbcfabd88a8371409cd75f2876af8b55d4899becb082d4ca659/",
			"last_reward": null,
			"applicable": false,
			"is_used": false
		}
	]
}
