{
	"count": 295,
	"next": "https://backend.dev.woowbe.com/api/v1/offers/public/?page=30",
	"previous": "https://backend.dev.woowbe.com/api/v1/offers/public/?page=28",
	"results": [
		{
			"id": 552,
			"business": {
				"id": 143,
				"name": "Test App",
				"square_picture": "https://woowbe-dev.s3.amazonaws.com/media/pictures/1667494635.jpeg",
				"widescreen_picture": "https://woowbe-dev.s3.amazonaws.com/media/pictures/widescreen_picture_ZiLjO4p.jpg",
				"cover": "https://woowbe-dev.s3.amazonaws.com/media/covers/cover_kvUvSKN.jpg",
				"offers_count": 16,
				"return_period": 0
			},
			"name": "example",
			"kind": "A",
			"reward": "5.00",
			"reward_type": "percentage",
			"standalone": false,
			"minimum_purchase_amount": null,
			"maximum_reward_amount": null,
			"campaign": null,
			"categories": [],
			"purchases": null,
			"start_date": "2023-04-20",
			"finish_date": "2023-08-20",
			"start_time": null,
			"finish_time": null,
			"budget": "629.00",
			"instant": false,
			"offline": false,
			"online": true,
			"weekdays": [
				1,
				2,
				3
			],
			"status": "active",
			"available_percentage": 1,
			"available_rewards": null,
			"points_of_sale": [
				849
			],
			"created": "2023-04-20T09:11:24.205151Z",
			"access_link": "https://backend.dev.woowbe.com/points/access/6412e7dab4f8db594a8254e3f7f0060924f342df65e35947821dded0d2288d9a2b47cde90d2aa5f37dbaca583cb430c4587b36a65e2756a2452ba2b5f9f35ad5/00ba6c3aedda378021dd1d1aac7d7f626b168c4ffcdcc27b69d1ba835c850422b76885b642a67dbcfabd88a8371409cd75f2876af8b55d4899becb082d4ca659/",
			"last_reward": null,
			"applicable": false,
			"is_used": false
		},
		{
			"id": 197,
			"business": {
				"id": 105,
				"name": "Yelmo cines",
				"square_picture": "https://woowbe-dev.s3.amazonaws.com/media/pictures/square_picture_v1Xv6ub.jpg",
				"widescreen_picture": "https://woowbe-dev.s3.amazonaws.com/media/pictures/1635150057.jpeg",
				"cover": "https://woowbe-dev.s3.amazonaws.com/media/covers/cover_7IQTAo0.jpg",
				"offers_count": 0,
				"return_period": 0
			},
			"name": "5€ por tus entradas",
			"kind": "B",
			"reward": "5.00",
			"reward_type": "fixed",
			"standalone": false,
			"minimum_purchase_amount": "20.00",
			"maximum_reward_amount": null,
			"campaign": null,
			"categories": [],
			"purchases": null,
			"start_date": "2021-10-25",
			"finish_date": null,
			"start_time": null,
			"finish_time": null,
			"budget": "1.00",
			"instant": false,
			"offline": false,
			"online": true,
			"weekdays": [
				1,
				2,
				3,
				4
			],
			"status": "finished",
			"available_percentage": 1,
			"available_rewards": 0,
			"points_of_sale": [
				365
			],
			"created": "2021-10-25T08:26:04.161486Z",
			"access_link": "https://backend.dev.woowbe.com/points/access/f2eb4925590eb797ed31af8ae361f73418b418b2e008780d6d198fd4ba1f3e3bcca8bc2f37bae6f12d91850f50848f476f895c0b7646977b837de5a7c0f69adb/00ba6c3aedda378021dd1d1aac7d7f626b168c4ffcdcc27b69d1ba835c850422b76885b642a67dbcfabd88a8371409cd75f2876af8b55d4899becb082d4ca659/",
			"last_reward": null,
			"applicable": false,
			"is_used": false
		},
		{
			"id": 554,
			"business": {
				"id": 118,
				"name": "New York Burger",
				"square_picture": "https://woowbe-dev.s3.amazonaws.com/media/pictures/newyorkburger-logo-1-1.jpeg",
				"widescreen_picture": "https://woowbe-dev.s3.amazonaws.com/media/pictures/newyorkburger-logo-16-9.jpeg",
				"cover": "https://woowbe-dev.s3.amazonaws.com/media/covers/newyorkburger-portada.jpeg",
				"offers_count": 3,
				"return_period": 0
			},
			"name": "example",
			"kind": "A",
			"reward": "5.00",
			"reward_type": "percentage",
			"standalone": false,
			"minimum_purchase_amount": null,
			"maximum_reward_amount": null,
			"campaign": null,
			"categories": [],
			"purchases": null,
			"start_date": "2023-04-20",
			"finish_date": "2023-08-20",
			"start_time": null,
			"finish_time": null,
			"budget": "10.00",
			"instant": false,
			"offline": false,
			"online": true,
			"weekdays": [
				2,
				3
			],
			"status": "active",
			"available_percentage": 1,
			"available_rewards": null,
			"points_of_sale": [
				757,
				756,
				755,
				754
			],
			"created": "2023-04-20T09:16:29.924558Z",
			"access_link": "https://backend.dev.woowbe.com/points/access/c581f37c39b1e9aafc04ad9e0cbcd003844dc3d34d1a83d5a45f95cbf24aee341debc6fc297e1f5d169975c1b1311af756f132773fd02ddb55057834851e2f9e/00ba6c3aedda378021dd1d1aac7d7f626b168c4ffcdcc27b69d1ba835c850422b76885b642a67dbcfabd88a8371409cd75f2876af8b55d4899becb082d4ca659/",
			"last_reward": null,
			"applicable": false,
			"is_used": false
		},
		{
			"id": 577,
			"business": {
				"id": 143,
				"name": "Test App",
				"square_picture": "https://woowbe-dev.s3.amazonaws.com/media/pictures/1667494635.jpeg",
				"widescreen_picture": "https://woowbe-dev.s3.amazonaws.com/media/pictures/widescreen_picture_ZiLjO4p.jpg",
				"cover": "https://woowbe-dev.s3.amazonaws.com/media/covers/cover_kvUvSKN.jpg",
				"offers_count": 16,
				"return_period": 0
			},
			"name": "EJEMPLO",
			"kind": "A",
			"reward": "5.00",
			"reward_type": "percentage",
			"standalone": false,
			"minimum_purchase_amount": null,
			"maximum_reward_amount": null,
			"campaign": null,
			"categories": [],
			"purchases": null,
			"start_date": "2023-05-29",
			"finish_date": "2023-06-29",
			"start_time": "08:00:00",
			"finish_time": "18:00:00",
			"budget": "0.00",
			"instant": false,
			"offline": false,
			"online": true,
			"weekdays": [
				1,
				2,
				3,
				4
			],
			"status": "finished",
			"available_percentage": 0,
			"available_rewards": null,
			"points_of_sale": [
				849
			],
			"created": "2023-05-29T11:12:43.994289Z",
			"access_link": "https://backend.dev.woowbe.com/points/access/6412e7dab4f8db594a8254e3f7f0060924f342df65e35947821dded0d2288d9a2b47cde90d2aa5f37dbaca583cb430c4587b36a65e2756a2452ba2b5f9f35ad5/00ba6c3aedda378021dd1d1aac7d7f626b168c4ffcdcc27b69d1ba835c850422b76885b642a67dbcfabd88a8371409cd75f2876af8b55d4899becb082d4ca659/",
			"last_reward": null,
			"applicable": false,
			"is_used": false
		},
		{
			"id": 567,
			"business": {
				"id": 250,
				"name": "Adidas recompensas",
				"square_picture": "https://woowbe-dev.s3.amazonaws.com/media/pictures/1669197061.jpeg",
				"widescreen_picture": "https://woowbe-dev.s3.amazonaws.com/media/pictures/1669197061_zhy3On1.jpeg",
				"cover": "https://woowbe-dev.s3.amazonaws.com/media/covers/cover_9sJ34Vw.jpg",
				"offers_count": 1,
				"return_period": 3
			},
			"name": "programa online",
			"kind": "A",
			"reward": "5.00",
			"reward_type": "percentage",
			"standalone": false,
			"minimum_purchase_amount": null,
			"maximum_reward_amount": null,
			"campaign": null,
			"categories": [],
			"purchases": null,
			"start_date": "2023-05-10",
			"finish_date": "2023-09-10",
			"start_time": null,
			"finish_time": null,
			"budget": "20.00",
			"instant": false,
			"offline": false,
			"online": true,
			"weekdays": [
				1,
				2,
				3,
				4,
				5,
				6,
				7
			],
			"status": "active",
			"available_percentage": 0.995,
			"available_rewards": null,
			"points_of_sale": [
				927
			],
			"created": "2023-05-10T09:40:36.982472Z",
			"access_link": "https://backend.dev.woowbe.com/points/access/140a3dc9b1648c05af68bf2adbdca0b65277f3ef18612be96e47f9817f6213f562a60b50d543ebb548c46c51eb853e8018e92ca43fbccc2f9d7ab46e6bf88a43/00ba6c3aedda378021dd1d1aac7d7f626b168c4ffcdcc27b69d1ba835c850422b76885b642a67dbcfabd88a8371409cd75f2876af8b55d4899becb082d4ca659/",
			"last_reward": null,
			"applicable": false,
			"is_used": false
		},
		{
			"id": 342,
			"business": {
				"id": 248,
				"name": "Adidas",
				"square_picture": "https://woowbe-dev.s3.amazonaws.com/media/pictures/square_picture_mk5CEIv.jpg",
				"widescreen_picture": "https://woowbe-dev.s3.amazonaws.com/media/pictures/1668529037.jpeg",
				"cover": "https://woowbe-dev.s3.amazonaws.com/media/covers/cover_RYgACZk.jpg",
				"offers_count": 0,
				"return_period": 5
			},
			"name": "Nuevo programa con fondos",
			"kind": "B",
			"reward": "5.00",
			"reward_type": "fixed",
			"standalone": false,
			"minimum_purchase_amount": "20.00",
			"maximum_reward_amount": null,
			"campaign": null,
			"categories": [],
			"purchases": null,
			"start_date": "2022-11-15",
			"finish_date": "2023-02-15",
			"start_time": null,
			"finish_time": null,
			"budget": "30.00",
			"instant": false,
			"offline": false,
			"online": true,
			"weekdays": [
				1,
				2,
				3,
				4,
				5
			],
			"status": "finished",
			"available_percentage": 0,
			"available_rewards": 0,
			"points_of_sale": [
				729
			],
			"created": "2022-11-15T16:43:36.816704Z",
			"access_link": "https://backend.dev.woowbe.com/points/access/90862d14c0367873d7f364649061721c8942e4e0cdc94086939d5cda8c417dfd069f973334405ded9c678ae96ca7b19dea01f4bbe9253965d8560c3a72706a61/00ba6c3aedda378021dd1d1aac7d7f626b168c4ffcdcc27b69d1ba835c850422b76885b642a67dbcfabd88a8371409cd75f2876af8b55d4899becb082d4ca659/",
			"last_reward": null,
			"applicable": false,
			"is_used": false
		},
		{
			"id": 594,
			"business": {
				"id": 143,
				"name": "Test App",
				"square_picture": "https://woowbe-dev.s3.amazonaws.com/media/pictures/1667494635.jpeg",
				"widescreen_picture": "https://woowbe-dev.s3.amazonaws.com/media/pictures/widescreen_picture_ZiLjO4p.jpg",
				"cover": "https://woowbe-dev.s3.amazonaws.com/media/covers/cover_kvUvSKN.jpg",
				"offers_count": 16,
				"return_period": 0
			},
			"name": "ejemplo",
			"kind": "A",
			"reward": "5.00",
			"reward_type": "percentage",
			"standalone": false,
			"minimum_purchase_amount": null,
			"maximum_reward_amount": null,
			"campaign": null,
			"categories": [],
			"purchases": null,
			"start_date": "2023-06-19",
			"finish_date": "2023-07-19",
			"start_time": "05:00:00",
			"finish_time": "18:10:00",
			"budget": "1.00",
			"instant": false,
			"offline": false,
			"online": true,
			"weekdays": [
				1,
				2
			],
			"status": "active",
			"available_percentage": 1,
			"available_rewards": null,
			"points_of_sale": [
				849
			],
			"created": "2023-06-19T14:51:47.883653Z",
			"access_link": "https://backend.dev.woowbe.com/points/access/6412e7dab4f8db594a8254e3f7f0060924f342df65e35947821dded0d2288d9a2b47cde90d2aa5f37dbaca583cb430c4587b36a65e2756a2452ba2b5f9f35ad5/00ba6c3aedda378021dd1d1aac7d7f626b168c4ffcdcc27b69d1ba835c850422b76885b642a67dbcfabd88a8371409cd75f2876af8b55d4899becb082d4ca659/",
			"last_reward": null,
			"applicable": false,
			"is_used": false
		},
		{
			"id": 581,
			"business": {
				"id": 143,
				"name": "Test App",
				"square_picture": "https://woowbe-dev.s3.amazonaws.com/media/pictures/1667494635.jpeg",
				"widescreen_picture": "https://woowbe-dev.s3.amazonaws.com/media/pictures/widescreen_picture_ZiLjO4p.jpg",
				"cover": "https://woowbe-dev.s3.amazonaws.com/media/covers/cover_kvUvSKN.jpg",
				"offers_count": 16,
				"return_period": 0
			},
			"name": "Ejemplo de programa",
			"kind": "A",
			"reward": "5.00",
			"reward_type": "percentage",
			"standalone": false,
			"minimum_purchase_amount": null,
			"maximum_reward_amount": null,
			"campaign": null,
			"categories": [],
			"purchases": null,
			"start_date": "2023-05-30",
			"finish_date": "2023-09-30",
			"start_time": null,
			"finish_time": null,
			"budget": "67.00",
			"instant": false,
			"offline": false,
			"online": true,
			"weekdays": [
				2,
				3
			],
			"status": "active",
			"available_percentage": 1,
			"available_rewards": null,
			"points_of_sale": [
				849
			],
			"created": "2023-05-30T21:17:07.493060Z",
			"access_link": "https://backend.dev.woowbe.com/points/access/6412e7dab4f8db594a8254e3f7f0060924f342df65e35947821dded0d2288d9a2b47cde90d2aa5f37dbaca583cb430c4587b36a65e2756a2452ba2b5f9f35ad5/00ba6c3aedda378021dd1d1aac7d7f626b168c4ffcdcc27b69d1ba835c850422b76885b642a67dbcfabd88a8371409cd75f2876af8b55d4899becb082d4ca659/",
			"last_reward": null,
			"applicable": false,
			"is_used": false
		},
		{
			"id": 576,
			"business": {
				"id": 143,
				"name": "Test App",
				"square_picture": "https://woowbe-dev.s3.amazonaws.com/media/pictures/1667494635.jpeg",
				"widescreen_picture": "https://woowbe-dev.s3.amazonaws.com/media/pictures/widescreen_picture_ZiLjO4p.jpg",
				"cover": "https://woowbe-dev.s3.amazonaws.com/media/covers/cover_kvUvSKN.jpg",
				"offers_count": 16,
				"return_period": 0
			},
			"name": "Inicio",
			"kind": "A",
			"reward": "5.00",
			"reward_type": "percentage",
			"standalone": false,
			"minimum_purchase_amount": null,
			"maximum_reward_amount": null,
			"campaign": null,
			"categories": [],
			"purchases": null,
			"start_date": "2023-05-29",
			"finish_date": "2023-09-29",
			"start_time": "12:00:00",
			"finish_time": "18:00:00",
			"budget": "1.00",
			"instant": false,
			"offline": false,
			"online": true,
			"weekdays": [
				1,
				2
			],
			"status": "active",
			"available_percentage": 1,
			"available_rewards": null,
			"points_of_sale": [
				849
			],
			"created": "2023-05-29T11:02:11.855429Z",
			"access_link": "https://backend.dev.woowbe.com/points/access/6412e7dab4f8db594a8254e3f7f0060924f342df65e35947821dded0d2288d9a2b47cde90d2aa5f37dbaca583cb430c4587b36a65e2756a2452ba2b5f9f35ad5/00ba6c3aedda378021dd1d1aac7d7f626b168c4ffcdcc27b69d1ba835c850422b76885b642a67dbcfabd88a8371409cd75f2876af8b55d4899becb082d4ca659/",
			"last_reward": null,
			"applicable": false,
			"is_used": false
		},
		{
			"id": 575,
			"business": {
				"id": 143,
				"name": "Test App",
				"square_picture": "https://woowbe-dev.s3.amazonaws.com/media/pictures/1667494635.jpeg",
				"widescreen_picture": "https://woowbe-dev.s3.amazonaws.com/media/pictures/widescreen_picture_ZiLjO4p.jpg",
				"cover": "https://woowbe-dev.s3.amazonaws.com/media/covers/cover_kvUvSKN.jpg",
				"offers_count": 16,
				"return_period": 0
			},
			"name": "ejemplo",
			"kind": "A",
			"reward": "5.00",
			"reward_type": "percentage",
			"standalone": false,
			"minimum_purchase_amount": null,
			"maximum_reward_amount": null,
			"campaign": null,
			"categories": [],
			"purchases": null,
			"start_date": "2023-05-29",
			"finish_date": "2023-07-29",
			"start_time": "08:00:00",
			"finish_time": "14:00:00",
			"budget": "10.00",
			"instant": false,
			"offline": false,
			"online": true,
			"weekdays": [
				1,
				2
			],
			"status": "active",
			"available_percentage": 1,
			"available_rewards": null,
			"points_of_sale": [
				849
			],
			"created": "2023-05-29T10:51:30.493810Z",
			"access_link": "https://backend.dev.woowbe.com/points/access/6412e7dab4f8db594a8254e3f7f0060924f342df65e35947821dded0d2288d9a2b47cde90d2aa5f37dbaca583cb430c4587b36a65e2756a2452ba2b5f9f35ad5/00ba6c3aedda378021dd1d1aac7d7f626b168c4ffcdcc27b69d1ba835c850422b76885b642a67dbcfabd88a8371409cd75f2876af8b55d4899becb082d4ca659/",
			"last_reward": null,
			"applicable": false,
			"is_used": false
		}
	]
}
