{
	"count": 295,
	"next": "https://backend.dev.woowbe.com/api/v1/offers/public/?page=4",
	"previous": "https://backend.dev.woowbe.com/api/v1/offers/public/?page=2",
	"results": [
		{
			"id": 171,
			"business": {
				"id": 95,
				"name": "Grosso Napoletano",
				"square_picture": "https://woowbe-dev.s3.amazonaws.com/media/pictures/square_picture_zTR4rhR.jpg",
				"widescreen_picture": "https://woowbe-dev.s3.amazonaws.com/media/pictures/1634847890.jpeg",
				"cover": "https://woowbe-dev.s3.amazonaws.com/media/covers/cover_J5Qu0Se.jpg",
				"offers_count": 0,
				"return_period": 0
			},
			"name": "15€ por 6 comidas",
			"kind": "C",
			"reward": "15.00",
			"reward_type": "fixed",
			"standalone": false,
			"minimum_purchase_amount": "15.00",
			"maximum_reward_amount": null,
			"campaign": null,
			"categories": [],
			"purchases": 6,
			"start_date": "2021-10-22",
			"finish_date": "2021-12-22",
			"start_time": "13:00:00",
			"finish_time": "17:00:00",
			"budget": "0.00",
			"instant": false,
			"offline": true,
			"online": false,
			"weekdays": [
				1,
				2,
				3,
				4,
				5,
				6
			],
			"status": "finished",
			"available_percentage": 0,
			"available_rewards": 0,
			"points_of_sale": [
				287,
				286,
				285,
				284,
				283,
				282,
				281,
				280,
				279,
				278,
				277,
				276,
				275
			],
			"created": "2021-10-22T18:50:34.437279Z",
			"access_link": null,
			"last_reward": null,
			"applicable": false,
			"is_used": false
		},
		{
			"id": 319,
			"business": {
				"id": 180,
				"name": "Comercio Pilar",
				"square_picture": "https://woowbe-dev.s3.amazonaws.com/media/pictures/1673868213.jpeg",
				"widescreen_picture": "https://woowbe-dev.s3.amazonaws.com/media/pictures/1673868214.jpeg",
				"cover": "https://woowbe-dev.s3.amazonaws.com/media/covers/cover_qCWtnT8.jpg",
				"offers_count": 0,
				"return_period": 0
			},
			"name": "progrmas refresco",
			"kind": "A",
			"reward": "15.00",
			"reward_type": "percentage",
			"standalone": false,
			"minimum_purchase_amount": null,
			"maximum_reward_amount": null,
			"campaign": null,
			"categories": [],
			"purchases": null,
			"start_date": "2022-09-21",
			"finish_date": "2022-09-23",
			"start_time": null,
			"finish_time": null,
			"budget": "0.00",
			"instant": false,
			"offline": true,
			"online": false,
			"weekdays": [
				1
			],
			"status": "finished",
			"available_percentage": 0,
			"available_rewards": null,
			"points_of_sale": [],
			"created": "2022-09-21T08:36:32.579232Z",
			"access_link": null,
			"last_reward": null,
			"applicable": false,
			"is_used": false
		},
		{
			"id": 15,
			"business": {
				"id": 20,
				"name": "Delina's",
				"square_picture": "https://woowbe-dev.s3.amazonaws.com/media/pictures/delinas-logo-1-1.png",
				"widescreen_picture": "https://woowbe-dev.s3.amazonaws.com/media/pictures/1635415771.png",
				"cover": "https://woowbe-dev.s3.amazonaws.com/media/covers/delinas-portada.png",
				"offers_count": 1,
				"return_period": 0
			},
			"name": "Delinas test Sellos",
			"kind": "C",
			"reward": "15.00",
			"reward_type": "fixed",
			"standalone": false,
			"minimum_purchase_amount": "15.00",
			"maximum_reward_amount": null,
			"campaign": null,
			"categories": [],
			"purchases": 6,
			"start_date": "2021-06-17",
			"finish_date": null,
			"start_time": "13:30:58",
			"finish_time": null,
			"budget": "1000.00",
			"instant": true,
			"offline": true,
			"online": false,
			"weekdays": [],
			"status": "active",
			"available_percentage": 1,
			"available_rewards": 66,
			"points_of_sale": [
				37,
				36
			],
			"created": "2021-06-17T13:31:57.348500Z",
			"access_link": null,
			"last_reward": null,
			"applicable": false,
			"is_used": false
		},
		{
			"id": 361,
			"business": {
				"id": 252,
				"name": "Cosméticos QA Franquiciado",
				"square_picture": "https://woowbe-dev.s3.amazonaws.com/media/pictures/1669720371.jpeg",
				"widescreen_picture": "https://woowbe-dev.s3.amazonaws.com/media/pictures/1669720371_Aga8oWX.jpeg",
				"cover": "https://woowbe-dev.s3.amazonaws.com/media/covers/cover_PNbDalT.jpg",
				"offers_count": 0,
				"return_period": 0
			},
			"name": "franq + marca automatico",
			"kind": "A",
			"reward": "15.00",
			"reward_type": "percentage",
			"standalone": false,
			"minimum_purchase_amount": null,
			"maximum_reward_amount": null,
			"campaign": null,
			"categories": [],
			"purchases": null,
			"start_date": "2022-12-20",
			"finish_date": "2023-04-20",
			"start_time": null,
			"finish_time": null,
			"budget": "0.00",
			"instant": false,
			"offline": true,
			"online": false,
			"weekdays": [
				1,
				2,
				3,
				4,
				7
			],
			"status": "finished",
			"available_percentage": 0,
			"available_rewards": null,
			"points_of_sale": [
				758,
				744
			],
			"created": "2022-12-20T11:36:37.097258Z",
			"access_link": null,
			"last_reward": null,
			"applicable": false,
			"is_used": false
		},
		{
			"id": 400,
			"business": {
				"id": 118,
				"name": "New York Burger",
				"square_picture": "https://woowbe-dev.s3.amazonaws.com/media/pictures/newyorkburger-logo-1-1.jpeg",
				"widescreen_picture": "https://woowbe-dev.s3.amazonaws.com/media/pictures/newyorkburger-logo-16-9.jpeg",
				"cover": "https://woowbe-dev.s3.amazonaws.com/media/covers/newyorkburger-portada.jpeg",
				"offers_count": 3,
				"return_period": 0
			},
			"name": "Prueba franquicias",
			"kind": "A",
			"reward": "15.00",
			"reward_type": "percentage",
			"standalone": false,
			"minimum_purchase_amount": null,
			"maximum_reward_amount": null,
			"campaign": null,
			"categories": [],
			"purchases": null,
			"start_date": "2023-02-01",
			"finish_date": "2023-08-01",
			"start_time": null,
			"finish_time": null,
			"budget": "50.00",
			"instant": false,
			"offline": true,
			"online": false,
			"weekdays": [
				1,
				2
			],
			"status": "active",
			"available_percentage": 1,
			"available_rewards": null,
			"points_of_sale": [
				800,
				799,
				599,
				598,
				597,
				596,
				479,
				477,
				476,
				474
			],
			"created": "2023-02-01T10:48:09.048858Z",
			"access_link": null,
			"last_reward": null,
			"applicable": false,
			"is_used": false
		},
		{
			"id": 488,
			"business": {
				"id": 143,
				"name": "Test App",
				"square_picture": "https://woowbe-dev.s3.amazonaws.com/media/pictures/1667494635.jpeg",
				"widescreen_picture": "https://woowbe-dev.s3.amazonaws.com/media/pictures/widescreen_picture_ZiLjO4p.jpg",
				"cover": "https://woowbe-dev.s3.amazonaws.com/media/covers/cover_kvUvSKN.jpg",
				"offers_count": 16,
				"return_period": 0
			},
			"name": "FQ + Marca",
			"kind": "A",
			"reward": "15.00",
			"reward_type": "percentage",
			"standalone": false,
			"minimum_purchase_amount": null,
			"maximum_reward_amount": null,
			"campaign": null,
			"categories": [],
			"purchases": null,
			"start_date": "2023-02-27",
			"finish_date": "2023-03-27",
			"start_time": null,
			"finish_time": null,
			"budget": "0.00",
			"instant": false,
			"offline": true,
			"online": false,
			"weekdays": [
				2,
				3
			],
			"status": "finished",
			"available_percentage": 0,
			"available_rewards": null,
			"points_of_sale": [],
			"created": "2023-02-27T16:22:41.515473Z",
			"access_link": null,
			"last_reward": null,
			"applicable": false,
			"is_used": false
		},
		{
			"id": 498,
			"business": {
				"id": 184,
				"name": "Floristeria MariPepis QA",
				"square_picture": "https://woowbe-dev.s3.amazonaws.com/media/pictures/square_picture_wRtqmQ7.jpg",
				"widescreen_picture": "https://woowbe-dev.s3.amazonaws.com/media/pictures/1662040876.jpeg",
				"cover": "https://woowbe-dev.s3.amazonaws.com/media/covers/cover_J8HYh2d.jpg",
				"offers_count": 1,
				"return_period": 0
			},
			"name": "Single-purchase",
			"kind": "A",
			"reward": "15.00",
			"reward_type": "percentage",
			"standalone": true,
			"minimum_purchase_amount": null,
			"maximum_reward_amount": null,
			"campaign": null,
			"categories": [],
			"purchases": null,
			"start_date": "2023-03-01",
			"finish_date": "2023-05-01",
			"start_time": null,
			"finish_time": null,
			"budget": "7.50",
			"instant": false,
			"offline": true,
			"online": false,
			"weekdays": [
				1,
				2,
				3,
				4,
				5,
				6,
				7
			],
			"status": "finished",
			"available_percentage": 0,
			"available_rewards": null,
			"points_of_sale": [
				826,
				805,
				683,
				682
			],
			"created": "2023-03-01T08:10:02.514227Z",
			"access_link": null,
			"last_reward": null,
			"applicable": false,
			"is_used": false
		},
		{
			"id": 357,
			"business": {
				"id": 252,
				"name": "Cosméticos QA Franquiciado",
				"square_picture": "https://woowbe-dev.s3.amazonaws.com/media/pictures/1669720371.jpeg",
				"widescreen_picture": "https://woowbe-dev.s3.amazonaws.com/media/pictures/1669720371_Aga8oWX.jpeg",
				"cover": "https://woowbe-dev.s3.amazonaws.com/media/covers/cover_PNbDalT.jpg",
				"offers_count": 0,
				"return_period": 0
			},
			"name": "programado 2",
			"kind": "A",
			"reward": "15.00",
			"reward_type": "percentage",
			"standalone": false,
			"minimum_purchase_amount": null,
			"maximum_reward_amount": null,
			"campaign": null,
			"categories": [],
			"purchases": null,
			"start_date": "2022-12-01",
			"finish_date": "2022-12-16",
			"start_time": null,
			"finish_time": null,
			"budget": "0.00",
			"instant": false,
			"offline": true,
			"online": false,
			"weekdays": [
				1,
				2
			],
			"status": "finished",
			"available_percentage": 0,
			"available_rewards": null,
			"points_of_sale": [
				744,
				743
			],
			"created": "2022-11-29T11:34:05.739164Z",
			"access_link": null,
			"last_reward": null,
			"applicable": false,
			"is_used": false
		},
		{
			"id": 214,
			"business": {
				"id": 118,
				"name": "New York Burger",
				"square_picture": "https://woowbe-dev.s3.amazonaws.com/media/pictures/newyorkburger-logo-1-1.jpeg",
				"widescreen_picture": "https://woowbe-dev.s3.amazonaws.com/media/pictures/newyorkburger-logo-16-9.jpeg",
				"cover": "https://woowbe-dev.s3.amazonaws.com/media/covers/newyorkburger-portada.jpeg",
				"offers_count": 3,
				"return_period": 0
			},
			"name": "New York Burger 15%",
			"kind": "A",
			"reward": "15.00",
			"reward_type": "percentage",
			"standalone": false,
			"minimum_purchase_amount": "30.00",
			"maximum_reward_amount": null,
			"campaign": null,
			"categories": [],
			"purchases": null,
			"start_date": "2021-11-29",
			"finish_date": null,
			"start_time": "20:30:00",
			"finish_time": "01:00:00",
			"budget": "200.00",
			"instant": false,
			"offline": true,
			"online": false,
			"weekdays": [
				1,
				2,
				3,
				4
			],
			"status": "active",
			"available_percentage": 1,
			"available_rewards": null,
			"points_of_sale": [
				599,
				598,
				597,
				596,
				479
			],
			"created": "2021-11-29T09:43:59.950200Z",
			"access_link": null,
			"last_reward": null,
			"applicable": false,
			"is_used": false
		},
		{
			"id": 584,
			"business": {
				"id": 246,
				"name": "Veterinaria QA aaaaaddddddbbbbbbb",
				"square_picture": "https://woowbe-dev.s3.amazonaws.com/media/pictures/1667842927.jpeg",
				"widescreen_picture": "https://woowbe-dev.s3.amazonaws.com/media/pictures/1669722210.jpeg",
				"cover": "https://woowbe-dev.s3.amazonaws.com/media/covers/cover_0hwbWev.jpg",
				"offers_count": 1,
				"return_period": 0
			},
			"name": "q",
			"kind": "A",
			"reward": "15.00",
			"reward_type": "percentage",
			"standalone": false,
			"minimum_purchase_amount": null,
			"maximum_reward_amount": null,
			"campaign": null,
			"categories": [],
			"purchases": null,
			"start_date": "2023-05-31",
			"finish_date": "2023-07-31",
			"start_time": null,
			"finish_time": null,
			"budget": "12.00",
			"instant": false,
			"offline": true,
			"online": false,
			"weekdays": [
				2
			],
			"status": "active",
			"available_percentage": 1,
			"available_rewards": null,
			"points_of_sale": [
				900
			],
			"created": "2023-05-31T12:36:00.761104Z",
			"access_link": null,
			"last_reward": null,
			"applicable": false,
			"is_used": false
		}
	]
}
