{"count":295,"next":"https://backend.dev.woowbe.com/api/v1/offers/public/?page=5","previous":"https://backend.dev.woowbe.com/api/v1/offers/public/?page=3","results":[{"id":204,"business":{"id":112,"name":"Honest Greens","square_picture":"https://woowbe-dev.s3.amazonaws.com/media/pictures/square_picture_CGCsD0L.jpg","widescreen_picture":"https://woowbe-dev.s3.amazonaws.com/media/pictures/1635235831.jpeg","cover":"https://woowbe-dev.s3.amazonaws.com/media/covers/cover_IFQXO3k.jpg","offers_count":0,"return_period":0},"name":"13% por comer","kind":"A","reward":"13.00","reward_type":"percentage","standalone":false,"minimum_purchase_amount":"25.00","maximum_reward_amount":null,"campaign":null,"categories":[],"purchases":null,"start_date":"2021-10-26","finish_date":null,"start_time":"12:30:00","finish_time":"17:00:00","budget":"1.00","instant":false,"offline":true,"online":false,"weekdays":[1,2,3,4,5],"status":"finished","available_percentage":1,"available_rewards":null,"points_of_sale":[448,447,446,445,444],"created":"2021-10-26T08:16:09.320946Z","access_link":null,"last_reward":null,"applicable":false,"is_used":false},{"id":188,"business":{"id":98,"name":"Crusto","square_picture":"https://woowbe-dev.s3.amazonaws.com/media/pictures/square_picture_QgiYyWD.jpg","widescreen_picture":"https://woowbe-dev.s3.amazonaws.com/media/pictures/1634850388.jpeg","cover":"https://woowbe-dev.s3.amazonaws.com/media/covers/cover_Ez6WLd2.jpg","offers_count":0,"return_period":0},"name":"12% por comprar pan","kind":"A","reward":"12.00","reward_type":"percentage","standalone":false,"minimum_purchase_amount":null,"maximum_reward_amount":null,"campaign":null,"categories":[],"purchases":null,"start_date":"2021-10-23","finish_date":null,"start_time":null,"finish_time":null,"budget":"1.00","instant":false,"offline":true,"online":false,"weekdays":[1,2,3,4,5,6],"status":"finished","available_percentage":1,"available_rewards":null,"points_of_sale":[303,302,301,300],"created":"2021-10-23T08:03:22.140341Z","access_link":null,"last_reward":null,"applicable":false,"is_used":false},{"id":223,"business":{"id":122,"name":"Good News","square_picture":"https://woowbe-dev.s3.amazonaws.com/media/pictures/good-news-logo-1-1.png","widescreen_picture":"https://woowbe-dev.s3.amazonaws.com/media/pictures/1638184510.png","cover":"https://woowbe-dev.s3.amazonaws.com/media/covers/good-news-portada.jpeg","offers_count":1,"return_period":0},"name":"Good News 12%","kind":"A","reward":"12.00","reward_type":"percentage","standalone":false,"minimum_purchase_amount":"15.00","maximum_reward_amount":null,"campaign":null,"categories":[],"purchases":null,"start_date":"2021-11-29","finish_date":null,"start_time":null,"finish_time":null,"budget":"300.00","instant":false,"offline":true,"online":false,"weekdays":[1,2,3,4,5,6,7],"status":"active","available_percentage":1,"available_rewards":null,"points_of_sale":[607,606,604,500,499,498],"created":"2021-11-29T11:53:16.855373Z","access_link":null,"last_reward":null,"applicable":false,"is_used":false},{"id":259,"business":{"id":23,"name":"llaollao","square_picture":"https://woowbe-dev.s3.amazonaws.com/media/pictures/llao-llao-logo-1-1.png","widescreen_picture":"https://woowbe-dev.s3.amazonaws.com/media/pictures/1635419152.png","cover":"https://woowbe-dev.s3.amazonaws.com/media/covers/llao-llao-portada.png","offers_count":1,"return_period":0},"name":"Programa de verano","kind":"A","reward":"10.00","reward_type":"percentage","standalone":false,"minimum_purchase_amount":"18.00","maximum_reward_amount":"20.00","campaign":null,"categories":[],"purchases":null,"start_date":"2022-06-13","finish_date":"2022-09-13","start_time":"12:00:00","finish_time":"23:59:00","budget":"0.00","instant":false,"offline":true,"online":false,"weekdays":[1,2,3,4],"status":"finished","available_percentage":0,"available_rewards":null,"points_of_sale":[643,101,100,99],"created":"2022-06-13T09:12:42.501836Z","access_link":null,"last_reward":null,"applicable":false,"is_used":false},{"id":288,"business":{"id":178,"name":"Mahourizio","square_picture":"https://woowbe-dev.s3.amazonaws.com/media/pictures/square_picture_a1ZviDm.jpg","widescreen_picture":"https://woowbe-dev.s3.amazonaws.com/media/pictures/1676631745.jpeg","cover":"https://woowbe-dev.s3.amazonaws.com/media/covers/cover_SNLXm9U.jpg","offers_count":0,"return_period":0},"name":"Reembolso","kind":"B","reward":"10.00","reward_type":"fixed","standalone":false,"minimum_purchase_amount":"25.00","maximum_reward_amount":null,"campaign":null,"categories":[],"purchases":null,"start_date":"2022-08-22","finish_date":"2022-09-01","start_time":null,"finish_time":null,"budget":"0.00","instant":false,"offline":true,"online":false,"weekdays":[1,2,3,4],"status":"finished","available_percentage":0,"available_rewards":0,"points_of_sale":[656,652],"created":"2022-08-19T08:56:22.833196Z","access_link":null,"last_reward":null,"applicable":false,"is_used":false},{"id":203,"business":{"id":111,"name":"Carlos Conde peluqueros","square_picture":"https://woowbe-dev.s3.amazonaws.com/media/pictures/square_picture_NNjVQc5.jpg","widescreen_picture":"https://woowbe-dev.s3.amazonaws.com/media/pictures/1635234170.jpeg","cover":"https://woowbe-dev.s3.amazonaws.com/media/covers/cover_tvoOUZh.jpg","offers_count":0,"return_period":0},"name":"10€ por corte de pelo","kind":"C","reward":"10.00","reward_type":"fixed","standalone":false,"minimum_purchase_amount":null,"maximum_reward_amount":null,"campaign":null,"categories":[],"purchases":6,"start_date":"2021-10-26","finish_date":"2021-12-26","start_time":null,"finish_time":null,"budget":"0.00","instant":false,"offline":true,"online":false,"weekdays":[1,2,3,4,5,6],"status":"finished","available_percentage":0,"available_rewards":0,"points_of_sale":[443,442,441,440,439,438,437,436,435,434,433,432,431,430,429,428,427,426,425,424],"created":"2021-10-26T08:00:07.266437Z","access_link":null,"last_reward":null,"applicable":false,"is_used":false},{"id":244,"business":{"id":132,"name":"Panaria","square_picture":"https://woowbe-dev.s3.amazonaws.com/media/pictures/panaria-logo-1-1.png","widescreen_picture":"https://woowbe-dev.s3.amazonaws.com/media/pictures/1638197657.png","cover":"https://woowbe-dev.s3.amazonaws.com/media/covers/panaria-portada.webp","offers_count":1,"return_period":0},"name":"Panaria 10%","kind":"A","reward":"10.00","reward_type":"percentage","standalone":false,"minimum_purchase_amount":"10.00","maximum_reward_amount":null,"campaign":null,"categories":[],"purchases":null,"start_date":"2021-11-29","finish_date":null,"start_time":null,"finish_time":null,"budget":"300.00","instant":false,"offline":true,"online":false,"weekdays":[1,2,3,4,5,6,7],"status":"active","available_percentage":1,"available_rewards":null,"points_of_sale":[628,627,625,578,577,576,575,574,573,572,571,570,569,568,567,566,565,564,563,562,561,560,559],"created":"2021-11-29T15:01:55.437162Z","access_link":null,"last_reward":null,"applicable":false,"is_used":false},{"id":249,"business":{"id":134,"name":"Taj Mahal","square_picture":"https://woowbe-dev.s3.amazonaws.com/media/pictures/taj-mahal-logo-1-1_oY8rPRm.png","widescreen_picture":"https://woowbe-dev.s3.amazonaws.com/media/pictures/1638367485.png","cover":"https://woowbe-dev.s3.amazonaws.com/media/covers/cover_fhbL2r4.jpg","offers_count":1,"return_period":1},"name":"Prueba de 0","kind":"A","reward":"10.00","reward_type":"percentage","standalone":false,"minimum_purchase_amount":null,"maximum_reward_amount":null,"campaign":null,"categories":[],"purchases":null,"start_date":"2022-02-14","finish_date":null,"start_time":null,"finish_time":null,"budget":"0.00","instant":false,"offline":true,"online":false,"weekdays":[1,2,3,4,5],"status":"finished","available_percentage":0,"available_rewards":null,"points_of_sale":[582],"created":"2022-02-14T15:18:26.130777Z","access_link":null,"last_reward":null,"applicable":false,"is_used":false},{"id":281,"business":{"id":174,"name":"SPAIN GOURMET INVESTMENTS SL","square_picture":"https://woowbe-dev.s3.amazonaws.com/media/pictures/square_picture_wxeFMMD.jpg","widescreen_picture":"https://woowbe-dev.s3.amazonaws.com/media/pictures/1657624076.jpeg","cover":"https://woowbe-dev.s3.amazonaws.com/media/covers/cover_RvYX6Fj.jpg","offers_count":0,"return_period":0},"name":"reembolso","kind":"B","reward":"10.00","reward_type":"fixed","standalone":true,"minimum_purchase_amount":"50.00","maximum_reward_amount":null,"campaign":null,"categories":[],"purchases":null,"start_date":"2022-07-12","finish_date":"2022-09-12","start_time":null,"finish_time":null,"budget":"0.00","instant":false,"offline":true,"online":false,"weekdays":[1,2,3,4,5,6],"status":"finished","available_percentage":0,"available_rewards":0,"points_of_sale":[651],"created":"2022-07-12T11:13:20.630867Z","access_link":null,"last_reward":null,"applicable":false,"is_used":false},{"id":289,"business":{"id":178,"name":"Mahourizio","square_picture":"https://woowbe-dev.s3.amazonaws.com/media/pictures/square_picture_a1ZviDm.jpg","widescreen_picture":"https://woowbe-dev.s3.amazonaws.com/media/pictures/1676631745.jpeg","cover":"https://woowbe-dev.s3.amazonaws.com/media/covers/cover_SNLXm9U.jpg","offers_count":0,"return_period":0},"name":"Sellos","kind":"C","reward":"10.00","reward_type":"fixed","standalone":false,"minimum_purchase_amount":"15.00","maximum_reward_amount":null,"campaign":null,"categories":[],"purchases":4,"start_date":"2022-08-19","finish_date":"2022-09-04","start_time":null,"finish_time":null,"budget":"0.00","instant":false,"offline":true,"online":false,"weekdays":[1,2,3,4,5,6,7],"status":"finished","available_percentage":0,"available_rewards":0,"points_of_sale":[656,652],"created":"2022-08-19T08:57:16.271099Z","access_link":null,"last_reward":null,"applicable":false,"is_used":false}]}