{
	"count": 295,
	"next": "https://backend.dev.woowbe.com/api/v1/offers/public/?page=6",
	"previous": "https://backend.dev.woowbe.com/api/v1/offers/public/?page=4",
	"results": [
		{
			"id": 294,
			"business": {
				"id": 177,
				"name": "Cafeteria QA",
				"square_picture": "https://woowbe-dev.s3.amazonaws.com/media/pictures/square_picture_L5L56Sl.jpg",
				"widescreen_picture": "https://woowbe-dev.s3.amazonaws.com/media/pictures/1664189138.jpeg",
				"cover": "https://woowbe-dev.s3.amazonaws.com/media/covers/cover_vO8upz4.jpg",
				"offers_count": 0,
				"return_period": 0
			},
			"name": "categoria 1",
			"kind": "B",
			"reward": "10.00",
			"reward_type": "fixed",
			"standalone": true,
			"minimum_purchase_amount": null,
			"maximum_reward_amount": null,
			"campaign": null,
			"categories": [],
			"purchases": null,
			"start_date": "2022-08-25",
			"finish_date": "2022-08-27",
			"start_time": null,
			"finish_time": null,
			"budget": "0.00",
			"instant": false,
			"offline": true,
			"online": false,
			"weekdays": [
				1,
				2,
				3
			],
			"status": "finished",
			"available_percentage": 0,
			"available_rewards": 0,
			"points_of_sale": [
				669,
				668,
				667,
				663
			],
			"created": "2022-08-25T11:26:48.160047Z",
			"access_link": null,
			"last_reward": null,
			"applicable": false,
			"is_used": false
		},
		{
			"id": 244,
			"business": {
				"id": 132,
				"name": "Panaria",
				"square_picture": "https://woowbe-dev.s3.amazonaws.com/media/pictures/panaria-logo-1-1.png",
				"widescreen_picture": "https://woowbe-dev.s3.amazonaws.com/media/pictures/1638197657.png",
				"cover": "https://woowbe-dev.s3.amazonaws.com/media/covers/panaria-portada.webp",
				"offers_count": 1,
				"return_period": 0
			},
			"name": "Panaria 10%",
			"kind": "A",
			"reward": "10.00",
			"reward_type": "percentage",
			"standalone": false,
			"minimum_purchase_amount": "10.00",
			"maximum_reward_amount": null,
			"campaign": null,
			"categories": [],
			"purchases": null,
			"start_date": "2021-11-29",
			"finish_date": null,
			"start_time": null,
			"finish_time": null,
			"budget": "300.00",
			"instant": false,
			"offline": true,
			"online": false,
			"weekdays": [
				1,
				2,
				3,
				4,
				5,
				6,
				7
			],
			"status": "active",
			"available_percentage": 1,
			"available_rewards": null,
			"points_of_sale": [
				628,
				627,
				625,
				578,
				577,
				576,
				575,
				574,
				573,
				572,
				571,
				570,
				569,
				568,
				567,
				566,
				565,
				564,
				563,
				562,
				561,
				560,
				559
			],
			"created": "2021-11-29T15:01:55.437162Z",
			"access_link": null,
			"last_reward": null,
			"applicable": false,
			"is_used": false
		},
		{
			"id": 199,
			"business": {
				"id": 107,
				"name": "Steak Burger",
				"square_picture": "https://woowbe-dev.s3.amazonaws.com/media/pictures/square_picture_wdDt5gW.jpg",
				"widescreen_picture": "https://woowbe-dev.s3.amazonaws.com/media/pictures/1635163467.jpeg",
				"cover": "https://woowbe-dev.s3.amazonaws.com/media/covers/cover_pSQeN7T.jpg",
				"offers_count": 0,
				"return_period": 0
			},
			"name": "10€ por comer hamburguesa",
			"kind": "C",
			"reward": "10.00",
			"reward_type": "fixed",
			"standalone": false,
			"minimum_purchase_amount": "15.00",
			"maximum_reward_amount": null,
			"campaign": null,
			"categories": [],
			"purchases": 6,
			"start_date": "2021-10-25",
			"finish_date": "2021-12-31",
			"start_time": null,
			"finish_time": null,
			"budget": "0.00",
			"instant": false,
			"offline": true,
			"online": false,
			"weekdays": [
				1,
				2,
				3,
				4
			],
			"status": "finished",
			"available_percentage": 0,
			"available_rewards": 0,
			"points_of_sale": [
				383,
				382,
				381,
				380,
				379,
				378,
				377
			],
			"created": "2021-10-25T12:10:04.215021Z",
			"access_link": null,
			"last_reward": null,
			"applicable": false,
			"is_used": false
		},
		{
			"id": 302,
			"business": {
				"id": 184,
				"name": "Floristeria MariPepis QA",
				"square_picture": "https://woowbe-dev.s3.amazonaws.com/media/pictures/square_picture_wRtqmQ7.jpg",
				"widescreen_picture": "https://woowbe-dev.s3.amazonaws.com/media/pictures/1662040876.jpeg",
				"cover": "https://woowbe-dev.s3.amazonaws.com/media/covers/cover_J8HYh2d.jpg",
				"offers_count": 1,
				"return_period": 0
			},
			"name": "programa %",
			"kind": "A",
			"reward": "10.00",
			"reward_type": "percentage",
			"standalone": false,
			"minimum_purchase_amount": null,
			"maximum_reward_amount": null,
			"campaign": null,
			"categories": [],
			"purchases": null,
			"start_date": "2022-09-01",
			"finish_date": "2022-09-16",
			"start_time": null,
			"finish_time": null,
			"budget": "0.50",
			"instant": false,
			"offline": true,
			"online": false,
			"weekdays": [
				1,
				2,
				3,
				5
			],
			"status": "finished",
			"available_percentage": 0,
			"available_rewards": null,
			"points_of_sale": [],
			"created": "2022-09-01T14:40:47.171675Z",
			"access_link": null,
			"last_reward": null,
			"applicable": false,
			"is_used": false
		},
		{
			"id": 200,
			"business": {
				"id": 108,
				"name": "Oven mozzarella bar",
				"square_picture": "https://woowbe-dev.s3.amazonaws.com/media/pictures/square_picture_4D3jJZh.jpg",
				"widescreen_picture": "https://woowbe-dev.s3.amazonaws.com/media/pictures/1635165347.jpeg",
				"cover": "https://woowbe-dev.s3.amazonaws.com/media/covers/cover_LoyygPo.jpg",
				"offers_count": 0,
				"return_period": 0
			},
			"name": "10€ por comer",
			"kind": "C",
			"reward": "10.00",
			"reward_type": "fixed",
			"standalone": false,
			"minimum_purchase_amount": "30.00",
			"maximum_reward_amount": null,
			"campaign": null,
			"categories": [],
			"purchases": 6,
			"start_date": "2021-10-25",
			"finish_date": "2021-12-31",
			"start_time": "13:00:00",
			"finish_time": "17:00:00",
			"budget": "0.00",
			"instant": false,
			"offline": true,
			"online": false,
			"weekdays": [
				1,
				2,
				3
			],
			"status": "finished",
			"available_percentage": 0,
			"available_rewards": 0,
			"points_of_sale": [
				388,
				387,
				386,
				385,
				384
			],
			"created": "2021-10-25T12:39:49.375930Z",
			"access_link": null,
			"last_reward": null,
			"applicable": false,
			"is_used": false
		},
		{
			"id": 246,
			"business": {
				"id": 134,
				"name": "Taj Mahal",
				"square_picture": "https://woowbe-dev.s3.amazonaws.com/media/pictures/taj-mahal-logo-1-1_oY8rPRm.png",
				"widescreen_picture": "https://woowbe-dev.s3.amazonaws.com/media/pictures/1638367485.png",
				"cover": "https://woowbe-dev.s3.amazonaws.com/media/covers/cover_fhbL2r4.jpg",
				"offers_count": 1,
				"return_period": 1
			},
			"name": "Oferta Sellos",
			"kind": "C",
			"reward": "10.00",
			"reward_type": "fixed",
			"standalone": false,
			"minimum_purchase_amount": "20.00",
			"maximum_reward_amount": null,
			"campaign": null,
			"categories": [],
			"purchases": 6,
			"start_date": "2021-12-01",
			"finish_date": "2022-01-31",
			"start_time": null,
			"finish_time": null,
			"budget": "60.00",
			"instant": false,
			"offline": true,
			"online": false,
			"weekdays": [],
			"status": "finished",
			"available_percentage": 1,
			"available_rewards": 6,
			"points_of_sale": [],
			"created": "2021-12-01T14:06:58.701450Z",
			"access_link": null,
			"last_reward": null,
			"applicable": false,
			"is_used": false
		},
		{
			"id": 281,
			"business": {
				"id": 174,
				"name": "SPAIN GOURMET INVESTMENTS SL",
				"square_picture": "https://woowbe-dev.s3.amazonaws.com/media/pictures/square_picture_wxeFMMD.jpg",
				"widescreen_picture": "https://woowbe-dev.s3.amazonaws.com/media/pictures/1657624076.jpeg",
				"cover": "https://woowbe-dev.s3.amazonaws.com/media/covers/cover_RvYX6Fj.jpg",
				"offers_count": 0,
				"return_period": 0
			},
			"name": "reembolso",
			"kind": "B",
			"reward": "10.00",
			"reward_type": "fixed",
			"standalone": true,
			"minimum_purchase_amount": "50.00",
			"maximum_reward_amount": null,
			"campaign": null,
			"categories": [],
			"purchases": null,
			"start_date": "2022-07-12",
			"finish_date": "2022-09-12",
			"start_time": null,
			"finish_time": null,
			"budget": "0.00",
			"instant": false,
			"offline": true,
			"online": false,
			"weekdays": [
				1,
				2,
				3,
				4,
				5,
				6
			],
			"status": "finished",
			"available_percentage": 0,
			"available_rewards": 0,
			"points_of_sale": [
				651
			],
			"created": "2022-07-12T11:13:20.630867Z",
			"access_link": null,
			"last_reward": null,
			"applicable": false,
			"is_used": false
		},
		{
			"id": 170,
			"business": {
				"id": 94,
				"name": "Saona",
				"square_picture": "https://woowbe-dev.s3.amazonaws.com/media/pictures/square_picture_TEKrspD.jpg",
				"widescreen_picture": "https://woowbe-dev.s3.amazonaws.com/media/pictures/1634846102.jpeg",
				"cover": "https://woowbe-dev.s3.amazonaws.com/media/covers/cover_wmnj91d.jpg",
				"offers_count": 0,
				"return_period": 0
			},
			"name": "10% en cenas",
			"kind": "A",
			"reward": "10.00",
			"reward_type": "percentage",
			"standalone": false,
			"minimum_purchase_amount": "40.00",
			"maximum_reward_amount": null,
			"campaign": null,
			"categories": [],
			"purchases": null,
			"start_date": "2021-10-22",
			"finish_date": null,
			"start_time": "20:00:00",
			"finish_time": "01:00:00",
			"budget": "1.00",
			"instant": false,
			"offline": true,
			"online": false,
			"weekdays": [
				1,
				2,
				3,
				4,
				5
			],
			"status": "finished",
			"available_percentage": 1,
			"available_rewards": null,
			"points_of_sale": [
				273,
				272,
				271,
				270,
				269,
				268,
				267,
				266,
				265,
				264
			],
			"created": "2021-10-22T18:44:17.985163Z",
			"access_link": null,
			"last_reward": null,
			"applicable": false,
			"is_used": false
		},
		{
			"id": 250,
			"business": {
				"id": 134,
				"name": "Taj Mahal",
				"square_picture": "https://woowbe-dev.s3.amazonaws.com/media/pictures/taj-mahal-logo-1-1_oY8rPRm.png",
				"widescreen_picture": "https://woowbe-dev.s3.amazonaws.com/media/pictures/1638367485.png",
				"cover": "https://woowbe-dev.s3.amazonaws.com/media/covers/cover_fhbL2r4.jpg",
				"offers_count": 1,
				"return_period": 1
			},
			"name": "prueba presupuesto menor que recompensa",
			"kind": "B",
			"reward": "10.00",
			"reward_type": "fixed",
			"standalone": false,
			"minimum_purchase_amount": null,
			"maximum_reward_amount": null,
			"campaign": null,
			"categories": [],
			"purchases": null,
			"start_date": "2022-02-14",
			"finish_date": null,
			"start_time": null,
			"finish_time": null,
			"budget": "5.00",
			"instant": false,
			"offline": true,
			"online": false,
			"weekdays": [
				2,
				3,
				4
			],
			"status": "active",
			"available_percentage": 1,
			"available_rewards": 0,
			"points_of_sale": [
				582
			],
			"created": "2022-02-14T15:21:20.625694Z",
			"access_link": null,
			"last_reward": null,
			"applicable": false,
			"is_used": false
		},
		{
			"id": 283,
			"business": {
				"id": 134,
				"name": "Taj Mahal",
				"square_picture": "https://woowbe-dev.s3.amazonaws.com/media/pictures/taj-mahal-logo-1-1_oY8rPRm.png",
				"widescreen_picture": "https://woowbe-dev.s3.amazonaws.com/media/pictures/1638367485.png",
				"cover": "https://woowbe-dev.s3.amazonaws.com/media/covers/cover_fhbL2r4.jpg",
				"offers_count": 1,
				"return_period": 1
			},
			"name": "Recompensa entre semana",
			"kind": "A",
			"reward": "10.00",
			"reward_type": "percentage",
			"standalone": false,
			"minimum_purchase_amount": null,
			"maximum_reward_amount": null,
			"campaign": null,
			"categories": [],
			"purchases": null,
			"start_date": "2022-07-19",
			"finish_date": "2023-01-19",
			"start_time": null,
			"finish_time": null,
			"budget": "5.00",
			"instant": false,
			"offline": true,
			"online": false,
			"weekdays": [
				5,
				1,
				2,
				3,
				4
			],
			"status": "finished",
			"available_percentage": 0,
			"available_rewards": null,
			"points_of_sale": [
				582
			],
			"created": "2022-07-19T07:17:24.400996Z",
			"access_link": null,
			"last_reward": null,
			"applicable": false,
			"is_used": false
		}
	]
}
