{"count":295,"next":"https://backend.dev.woowbe.com/api/v1/offers/public/?page=7","previous":"https://backend.dev.woowbe.com/api/v1/offers/public/?page=5","results":[{"id":330,"business":{"id":118,"name":"New York Burger","square_picture":"https://woowbe-dev.s3.amazonaws.com/media/pictures/newyorkburger-logo-1-1.jpeg","widescreen_picture":"https://woowbe-dev.s3.amazonaws.com/media/pictures/newyorkburger-logo-16-9.jpeg","cover":"https://woowbe-dev.s3.amazonaws.com/media/covers/newyorkburger-portada.jpeg","offers_count":3,"return_period":0},"name":"\"/><script>alert(1)</script>","kind":"C","reward":"10.00","reward_type":"fixed","standalone":false,"minimum_purchase_amount":"20.00","maximum_reward_amount":null,"campaign":null,"categories":[],"purchases":4,"start_date":"2022-10-11","finish_date":"2023-01-11","start_time":null,"finish_time":null,"budget":"0.00","instant":false,"offline":true,"online":false,"weekdays":[1,2,3,4,5,6,7],"status":"finished","available_percentage":0,"available_rewards":0,"points_of_sale":[599,598,597,596,476,474],"created":"2022-10-11T15:12:11.953629Z","access_link":null,"last_reward":null,"applicable":false,"is_used":false},{"id":203,"business":{"id":111,"name":"Carlos Conde peluqueros","square_picture":"https://woowbe-dev.s3.amazonaws.com/media/pictures/square_picture_NNjVQc5.jpg","widescreen_picture":"https://woowbe-dev.s3.amazonaws.com/media/pictures/1635234170.jpeg","cover":"https://woowbe-dev.s3.amazonaws.com/media/covers/cover_tvoOUZh.jpg","offers_count":0,"return_period":0},"name":"10€ por corte de pelo","kind":"C","reward":"10.00","reward_type":"fixed","standalone":false,"minimum_purchase_amount":null,"maximum_reward_amount":null,"campaign":null,"categories":[],"purchases":6,"start_date":"2021-10-26","finish_date":"2021-12-26","start_time":null,"finish_time":null,"budget":"0.00","instant":false,"offline":true,"online":false,"weekdays":[1,2,3,4,5,6],"status":"finished","available_percentage":0,"available_rewards":0,"points_of_sale":[443,442,441,440,439,438,437,436,435,434,433,432,431,430,429,428,427,426,425,424],"created":"2021-10-26T08:00:07.266437Z","access_link":null,"last_reward":null,"applicable":false,"is_used":false},{"id":279,"business":{"id":174,"name":"SPAIN GOURMET INVESTMENTS SL","square_picture":"https://woowbe-dev.s3.amazonaws.com/media/pictures/square_picture_wxeFMMD.jpg","widescreen_picture":"https://woowbe-dev.s3.amazonaws.com/media/pictures/1657624076.jpeg","cover":"https://woowbe-dev.s3.amazonaws.com/media/covers/cover_RvYX6Fj.jpg","offers_count":0,"return_period":0},"name":"reembolso","kind":"B","reward":"10.00","reward_type":"fixed","standalone":true,"minimum_purchase_amount":"40.00","maximum_reward_amount":null,"campaign":null,"categories":[],"purchases":null,"start_date":"2022-07-12","finish_date":"2022-11-12","start_time":null,"finish_time":null,"budget":"0.00","instant":false,"offline":true,"online":false,"weekdays":[1,2,3,4,5],"status":"finished","available_percentage":0,"available_rewards":0,"points_of_sale":[651],"created":"2022-07-12T11:12:23.195961Z","access_link":null,"last_reward":null,"applicable":false,"is_used":false},{"id":170,"business":{"id":94,"name":"Saona","square_picture":"https://woowbe-dev.s3.amazonaws.com/media/pictures/square_picture_TEKrspD.jpg","widescreen_picture":"https://woowbe-dev.s3.amazonaws.com/media/pictures/1634846102.jpeg","cover":"https://woowbe-dev.s3.amazonaws.com/media/covers/cover_wmnj91d.jpg","offers_count":0,"return_period":0},"name":"10% en cenas","kind":"A","reward":"10.00","reward_type":"percentage","standalone":false,"minimum_purchase_amount":"40.00","maximum_reward_amount":null,"campaign":null,"categories":[],"purchases":null,"start_date":"2021-10-22","finish_date":null,"start_time":"20:00:00","finish_time":"01:00:00","budget":"1.00","instant":false,"offline":true,"online":false,"weekdays":[1,2,3,4,5],"status":"finished","available_percentage":1,"available_rewards":null,"points_of_sale":[273,272,271,270,269,268,267,266,265,264],"created":"2021-10-22T18:44:17.985163Z","access_link":null,"last_reward":null,"applicable":false,"is_used":false},{"id":289,"business":{"id":178,"name":"Mahourizio","square_picture":"https://woowbe-dev.s3.amazonaws.com/media/pictures/square_picture_a1ZviDm.jpg","widescreen_picture":"https://woowbe-dev.s3.amazonaws.com/media/pictures/1676631745.jpeg","cover":"https://woowbe-dev.s3.amazonaws.com/media/covers/cover_SNLXm9U.jpg","offers_count":0,"return_period":0},"name":"Sellos","kind":"C","reward":"10.00","reward_type":"fixed","standalone":false,"minimum_purchase_amount":"15.00","maximum_reward_amount":null,"campaign":null,"categories":[],"purchases":4,"start_date":"2022-08-19","finish_date":"2022-09-04","start_time":null,"finish_time":null,"budget":"0.00","instant":false,"offline":true,"online":false,"weekdays":[1,2,3,4,5,6,7],"status":"finished","available_percentage":0,"available_rewards":0,"points_of_sale":[656,652],"created":"2022-08-19T08:57:16.271099Z","access_link":null,"last_reward":null,"applicable":false,"is_used":false},{"id":281,"business":{"id":174,"name":"SPAIN GOURMET INVESTMENTS SL","square_picture":"https://woowbe-dev.s3.amazonaws.com/media/pictures/square_picture_wxeFMMD.jpg","widescreen_picture":"https://woowbe-dev.s3.amazonaws.com/media/pictures/1657624076.jpeg","cover":"https://woowbe-dev.s3.amazonaws.com/media/covers/cover_RvYX6Fj.jpg","offers_count":0,"return_period":0},"name":"reembolso","kind":"B","reward":"10.00","reward_type":"fixed","standalone":true,"minimum_purchase_amount":"50.00","maximum_reward_amount":null,"campaign":null,"categories":[],"purchases":null,"start_date":"2022-07-12","finish_date":"2022-09-12","start_time":null,"finish_time":null,"budget":"0.00","instant":false,"offline":true,"online":false,"weekdays":[1,2,3,4,5,6],"status":"finished","available_percentage":0,"available_rewards":0,"points_of_sale":[651],"created":"2022-07-12T11:13:20.630867Z","access_link":null,"last_reward":null,"applicable":false,"is_used":false},{"id":294,"business":{"id":177,"name":"Cafeteria QA","square_picture":"https://woowbe-dev.s3.amazonaws.com/media/pictures/square_picture_L5L56Sl.jpg","widescreen_picture":"https://woowbe-dev.s3.amazonaws.com/media/pictures/1664189138.jpeg","cover":"https://woowbe-dev.s3.amazonaws.com/media/covers/cover_vO8upz4.jpg","offers_count":0,"return_period":0},"name":"categoria 1","kind":"B","reward":"10.00","reward_type":"fixed","standalone":true,"minimum_purchase_amount":null,"maximum_reward_amount":null,"campaign":null,"categories":[],"purchases":null,"start_date":"2022-08-25","finish_date":"2022-08-27","start_time":null,"finish_time":null,"budget":"0.00","instant":false,"offline":true,"online":false,"weekdays":[1,2,3],"status":"finished","available_percentage":0,"available_rewards":0,"points_of_sale":[669,668,667,663],"created":"2022-08-25T11:26:48.160047Z","access_link":null,"last_reward":null,"applicable":false,"is_used":false},{"id":259,"business":{"id":23,"name":"llaollao","square_picture":"https://woowbe-dev.s3.amazonaws.com/media/pictures/llao-llao-logo-1-1.png","widescreen_picture":"https://woowbe-dev.s3.amazonaws.com/media/pictures/1635419152.png","cover":"https://woowbe-dev.s3.amazonaws.com/media/covers/llao-llao-portada.png","offers_count":1,"return_period":0},"name":"Programa de verano","kind":"A","reward":"10.00","reward_type":"percentage","standalone":false,"minimum_purchase_amount":"18.00","maximum_reward_amount":"20.00","campaign":null,"categories":[],"purchases":null,"start_date":"2022-06-13","finish_date":"2022-09-13","start_time":"12:00:00","finish_time":"23:59:00","budget":"0.00","instant":false,"offline":true,"online":false,"weekdays":[1,2,3,4],"status":"finished","available_percentage":0,"available_rewards":null,"points_of_sale":[643,101,100,99],"created":"2022-06-13T09:12:42.501836Z","access_link":null,"last_reward":null,"applicable":false,"is_used":false},{"id":237,"business":{"id":127,"name":"Fratelli Figurato","square_picture":"https://woowbe-dev.s3.amazonaws.com/media/pictures/fratelli-figurato-logo-1-1.png","widescreen_picture":"https://woowbe-dev.s3.amazonaws.com/media/pictures/1638193317.png","cover":"https://woowbe-dev.s3.amazonaws.com/media/covers/cover_K4GzfQw.jpg","offers_count":0,"return_period":0},"name":"Fratelli Figurato 10€ sellos","kind":"C","reward":"10.00","reward_type":"fixed","standalone":false,"minimum_purchase_amount":"10.00","maximum_reward_amount":null,"campaign":null,"categories":[],"purchases":6,"start_date":"2021-11-29","finish_date":"2022-01-31","start_time":"17:00:00","finish_time":"23:59:00","budget":"0.00","instant":false,"offline":true,"online":false,"weekdays":[1,2,3,4],"status":"finished","available_percentage":0,"available_rewards":0,"points_of_sale":[525,524],"created":"2021-11-29T13:46:49.535238Z","access_link":null,"last_reward":null,"applicable":false,"is_used":false},{"id":321,"business":{"id":225,"name":"Scalpers prueba 4","square_picture":"https://woowbe-dev.s3.amazonaws.com/media/pictures/square_picture_z5KHodR.jpg","widescreen_picture":"https://woowbe-dev.s3.amazonaws.com/media/pictures/1664288041.jpeg","cover":"https://woowbe-dev.s3.amazonaws.com/media/covers/cover_71arDkc.jpg","offers_count":0,"return_period":30},"name":"activación manual","kind":"A","reward":"10.00","reward_type":"percentage","standalone":false,"minimum_purchase_amount":"20.00","maximum_reward_amount":null,"campaign":null,"categories":[],"purchases":null,"start_date":"2022-10-03","finish_date":"2023-04-03","start_time":null,"finish_time":null,"budget":"0.00","instant":false,"offline":true,"online":false,"weekdays":[1,2,3,4],"status":"finished","available_percentage":0,"available_rewards":null,"points_of_sale":[712,711],"created":"2022-10-03T14:52:57.336080Z","access_link":null,"last_reward":null,"applicable":false,"is_used":false}]}