{
	"count": 295,
	"next": "https://backend.dev.woowbe.com/api/v1/offers/public/?page=8",
	"previous": "https://backend.dev.woowbe.com/api/v1/offers/public/?page=6",
	"results": [
		{
			"id": 237,
			"business": {
				"id": 127,
				"name": "Fratelli Figurato",
				"square_picture": "https://woowbe-dev.s3.amazonaws.com/media/pictures/fratelli-figurato-logo-1-1.png",
				"widescreen_picture": "https://woowbe-dev.s3.amazonaws.com/media/pictures/1638193317.png",
				"cover": "https://woowbe-dev.s3.amazonaws.com/media/covers/cover_K4GzfQw.jpg",
				"offers_count": 0,
				"return_period": 0
			},
			"name": "Fratelli Figurato 10€ sellos",
			"kind": "C",
			"reward": "10.00",
			"reward_type": "fixed",
			"standalone": false,
			"minimum_purchase_amount": "10.00",
			"maximum_reward_amount": null,
			"campaign": null,
			"categories": [],
			"purchases": 6,
			"start_date": "2021-11-29",
			"finish_date": "2022-01-31",
			"start_time": "17:00:00",
			"finish_time": "23:59:00",
			"budget": "0.00",
			"instant": false,
			"offline": true,
			"online": false,
			"weekdays": [
				1,
				2,
				3,
				4
			],
			"status": "finished",
			"available_percentage": 0,
			"available_rewards": 0,
			"points_of_sale": [
				525,
				524
			],
			"created": "2021-11-29T13:46:49.535238Z",
			"access_link": null,
			"last_reward": null,
			"applicable": false,
			"is_used": false
		},
		{
			"id": 294,
			"business": {
				"id": 177,
				"name": "Cafeteria QA",
				"square_picture": "https://woowbe-dev.s3.amazonaws.com/media/pictures/square_picture_L5L56Sl.jpg",
				"widescreen_picture": "https://woowbe-dev.s3.amazonaws.com/media/pictures/1664189138.jpeg",
				"cover": "https://woowbe-dev.s3.amazonaws.com/media/covers/cover_vO8upz4.jpg",
				"offers_count": 0,
				"return_period": 0
			},
			"name": "categoria 1",
			"kind": "B",
			"reward": "10.00",
			"reward_type": "fixed",
			"standalone": true,
			"minimum_purchase_amount": null,
			"maximum_reward_amount": null,
			"campaign": null,
			"categories": [],
			"purchases": null,
			"start_date": "2022-08-25",
			"finish_date": "2022-08-27",
			"start_time": null,
			"finish_time": null,
			"budget": "0.00",
			"instant": false,
			"offline": true,
			"online": false,
			"weekdays": [
				1,
				2,
				3
			],
			"status": "finished",
			"available_percentage": 0,
			"available_rewards": 0,
			"points_of_sale": [
				669,
				668,
				667,
				663
			],
			"created": "2022-08-25T11:26:48.160047Z",
			"access_link": null,
			"last_reward": null,
			"applicable": false,
			"is_used": false
		},
		{
			"id": 337,
			"business": {
				"id": 246,
				"name": "Veterinaria QA aaaaaddddddbbbbbbb",
				"square_picture": "https://woowbe-dev.s3.amazonaws.com/media/pictures/1667842927.jpeg",
				"widescreen_picture": "https://woowbe-dev.s3.amazonaws.com/media/pictures/1669722210.jpeg",
				"cover": "https://woowbe-dev.s3.amazonaws.com/media/covers/cover_0hwbWev.jpg",
				"offers_count": 1,
				"return_period": 0
			},
			"name": "reembolso",
			"kind": "B",
			"reward": "10.00",
			"reward_type": "fixed",
			"standalone": true,
			"minimum_purchase_amount": null,
			"maximum_reward_amount": null,
			"campaign": null,
			"categories": [],
			"purchases": null,
			"start_date": "2022-11-07",
			"finish_date": "2023-04-05",
			"start_time": null,
			"finish_time": null,
			"budget": "30.00",
			"instant": false,
			"offline": true,
			"online": false,
			"weekdays": [
				1,
				2,
				3,
				4,
				5,
				6,
				7
			],
			"status": "finished",
			"available_percentage": 0,
			"available_rewards": 0,
			"points_of_sale": [
				726
			],
			"created": "2022-11-07T17:52:14.115065Z",
			"access_link": null,
			"last_reward": null,
			"applicable": false,
			"is_used": false
		},
		{
			"id": 359,
			"business": {
				"id": 118,
				"name": "New York Burger",
				"square_picture": "https://woowbe-dev.s3.amazonaws.com/media/pictures/newyorkburger-logo-1-1.jpeg",
				"widescreen_picture": "https://woowbe-dev.s3.amazonaws.com/media/pictures/newyorkburger-logo-16-9.jpeg",
				"cover": "https://woowbe-dev.s3.amazonaws.com/media/covers/newyorkburger-portada.jpeg",
				"offers_count": 3,
				"return_period": 0
			},
			"name": "Copy \"/><script>alert(1)</script>",
			"kind": "C",
			"reward": "10.00",
			"reward_type": "fixed",
			"standalone": false,
			"minimum_purchase_amount": "19.00",
			"maximum_reward_amount": null,
			"campaign": null,
			"categories": [],
			"purchases": 4,
			"start_date": "2022-12-16",
			"finish_date": "2022-12-23",
			"start_time": null,
			"finish_time": null,
			"budget": "0.00",
			"instant": false,
			"offline": true,
			"online": false,
			"weekdays": [
				1,
				2,
				3,
				4,
				5,
				6,
				7
			],
			"status": "finished",
			"available_percentage": 0,
			"available_rewards": 0,
			"points_of_sale": [
				479
			],
			"created": "2022-12-16T19:18:19.537270Z",
			"access_link": null,
			"last_reward": null,
			"applicable": false,
			"is_used": false
		},
		{
			"id": 236,
			"business": {
				"id": 126,
				"name": "Kilómetros de Pizza",
				"square_picture": "https://woowbe-dev.s3.amazonaws.com/media/pictures/km-pizza-logo-1-1.png",
				"widescreen_picture": "https://woowbe-dev.s3.amazonaws.com/media/pictures/1638192019.png",
				"cover": "https://woowbe-dev.s3.amazonaws.com/media/covers/km-pizza-portada.jpeg",
				"offers_count": 1,
				"return_period": 0
			},
			"name": "Kilómetros de pizza 10%",
			"kind": "A",
			"reward": "10.00",
			"reward_type": "percentage",
			"standalone": false,
			"minimum_purchase_amount": "25.00",
			"maximum_reward_amount": null,
			"campaign": null,
			"categories": [],
			"purchases": null,
			"start_date": "2021-11-29",
			"finish_date": null,
			"start_time": null,
			"finish_time": null,
			"budget": "300.00",
			"instant": false,
			"offline": true,
			"online": false,
			"weekdays": [
				1,
				2,
				3,
				4
			],
			"status": "active",
			"available_percentage": 1,
			"available_rewards": null,
			"points_of_sale": [
				640,
				639,
				638,
				518,
				517
			],
			"created": "2021-11-29T13:34:29.950083Z",
			"access_link": null,
			"last_reward": null,
			"applicable": false,
			"is_used": false
		},
		{
			"id": 302,
			"business": {
				"id": 184,
				"name": "Floristeria MariPepis QA",
				"square_picture": "https://woowbe-dev.s3.amazonaws.com/media/pictures/square_picture_wRtqmQ7.jpg",
				"widescreen_picture": "https://woowbe-dev.s3.amazonaws.com/media/pictures/1662040876.jpeg",
				"cover": "https://woowbe-dev.s3.amazonaws.com/media/covers/cover_J8HYh2d.jpg",
				"offers_count": 1,
				"return_period": 0
			},
			"name": "programa %",
			"kind": "A",
			"reward": "10.00",
			"reward_type": "percentage",
			"standalone": false,
			"minimum_purchase_amount": null,
			"maximum_reward_amount": null,
			"campaign": null,
			"categories": [],
			"purchases": null,
			"start_date": "2022-09-01",
			"finish_date": "2022-09-16",
			"start_time": null,
			"finish_time": null,
			"budget": "0.50",
			"instant": false,
			"offline": true,
			"online": false,
			"weekdays": [
				1,
				2,
				3,
				5
			],
			"status": "finished",
			"available_percentage": 0,
			"available_rewards": null,
			"points_of_sale": [],
			"created": "2022-09-01T14:40:47.171675Z",
			"access_link": null,
			"last_reward": null,
			"applicable": false,
			"is_used": false
		},
		{
			"id": 321,
			"business": {
				"id": 225,
				"name": "Scalpers prueba 4",
				"square_picture": "https://woowbe-dev.s3.amazonaws.com/media/pictures/square_picture_z5KHodR.jpg",
				"widescreen_picture": "https://woowbe-dev.s3.amazonaws.com/media/pictures/1664288041.jpeg",
				"cover": "https://woowbe-dev.s3.amazonaws.com/media/covers/cover_71arDkc.jpg",
				"offers_count": 0,
				"return_period": 30
			},
			"name": "activación manual",
			"kind": "A",
			"reward": "10.00",
			"reward_type": "percentage",
			"standalone": false,
			"minimum_purchase_amount": "20.00",
			"maximum_reward_amount": null,
			"campaign": null,
			"categories": [],
			"purchases": null,
			"start_date": "2022-10-03",
			"finish_date": "2023-04-03",
			"start_time": null,
			"finish_time": null,
			"budget": "0.00",
			"instant": false,
			"offline": true,
			"online": false,
			"weekdays": [
				1,
				2,
				3,
				4
			],
			"status": "finished",
			"available_percentage": 0,
			"available_rewards": null,
			"points_of_sale": [
				712,
				711
			],
			"created": "2022-10-03T14:52:57.336080Z",
			"access_link": null,
			"last_reward": null,
			"applicable": false,
			"is_used": false
		},
		{
			"id": 348,
			"business": {
				"id": 89,
				"name": "Aloha Poke",
				"square_picture": "https://woowbe-dev.s3.amazonaws.com/media/pictures/aloha-poke-logo-1-1.png",
				"widescreen_picture": "https://woowbe-dev.s3.amazonaws.com/media/pictures/1634827016.jpeg",
				"cover": "https://woowbe-dev.s3.amazonaws.com/media/covers/cover_0XysFRk.jpg",
				"offers_count": 4,
				"return_period": 0
			},
			"name": "Prueba",
			"kind": "A",
			"reward": "10.00",
			"reward_type": "percentage",
			"standalone": false,
			"minimum_purchase_amount": "50.00",
			"maximum_reward_amount": "20.00",
			"campaign": null,
			"categories": [],
			"purchases": null,
			"start_date": "2022-11-22",
			"finish_date": "2022-11-25",
			"start_time": null,
			"finish_time": null,
			"budget": "0.00",
			"instant": false,
			"offline": true,
			"online": false,
			"weekdays": [
				1,
				2,
				3,
				4,
				5,
				6,
				7
			],
			"status": "finished",
			"available_percentage": 0,
			"available_rewards": null,
			"points_of_sale": [
				603,
				601,
				600,
				203,
				202,
				201,
				200,
				199,
				198,
				197,
				196,
				195,
				194,
				193,
				192
			],
			"created": "2022-11-22T09:58:20.707989Z",
			"access_link": null,
			"last_reward": null,
			"applicable": false,
			"is_used": false
		},
		{
			"id": 281,
			"business": {
				"id": 174,
				"name": "SPAIN GOURMET INVESTMENTS SL",
				"square_picture": "https://woowbe-dev.s3.amazonaws.com/media/pictures/square_picture_wxeFMMD.jpg",
				"widescreen_picture": "https://woowbe-dev.s3.amazonaws.com/media/pictures/1657624076.jpeg",
				"cover": "https://woowbe-dev.s3.amazonaws.com/media/covers/cover_RvYX6Fj.jpg",
				"offers_count": 0,
				"return_period": 0
			},
			"name": "reembolso",
			"kind": "B",
			"reward": "10.00",
			"reward_type": "fixed",
			"standalone": true,
			"minimum_purchase_amount": "50.00",
			"maximum_reward_amount": null,
			"campaign": null,
			"categories": [],
			"purchases": null,
			"start_date": "2022-07-12",
			"finish_date": "2022-09-12",
			"start_time": null,
			"finish_time": null,
			"budget": "0.00",
			"instant": false,
			"offline": true,
			"online": false,
			"weekdays": [
				1,
				2,
				3,
				4,
				5,
				6
			],
			"status": "finished",
			"available_percentage": 0,
			"available_rewards": 0,
			"points_of_sale": [
				651
			],
			"created": "2022-07-12T11:13:20.630867Z",
			"access_link": null,
			"last_reward": null,
			"applicable": false,
			"is_used": false
		},
		{
			"id": 280,
			"business": {
				"id": 174,
				"name": "SPAIN GOURMET INVESTMENTS SL",
				"square_picture": "https://woowbe-dev.s3.amazonaws.com/media/pictures/square_picture_wxeFMMD.jpg",
				"widescreen_picture": "https://woowbe-dev.s3.amazonaws.com/media/pictures/1657624076.jpeg",
				"cover": "https://woowbe-dev.s3.amazonaws.com/media/covers/cover_RvYX6Fj.jpg",
				"offers_count": 0,
				"return_period": 0
			},
			"name": "reembolso",
			"kind": "B",
			"reward": "10.00",
			"reward_type": "fixed",
			"standalone": true,
			"minimum_purchase_amount": "40.00",
			"maximum_reward_amount": null,
			"campaign": null,
			"categories": [],
			"purchases": null,
			"start_date": "2022-07-12",
			"finish_date": "2022-11-12",
			"start_time": null,
			"finish_time": null,
			"budget": "0.00",
			"instant": false,
			"offline": true,
			"online": false,
			"weekdays": [
				1,
				2,
				3,
				4,
				5
			],
			"status": "finished",
			"available_percentage": 0,
			"available_rewards": 0,
			"points_of_sale": [
				651
			],
			"created": "2022-07-12T11:12:33.700684Z",
			"access_link": null,
			"last_reward": null,
			"applicable": false,
			"is_used": false
		}
	]
}
