{
	"count": 295,
	"next": "https://backend.dev.woowbe.com/api/v1/offers/public/?page=9",
	"previous": "https://backend.dev.woowbe.com/api/v1/offers/public/?page=7",
	"results": [
		{
			"id": 283,
			"business": {
				"id": 134,
				"name": "Taj Mahal",
				"square_picture": "https://woowbe-dev.s3.amazonaws.com/media/pictures/taj-mahal-logo-1-1_oY8rPRm.png",
				"widescreen_picture": "https://woowbe-dev.s3.amazonaws.com/media/pictures/1638367485.png",
				"cover": "https://woowbe-dev.s3.amazonaws.com/media/covers/cover_fhbL2r4.jpg",
				"offers_count": 1,
				"return_period": 1
			},
			"name": "Recompensa entre semana",
			"kind": "A",
			"reward": "10.00",
			"reward_type": "percentage",
			"standalone": false,
			"minimum_purchase_amount": null,
			"maximum_reward_amount": null,
			"campaign": null,
			"categories": [],
			"purchases": null,
			"start_date": "2022-07-19",
			"finish_date": "2023-01-19",
			"start_time": null,
			"finish_time": null,
			"budget": "5.00",
			"instant": false,
			"offline": true,
			"online": false,
			"weekdays": [
				5,
				1,
				2,
				3,
				4
			],
			"status": "finished",
			"available_percentage": 0,
			"available_rewards": null,
			"points_of_sale": [
				582
			],
			"created": "2022-07-19T07:17:24.400996Z",
			"access_link": null,
			"last_reward": null,
			"applicable": false,
			"is_used": false
		},
		{
			"id": 296,
			"business": {
				"id": 180,
				"name": "Comercio Pilar",
				"square_picture": "https://woowbe-dev.s3.amazonaws.com/media/pictures/1673868213.jpeg",
				"widescreen_picture": "https://woowbe-dev.s3.amazonaws.com/media/pictures/1673868214.jpeg",
				"cover": "https://woowbe-dev.s3.amazonaws.com/media/covers/cover_qCWtnT8.jpg",
				"offers_count": 0,
				"return_period": 0
			},
			"name": "categorias 2 comercio 2",
			"kind": "B",
			"reward": "10.00",
			"reward_type": "fixed",
			"standalone": false,
			"minimum_purchase_amount": null,
			"maximum_reward_amount": null,
			"campaign": null,
			"categories": [],
			"purchases": null,
			"start_date": "2022-08-25",
			"finish_date": "2022-08-31",
			"start_time": null,
			"finish_time": null,
			"budget": "0.00",
			"instant": false,
			"offline": true,
			"online": false,
			"weekdays": [
				2
			],
			"status": "finished",
			"available_percentage": 0,
			"available_rewards": 0,
			"points_of_sale": [],
			"created": "2022-08-25T11:43:52.513687Z",
			"access_link": null,
			"last_reward": null,
			"applicable": false,
			"is_used": false
		},
		{
			"id": 337,
			"business": {
				"id": 246,
				"name": "Veterinaria QA aaaaaddddddbbbbbbb",
				"square_picture": "https://woowbe-dev.s3.amazonaws.com/media/pictures/1667842927.jpeg",
				"widescreen_picture": "https://woowbe-dev.s3.amazonaws.com/media/pictures/1669722210.jpeg",
				"cover": "https://woowbe-dev.s3.amazonaws.com/media/covers/cover_0hwbWev.jpg",
				"offers_count": 1,
				"return_period": 0
			},
			"name": "reembolso",
			"kind": "B",
			"reward": "10.00",
			"reward_type": "fixed",
			"standalone": true,
			"minimum_purchase_amount": null,
			"maximum_reward_amount": null,
			"campaign": null,
			"categories": [],
			"purchases": null,
			"start_date": "2022-11-07",
			"finish_date": "2023-04-05",
			"start_time": null,
			"finish_time": null,
			"budget": "30.00",
			"instant": false,
			"offline": true,
			"online": false,
			"weekdays": [
				1,
				2,
				3,
				4,
				5,
				6,
				7
			],
			"status": "finished",
			"available_percentage": 0,
			"available_rewards": 0,
			"points_of_sale": [
				726
			],
			"created": "2022-11-07T17:52:14.115065Z",
			"access_link": null,
			"last_reward": null,
			"applicable": false,
			"is_used": false
		},
		{
			"id": 281,
			"business": {
				"id": 174,
				"name": "SPAIN GOURMET INVESTMENTS SL",
				"square_picture": "https://woowbe-dev.s3.amazonaws.com/media/pictures/square_picture_wxeFMMD.jpg",
				"widescreen_picture": "https://woowbe-dev.s3.amazonaws.com/media/pictures/1657624076.jpeg",
				"cover": "https://woowbe-dev.s3.amazonaws.com/media/covers/cover_RvYX6Fj.jpg",
				"offers_count": 0,
				"return_period": 0
			},
			"name": "reembolso",
			"kind": "B",
			"reward": "10.00",
			"reward_type": "fixed",
			"standalone": true,
			"minimum_purchase_amount": "50.00",
			"maximum_reward_amount": null,
			"campaign": null,
			"categories": [],
			"purchases": null,
			"start_date": "2022-07-12",
			"finish_date": "2022-09-12",
			"start_time": null,
			"finish_time": null,
			"budget": "0.00",
			"instant": false,
			"offline": true,
			"online": false,
			"weekdays": [
				1,
				2,
				3,
				4,
				5,
				6
			],
			"status": "finished",
			"available_percentage": 0,
			"available_rewards": 0,
			"points_of_sale": [
				651
			],
			"created": "2022-07-12T11:13:20.630867Z",
			"access_link": null,
			"last_reward": null,
			"applicable": false,
			"is_used": false
		},
		{
			"id": 289,
			"business": {
				"id": 178,
				"name": "Mahourizio",
				"square_picture": "https://woowbe-dev.s3.amazonaws.com/media/pictures/square_picture_a1ZviDm.jpg",
				"widescreen_picture": "https://woowbe-dev.s3.amazonaws.com/media/pictures/1676631745.jpeg",
				"cover": "https://woowbe-dev.s3.amazonaws.com/media/covers/cover_SNLXm9U.jpg",
				"offers_count": 0,
				"return_period": 0
			},
			"name": "Sellos",
			"kind": "C",
			"reward": "10.00",
			"reward_type": "fixed",
			"standalone": false,
			"minimum_purchase_amount": "15.00",
			"maximum_reward_amount": null,
			"campaign": null,
			"categories": [],
			"purchases": 4,
			"start_date": "2022-08-19",
			"finish_date": "2022-09-04",
			"start_time": null,
			"finish_time": null,
			"budget": "0.00",
			"instant": false,
			"offline": true,
			"online": false,
			"weekdays": [
				1,
				2,
				3,
				4,
				5,
				6,
				7
			],
			"status": "finished",
			"available_percentage": 0,
			"available_rewards": 0,
			"points_of_sale": [
				656,
				652
			],
			"created": "2022-08-19T08:57:16.271099Z",
			"access_link": null,
			"last_reward": null,
			"applicable": false,
			"is_used": false
		},
		{
			"id": 290,
			"business": {
				"id": 177,
				"name": "Cafeteria QA",
				"square_picture": "https://woowbe-dev.s3.amazonaws.com/media/pictures/square_picture_L5L56Sl.jpg",
				"widescreen_picture": "https://woowbe-dev.s3.amazonaws.com/media/pictures/1664189138.jpeg",
				"cover": "https://woowbe-dev.s3.amazonaws.com/media/covers/cover_vO8upz4.jpg",
				"offers_count": 0,
				"return_period": 0
			},
			"name": "programa 1",
			"kind": "A",
			"reward": "10.00",
			"reward_type": "percentage",
			"standalone": false,
			"minimum_purchase_amount": "20.00",
			"maximum_reward_amount": null,
			"campaign": null,
			"categories": [],
			"purchases": null,
			"start_date": "2022-08-19",
			"finish_date": null,
			"start_time": null,
			"finish_time": null,
			"budget": "0.00",
			"instant": false,
			"offline": true,
			"online": false,
			"weekdays": [
				1,
				2,
				3,
				4,
				5,
				6,
				7
			],
			"status": "finished",
			"available_percentage": 0,
			"available_rewards": null,
			"points_of_sale": [],
			"created": "2022-08-19T09:09:38.471480Z",
			"access_link": null,
			"last_reward": null,
			"applicable": false,
			"is_used": false
		},
		{
			"id": 33,
			"business": {
				"id": 21,
				"name": "Levadura Madre",
				"square_picture": "https://woowbe-dev.s3.amazonaws.com/media/pictures/levadura-madre.jpg",
				"widescreen_picture": "https://woowbe-dev.s3.amazonaws.com/media/pictures/1623932500.jpeg",
				"cover": "https://woowbe-dev.s3.amazonaws.com/media/covers/levadura-madre.jpg",
				"offers_count": 1,
				"return_period": 0
			},
			"name": "Levadura madre test",
			"kind": "C",
			"reward": "10.00",
			"reward_type": "fixed",
			"standalone": false,
			"minimum_purchase_amount": null,
			"maximum_reward_amount": null,
			"campaign": null,
			"categories": [],
			"purchases": 10,
			"start_date": "2021-06-18",
			"finish_date": null,
			"start_time": null,
			"finish_time": null,
			"budget": "1000.00",
			"instant": true,
			"offline": true,
			"online": false,
			"weekdays": [],
			"status": "active",
			"available_percentage": 0.99,
			"available_rewards": 99,
			"points_of_sale": [
				106,
				103,
				102
			],
			"created": "2021-06-18T07:52:37.801293Z",
			"access_link": null,
			"last_reward": null,
			"applicable": false,
			"is_used": false
		},
		{
			"id": 236,
			"business": {
				"id": 126,
				"name": "Kilómetros de Pizza",
				"square_picture": "https://woowbe-dev.s3.amazonaws.com/media/pictures/km-pizza-logo-1-1.png",
				"widescreen_picture": "https://woowbe-dev.s3.amazonaws.com/media/pictures/1638192019.png",
				"cover": "https://woowbe-dev.s3.amazonaws.com/media/covers/km-pizza-portada.jpeg",
				"offers_count": 1,
				"return_period": 0
			},
			"name": "Kilómetros de pizza 10%",
			"kind": "A",
			"reward": "10.00",
			"reward_type": "percentage",
			"standalone": false,
			"minimum_purchase_amount": "25.00",
			"maximum_reward_amount": null,
			"campaign": null,
			"categories": [],
			"purchases": null,
			"start_date": "2021-11-29",
			"finish_date": null,
			"start_time": null,
			"finish_time": null,
			"budget": "300.00",
			"instant": false,
			"offline": true,
			"online": false,
			"weekdays": [
				1,
				2,
				3,
				4
			],
			"status": "active",
			"available_percentage": 1,
			"available_rewards": null,
			"points_of_sale": [
				640,
				639,
				638,
				518,
				517
			],
			"created": "2021-11-29T13:34:29.950083Z",
			"access_link": null,
			"last_reward": null,
			"applicable": false,
			"is_used": false
		},
		{
			"id": 280,
			"business": {
				"id": 174,
				"name": "SPAIN GOURMET INVESTMENTS SL",
				"square_picture": "https://woowbe-dev.s3.amazonaws.com/media/pictures/square_picture_wxeFMMD.jpg",
				"widescreen_picture": "https://woowbe-dev.s3.amazonaws.com/media/pictures/1657624076.jpeg",
				"cover": "https://woowbe-dev.s3.amazonaws.com/media/covers/cover_RvYX6Fj.jpg",
				"offers_count": 0,
				"return_period": 0
			},
			"name": "reembolso",
			"kind": "B",
			"reward": "10.00",
			"reward_type": "fixed",
			"standalone": true,
			"minimum_purchase_amount": "40.00",
			"maximum_reward_amount": null,
			"campaign": null,
			"categories": [],
			"purchases": null,
			"start_date": "2022-07-12",
			"finish_date": "2022-11-12",
			"start_time": null,
			"finish_time": null,
			"budget": "0.00",
			"instant": false,
			"offline": true,
			"online": false,
			"weekdays": [
				1,
				2,
				3,
				4,
				5
			],
			"status": "finished",
			"available_percentage": 0,
			"available_rewards": 0,
			"points_of_sale": [
				651
			],
			"created": "2022-07-12T11:12:33.700684Z",
			"access_link": null,
			"last_reward": null,
			"applicable": false,
			"is_used": false
		},
		{
			"id": 279,
			"business": {
				"id": 174,
				"name": "SPAIN GOURMET INVESTMENTS SL",
				"square_picture": "https://woowbe-dev.s3.amazonaws.com/media/pictures/square_picture_wxeFMMD.jpg",
				"widescreen_picture": "https://woowbe-dev.s3.amazonaws.com/media/pictures/1657624076.jpeg",
				"cover": "https://woowbe-dev.s3.amazonaws.com/media/covers/cover_RvYX6Fj.jpg",
				"offers_count": 0,
				"return_period": 0
			},
			"name": "reembolso",
			"kind": "B",
			"reward": "10.00",
			"reward_type": "fixed",
			"standalone": true,
			"minimum_purchase_amount": "40.00",
			"maximum_reward_amount": null,
			"campaign": null,
			"categories": [],
			"purchases": null,
			"start_date": "2022-07-12",
			"finish_date": "2022-11-12",
			"start_time": null,
			"finish_time": null,
			"budget": "0.00",
			"instant": false,
			"offline": true,
			"online": false,
			"weekdays": [
				1,
				2,
				3,
				4,
				5
			],
			"status": "finished",
			"available_percentage": 0,
			"available_rewards": 0,
			"points_of_sale": [
				651
			],
			"created": "2022-07-12T11:12:23.195961Z",
			"access_link": null,
			"last_reward": null,
			"applicable": false,
			"is_used": false
		}
	]
}
