{
	"count": 295,
	"next": "https://backend.dev.woowbe.com/api/v1/offers/public/?page=10",
	"previous": "https://backend.dev.woowbe.com/api/v1/offers/public/?page=8",
	"results": [
		{
			"id": 33,
			"business": {
				"id": 21,
				"name": "Levadura Madre",
				"square_picture": "https://woowbe-dev.s3.amazonaws.com/media/pictures/levadura-madre.jpg",
				"widescreen_picture": "https://woowbe-dev.s3.amazonaws.com/media/pictures/1623932500.jpeg",
				"cover": "https://woowbe-dev.s3.amazonaws.com/media/covers/levadura-madre.jpg",
				"offers_count": 1,
				"return_period": 0
			},
			"name": "Levadura madre test",
			"kind": "C",
			"reward": "10.00",
			"reward_type": "fixed",
			"standalone": false,
			"minimum_purchase_amount": null,
			"maximum_reward_amount": null,
			"campaign": null,
			"categories": [],
			"purchases": 10,
			"start_date": "2021-06-18",
			"finish_date": null,
			"start_time": null,
			"finish_time": null,
			"budget": "1000.00",
			"instant": true,
			"offline": true,
			"online": false,
			"weekdays": [],
			"status": "active",
			"available_percentage": 0.99,
			"available_rewards": 99,
			"points_of_sale": [
				106,
				103,
				102
			],
			"created": "2021-06-18T07:52:37.801293Z",
			"access_link": null,
			"last_reward": null,
			"applicable": false,
			"is_used": false
		},
		{
			"id": 296,
			"business": {
				"id": 180,
				"name": "Comercio Pilar",
				"square_picture": "https://woowbe-dev.s3.amazonaws.com/media/pictures/1673868213.jpeg",
				"widescreen_picture": "https://woowbe-dev.s3.amazonaws.com/media/pictures/1673868214.jpeg",
				"cover": "https://woowbe-dev.s3.amazonaws.com/media/covers/cover_qCWtnT8.jpg",
				"offers_count": 0,
				"return_period": 0
			},
			"name": "categorias 2 comercio 2",
			"kind": "B",
			"reward": "10.00",
			"reward_type": "fixed",
			"standalone": false,
			"minimum_purchase_amount": null,
			"maximum_reward_amount": null,
			"campaign": null,
			"categories": [],
			"purchases": null,
			"start_date": "2022-08-25",
			"finish_date": "2022-08-31",
			"start_time": null,
			"finish_time": null,
			"budget": "0.00",
			"instant": false,
			"offline": true,
			"online": false,
			"weekdays": [
				2
			],
			"status": "finished",
			"available_percentage": 0,
			"available_rewards": 0,
			"points_of_sale": [],
			"created": "2022-08-25T11:43:52.513687Z",
			"access_link": null,
			"last_reward": null,
			"applicable": false,
			"is_used": false
		},
		{
			"id": 280,
			"business": {
				"id": 174,
				"name": "SPAIN GOURMET INVESTMENTS SL",
				"square_picture": "https://woowbe-dev.s3.amazonaws.com/media/pictures/square_picture_wxeFMMD.jpg",
				"widescreen_picture": "https://woowbe-dev.s3.amazonaws.com/media/pictures/1657624076.jpeg",
				"cover": "https://woowbe-dev.s3.amazonaws.com/media/covers/cover_RvYX6Fj.jpg",
				"offers_count": 0,
				"return_period": 0
			},
			"name": "reembolso",
			"kind": "B",
			"reward": "10.00",
			"reward_type": "fixed",
			"standalone": true,
			"minimum_purchase_amount": "40.00",
			"maximum_reward_amount": null,
			"campaign": null,
			"categories": [],
			"purchases": null,
			"start_date": "2022-07-12",
			"finish_date": "2022-11-12",
			"start_time": null,
			"finish_time": null,
			"budget": "0.00",
			"instant": false,
			"offline": true,
			"online": false,
			"weekdays": [
				1,
				2,
				3,
				4,
				5
			],
			"status": "finished",
			"available_percentage": 0,
			"available_rewards": 0,
			"points_of_sale": [
				651
			],
			"created": "2022-07-12T11:12:33.700684Z",
			"access_link": null,
			"last_reward": null,
			"applicable": false,
			"is_used": false
		},
		{
			"id": 302,
			"business": {
				"id": 184,
				"name": "Floristeria MariPepis QA",
				"square_picture": "https://woowbe-dev.s3.amazonaws.com/media/pictures/square_picture_wRtqmQ7.jpg",
				"widescreen_picture": "https://woowbe-dev.s3.amazonaws.com/media/pictures/1662040876.jpeg",
				"cover": "https://woowbe-dev.s3.amazonaws.com/media/covers/cover_J8HYh2d.jpg",
				"offers_count": 1,
				"return_period": 0
			},
			"name": "programa %",
			"kind": "A",
			"reward": "10.00",
			"reward_type": "percentage",
			"standalone": false,
			"minimum_purchase_amount": null,
			"maximum_reward_amount": null,
			"campaign": null,
			"categories": [],
			"purchases": null,
			"start_date": "2022-09-01",
			"finish_date": "2022-09-16",
			"start_time": null,
			"finish_time": null,
			"budget": "0.50",
			"instant": false,
			"offline": true,
			"online": false,
			"weekdays": [
				1,
				2,
				3,
				5
			],
			"status": "finished",
			"available_percentage": 0,
			"available_rewards": null,
			"points_of_sale": [],
			"created": "2022-09-01T14:40:47.171675Z",
			"access_link": null,
			"last_reward": null,
			"applicable": false,
			"is_used": false
		},
		{
			"id": 279,
			"business": {
				"id": 174,
				"name": "SPAIN GOURMET INVESTMENTS SL",
				"square_picture": "https://woowbe-dev.s3.amazonaws.com/media/pictures/square_picture_wxeFMMD.jpg",
				"widescreen_picture": "https://woowbe-dev.s3.amazonaws.com/media/pictures/1657624076.jpeg",
				"cover": "https://woowbe-dev.s3.amazonaws.com/media/covers/cover_RvYX6Fj.jpg",
				"offers_count": 0,
				"return_period": 0
			},
			"name": "reembolso",
			"kind": "B",
			"reward": "10.00",
			"reward_type": "fixed",
			"standalone": true,
			"minimum_purchase_amount": "40.00",
			"maximum_reward_amount": null,
			"campaign": null,
			"categories": [],
			"purchases": null,
			"start_date": "2022-07-12",
			"finish_date": "2022-11-12",
			"start_time": null,
			"finish_time": null,
			"budget": "0.00",
			"instant": false,
			"offline": true,
			"online": false,
			"weekdays": [
				1,
				2,
				3,
				4,
				5
			],
			"status": "finished",
			"available_percentage": 0,
			"available_rewards": 0,
			"points_of_sale": [
				651
			],
			"created": "2022-07-12T11:12:23.195961Z",
			"access_link": null,
			"last_reward": null,
			"applicable": false,
			"is_used": false
		},
		{
			"id": 222,
			"business": {
				"id": 121,
				"name": "Distrito Ceviche",
				"square_picture": "https://woowbe-dev.s3.amazonaws.com/media/pictures/distrito-cevivhe-logo-1-1.png",
				"widescreen_picture": "https://woowbe-dev.s3.amazonaws.com/media/pictures/1638181745.png",
				"cover": "https://woowbe-dev.s3.amazonaws.com/media/covers/distrito-ceviche-portada.jpeg",
				"offers_count": 1,
				"return_period": 0
			},
			"name": "Distrito Ceviche 10%",
			"kind": "A",
			"reward": "10.00",
			"reward_type": "percentage",
			"standalone": false,
			"minimum_purchase_amount": "15.00",
			"maximum_reward_amount": null,
			"campaign": null,
			"categories": [],
			"purchases": null,
			"start_date": "2021-11-29",
			"finish_date": null,
			"start_time": null,
			"finish_time": null,
			"budget": "300.00",
			"instant": false,
			"offline": true,
			"online": false,
			"weekdays": [
				1,
				2,
				3,
				4
			],
			"status": "active",
			"available_percentage": 1,
			"available_rewards": null,
			"points_of_sale": [
				610,
				609,
				608,
				497
			],
			"created": "2021-11-29T10:42:03.518524Z",
			"access_link": null,
			"last_reward": null,
			"applicable": false,
			"is_used": false
		},
		{
			"id": 278,
			"business": {
				"id": 174,
				"name": "SPAIN GOURMET INVESTMENTS SL",
				"square_picture": "https://woowbe-dev.s3.amazonaws.com/media/pictures/square_picture_wxeFMMD.jpg",
				"widescreen_picture": "https://woowbe-dev.s3.amazonaws.com/media/pictures/1657624076.jpeg",
				"cover": "https://woowbe-dev.s3.amazonaws.com/media/covers/cover_RvYX6Fj.jpg",
				"offers_count": 0,
				"return_period": 0
			},
			"name": "reembolso",
			"kind": "B",
			"reward": "10.00",
			"reward_type": "fixed",
			"standalone": true,
			"minimum_purchase_amount": "40.00",
			"maximum_reward_amount": null,
			"campaign": null,
			"categories": [],
			"purchases": null,
			"start_date": "2022-07-12",
			"finish_date": "2022-11-12",
			"start_time": null,
			"finish_time": null,
			"budget": "0.00",
			"instant": false,
			"offline": true,
			"online": false,
			"weekdays": [
				1,
				2,
				3,
				4,
				5
			],
			"status": "finished",
			"available_percentage": 0,
			"available_rewards": 0,
			"points_of_sale": [
				651
			],
			"created": "2022-07-12T11:12:20.503019Z",
			"access_link": null,
			"last_reward": null,
			"applicable": false,
			"is_used": false
		},
		{
			"id": 277,
			"business": {
				"id": 174,
				"name": "SPAIN GOURMET INVESTMENTS SL",
				"square_picture": "https://woowbe-dev.s3.amazonaws.com/media/pictures/square_picture_wxeFMMD.jpg",
				"widescreen_picture": "https://woowbe-dev.s3.amazonaws.com/media/pictures/1657624076.jpeg",
				"cover": "https://woowbe-dev.s3.amazonaws.com/media/covers/cover_RvYX6Fj.jpg",
				"offers_count": 0,
				"return_period": 0
			},
			"name": "reembolso",
			"kind": "B",
			"reward": "10.00",
			"reward_type": "fixed",
			"standalone": true,
			"minimum_purchase_amount": "40.00",
			"maximum_reward_amount": null,
			"campaign": null,
			"categories": [],
			"purchases": null,
			"start_date": "2022-07-12",
			"finish_date": "2022-11-12",
			"start_time": null,
			"finish_time": null,
			"budget": "0.00",
			"instant": false,
			"offline": true,
			"online": false,
			"weekdays": [
				1,
				2,
				3,
				4,
				5
			],
			"status": "finished",
			"available_percentage": 0,
			"available_rewards": 0,
			"points_of_sale": [
				651
			],
			"created": "2022-07-12T11:12:18.964993Z",
			"access_link": null,
			"last_reward": null,
			"applicable": false,
			"is_used": false
		},
		{
			"id": 244,
			"business": {
				"id": 132,
				"name": "Panaria",
				"square_picture": "https://woowbe-dev.s3.amazonaws.com/media/pictures/panaria-logo-1-1.png",
				"widescreen_picture": "https://woowbe-dev.s3.amazonaws.com/media/pictures/1638197657.png",
				"cover": "https://woowbe-dev.s3.amazonaws.com/media/covers/panaria-portada.webp",
				"offers_count": 1,
				"return_period": 0
			},
			"name": "Panaria 10%",
			"kind": "A",
			"reward": "10.00",
			"reward_type": "percentage",
			"standalone": false,
			"minimum_purchase_amount": "10.00",
			"maximum_reward_amount": null,
			"campaign": null,
			"categories": [],
			"purchases": null,
			"start_date": "2021-11-29",
			"finish_date": null,
			"start_time": null,
			"finish_time": null,
			"budget": "300.00",
			"instant": false,
			"offline": true,
			"online": false,
			"weekdays": [
				1,
				2,
				3,
				4,
				5,
				6,
				7
			],
			"status": "active",
			"available_percentage": 1,
			"available_rewards": null,
			"points_of_sale": [
				628,
				627,
				625,
				578,
				577,
				576,
				575,
				574,
				573,
				572,
				571,
				570,
				569,
				568,
				567,
				566,
				565,
				564,
				563,
				562,
				561,
				560,
				559
			],
			"created": "2021-11-29T15:01:55.437162Z",
			"access_link": null,
			"last_reward": null,
			"applicable": false,
			"is_used": false
		},
		{
			"id": 338,
			"business": {
				"id": 89,
				"name": "Aloha Poke",
				"square_picture": "https://woowbe-dev.s3.amazonaws.com/media/pictures/aloha-poke-logo-1-1.png",
				"widescreen_picture": "https://woowbe-dev.s3.amazonaws.com/media/pictures/1634827016.jpeg",
				"cover": "https://woowbe-dev.s3.amazonaws.com/media/covers/cover_0XysFRk.jpg",
				"offers_count": 4,
				"return_period": 0
			},
			"name": "Prueba 08/11",
			"kind": "C",
			"reward": "10.00",
			"reward_type": "fixed",
			"standalone": false,
			"minimum_purchase_amount": "10.00",
			"maximum_reward_amount": null,
			"campaign": null,
			"categories": [],
			"purchases": 4,
			"start_date": "2022-11-08",
			"finish_date": "2022-12-08",
			"start_time": null,
			"finish_time": null,
			"budget": "0.00",
			"instant": false,
			"offline": true,
			"online": false,
			"weekdays": [
				1,
				2,
				3,
				4,
				5,
				6,
				7
			],
			"status": "finished",
			"available_percentage": 0,
			"available_rewards": 0,
			"points_of_sale": [
				603,
				601,
				600,
				203,
				202,
				201,
				200,
				199,
				198,
				197,
				196,
				195,
				194,
				193,
				192
			],
			"created": "2022-11-08T19:58:40.271873Z",
			"access_link": null,
			"last_reward": null,
			"applicable": false,
			"is_used": false
		}
	]
}
