{"count":137,"next":"https://backend.dev.woowbe.com/api/v1/business/public/?page=2","previous":null,"results":[{"id":12,"name":"Scalpers","country":{"id":3,"name":"España","code":"es"},"description":"Scalpers es tu tienda de ropa online si buscas las últimas tendencias en moda para hombre, mujer y niño.\n¡Descubre la nueva colección online de Scalpers!","url":"https://www.scalpers.com","square_picture":"https://woowbe-dev.s3.amazonaws.com/media/pictures/square_picture_z5KHodR.jpg","widescreen_picture":"https://woowbe-dev.s3.amazonaws.com/media/pictures/1664288041.jpeg","cover":"https://woowbe-dev.s3.amazonaws.com/media/covers/cover_71arDkc.jpg","sector":{"id":43,"name":"Tienda de ropa","icon":"https://woowbe-dev.s3.amazonaws.com/media/icons/fashion.svg","created":"2022-09-27T14:17:28.722813Z"},"descriptive_categories":[{"id":80,"name":"estilo","owner":null,"sector":43,"created":"2022-09-27T14:18:12.393840Z"},{"id":79,"name":"moda","owner":12,"sector":null,"created":"2022-09-27T14:18:03.512523Z"},{"id":78,"name":"ropa","owner":null,"sector":43,"created":"2022-09-27T14:17:59.578804Z"},{"id":77,"name":"ropa hombre","owner":12,"sector":null,"created":"2022-09-27T14:17:51.818605Z"},{"id":81,"name":"ropa mujer","owner":12,"sector":null,"created":"2022-09-27T14:18:16.628726Z"},{"id":82,"name":"ropa niños","owner":12,"sector":null,"created":"2022-09-27T14:18:21.910520Z"}],"return_period":30,"dynamic_link":"https://app.dev.woowbe.com/share/jdF1","is_franchisee_of":null,"is_favorite":false,"created":"2021-06-10T09:23:04.551544Z","selected_offer":null,"offers_count":0},{"id":20,"name":"Delina's","country":null,"description":"Diariamente, Delina’s ofrece soluciones gastronómicas con la mejor materia prima que existe: la experiencia, la calidad y el talento. Unas soluciones apetitosas, competitivas y sostenibles que gozan del respeto del mercado desde hace más de 20 años.","url":"https://www.delinas.com/","square_picture":"https://woowbe-dev.s3.amazonaws.com/media/pictures/delinas-logo-1-1.png","widescreen_picture":"https://woowbe-dev.s3.amazonaws.com/media/pictures/1635415771.png","cover":"https://woowbe-dev.s3.amazonaws.com/media/covers/delinas-portada.png","sector":{"id":5,"name":"Cafetería","icon":"https://woowbe-dev.s3.amazonaws.com/media/icons/toeat.svg","created":"2021-05-25T10:48:41.547333Z"},"descriptive_categories":[],"return_period":0,"dynamic_link":"https://app.dev.woowbe.com/share/d6o5","is_franchisee_of":null,"is_favorite":false,"created":"2021-06-10T09:24:27.089021Z","selected_offer":{"id":15,"reward":"15.00","reward_type":"fixed","kind":"C","instant":true,"name":"Delinas test Sellos","standalone":false,"purchases":6,"online":false,"applicable":false},"offers_count":1},{"id":21,"name":"Levadura Madre","country":null,"description":"","url":null,"square_picture":"https://woowbe-dev.s3.amazonaws.com/media/pictures/levadura-madre.jpg","widescreen_picture":"https://woowbe-dev.s3.amazonaws.com/media/pictures/1623932500.jpeg","cover":"https://woowbe-dev.s3.amazonaws.com/media/covers/levadura-madre.jpg","sector":{"id":19,"name":"Panadería","icon":"https://woowbe-dev.s3.amazonaws.com/media/icons/toeat_I8A0AM0.svg","created":"2021-05-25T11:05:24.276505Z"},"descriptive_categories":[],"return_period":0,"dynamic_link":"https://app.dev.woowbe.com/share/AY2a","is_franchisee_of":null,"is_favorite":false,"created":"2021-06-10T09:24:34.720193Z","selected_offer":{"id":33,"reward":"10.00","reward_type":"fixed","kind":"C","instant":true,"name":"Levadura madre test","standalone":false,"purchases":10,"online":false,"applicable":false},"offers_count":1},{"id":23,"name":"llaollao","country":{"id":2,"name":"Malta","code":"mt"},"description":"llaollao es una franquicia española de heladerías especializada en yogur helado, granizados y batidos. Se fundó en 2009 con la apertura de un local en Denia y cuenta con más de 220 establecimientos tanto en España como a nivel internacional.","url":"https://www.llaollaoweb.com/es/","square_picture":"https://woowbe-dev.s3.amazonaws.com/media/pictures/llao-llao-logo-1-1.png","widescreen_picture":"https://woowbe-dev.s3.amazonaws.com/media/pictures/1635419152.png","cover":"https://woowbe-dev.s3.amazonaws.com/media/covers/llao-llao-portada.png","sector":{"id":6,"name":"Heladería","icon":"https://woowbe-dev.s3.amazonaws.com/media/icons/food_oEA91PT.svg","created":"2021-05-25T10:48:59.349078Z"},"descriptive_categories":[{"id":55,"name":"helado","owner":null,"sector":null,"created":"2021-11-29T12:03:57.629516Z"},{"id":65,"name":"yogur helado","owner":23,"sector":null,"created":"2022-06-13T08:52:30.589536Z"}],"return_period":0,"dynamic_link":"https://app.dev.woowbe.com/share/YaCK","is_franchisee_of":null,"is_favorite":false,"created":"2021-06-10T11:00:45.772916Z","selected_offer":{"id":32,"reward":"15.00","reward_type":"percentage","kind":"A","instant":true,"name":"Llao Llao test","standalone":false,"purchases":null,"online":false,"applicable":false},"offers_count":1},{"id":30,"name":"Empanadas Malvon","country":null,"description":"Para gustos, Malvón! Tú te encargas de celebrar y disfrutar, nosotros nos encargamos del resto con nuestras empanadas artesanales.","url":"https://www.malvon.es/","square_picture":"https://woowbe-dev.s3.amazonaws.com/media/pictures/square_picture_GeCFiw9.jpg","widescreen_picture":"https://woowbe-dev.s3.amazonaws.com/media/pictures/1624001112.jpeg","cover":"https://woowbe-dev.s3.amazonaws.com/media/covers/cover_Xt19oj5.jpg","sector":{"id":3,"name":"Fast Food","icon":"https://woowbe-dev.s3.amazonaws.com/media/icons/food_TPGNuc7.svg","created":"2021-05-25T10:47:39.210359Z"},"descriptive_categories":[],"return_period":0,"dynamic_link":"https://app.dev.woowbe.com/share/zRx8","is_franchisee_of":null,"is_favorite":false,"created":"2021-06-10T11:01:38.640807Z","selected_offer":{"id":253,"reward":"10.00","reward_type":"percentage","kind":"A","instant":false,"name":"Oferta para finalizar","standalone":false,"purchases":null,"online":true,"applicable":false},"offers_count":1},{"id":89,"name":"Aloha Poke","country":{"id":3,"name":"España","code":"es"},"description":"Conocemos el poder de una alimentación saludable para nutrir una vida activa, equilibrada y feliz.\r\n\r\nCansados de no encontrar opciones de comida sana y sabrosa en la ciudad, decidimos comenzar nuestra propia revolución:\r\n\r\nLa Revolución de la Healthy Fast Food","url":"https://www.alohapoke.es/","square_picture":"https://woowbe-dev.s3.amazonaws.com/media/pictures/aloha-poke-logo-1-1.png","widescreen_picture":"https://woowbe-dev.s3.amazonaws.com/media/pictures/1634827016.jpeg","cover":"https://woowbe-dev.s3.amazonaws.com/media/covers/cover_0XysFRk.jpg","sector":{"id":37,"name":"Restaurante temático","icon":"https://woowbe-dev.s3.amazonaws.com/media/icons/toeat_T2kMSVS.svg","created":"2021-10-21T14:32:58.019404Z"},"descriptive_categories":[{"id":11,"name":"Hawaiana","owner":89,"sector":null,"created":"2021-10-21T14:41:44.180293Z"},{"id":10,"name":"Healthy","owner":null,"sector":null,"created":"2021-10-21T14:33:37.426542Z"},{"id":9,"name":"Poke","owner":null,"sector":null,"created":"2021-10-21T14:33:26.133578Z"}],"return_period":0,"dynamic_link":"https://app.dev.woowbe.com/share/Fu3N","is_franchisee_of":null,"is_favorite":false,"created":"2021-10-21T14:33:52.942982Z","selected_offer":{"id":397,"reward":"15.00","reward_type":"percentage","kind":"A","instant":false,"name":"Prueba franquicias","standalone":false,"purchases":null,"online":false,"applicable":false},"offers_count":4},{"id":90,"name":"Taco Bell","country":null,"description":"Taco Bell es una cadena de restaurantes de comida rápida, especializada en cocina Tex-Mex. La cadena fue fundada en 1962 por Glen Bell y actualmente pertenece a la multinacional Yum! Brands.","url":"https://tacobell.es/","square_picture":"https://woowbe-dev.s3.amazonaws.com/media/pictures/taco-bell-logo-1-1.png","widescreen_picture":"https://woowbe-dev.s3.amazonaws.com/media/pictures/1634828991.jpeg","cover":"https://woowbe-dev.s3.amazonaws.com/media/covers/cover_hu1AWga.jpg","sector":{"id":3,"name":"Fast Food","icon":"https://woowbe-dev.s3.amazonaws.com/media/icons/food_TPGNuc7.svg","created":"2021-05-25T10:47:39.210359Z"},"descriptive_categories":[{"id":13,"name":"mexicano","owner":null,"sector":null,"created":"2021-10-21T15:08:54.024427Z"},{"id":12,"name":"taco","owner":null,"sector":null,"created":"2021-10-21T15:08:41.941999Z"}],"return_period":0,"dynamic_link":"https://app.dev.woowbe.com/share/hd53","is_franchisee_of":null,"is_favorite":false,"created":"2021-10-21T15:09:06.170930Z","selected_offer":null,"offers_count":0},{"id":91,"name":"Juan Valdez","country":null,"description":"Juan Valdez es el resultado del trabajo de más de 540.000 familias caficultoras colombianas que han cautivado al mundo con el café de la mejor calidad.","url":"https://www.juanvaldezcafe.com/","square_picture":"https://woowbe-dev.s3.amazonaws.com/media/pictures/juan-valdez-logo-1-1.png","widescreen_picture":"https://woowbe-dev.s3.amazonaws.com/media/pictures/1634830938.jpeg","cover":"https://woowbe-dev.s3.amazonaws.com/media/covers/cover_ORmai6S.jpg","sector":{"id":5,"name":"Cafetería","icon":"https://woowbe-dev.s3.amazonaws.com/media/icons/toeat.svg","created":"2021-05-25T10:48:41.547333Z"},"descriptive_categories":[{"id":14,"name":"colombiano","owner":91,"sector":null,"created":"2021-10-21T15:41:02.955225Z"}],"return_period":0,"dynamic_link":"https://app.dev.woowbe.com/share/N9CY","is_franchisee_of":null,"is_favorite":false,"created":"2021-10-21T15:41:14.567827Z","selected_offer":null,"offers_count":0},{"id":92,"name":"Tierra Burrito","country":null,"description":"En Tierra nos gusta hacer las cosas bien.\r\nTodos los días, llegan hasta nosotros frutas y verduras frescas de productores locales y carne procedente de ganaderías cercanas de cría no intensiva. Estos productos constituyen los ingredientes que empleamos para preparar, delante de ti, nuestros platos saludables y auténticos: burritos, desnudos, nachos y mucho más.\r\n\r\nDesde nuestra cocina abierta, los eficientes y simpáticos camareros de Tierra te ayudarán a personalizar tu plato a tu gusto con una gran variedad de sabores y guarniciones distintas. Acompaña tu comida con nuestras margaritas caseras o con una cerveza artesanal, que tienes a tu disposición en la nevera.","url":"https://www.tierraburritos.com/","square_picture":"https://woowbe-dev.s3.amazonaws.com/media/pictures/tierra-burrito-logo-1-1.png","widescreen_picture":"https://woowbe-dev.s3.amazonaws.com/media/pictures/1634832127.jpeg","cover":"https://woowbe-dev.s3.amazonaws.com/media/covers/cover_UuinGHQ.jpg","sector":{"id":3,"name":"Fast Food","icon":"https://woowbe-dev.s3.amazonaws.com/media/icons/food_TPGNuc7.svg","created":"2021-05-25T10:47:39.210359Z"},"descriptive_categories":[{"id":15,"name":"burrito","owner":92,"sector":null,"created":"2021-10-21T16:01:53.692876Z"},{"id":13,"name":"mexicano","owner":null,"sector":null,"created":"2021-10-21T15:08:54.024427Z"}],"return_period":0,"dynamic_link":"https://app.dev.woowbe.com/share/KPoa","is_franchisee_of":null,"is_favorite":false,"created":"2021-10-21T16:00:35.632774Z","selected_offer":{"id":168,"reward":"4.00","reward_type":"fixed","kind":"B","instant":false,"name":"4€ por cada comida","standalone":false,"purchases":null,"online":false,"applicable":false},"offers_count":1},{"id":93,"name":"Go Sushing","country":null,"description":"Restaurante japonés con servicio de sushi a domicilio, take away o en mesa. Una gran variedad de productos hechos al momento: makis, rolls, nigiris, temakis, pokés, menú mediodía, platos vegetarianos ¡y mucho más!","url":"https://gosushing.com/","square_picture":"https://woowbe-dev.s3.amazonaws.com/media/pictures/go-sushing-logo-1-1.png","widescreen_picture":"https://woowbe-dev.s3.amazonaws.com/media/pictures/1634843662.png","cover":"https://woowbe-dev.s3.amazonaws.com/media/covers/cover_Edp12ch.jpg","sector":{"id":3,"name":"Fast Food","icon":"https://woowbe-dev.s3.amazonaws.com/media/icons/food_TPGNuc7.svg","created":"2021-05-25T10:47:39.210359Z"},"descriptive_categories":[{"id":17,"name":"japonesa","owner":null,"sector":null,"created":"2021-10-21T19:14:13.483887Z"},{"id":16,"name":"sushi","owner":null,"sector":null,"created":"2021-10-21T19:14:06.256566Z"}],"return_period":0,"dynamic_link":"https://app.dev.woowbe.com/share/2eWh","is_franchisee_of":null,"is_favorite":false,"created":"2021-10-21T19:14:22.845920Z","selected_offer":null,"offers_count":0}]}