{"count":137,"next":"https://backend.dev.woowbe.com/api/v1/business/public/?page=13","previous":"https://backend.dev.woowbe.com/api/v1/business/public/?page=11","results":[{"id":248,"name":"Adidas","country":{"id":3,"name":"España","code":"es"},"description":"El 18 de agosto de 1949, Adi Dassler fundó adidas con el deseo de ayudar a mejorar el rendimiento de los deportistas. Setenta años después, adidas no solo ha dejado huella en el deporte y en los atletas, sino también en la moda, la cultura, la sostenibilidad y en muchos otros ámbitos. Acompáñanos en un viaje en el tiempo y descubre la historia de adidas y los estilos que han influido en nuestras vidas hasta hoy.","url":"https://www.adidas.com","square_picture":"https://woowbe-dev.s3.amazonaws.com/media/pictures/square_picture_mk5CEIv.jpg","widescreen_picture":"https://woowbe-dev.s3.amazonaws.com/media/pictures/1668529037.jpeg","cover":"https://woowbe-dev.s3.amazonaws.com/media/covers/cover_RYgACZk.jpg","sector":{"id":10,"name":"Tienda de deporte","icon":null,"created":"2021-05-25T11:00:54.849631Z"},"descriptive_categories":[{"id":87,"name":"adidas","owner":248,"sector":null,"created":"2022-11-15T16:16:47.536980Z"},{"id":89,"name":"clothes","owner":248,"sector":null,"created":"2022-11-15T16:17:02.079185Z"},{"id":88,"name":"shoes","owner":248,"sector":null,"created":"2022-11-15T16:16:55.033952Z"},{"id":86,"name":"sport","owner":248,"sector":null,"created":"2022-11-15T16:16:40.903353Z"}],"return_period":5,"dynamic_link":"https://app.dev.woowbe.com/share/ej5S","is_franchisee_of":null,"is_favorite":false,"created":"2022-11-15T16:08:43.337659Z","selected_offer":null,"offers_count":0},{"id":250,"name":"Adidas recompensas","country":{"id":3,"name":"España","code":"es"},"description":"Adidas recompensas afiliacion woowbe","url":"https://www.adidas.com/","square_picture":"https://woowbe-dev.s3.amazonaws.com/media/pictures/1669197061.jpeg","widescreen_picture":"https://woowbe-dev.s3.amazonaws.com/media/pictures/1669197061_zhy3On1.jpeg","cover":"https://woowbe-dev.s3.amazonaws.com/media/covers/cover_9sJ34Vw.jpg","sector":{"id":18,"name":"Ecommerce","icon":"https://woowbe-dev.s3.amazonaws.com/media/icons/others_cI0jsgH.svg","created":"2021-05-25T11:05:05.368820Z"},"descriptive_categories":[{"id":87,"name":"adidas","owner":248,"sector":null,"created":"2022-11-15T16:16:47.536980Z"}],"return_period":3,"dynamic_link":"https://app.dev.woowbe.com/share/tPUM","is_franchisee_of":null,"is_favorite":false,"created":"2022-11-23T09:45:33.664832Z","selected_offer":{"id":567,"reward":"5.00","reward_type":"percentage","kind":"A","instant":false,"name":"programa online","standalone":false,"purchases":null,"online":true,"applicable":false},"offers_count":1},{"id":251,"name":"Starbucks","country":{"id":3,"name":"España","code":"es"},"description":"Disfruta tu experiencia Starbucks® donde quieras. ¿Eres más de café, de smoothie, de latte o de Frappuccino®? ¡No esperes más y pide Starbucks a domicilio o para llevar!\n\nEn Starbucks queremos estar cerca de ti y por eso te llevamos tus productos favoritos y tu café Starbucks® a domicilio. \n\n¡Empieza a disfrutar de todos nuestros productos Starbucks® donde quieras!","url":"https://www.starbucks.es/","square_picture":"https://woowbe-dev.s3.amazonaws.com/media/pictures/square_picture_ZWnzePl.jpg","widescreen_picture":"https://woowbe-dev.s3.amazonaws.com/media/pictures/1669300395.jpeg","cover":"https://woowbe-dev.s3.amazonaws.com/media/covers/cover_W8n00mn.jpg","sector":{"id":5,"name":"Cafetería","icon":"https://woowbe-dev.s3.amazonaws.com/media/icons/toeat.svg","created":"2021-05-25T10:48:41.547333Z"},"descriptive_categories":[{"id":92,"name":"Cafés","owner":251,"sector":null,"created":"2022-11-24T14:33:04.883825Z"},{"id":91,"name":"Frappuccino","owner":251,"sector":null,"created":"2022-11-24T14:32:50.194186Z"},{"id":93,"name":"Muffins","owner":251,"sector":null,"created":"2022-11-24T14:33:13.206404Z"}],"return_period":0,"dynamic_link":"https://app.dev.woowbe.com/share/jSqv","is_franchisee_of":null,"is_favorite":false,"created":"2022-11-24T14:17:30.242011Z","selected_offer":null,"offers_count":0},{"id":252,"name":"Cosméticos QA Franquiciado","country":{"id":3,"name":"España","code":"es"},"description":"Cosméticos QA descripcion\nadfalsjkfladskjfdas\nhasfasjdfkljasdlkfjasldkfjlsadkfjlsadkjflaskjflsakdjflaskjflsadkjf","url":"https://cosmeticosqa.com","square_picture":"https://woowbe-dev.s3.amazonaws.com/media/pictures/1669720371.jpeg","widescreen_picture":"https://woowbe-dev.s3.amazonaws.com/media/pictures/1669720371_Aga8oWX.jpeg","cover":"https://woowbe-dev.s3.amazonaws.com/media/covers/cover_PNbDalT.jpg","sector":{"id":44,"name":"Belleza","icon":"https://woowbe-dev.s3.amazonaws.com/media/icons/beauty.svg","created":"2022-10-06T15:45:50.584206Z"},"descriptive_categories":[{"id":43,"name":"barba","owner":null,"sector":null,"created":"2021-10-26T07:38:43.587103Z"},{"id":26,"name":"detox","owner":null,"sector":null,"created":"2021-10-23T08:39:01.453615Z"},{"id":80,"name":"estilo","owner":null,"sector":43,"created":"2022-09-27T14:18:12.393840Z"},{"id":42,"name":"pelo","owner":null,"sector":44,"created":"2021-10-25T13:02:49.420892Z"}],"return_period":0,"dynamic_link":"https://app.dev.woowbe.com/share/bM5B","is_franchisee_of":null,"is_favorite":false,"created":"2022-11-29T11:09:41.636655Z","selected_offer":null,"offers_count":0},{"id":253,"name":"Cosméticos QA Franquiciado","country":{"id":3,"name":"España","code":"es"},"description":"Cosméticos QA descripcion\nadfalsjkfladskjfdas\nhasfasjdfkljasdlkfjasldkfjlsadkfjlsadkjflaskjflsakdjflaskjflsadkjf","url":"https://cosmeticosqa.com","square_picture":"https://woowbe-dev.s3.amazonaws.com/media/pictures/1669720371.jpeg","widescreen_picture":"https://woowbe-dev.s3.amazonaws.com/media/pictures/1669720371_Aga8oWX.jpeg","cover":"https://woowbe-dev.s3.amazonaws.com/media/covers/cover_PNbDalT.jpg","sector":{"id":44,"name":"Belleza","icon":"https://woowbe-dev.s3.amazonaws.com/media/icons/beauty.svg","created":"2022-10-06T15:45:50.584206Z"},"descriptive_categories":[{"id":43,"name":"barba","owner":null,"sector":null,"created":"2021-10-26T07:38:43.587103Z"},{"id":26,"name":"detox","owner":null,"sector":null,"created":"2021-10-23T08:39:01.453615Z"},{"id":80,"name":"estilo","owner":null,"sector":43,"created":"2022-09-27T14:18:12.393840Z"},{"id":42,"name":"pelo","owner":null,"sector":44,"created":"2021-10-25T13:02:49.420892Z"}],"return_period":0,"dynamic_link":"https://app.dev.woowbe.com/share/hak5","is_franchisee_of":252,"is_favorite":false,"created":"2022-12-20T10:43:54.251690Z","selected_offer":null,"offers_count":0},{"id":254,"name":"prueba FRANQUICIAS MARCA iñigo","country":{"id":3,"name":"España","code":"es"},"description":"es un test para iñigo","url":"http://www.iñigo.es","square_picture":"https://woowbe-dev.s3.amazonaws.com/media/pictures/square_picture_re1giyA.jpg","widescreen_picture":"https://woowbe-dev.s3.amazonaws.com/media/pictures/1671614454.jpeg","cover":"https://woowbe-dev.s3.amazonaws.com/media/covers/cover_YpmEHUW.jpg","sector":{"id":28,"name":"Alquiler de coches","icon":"https://woowbe-dev.s3.amazonaws.com/media/icons/mobility.svg","created":"2021-05-25T11:10:59.951129Z"},"descriptive_categories":[{"id":94,"name":"coches guapos","owner":254,"sector":null,"created":"2022-12-21T09:20:50.342666Z"}],"return_period":12,"dynamic_link":"https://app.dev.woowbe.com/share/TKHo","is_franchisee_of":null,"is_favorite":false,"created":"2022-12-21T09:18:50.664837Z","selected_offer":null,"offers_count":0},{"id":255,"name":"prueba FRANQUICIAS MARCA iñigo","country":{"id":3,"name":"España","code":"es"},"description":"es un test para iñigo","url":"http://www.iñigo.es","square_picture":"https://woowbe-dev.s3.amazonaws.com/media/pictures/square_picture_re1giyA.jpg","widescreen_picture":"https://woowbe-dev.s3.amazonaws.com/media/pictures/1671614454.jpeg","cover":"https://woowbe-dev.s3.amazonaws.com/media/covers/cover_YpmEHUW.jpg","sector":{"id":28,"name":"Alquiler de coches","icon":"https://woowbe-dev.s3.amazonaws.com/media/icons/mobility.svg","created":"2021-05-25T11:10:59.951129Z"},"descriptive_categories":[{"id":94,"name":"coches guapos","owner":254,"sector":null,"created":"2022-12-21T09:20:50.342666Z"}],"return_period":12,"dynamic_link":"https://app.dev.woowbe.com/share/sG1v","is_franchisee_of":254,"is_favorite":false,"created":"2023-01-04T10:48:43.957269Z","selected_offer":null,"offers_count":0},{"id":257,"name":"prueba FRANQUICIAS MARCA iñigo","country":{"id":3,"name":"España","code":"es"},"description":"es un test para iñigo","url":"http://www.iñigo.es","square_picture":"https://woowbe-dev.s3.amazonaws.com/media/pictures/square_picture_re1giyA.jpg","widescreen_picture":"https://woowbe-dev.s3.amazonaws.com/media/pictures/1671614454.jpeg","cover":"https://woowbe-dev.s3.amazonaws.com/media/covers/cover_YpmEHUW.jpg","sector":{"id":28,"name":"Alquiler de coches","icon":"https://woowbe-dev.s3.amazonaws.com/media/icons/mobility.svg","created":"2021-05-25T11:10:59.951129Z"},"descriptive_categories":[{"id":94,"name":"coches guapos","owner":254,"sector":null,"created":"2022-12-21T09:20:50.342666Z"}],"return_period":12,"dynamic_link":"https://app.dev.woowbe.com/share/psru","is_franchisee_of":254,"is_favorite":false,"created":"2023-01-04T10:57:42.602790Z","selected_offer":null,"offers_count":0},{"id":258,"name":"prueba FRANQUICIAS MARCA iñigo","country":{"id":3,"name":"España","code":"es"},"description":"es un test para iñigo","url":"http://www.iñigo.es","square_picture":"https://woowbe-dev.s3.amazonaws.com/media/pictures/square_picture_re1giyA.jpg","widescreen_picture":"https://woowbe-dev.s3.amazonaws.com/media/pictures/1671614454.jpeg","cover":"https://woowbe-dev.s3.amazonaws.com/media/covers/cover_YpmEHUW.jpg","sector":{"id":28,"name":"Alquiler de coches","icon":"https://woowbe-dev.s3.amazonaws.com/media/icons/mobility.svg","created":"2021-05-25T11:10:59.951129Z"},"descriptive_categories":[{"id":94,"name":"coches guapos","owner":254,"sector":null,"created":"2022-12-21T09:20:50.342666Z"}],"return_period":12,"dynamic_link":"https://app.dev.woowbe.com/share/GTKQ","is_franchisee_of":254,"is_favorite":false,"created":"2023-01-04T11:02:16.780362Z","selected_offer":null,"offers_count":0},{"id":259,"name":"prueba FRANQUICIAS MARCA iñigo","country":{"id":3,"name":"España","code":"es"},"description":"es un test para iñigo","url":"http://www.iñigo.es","square_picture":"https://woowbe-dev.s3.amazonaws.com/media/pictures/square_picture_re1giyA.jpg","widescreen_picture":"https://woowbe-dev.s3.amazonaws.com/media/pictures/1671614454.jpeg","cover":"https://woowbe-dev.s3.amazonaws.com/media/covers/cover_YpmEHUW.jpg","sector":{"id":28,"name":"Alquiler de coches","icon":"https://woowbe-dev.s3.amazonaws.com/media/icons/mobility.svg","created":"2021-05-25T11:10:59.951129Z"},"descriptive_categories":[{"id":94,"name":"coches guapos","owner":254,"sector":null,"created":"2022-12-21T09:20:50.342666Z"}],"return_period":12,"dynamic_link":"https://app.dev.woowbe.com/share/jbiY","is_franchisee_of":254,"is_favorite":false,"created":"2023-01-04T11:40:30.129672Z","selected_offer":null,"offers_count":0}]}