{"count":137,"next":"https://backend.dev.woowbe.com/api/v1/business/public/?page=14","previous":"https://backend.dev.woowbe.com/api/v1/business/public/?page=12","results":[{"id":260,"name":"Prueba devolucion presupuesto","country":{"id":3,"name":"España","code":"es"},"description":"devolucion presupuesto","url":"https://www.aa.com","square_picture":"https://woowbe-dev.s3.amazonaws.com/media/pictures/square_picture_wGfyXAX.jpg","widescreen_picture":"https://woowbe-dev.s3.amazonaws.com/media/pictures/1673614842.jpeg","cover":"https://woowbe-dev.s3.amazonaws.com/media/covers/cover_H4n5vL4.jpg","sector":{"id":28,"name":"Alquiler de coches","icon":"https://woowbe-dev.s3.amazonaws.com/media/icons/mobility.svg","created":"2021-05-25T11:10:59.951129Z"},"descriptive_categories":[{"id":58,"name":"rotisserie","owner":null,"sector":null,"created":"2021-11-29T12:57:28.377827Z"}],"return_period":3,"dynamic_link":"https://app.dev.woowbe.com/share/Qm2j","is_franchisee_of":null,"is_favorite":false,"created":"2023-01-13T12:58:26.780285Z","selected_offer":null,"offers_count":0},{"id":264,"name":"Negocio Facturacion","country":{"id":3,"name":"España","code":"es"},"description":"Negocio Facturacion descripcion","url":"https://www.facturacion.com","square_picture":"https://woowbe-dev.s3.amazonaws.com/media/pictures/1676631820.jpeg","widescreen_picture":"https://woowbe-dev.s3.amazonaws.com/media/pictures/1666952262_2VZ6Qea.jpeg","cover":"https://woowbe-dev.s3.amazonaws.com/media/covers/cover_PjPUN60.jpg","sector":{"id":4,"name":"Bar","icon":"https://woowbe-dev.s3.amazonaws.com/media/icons/food.svg","created":"2021-05-25T10:47:46.399740Z"},"descriptive_categories":[{"id":44,"name":"barbería","owner":null,"sector":null,"created":"2021-10-26T07:38:49.830200Z"}],"return_period":0,"dynamic_link":"https://app.dev.woowbe.com/share/7oFa","is_franchisee_of":243,"is_favorite":false,"created":"2023-01-30T16:25:43.312231Z","selected_offer":null,"offers_count":0},{"id":265,"name":"Aloha Poke","country":{"id":3,"name":"España","code":"es"},"description":"Conocemos el poder de una alimentación saludable para nutrir una vida activa, equilibrada y feliz.\r\n\r\nCansados de no encontrar opciones de comida sana y sabrosa en la ciudad, decidimos comenzar nuestra propia revolución:\r\n\r\nLa Revolución de la Healthy Fast Food","url":"https://www.alohapoke.es/","square_picture":"https://woowbe-dev.s3.amazonaws.com/media/pictures/aloha-poke-logo-1-1.png","widescreen_picture":"https://woowbe-dev.s3.amazonaws.com/media/pictures/1634827016.jpeg","cover":"https://woowbe-dev.s3.amazonaws.com/media/covers/cover_0XysFRk.jpg","sector":{"id":37,"name":"Restaurante temático","icon":"https://woowbe-dev.s3.amazonaws.com/media/icons/toeat_T2kMSVS.svg","created":"2021-10-21T14:32:58.019404Z"},"descriptive_categories":[{"id":11,"name":"Hawaiana","owner":89,"sector":null,"created":"2021-10-21T14:41:44.180293Z"},{"id":10,"name":"Healthy","owner":null,"sector":null,"created":"2021-10-21T14:33:37.426542Z"},{"id":9,"name":"Poke","owner":null,"sector":null,"created":"2021-10-21T14:33:26.133578Z"}],"return_period":0,"dynamic_link":"https://app.dev.woowbe.com/share/maZC","is_franchisee_of":89,"is_favorite":false,"created":"2023-01-31T15:46:45.251504Z","selected_offer":null,"offers_count":0},{"id":267,"name":"New York Burger","country":{"id":3,"name":"España","code":"es"},"description":"Como tú, somos apasionados de la buena comida americana.\r\n\r\nDe aquí evolucionamos a la barbacoa, creando recetas auténticas americanas a base de brasa, madera y humo.\r\n\r\nEn NYB queremos verte disfrutar, sean cuáles sean tus gustos o principios. Por ello, nuestra apuesta más reciente es New York Green con ensaladas y bowls veganos y vegetarianos, que preparamos cada día con ingredientes frescos y de proximidad.","url":"https://newyorkburger.es/","square_picture":"https://woowbe-dev.s3.amazonaws.com/media/pictures/newyorkburger-logo-1-1.jpeg","widescreen_picture":"https://woowbe-dev.s3.amazonaws.com/media/pictures/newyorkburger-logo-16-9.jpeg","cover":"https://woowbe-dev.s3.amazonaws.com/media/covers/newyorkburger-portada.jpeg","sector":{"id":2,"name":"Restaurante","icon":"https://woowbe-dev.s3.amazonaws.com/media/icons/food_Yc99kSV.svg","created":"2021-05-25T10:46:14.371617Z"},"descriptive_categories":[{"id":87,"name":"adidas","owner":248,"sector":null,"created":"2022-11-15T16:16:47.536980Z"},{"id":46,"name":"americana","owner":null,"sector":null,"created":"2021-11-29T09:27:36.991965Z"},{"id":47,"name":"brasas","owner":null,"sector":null,"created":"2021-11-29T09:27:43.625917Z"},{"id":48,"name":"burger","owner":null,"sector":null,"created":"2021-11-29T09:27:58.948006Z"},{"id":39,"name":"ensaladas","owner":null,"sector":null,"created":"2021-10-25T12:45:54.528824Z"},{"id":37,"name":"hamburguesa","owner":null,"sector":null,"created":"2021-10-25T11:59:24.358507Z"},{"id":10,"name":"Healthy","owner":null,"sector":null,"created":"2021-10-21T14:33:37.426542Z"},{"id":49,"name":"niños","owner":118,"sector":null,"created":"2021-11-29T09:30:23.079267Z"},{"id":50,"name":"saludable","owner":118,"sector":null,"created":"2021-11-29T09:30:31.798207Z"},{"id":51,"name":"vegana","owner":118,"sector":null,"created":"2021-11-29T09:30:34.948300Z"},{"id":52,"name":"vegano","owner":118,"sector":null,"created":"2021-11-29T09:30:37.746041Z"}],"return_period":0,"dynamic_link":"https://app.dev.woowbe.com/share/Q4zA","is_franchisee_of":118,"is_favorite":false,"created":"2023-02-01T10:40:47.131211Z","selected_offer":null,"offers_count":0},{"id":268,"name":"Vancasti Business","country":{"id":3,"name":"España","code":"es"},"description":"Victor's fake company","url":"https://vancasti.com","square_picture":"https://woowbe-dev.s3.amazonaws.com/media/pictures/square_picture_XVUR02p.jpg","widescreen_picture":"https://woowbe-dev.s3.amazonaws.com/media/pictures/1675342216.jpeg","cover":"https://woowbe-dev.s3.amazonaws.com/media/covers/cover_wxVwunN.jpg","sector":{"id":14,"name":"Electrónica","icon":"https://woowbe-dev.s3.amazonaws.com/media/icons/electronic.svg","created":"2021-05-25T11:03:50.040033Z"},"descriptive_categories":[{"id":96,"name":"tecnología","owner":268,"sector":null,"created":"2023-02-02T12:50:12.472748Z"}],"return_period":10,"dynamic_link":"https://app.dev.woowbe.com/share/jisP","is_franchisee_of":null,"is_favorite":false,"created":"2023-02-02T12:16:49.061385Z","selected_offer":null,"offers_count":0},{"id":269,"name":"Negocio Facturacion","country":{"id":3,"name":"España","code":"es"},"description":"Negocio Facturacion descripcion","url":"https://www.facturacion.com","square_picture":"https://woowbe-dev.s3.amazonaws.com/media/pictures/1676987353.jpeg","widescreen_picture":"https://woowbe-dev.s3.amazonaws.com/media/pictures/1666952262_2VZ6Qea.jpeg","cover":"https://woowbe-dev.s3.amazonaws.com/media/covers/cover_PjPUN60.jpg","sector":{"id":4,"name":"Bar","icon":"https://woowbe-dev.s3.amazonaws.com/media/icons/food.svg","created":"2021-05-25T10:47:46.399740Z"},"descriptive_categories":[{"id":44,"name":"barbería","owner":null,"sector":null,"created":"2021-10-26T07:38:49.830200Z"}],"return_period":0,"dynamic_link":"https://app.dev.woowbe.com/share/FfNj","is_franchisee_of":243,"is_favorite":false,"created":"2023-02-21T13:49:12.354463Z","selected_offer":null,"offers_count":0},{"id":273,"name":"Veterinaria QA aaaaaddddddbbbbbbb","country":{"id":3,"name":"España","code":"es"},"description":"clinica veterinaria con mucha experiencia en el cuidado de animales. Tratamos a todos los animales como si fuesen parte de nuestra familia.","url":"http://www.vete.com","square_picture":"https://woowbe-dev.s3.amazonaws.com/media/pictures/1667842927.jpeg","widescreen_picture":"https://woowbe-dev.s3.amazonaws.com/media/pictures/1669722210.jpeg","cover":"https://woowbe-dev.s3.amazonaws.com/media/covers/cover_0hwbWev.jpg","sector":{"id":33,"name":"Veterinario","icon":null,"created":"2021-05-25T11:17:24.318169Z"},"descriptive_categories":[{"id":84,"name":"perro","owner":246,"sector":null,"created":"2022-11-07T17:42:00.446793Z"}],"return_period":0,"dynamic_link":"https://app.dev.woowbe.com/share/2NAX","is_franchisee_of":246,"is_favorite":false,"created":"2023-02-22T10:44:22.390923Z","selected_offer":null,"offers_count":0},{"id":302,"name":"Bill's","country":{"id":3,"name":"España","code":"es"},"description":"Cositas","url":"http://hola.com","square_picture":"https://woowbe-dev.s3.amazonaws.com/media/pictures/square_picture_R99Kjdw.jpg","widescreen_picture":"https://woowbe-dev.s3.amazonaws.com/media/pictures/1677662994.jpeg","cover":"https://woowbe-dev.s3.amazonaws.com/media/covers/cover_cKBoJtf.jpg","sector":{"id":4,"name":"Bar","icon":"https://woowbe-dev.s3.amazonaws.com/media/icons/food.svg","created":"2021-05-25T10:47:46.399740Z"},"descriptive_categories":[{"id":30,"name":"afterwork","owner":null,"sector":4,"created":"2021-10-24T10:04:24.581445Z"}],"return_period":0,"dynamic_link":"https://app.dev.woowbe.com/share/XE5a","is_franchisee_of":null,"is_favorite":false,"created":"2023-03-01T09:28:04.100558Z","selected_offer":null,"offers_count":0},{"id":309,"name":"Yogui QA","country":{"id":3,"name":"España","code":"es"},"description":"Yogui QA es el comercio offline \n\nLorem Ipsum is simply dummy text of the printing and typesetting industry. Lorem Ipsum has been the industry's standard dummy text ever since the 1500s, when an unknown printer took a galley of type and scrambled it to make a type specimen book. It has survived not only five centuries, but also the leap into electronic typesetting, remaining essentially unchanged. It was popularised in the 1960s with the release of Letraset sheets containing Lorem Ipsum passages","url":"https://www.yogui.com","square_picture":"https://woowbe-dev.s3.amazonaws.com/media/pictures/1678278234.jpeg","widescreen_picture":"https://woowbe-dev.s3.amazonaws.com/media/pictures/1665492408_Z9SKuNG.jpeg","cover":"https://woowbe-dev.s3.amazonaws.com/media/covers/cover_HYuhoAb.jpg","sector":{"id":24,"name":"Gimnasio","icon":"https://woowbe-dev.s3.amazonaws.com/media/icons/sport.svg","created":"2021-05-25T11:07:47.157431Z"},"descriptive_categories":[{"id":10,"name":"Healthy","owner":null,"sector":null,"created":"2021-10-21T14:33:37.426542Z"}],"return_period":0,"dynamic_link":"https://app.dev.woowbe.com/share/Vqd8","is_franchisee_of":236,"is_favorite":false,"created":"2023-03-08T12:23:53.606856Z","selected_offer":null,"offers_count":0},{"id":310,"name":"Test App Shop","country":{"id":2,"name":"Malta","code":"mt"},"description":"AAA","url":"https://google.com","square_picture":"https://woowbe-dev.s3.amazonaws.com/media/pictures/1667494635.jpeg","widescreen_picture":"https://woowbe-dev.s3.amazonaws.com/media/pictures/widescreen_picture_ZiLjO4p.jpg","cover":"https://woowbe-dev.s3.amazonaws.com/media/covers/cover_kvUvSKN.jpg","sector":{"id":22,"name":"Alimentación animal","icon":"https://woowbe-dev.s3.amazonaws.com/media/icons/pets.svg","created":"2021-05-25T11:07:08.658870Z"},"descriptive_categories":[{"id":30,"name":"afterwork","owner":null,"sector":4,"created":"2021-10-24T10:04:24.581445Z"}],"return_period":0,"dynamic_link":"https://app.dev.woowbe.com/share/63RH","is_franchisee_of":143,"is_favorite":false,"created":"2023-03-13T08:35:28.703912Z","selected_offer":null,"offers_count":0}]}