{"count":137,"next":"https://backend.dev.woowbe.com/api/v1/business/public/?page=6","previous":"https://backend.dev.woowbe.com/api/v1/business/public/?page=4","results":[{"id":129,"name":"Le Pain Quotidien","country":null,"description":"Nuestro menú celebra la sencillez de los alimentos frescos y nutritivos. ¡Descubre una nueva comida para incluir entre tus favoritos!","url":"https://www.lepainquotidien.com/es/es/","square_picture":"https://woowbe-dev.s3.amazonaws.com/media/pictures/le-pain-quotidien-logo-1-1.png","widescreen_picture":"https://woowbe-dev.s3.amazonaws.com/media/pictures/1638195543.png","cover":"https://woowbe-dev.s3.amazonaws.com/media/covers/le-pain-quotidien-portada.png","sector":{"id":2,"name":"Restaurante","icon":"https://woowbe-dev.s3.amazonaws.com/media/icons/food_Yc99kSV.svg","created":"2021-05-25T10:46:14.371617Z"},"descriptive_categories":[{"id":25,"name":"pan","owner":null,"sector":null,"created":"2021-10-21T21:05:17.331228Z"}],"return_period":0,"dynamic_link":"https://app.dev.woowbe.com/share/egf9","is_franchisee_of":null,"is_favorite":false,"created":"2021-11-29T14:19:02.965726Z","selected_offer":null,"offers_count":0},{"id":130,"name":"La Mafia","country":null,"description":"El Restaurante La Mafia se sienta a la mesa os ofrece, además de su cocina italiana, otros platos mediterráneos que harán las delicias de vuestro paladar. Disfrutad de una auténtica comida mafiosa que os transportará a una Italia llena de misterio y buen gusto. Dejaos seducir con su lujoso ambiente y transportaos a un bello rincón de Italia donde nadie os encuentre.","url":"https://lamafia.es/","square_picture":"https://woowbe-dev.s3.amazonaws.com/media/pictures/la-mafia-logo-1-1.png","widescreen_picture":"https://woowbe-dev.s3.amazonaws.com/media/pictures/1638196750.png","cover":"https://woowbe-dev.s3.amazonaws.com/media/covers/la-mafia-portada.jpeg","sector":{"id":2,"name":"Restaurante","icon":"https://woowbe-dev.s3.amazonaws.com/media/icons/food_Yc99kSV.svg","created":"2021-05-25T10:46:14.371617Z"},"descriptive_categories":[{"id":20,"name":"italiano","owner":null,"sector":null,"created":"2021-10-21T20:22:55.462166Z"}],"return_period":0,"dynamic_link":"https://app.dev.woowbe.com/share/vRGn","is_franchisee_of":null,"is_favorite":false,"created":"2021-11-29T14:39:10.204240Z","selected_offer":{"id":242,"reward":"6.00","reward_type":"percentage","kind":"A","instant":false,"name":"La Mafia 6%","standalone":false,"purchases":null,"online":false,"applicable":false},"offers_count":1},{"id":131,"name":"Makkila","country":null,"description":"Bienvenido a Makkila, tu casa de comidas sin reglas. Carta española con influencias del mundo.","url":"https://makkila.com/","square_picture":"https://woowbe-dev.s3.amazonaws.com/media/pictures/makkila-logo-1-1.png","widescreen_picture":"https://woowbe-dev.s3.amazonaws.com/media/pictures/1638197128.png","cover":"https://woowbe-dev.s3.amazonaws.com/media/covers/makkila-portada.png","sector":{"id":2,"name":"Restaurante","icon":"https://woowbe-dev.s3.amazonaws.com/media/icons/food_Yc99kSV.svg","created":"2021-05-25T10:46:14.371617Z"},"descriptive_categories":[{"id":61,"name":"española","owner":null,"sector":null,"created":"2021-11-29T14:45:24.792550Z"}],"return_period":0,"dynamic_link":"https://app.dev.woowbe.com/share/EFnh","is_franchisee_of":null,"is_favorite":false,"created":"2021-11-29T14:45:28.299324Z","selected_offer":{"id":243,"reward":"8.00","reward_type":"percentage","kind":"A","instant":false,"name":"Makkila 8%","standalone":false,"purchases":null,"online":false,"applicable":false},"offers_count":1},{"id":132,"name":"Panaria","country":null,"description":"Es el sitio para llevar a tus hijos a merendar o donde comer un bocadillo con una cervecita.\r\nAdemás, si quieres darte un capricho puedes hacerlo con nuestra bollería de calidad o con nuestros batidos y smoothies.\r\nUna carta variada y fresca para que cada vez que nos visites puedas probar algo que combine con tu antojo del día.","url":"https://panariapanaderias.es/","square_picture":"https://woowbe-dev.s3.amazonaws.com/media/pictures/panaria-logo-1-1.png","widescreen_picture":"https://woowbe-dev.s3.amazonaws.com/media/pictures/1638197657.png","cover":"https://woowbe-dev.s3.amazonaws.com/media/covers/panaria-portada.webp","sector":{"id":19,"name":"Panadería","icon":"https://woowbe-dev.s3.amazonaws.com/media/icons/toeat_I8A0AM0.svg","created":"2021-05-25T11:05:24.276505Z"},"descriptive_categories":[{"id":25,"name":"pan","owner":null,"sector":null,"created":"2021-10-21T21:05:17.331228Z"},{"id":23,"name":"panadería","owner":null,"sector":null,"created":"2021-10-21T21:04:59.592984Z"}],"return_period":0,"dynamic_link":"https://app.dev.woowbe.com/share/qXUY","is_franchisee_of":null,"is_favorite":false,"created":"2021-11-29T14:54:17.332159Z","selected_offer":{"id":244,"reward":"10.00","reward_type":"percentage","kind":"A","instant":false,"name":"Panaria 10%","standalone":false,"purchases":null,"online":false,"applicable":false},"offers_count":1},{"id":133,"name":"RAWCOCO","country":{"id":3,"name":"España","code":"es"},"description":"RAWCOCO nace para responder a esta tendencia, ofreciendo una equilibrada carta de calidad saludable, con productos aún poco conocidos para muchas personas y con extraordinarias propiedades para la salud, para todos los gustos y edades; comprometidos igualmente con la necesidad de ser flexibles y amables en el proceso y distinto grado evolutivo de nuestros clientes en el mismo, en un contexto de cambio y de transitoriedad hacia un modelo de desarrollo, más sostenible y más coherente con la necesidad de encontrar en la conservación de la Salud y su prevención, la base del mismo.","url":"http://www.rawcoco.es/","square_picture":"https://woowbe-dev.s3.amazonaws.com/media/pictures/rawcoco-logo-1-1.png","widescreen_picture":"https://woowbe-dev.s3.amazonaws.com/media/pictures/1638198240.png","cover":"https://woowbe-dev.s3.amazonaws.com/media/covers/rawcoco-portada.jpeg","sector":{"id":40,"name":"Healthy Food","icon":"https://woowbe-dev.s3.amazonaws.com/media/icons/health.svg","created":"2021-11-29T15:03:51.168889Z"},"descriptive_categories":[{"id":10,"name":"Healthy","owner":null,"sector":null,"created":"2021-10-21T14:33:37.426542Z"},{"id":50,"name":"saludable","owner":118,"sector":null,"created":"2021-11-29T09:30:31.798207Z"}],"return_period":0,"dynamic_link":"https://app.dev.woowbe.com/share/gs5e","is_franchisee_of":null,"is_favorite":false,"created":"2021-11-29T15:04:00.709554Z","selected_offer":null,"offers_count":0},{"id":134,"name":"Taj Mahal","country":{"id":3,"name":"España","code":"es"},"description":"El restaurante Taj Mahal situado en el centro de Madrid dispone de un pequeño local decorado típicamente al estilo hindú. Su amplia carta permite disfrutar de un sin fin de sabores exóticos, ejemplos son las típicas salsas de aperitivo, las samosas de carne, o el pollo o cordero asado.","url":"https://restaurante-taj-mahal.business.site","square_picture":"https://woowbe-dev.s3.amazonaws.com/media/pictures/taj-mahal-logo-1-1_oY8rPRm.png","widescreen_picture":"https://woowbe-dev.s3.amazonaws.com/media/pictures/1638367485.png","cover":"https://woowbe-dev.s3.amazonaws.com/media/covers/cover_fhbL2r4.jpg","sector":{"id":2,"name":"Restaurante","icon":"https://woowbe-dev.s3.amazonaws.com/media/icons/food_Yc99kSV.svg","created":"2021-05-25T10:46:14.371617Z"},"descriptive_categories":[{"id":62,"name":"hindú","owner":null,"sector":null,"created":"2021-12-01T14:04:41.862509Z"}],"return_period":1,"dynamic_link":"https://app.dev.woowbe.com/share/aHeC","is_franchisee_of":null,"is_favorite":false,"created":"2021-12-01T14:04:44.972960Z","selected_offer":{"id":250,"reward":"10.00","reward_type":"fixed","kind":"B","instant":false,"name":"prueba presupuesto menor que recompensa","standalone":false,"purchases":null,"online":false,"applicable":false},"offers_count":1},{"id":173,"name":"NewCo Business","country":{"id":2,"name":"Malta","code":"mt"},"description":"This is a Demo Business","url":"https://www.newco.com","square_picture":"https://woowbe-dev.s3.amazonaws.com/media/pictures/square_picture_ojLUO22.jpg","widescreen_picture":"https://woowbe-dev.s3.amazonaws.com/media/pictures/1649862498.jpeg","cover":"https://woowbe-dev.s3.amazonaws.com/media/covers/cover_BYp7Oqs.jpg","sector":{"id":28,"name":"Alquiler de coches","icon":"https://woowbe-dev.s3.amazonaws.com/media/icons/mobility.svg","created":"2021-05-25T11:10:59.951129Z"},"descriptive_categories":[],"return_period":0,"dynamic_link":"https://app.dev.woowbe.com/share/ARYf","is_franchisee_of":138,"is_favorite":false,"created":"2022-04-11T11:12:11.912145Z","selected_offer":null,"offers_count":0},{"id":138,"name":"NewCOM Business","country":{"id":3,"name":"España","code":"es"},"description":"This is a Demo Business","url":"https://www.newco.com","square_picture":"https://woowbe-dev.s3.amazonaws.com/media/pictures/square_picture_ojLUO22.jpg","widescreen_picture":"https://woowbe-dev.s3.amazonaws.com/media/pictures/1649862498.jpeg","cover":"https://woowbe-dev.s3.amazonaws.com/media/covers/cover_BYp7Oqs.jpg","sector":{"id":28,"name":"Alquiler de coches","icon":"https://woowbe-dev.s3.amazonaws.com/media/icons/mobility.svg","created":"2021-05-25T11:10:59.951129Z"},"descriptive_categories":[],"return_period":0,"dynamic_link":"https://app.dev.woowbe.com/share/ewdc","is_franchisee_of":null,"is_favorite":false,"created":"2022-04-11T11:12:11.912145Z","selected_offer":null,"offers_count":0},{"id":139,"name":"Álex Business","country":null,"description":"SpeedDating Dinners for people with little or no time","url":"https://www.alexintheworld.com","square_picture":"https://woowbe-dev.s3.amazonaws.com/media/pictures/square_picture_cdwiuPe.jpg","widescreen_picture":"https://woowbe-dev.s3.amazonaws.com/media/pictures/1676631740.jpeg","cover":"https://woowbe-dev.s3.amazonaws.com/media/covers/cover_LnV0w5w.jpg","sector":{"id":37,"name":"Restaurante temático","icon":"https://woowbe-dev.s3.amazonaws.com/media/icons/toeat_T2kMSVS.svg","created":"2021-10-21T14:32:58.019404Z"},"descriptive_categories":[{"id":60,"name":"repostería","owner":null,"sector":null,"created":"2021-11-29T13:55:03.905322Z"}],"return_period":30,"dynamic_link":"https://app.dev.woowbe.com/share/36XF","is_franchisee_of":null,"is_favorite":false,"created":"2022-04-28T08:55:59.573646Z","selected_offer":null,"offers_count":0},{"id":140,"name":"Pako's Donuts","country":null,"description":"Esta es la descripción de mi negocio de donuts","url":"http://www.pakosdonuts.com","square_picture":"https://woowbe-dev.s3.amazonaws.com/media/pictures/square_picture_d0YTkuG.jpg","widescreen_picture":"https://woowbe-dev.s3.amazonaws.com/media/pictures/1652178849.jpeg","cover":"https://woowbe-dev.s3.amazonaws.com/media/covers/cover_sMkXPAU.jpg","sector":{"id":5,"name":"Cafetería","icon":"https://woowbe-dev.s3.amazonaws.com/media/icons/toeat.svg","created":"2021-05-25T10:48:41.547333Z"},"descriptive_categories":[{"id":64,"name":"chocolate","owner":140,"sector":null,"created":"2022-05-10T10:36:54.526338Z"},{"id":63,"name":"donuts","owner":140,"sector":null,"created":"2022-05-10T10:36:46.452910Z"}],"return_period":0,"dynamic_link":"https://app.dev.woowbe.com/share/nHK9","is_franchisee_of":null,"is_favorite":false,"created":"2022-05-10T10:08:15.925926Z","selected_offer":null,"offers_count":0}]}