{"count":137,"next":"https://backend.dev.woowbe.com/api/v1/business/public/?page=8","previous":"https://backend.dev.woowbe.com/api/v1/business/public/?page=6","results":[{"id":174,"name":"SPAIN GOURMET INVESTMENTS SL","country":{"id":3,"name":"España","code":"es"},"description":"Puerto Lagasca es un pequeño restaurante en el Barrio Salamanca. Cuidamos y seleccionamos los mejores productos del mercado para ofrecer una gastronomía tradicional, meditarránea y con un toque diferente. Auténtica cocina de autor mimada por nuestro chef.","url":"https://puertolagasca.com","square_picture":"https://woowbe-dev.s3.amazonaws.com/media/pictures/square_picture_wxeFMMD.jpg","widescreen_picture":"https://woowbe-dev.s3.amazonaws.com/media/pictures/1657624076.jpeg","cover":"https://woowbe-dev.s3.amazonaws.com/media/covers/cover_RvYX6Fj.jpg","sector":{"id":4,"name":"Bar","icon":"https://woowbe-dev.s3.amazonaws.com/media/icons/food.svg","created":"2021-05-25T10:47:46.399740Z"},"descriptive_categories":[],"return_period":0,"dynamic_link":"https://app.dev.woowbe.com/share/FKWW","is_franchisee_of":null,"is_favorite":false,"created":"2022-07-12T11:05:07.097589Z","selected_offer":null,"offers_count":0},{"id":175,"name":"Franquicia Scalpers","country":null,"description":"","url":null,"square_picture":null,"widescreen_picture":null,"cover":null,"sector":null,"descriptive_categories":[],"return_period":0,"dynamic_link":"https://app.dev.woowbe.com/share/9v8A","is_franchisee_of":12,"is_favorite":false,"created":"2022-07-18T14:22:22.976100Z","selected_offer":null,"offers_count":0},{"id":177,"name":"Cafeteria QA","country":{"id":3,"name":"España","code":"es"},"description":"Programa de Test QA","url":"http://aa.com","square_picture":"https://woowbe-dev.s3.amazonaws.com/media/pictures/square_picture_L5L56Sl.jpg","widescreen_picture":"https://woowbe-dev.s3.amazonaws.com/media/pictures/1664189138.jpeg","cover":"https://woowbe-dev.s3.amazonaws.com/media/covers/cover_vO8upz4.jpg","sector":{"id":4,"name":"Bar","icon":"https://woowbe-dev.s3.amazonaws.com/media/icons/food.svg","created":"2021-05-25T10:47:46.399740Z"},"descriptive_categories":[{"id":30,"name":"afterwork","owner":null,"sector":4,"created":"2021-10-24T10:04:24.581445Z"},{"id":43,"name":"barba","owner":null,"sector":null,"created":"2021-10-26T07:38:43.587103Z"},{"id":67,"name":"patata","owner":177,"sector":null,"created":"2022-08-22T13:01:31.983340Z"}],"return_period":0,"dynamic_link":"https://app.dev.woowbe.com/share/6AvW","is_franchisee_of":null,"is_favorite":false,"created":"2022-08-17T07:16:21.305278Z","selected_offer":null,"offers_count":0},{"id":178,"name":"Mahourizio","country":{"id":3,"name":"España","code":"es"},"description":"Test de Maurizio","url":"http://maurizio.es","square_picture":"https://woowbe-dev.s3.amazonaws.com/media/pictures/square_picture_a1ZviDm.jpg","widescreen_picture":"https://woowbe-dev.s3.amazonaws.com/media/pictures/1676631745.jpeg","cover":"https://woowbe-dev.s3.amazonaws.com/media/covers/cover_SNLXm9U.jpg","sector":{"id":4,"name":"Bar","icon":"https://woowbe-dev.s3.amazonaws.com/media/icons/food.svg","created":"2021-05-25T10:47:46.399740Z"},"descriptive_categories":[{"id":30,"name":"afterwork","owner":null,"sector":4,"created":"2021-10-24T10:04:24.581445Z"},{"id":43,"name":"barba","owner":null,"sector":null,"created":"2021-10-26T07:38:43.587103Z"},{"id":40,"name":"peinado","owner":null,"sector":null,"created":"2021-10-25T13:02:38.018824Z"},{"id":42,"name":"pelo","owner":null,"sector":44,"created":"2021-10-25T13:02:49.420892Z"}],"return_period":0,"dynamic_link":"https://app.dev.woowbe.com/share/2Q2J","is_franchisee_of":null,"is_favorite":false,"created":"2022-08-17T07:49:52.020588Z","selected_offer":null,"offers_count":0},{"id":180,"name":"Comercio Pilar","country":{"id":3,"name":"España","code":"es"},"description":"aaaa","url":"https://www.a.com","square_picture":"https://woowbe-dev.s3.amazonaws.com/media/pictures/1673868213.jpeg","widescreen_picture":"https://woowbe-dev.s3.amazonaws.com/media/pictures/1673868214.jpeg","cover":"https://woowbe-dev.s3.amazonaws.com/media/covers/cover_qCWtnT8.jpg","sector":{"id":22,"name":"Alimentación animal","icon":"https://woowbe-dev.s3.amazonaws.com/media/icons/pets.svg","created":"2021-05-25T11:07:08.658870Z"},"descriptive_categories":[{"id":30,"name":"afterwork","owner":null,"sector":4,"created":"2021-10-24T10:04:24.581445Z"},{"id":67,"name":"patata","owner":177,"sector":null,"created":"2022-08-22T13:01:31.983340Z"}],"return_period":0,"dynamic_link":"https://app.dev.woowbe.com/share/M3iG","is_franchisee_of":null,"is_favorite":false,"created":"2022-08-17T12:52:39.491942Z","selected_offer":null,"offers_count":0},{"id":181,"name":"inigotest","country":{"id":3,"name":"España","code":"es"},"description":"inigotest","url":"http://www.inigo.com","square_picture":null,"widescreen_picture":null,"cover":null,"sector":{"id":4,"name":"Bar","icon":"https://woowbe-dev.s3.amazonaws.com/media/icons/food.svg","created":"2021-05-25T10:47:46.399740Z"},"descriptive_categories":[{"id":2,"name":"Restaurantes","owner":null,"sector":null,"created":"2021-07-13T12:29:59.362080Z"},{"id":27,"name":"zumos","owner":null,"sector":null,"created":"2021-10-23T08:39:21.905307Z"}],"return_period":40,"dynamic_link":"https://app.dev.woowbe.com/share/3k5y","is_franchisee_of":null,"is_favorite":false,"created":"2022-08-25T07:50:47.107631Z","selected_offer":null,"offers_count":0},{"id":182,"name":"Error banner","country":null,"description":"","url":null,"square_picture":null,"widescreen_picture":null,"cover":null,"sector":null,"descriptive_categories":[],"return_period":0,"dynamic_link":"https://app.dev.woowbe.com/share/uzg5","is_franchisee_of":null,"is_favorite":false,"created":"2022-08-26T07:29:29.038258Z","selected_offer":null,"offers_count":0},{"id":184,"name":"Floristeria MariPepis QA","country":{"id":3,"name":"España","code":"es"},"description":"Floristeria con todo tipo de flores.","url":"http://www.floristeriamaripepis.com","square_picture":"https://woowbe-dev.s3.amazonaws.com/media/pictures/square_picture_wRtqmQ7.jpg","widescreen_picture":"https://woowbe-dev.s3.amazonaws.com/media/pictures/1662040876.jpeg","cover":"https://woowbe-dev.s3.amazonaws.com/media/covers/cover_J8HYh2d.jpg","sector":{"id":42,"name":"Floristerias","icon":null,"created":"2022-09-01T14:00:20.722960Z"},"descriptive_categories":[{"id":70,"name":"flores","owner":null,"sector":42,"created":"2022-09-01T14:00:58.674922Z"}],"return_period":0,"dynamic_link":"https://app.dev.woowbe.com/share/duMz","is_franchisee_of":null,"is_favorite":false,"created":"2022-09-01T13:51:53.835339Z","selected_offer":{"id":403,"reward":"4.00","reward_type":"fixed","kind":"C","instant":false,"name":"geo lejos torremolinos","standalone":false,"purchases":4,"online":false,"applicable":false},"offers_count":1},{"id":185,"name":"inigotest2","country":{"id":3,"name":"España","code":"es"},"description":"34","url":"https://www.test2.com","square_picture":"https://woowbe-dev.s3.amazonaws.com/media/pictures/square_picture_AMzbBii.jpg","widescreen_picture":"https://woowbe-dev.s3.amazonaws.com/media/pictures/1676631772.jpeg","cover":"https://woowbe-dev.s3.amazonaws.com/media/covers/cover_ejZs8a8.jpg","sector":{"id":5,"name":"Cafetería","icon":"https://woowbe-dev.s3.amazonaws.com/media/icons/toeat.svg","created":"2021-05-25T10:48:41.547333Z"},"descriptive_categories":[{"id":46,"name":"americana","owner":null,"sector":null,"created":"2021-11-29T09:27:36.991965Z"},{"id":43,"name":"barba","owner":null,"sector":null,"created":"2021-10-26T07:38:43.587103Z"},{"id":72,"name":"cosas","owner":185,"sector":null,"created":"2022-09-07T07:35:57.419399Z"}],"return_period":0,"dynamic_link":"https://app.dev.woowbe.com/share/KgaR","is_franchisee_of":null,"is_favorite":false,"created":"2022-09-07T07:28:47.431750Z","selected_offer":null,"offers_count":0},{"id":186,"name":"inigotest3","country":{"id":3,"name":"España","code":"es"},"description":"aljddlfjdsl","url":"http://www.as.com","square_picture":"https://woowbe-dev.s3.amazonaws.com/media/pictures/square_picture_AQDIr2C.jpg","widescreen_picture":"https://woowbe-dev.s3.amazonaws.com/media/pictures/widescreen_picture_beDii74.jpg","cover":"https://woowbe-dev.s3.amazonaws.com/media/covers/cover_h1ThLyq.jpg","sector":{"id":4,"name":"Bar","icon":"https://woowbe-dev.s3.amazonaws.com/media/icons/food.svg","created":"2021-05-25T10:47:46.399740Z"},"descriptive_categories":[{"id":43,"name":"barba","owner":null,"sector":null,"created":"2021-10-26T07:38:43.587103Z"},{"id":20,"name":"italiano","owner":null,"sector":null,"created":"2021-10-21T20:22:55.462166Z"}],"return_period":34,"dynamic_link":"https://app.dev.woowbe.com/share/dXd5","is_franchisee_of":null,"is_favorite":false,"created":"2022-09-07T08:48:25.509791Z","selected_offer":null,"offers_count":0}]}