{"count":137,"next":"https://backend.dev.woowbe.com/api/v1/business/public/?page=9","previous":"https://backend.dev.woowbe.com/api/v1/business/public/?page=7","results":[{"id":190,"name":"inigotest4","country":{"id":3,"name":"España","code":"es"},"description":"comercio de test","url":null,"square_picture":null,"widescreen_picture":null,"cover":null,"sector":null,"descriptive_categories":[],"return_period":0,"dynamic_link":"https://app.dev.woowbe.com/share/sTA3","is_franchisee_of":null,"is_favorite":false,"created":"2022-09-08T13:49:59.020183Z","selected_offer":null,"offers_count":0},{"id":191,"name":"inigotestpilar","country":{"id":3,"name":"España","code":"es"},"description":"","url":null,"square_picture":null,"widescreen_picture":null,"cover":null,"sector":null,"descriptive_categories":[],"return_period":0,"dynamic_link":"https://app.dev.woowbe.com/share/AQeT","is_franchisee_of":null,"is_favorite":false,"created":"2022-09-08T14:12:32.919944Z","selected_offer":null,"offers_count":0},{"id":193,"name":"inigotest2","country":{"id":3,"name":"España","code":"es"},"description":"","url":null,"square_picture":null,"widescreen_picture":null,"cover":null,"sector":null,"descriptive_categories":[],"return_period":0,"dynamic_link":"https://app.dev.woowbe.com/share/qTQJ","is_franchisee_of":null,"is_favorite":false,"created":"2022-09-09T07:13:46.042904Z","selected_offer":null,"offers_count":0},{"id":194,"name":"inigotestviernes","country":{"id":3,"name":"España","code":"es"},"description":"","url":null,"square_picture":null,"widescreen_picture":null,"cover":null,"sector":null,"descriptive_categories":[],"return_period":0,"dynamic_link":"https://app.dev.woowbe.com/share/HvGy","is_franchisee_of":null,"is_favorite":false,"created":"2022-09-09T07:17:26.872367Z","selected_offer":null,"offers_count":0},{"id":198,"name":"inigotest10","country":{"id":3,"name":"España","code":"es"},"description":"lkldkj","url":"http://test.com","square_picture":"https://woowbe-dev.s3.amazonaws.com/media/pictures/square_picture_1UCivDt.jpg","widescreen_picture":"https://woowbe-dev.s3.amazonaws.com/media/pictures/widescreen_picture_hUT0VnC.jpg","cover":"https://woowbe-dev.s3.amazonaws.com/media/covers/cover_k7ZkeQ7.jpg","sector":{"id":28,"name":"Alquiler de coches","icon":"https://woowbe-dev.s3.amazonaws.com/media/icons/mobility.svg","created":"2021-05-25T11:10:59.951129Z"},"descriptive_categories":[{"id":46,"name":"americana","owner":null,"sector":null,"created":"2021-11-29T09:27:36.991965Z"},{"id":43,"name":"barba","owner":null,"sector":null,"created":"2021-10-26T07:38:43.587103Z"}],"return_period":0,"dynamic_link":"https://app.dev.woowbe.com/share/BWwn","is_franchisee_of":null,"is_favorite":false,"created":"2022-09-12T14:29:10.436684Z","selected_offer":null,"offers_count":0},{"id":200,"name":"inigotest23","country":{"id":3,"name":"España","code":"es"},"description":"","url":null,"square_picture":null,"widescreen_picture":null,"cover":null,"sector":null,"descriptive_categories":[],"return_period":0,"dynamic_link":"https://app.dev.woowbe.com/share/ikt7","is_franchisee_of":null,"is_favorite":false,"created":"2022-09-12T15:28:33.666103Z","selected_offer":null,"offers_count":0},{"id":201,"name":"inigo14","country":null,"description":"","url":null,"square_picture":null,"widescreen_picture":null,"cover":null,"sector":null,"descriptive_categories":[],"return_period":0,"dynamic_link":"https://app.dev.woowbe.com/share/yR2k","is_franchisee_of":null,"is_favorite":false,"created":"2022-09-12T15:31:56.738586Z","selected_offer":null,"offers_count":0},{"id":202,"name":"test30","country":null,"description":"","url":null,"square_picture":null,"widescreen_picture":null,"cover":null,"sector":null,"descriptive_categories":[],"return_period":0,"dynamic_link":"https://app.dev.woowbe.com/share/ZfWp","is_franchisee_of":null,"is_favorite":false,"created":"2022-09-12T15:34:00.808849Z","selected_offer":null,"offers_count":0},{"id":203,"name":"test31","country":null,"description":"","url":null,"square_picture":null,"widescreen_picture":null,"cover":null,"sector":null,"descriptive_categories":[],"return_period":0,"dynamic_link":"https://app.dev.woowbe.com/share/YtXc","is_franchisee_of":null,"is_favorite":false,"created":"2022-09-12T15:48:10.146142Z","selected_offer":null,"offers_count":0},{"id":204,"name":"preuba","country":null,"description":"","url":null,"square_picture":null,"widescreen_picture":null,"cover":null,"sector":null,"descriptive_categories":[],"return_period":0,"dynamic_link":"https://app.dev.woowbe.com/share/4YFP","is_franchisee_of":null,"is_favorite":false,"created":"2022-09-12T15:52:23.107401Z","selected_offer":null,"offers_count":0}]}