{
	"count": 137,
	"next": "https://backend.dev.woowbe.com/api/v1/business/public/?page=10",
	"previous": "https://backend.dev.woowbe.com/api/v1/business/public/?page=8",
	"results": [
		{
			"id": 205,
			"name": "inigo40",
			"country": null,
			"description": "",
			"url": null,
			"square_picture": null,
			"widescreen_picture": null,
			"cover": null,
			"sector": null,
			"descriptive_categories": [],
			"return_period": 0,
			"dynamic_link": "https://app.dev.woowbe.com/share/1vYp",
			"is_franchisee_of": null,
			"is_favorite": false,
			"created": "2022-09-12T15:53:11.312258Z",
			"selected_offer": null,
			"offers_count": 0
		},
		{
			"id": 206,
			"name": "demo",
			"country": null,
			"description": "",
			"url": null,
			"square_picture": null,
			"widescreen_picture": null,
			"cover": null,
			"sector": null,
			"descriptive_categories": [],
			"return_period": 0,
			"dynamic_link": "https://app.dev.woowbe.com/share/JAfv",
			"is_franchisee_of": null,
			"is_favorite": false,
			"created": "2022-09-13T06:58:41.353201Z",
			"selected_offer": null,
			"offers_count": 0
		},
		{
			"id": 207,
			"name": "demo1",
			"country": null,
			"description": "",
			"url": null,
			"square_picture": null,
			"widescreen_picture": null,
			"cover": null,
			"sector": null,
			"descriptive_categories": [],
			"return_period": 0,
			"dynamic_link": "https://app.dev.woowbe.com/share/9TQm",
			"is_franchisee_of": null,
			"is_favorite": false,
			"created": "2022-09-13T07:08:09.315045Z",
			"selected_offer": null,
			"offers_count": 0
		},
		{
			"id": 208,
			"name": "demomartes",
			"country": {
				"id": 3,
				"name": "España",
				"code": "es"
			},
			"description": "es un negocio de prueba de formacion de comercial",
			"url": "https://prueba.com",
			"square_picture": "https://woowbe-dev.s3.amazonaws.com/media/pictures/square_picture_SQGSdpA.jpg",
			"widescreen_picture": "https://woowbe-dev.s3.amazonaws.com/media/pictures/widescreen_picture_6WSy6BM.jpg",
			"cover": "https://woowbe-dev.s3.amazonaws.com/media/covers/cover_I54WtiB.jpg",
			"sector": {
				"id": 14,
				"name": "Electrónica",
				"icon": "https://woowbe-dev.s3.amazonaws.com/media/icons/electronic.svg",
				"created": "2021-05-25T11:03:50.040033Z"
			},
			"descriptive_categories": [
				{
					"id": 30,
					"name": "afterwork",
					"owner": null,
					"sector": 4,
					"created": "2021-10-24T10:04:24.581445Z"
				},
				{
					"id": 73,
					"name": "cafe",
					"owner": 208,
					"sector": null,
					"created": "2022-09-13T08:53:59.790587Z"
				},
				{
					"id": 74,
					"name": "café americano",
					"owner": 208,
					"sector": null,
					"created": "2022-09-13T08:55:00.647300Z"
				}
			],
			"return_period": 0,
			"dynamic_link": "https://app.dev.woowbe.com/share/D5Fm",
			"is_franchisee_of": null,
			"is_favorite": false,
			"created": "2022-09-13T08:42:51.803739Z",
			"selected_offer": null,
			"offers_count": 0
		},
		{
			"id": 209,
			"name": "Mac Laren Automotive",
			"country": {
				"id": 3,
				"name": "España",
				"code": "es"
			},
			"description": "Compañía del sector automotriz con la incorporación de los masajes con final feliz ay un toque terapéutico.",
			"url": "https://cars.mclaren.com",
			"square_picture": "https://woowbe-dev.s3.amazonaws.com/media/pictures/1676631795.png",
			"widescreen_picture": "https://woowbe-dev.s3.amazonaws.com/media/pictures/1663065328_zk8cwLQ.png",
			"cover": "https://woowbe-dev.s3.amazonaws.com/media/covers/cover_6fVbuEU.jpg",
			"sector": {
				"id": 28,
				"name": "Alquiler de coches",
				"icon": "https://woowbe-dev.s3.amazonaws.com/media/icons/mobility.svg",
				"created": "2021-05-25T11:10:59.951129Z"
			},
			"descriptive_categories": [],
			"return_period": 0,
			"dynamic_link": "https://app.dev.woowbe.com/share/NhJu",
			"is_franchisee_of": null,
			"is_favorite": false,
			"created": "2022-09-13T10:35:28.641868Z",
			"selected_offer": null,
			"offers_count": 0
		},
		{
			"id": 210,
			"name": "Cines Yelmo",
			"country": null,
			"description": "Comercio test. Cines Yelmo es la mayor .....",
			"url": null,
			"square_picture": null,
			"widescreen_picture": null,
			"cover": null,
			"sector": {
				"id": 36,
				"name": "Cines y teatros",
				"icon": "https://woowbe-dev.s3.amazonaws.com/media/icons/leisure.svg",
				"created": "2021-05-25T11:18:32.648878Z"
			},
			"descriptive_categories": [
				{
					"id": 54,
					"name": "café",
					"owner": null,
					"sector": null,
					"created": "2021-11-29T11:15:07.797534Z"
				},
				{
					"id": 34,
					"name": "estrenos",
					"owner": null,
					"sector": null,
					"created": "2021-10-25T08:12:39.287584Z"
				},
				{
					"id": 35,
					"name": "películas",
					"owner": null,
					"sector": null,
					"created": "2021-10-25T08:12:44.904194Z"
				}
			],
			"return_period": 0,
			"dynamic_link": "https://app.dev.woowbe.com/share/aMTF",
			"is_franchisee_of": null,
			"is_favorite": false,
			"created": "2022-09-13T10:36:46.535629Z",
			"selected_offer": null,
			"offers_count": 0
		},
		{
			"id": 211,
			"name": "Sandra Flores",
			"country": {
				"id": 3,
				"name": "España",
				"code": "es"
			},
			"description": "Negocio familiar de flores únicas.",
			"url": "https://asodkos.com",
			"square_picture": "https://woowbe-dev.s3.amazonaws.com/media/pictures/square_picture_IFB7Mny.jpg",
			"widescreen_picture": "https://woowbe-dev.s3.amazonaws.com/media/pictures/1663066803.jpeg",
			"cover": "https://woowbe-dev.s3.amazonaws.com/media/covers/cover_JjF5T5y.jpg",
			"sector": {
				"id": 10,
				"name": "Tienda de deporte",
				"icon": null,
				"created": "2021-05-25T11:00:54.849631Z"
			},
			"descriptive_categories": [
				{
					"id": 46,
					"name": "americana",
					"owner": null,
					"sector": null,
					"created": "2021-11-29T09:27:36.991965Z"
				}
			],
			"return_period": 0,
			"dynamic_link": "https://app.dev.woowbe.com/share/jyye",
			"is_franchisee_of": null,
			"is_favorite": false,
			"created": "2022-09-13T10:37:21.496000Z",
			"selected_offer": null,
			"offers_count": 0
		},
		{
			"id": 212,
			"name": "mcdonalds",
			"country": null,
			"description": "",
			"url": null,
			"square_picture": null,
			"widescreen_picture": null,
			"cover": null,
			"sector": null,
			"descriptive_categories": [],
			"return_period": 0,
			"dynamic_link": "https://app.dev.woowbe.com/share/VBUL",
			"is_franchisee_of": null,
			"is_favorite": false,
			"created": "2022-09-13T10:37:25.629755Z",
			"selected_offer": null,
			"offers_count": 0
		},
		{
			"id": 213,
			"name": "JESUS  MASAGE",
			"country": null,
			"description": "",
			"url": null,
			"square_picture": null,
			"widescreen_picture": null,
			"cover": null,
			"sector": null,
			"descriptive_categories": [],
			"return_period": 0,
			"dynamic_link": "https://app.dev.woowbe.com/share/cCB5",
			"is_franchisee_of": null,
			"is_favorite": false,
			"created": "2022-09-13T10:37:26.868641Z",
			"selected_offer": null,
			"offers_count": 0
		},
		{
			"id": 214,
			"name": "CALCEDONIA",
			"country": {
				"id": 3,
				"name": "España",
				"code": "es"
			},
			"description": "Moda medias y calcetines",
			"url": "http://calcedonia.com",
			"square_picture": "https://woowbe-dev.s3.amazonaws.com/media/pictures/square_picture_0sOtu22.jpg",
			"widescreen_picture": "https://woowbe-dev.s3.amazonaws.com/media/pictures/1663066534.jpeg",
			"cover": "https://woowbe-dev.s3.amazonaws.com/media/covers/cover_52RMw5b.jpg",
			"sector": {
				"id": 34,
				"name": "Asociación empresarial",
				"icon": null,
				"created": "2021-05-25T11:17:48.433219Z"
			},
			"descriptive_categories": [
				{
					"id": 75,
					"name": "moda",
					"owner": 214,
					"sector": null,
					"created": "2022-09-13T10:55:06.956590Z"
				},
				{
					"id": 76,
					"name": "moda medias",
					"owner": 214,
					"sector": null,
					"created": "2022-09-13T10:55:18.851310Z"
				}
			],
			"return_period": 15,
			"dynamic_link": "https://app.dev.woowbe.com/share/3Wvu",
			"is_franchisee_of": null,
			"is_favorite": false,
			"created": "2022-09-13T10:37:31.544340Z",
			"selected_offer": null,
			"offers_count": 0
		}
	]
}
