{
	"count": 579,
	"next": "https://backend.dev.woowbe.com/api/v1/points_of_sales/public/?page=2",
	"previous": null,
	"results": [
		{
			"id": 945,
			"business": {
				"id": 312,
				"name": "Negocio emisor",
				"country": {
					"id": 3,
					"name": "España",
					"code": "es"
				},
				"description": "Breve descripción",
				"url": "https://www.google.com",
				"square_picture": "https://woowbe-dev.s3.amazonaws.com/media/pictures/square_picture_FFt2L0e.jpg",
				"widescreen_picture": "https://woowbe-dev.s3.amazonaws.com/media/pictures/1681981633.jpeg",
				"cover": "https://woowbe-dev.s3.amazonaws.com/media/covers/cover_86VzMSq.jpg",
				"sector": {
					"id": 22,
					"name": "Alimentación animal",
					"icon": "https://woowbe-dev.s3.amazonaws.com/media/icons/pets.svg",
					"created": "2021-05-25T11:07:08.658870Z"
				},
				"descriptive_categories": [
					{
						"id": 30,
						"name": "afterwork",
						"owner": null,
						"sector": 4,
						"created": "2021-10-24T10:04:24.581445Z"
					}
				],
				"return_period": 0,
				"dynamic_link": "https://app.dev.woowbe.com/share/r1xU",
				"is_franchisee_of": null,
				"is_favorite": false,
				"created": "2023-03-15T11:08:46.109105Z",
				"offers_count": 0
			},
			"online": false,
			"url": null,
			"position": {
				"type": "Point",
				"coordinates": [
					-0.4115986,
					39.4734707
				]
			},
			"address": "Carrer València",
			"number": "10",
			"postal_code": "46920",
			"state": "Valencia",
			"city": "València",
			"merchants_count": 0,
			"modified": "2023-06-19T10:16:09.770599Z",
			"place_id": "ChIJvfdez3dPYA0Ra2x7Ez_yNAA",
			"formatted_address": "C/ València, 10, 46920 València, Valencia",
			"deleted": false,
			"deleted_at": null,
			"created": "2023-06-19T10:16:09.770599Z",
			"selected_offer": {
				"reward": null,
				"reward_type": null,
				"kind": null,
				"instant": false,
				"name": "",
				"standalone": false,
				"purchases": null,
				"online": false,
				"finish_date": null
			},
			"public_url": null,
			"is_open": false
		},
		{
			"id": 942,
			"business": {
				"id": 236,
				"name": "Yogui QA",
				"country": {
					"id": 3,
					"name": "España",
					"code": "es"
				},
				"description": "Yogui QA es el comercio offline \n\nLorem Ipsum is simply dummy text of the printing and typesetting industry. Lorem Ipsum has been the industry's standard dummy text ever since the 1500s, when an unknown printer took a galley of type and scrambled it to make a type specimen book. It has survived not only five centuries, but also the leap into electronic typesetting, remaining essentially unchanged. It was popularised in the 1960s with the release of Letraset sheets containing Lorem Ipsum passages",
				"url": "https://www.yogui.com",
				"square_picture": "https://woowbe-dev.s3.amazonaws.com/media/pictures/1676631810.jpeg",
				"widescreen_picture": "https://woowbe-dev.s3.amazonaws.com/media/pictures/1665492408_Z9SKuNG.jpeg",
				"cover": "https://woowbe-dev.s3.amazonaws.com/media/covers/cover_HYuhoAb.jpg",
				"sector": {
					"id": 24,
					"name": "Gimnasio",
					"icon": "https://woowbe-dev.s3.amazonaws.com/media/icons/sport.svg",
					"created": "2021-05-25T11:07:47.157431Z"
				},
				"descriptive_categories": [
					{
						"id": 10,
						"name": "Healthy",
						"owner": null,
						"sector": null,
						"created": "2021-10-21T14:33:37.426542Z"
					}
				],
				"return_period": 0,
				"dynamic_link": "https://app.dev.woowbe.com/share/KcyB",
				"is_franchisee_of": null,
				"is_favorite": false,
				"created": "2022-10-11T11:27:09.183229Z",
				"offers_count": 1
			},
			"online": false,
			"url": null,
			"position": {
				"type": "Point",
				"coordinates": [
					-3.603879,
					37.1786742
				]
			},
			"address": "Calle San Juan de Dios",
			"number": "8",
			"postal_code": "18002",
			"state": "Granada",
			"city": "Granada",
			"merchants_count": 0,
			"modified": "2023-05-31T15:22:49.068623Z",
			"place_id": "ChIJ3zAw1Or8cQ0Rg0M9WmFAD1Y",
			"formatted_address": "C/ San Juan de Dios, 8, 18002 Granada",
			"deleted": false,
			"deleted_at": null,
			"created": "2023-05-31T15:22:49.068623Z",
			"selected_offer": {
				"reward": null,
				"reward_type": null,
				"kind": null,
				"instant": false,
				"name": "",
				"standalone": false,
				"purchases": null,
				"online": false,
				"finish_date": null
			},
			"public_url": null,
			"is_open": false
		},
		{
			"id": 941,
			"business": {
				"id": 337,
				"name": "Niubiz",
				"country": {
					"id": 3,
					"name": "España",
					"code": "es"
				},
				"description": "negocio de prueba modelo adquiriencia",
				"url": "http://demo.com",
				"square_picture": "https://woowbe-dev.s3.amazonaws.com/media/pictures/square_picture_QL4OVCY.jpg",
				"widescreen_picture": "https://woowbe-dev.s3.amazonaws.com/media/pictures/1685457967.jpeg",
				"cover": "https://woowbe-dev.s3.amazonaws.com/media/covers/cover_OY7jSZl.jpg",
				"sector": {
					"id": 22,
					"name": "Alimentación animal",
					"icon": "https://woowbe-dev.s3.amazonaws.com/media/icons/pets.svg",
					"created": "2021-05-25T11:07:08.658870Z"
				},
				"descriptive_categories": [],
				"return_period": 0,
				"dynamic_link": "https://app.dev.woowbe.com/share/pcT2",
				"is_franchisee_of": null,
				"is_favorite": false,
				"created": "2023-05-30T14:30:12.814776Z",
				"offers_count": 4
			},
			"online": false,
			"url": null,
			"position": {
				"type": "Point",
				"coordinates": [
					-5.1695668,
					36.6243858
				]
			},
			"address": "Calle Solete",
			"number": "8",
			"postal_code": "29462",
			"state": "Málaga",
			"city": "Júzcar",
			"merchants_count": 0,
			"modified": "2023-05-31T14:31:04.798781Z",
			"place_id": "EiFDYWxsZSBTb2xldGUsIDgsIErDunpjYXIsIEVzcGHDsWEiMBIuChQKEglXsAR_9i4NDRHUHk9H5XjihRAIKhQKEgk__s599i4NDRHRe9HhSss__w",
			"formatted_address": "C. Solete, 8, 29462 Júzcar, Málaga",
			"deleted": false,
			"deleted_at": null,
			"created": "2023-05-31T14:31:04.798781Z",
			"selected_offer": {
				"reward": null,
				"reward_type": null,
				"kind": null,
				"instant": false,
				"name": "",
				"standalone": false,
				"purchases": null,
				"online": false,
				"finish_date": null
			},
			"public_url": null,
			"is_open": false
		},
		{
			"id": 940,
			"business": {
				"id": 337,
				"name": "Niubiz",
				"country": {
					"id": 3,
					"name": "España",
					"code": "es"
				},
				"description": "negocio de prueba modelo adquiriencia",
				"url": "http://demo.com",
				"square_picture": "https://woowbe-dev.s3.amazonaws.com/media/pictures/square_picture_QL4OVCY.jpg",
				"widescreen_picture": "https://woowbe-dev.s3.amazonaws.com/media/pictures/1685457967.jpeg",
				"cover": "https://woowbe-dev.s3.amazonaws.com/media/covers/cover_OY7jSZl.jpg",
				"sector": {
					"id": 22,
					"name": "Alimentación animal",
					"icon": "https://woowbe-dev.s3.amazonaws.com/media/icons/pets.svg",
					"created": "2021-05-25T11:07:08.658870Z"
				},
				"descriptive_categories": [],
				"return_period": 0,
				"dynamic_link": "https://app.dev.woowbe.com/share/pcT2",
				"is_franchisee_of": null,
				"is_favorite": false,
				"created": "2023-05-30T14:30:12.814776Z",
				"offers_count": 4
			},
			"online": false,
			"url": null,
			"position": {
				"type": "Point",
				"coordinates": [
					-5.9362858,
					37.3452394
				]
			},
			"address": "Calle Trajano",
			"number": "8",
			"postal_code": "41089",
			"state": "Sevilla",
			"city": "Dos Hermanas",
			"merchants_count": 0,
			"modified": "2023-05-31T14:29:19.532805Z",
			"place_id": "ChIJ5ZM4GrRvEg0ReichOZ4k_w4",
			"formatted_address": "C. Trajano, 8, 41089 Dos Hermanas, Sevilla",
			"deleted": false,
			"deleted_at": null,
			"created": "2023-05-31T14:29:19.532805Z",
			"selected_offer": {
				"id": 586,
				"reward": "10.00",
				"reward_type": "fixed",
				"kind": "B",
				"instant": false,
				"name": "programa recompensa mayor",
				"standalone": false,
				"purchases": null,
				"online": false,
				"applicable": false,
				"available_percentage": 0.9999970000003,
				"available_rewards": 999997,
				"is_used": false,
				"finish_date": "2023-08-31"
			},
			"public_url": null,
			"is_open": false
		},
		{
			"id": 939,
			"business": {
				"id": 338,
				"name": "Negocio Adquiriencia",
				"country": {
					"id": 3,
					"name": "España",
					"code": "es"
				},
				"description": "Ejemplo",
				"url": "https://google.com",
				"square_picture": "https://woowbe-dev.s3.amazonaws.com/media/pictures/1685522153.jpeg",
				"widescreen_picture": "https://woowbe-dev.s3.amazonaws.com/media/pictures/widescreen_picture_sAk1iMX.jpg",
				"cover": "https://woowbe-dev.s3.amazonaws.com/media/covers/cover_w9oM7Sz.jpg",
				"sector": {
					"id": 28,
					"name": "Alquiler de coches",
					"icon": "https://woowbe-dev.s3.amazonaws.com/media/icons/mobility.svg",
					"created": "2021-05-25T11:10:59.951129Z"
				},
				"descriptive_categories": [
					{
						"id": 30,
						"name": "afterwork",
						"owner": null,
						"sector": 4,
						"created": "2021-10-24T10:04:24.581445Z"
					}
				],
				"return_period": 0,
				"dynamic_link": "https://app.dev.woowbe.com/share/2oNm",
				"is_franchisee_of": null,
				"is_favorite": false,
				"created": "2023-05-31T07:11:32.693154Z",
				"offers_count": 1
			},
			"online": false,
			"url": null,
			"position": {
				"type": "Point",
				"coordinates": [
					-0.4115986,
					39.4734707
				]
			},
			"address": "Carrer València",
			"number": "10",
			"postal_code": "46920",
			"state": "Valencia",
			"city": "València",
			"merchants_count": 0,
			"modified": "2023-05-31T08:35:07.775541Z",
			"place_id": "ChIJvfdez3dPYA0Ra2x7Ez_yNAA",
			"formatted_address": "C/ València, 10, 46920 València, Valencia",
			"deleted": false,
			"deleted_at": null,
			"created": "2023-05-31T08:35:07.775541Z",
			"selected_offer": {
				"id": 582,
				"reward": "5.00",
				"reward_type": "percentage",
				"kind": "A",
				"instant": false,
				"name": "Ejemplo",
				"standalone": false,
				"purchases": null,
				"online": false,
				"applicable": false,
				"available_percentage": 1,
				"available_rewards": null,
				"is_used": false,
				"finish_date": "2023-11-30"
			},
			"public_url": null,
			"is_open": false
		},
		{
			"id": 938,
			"business": {
				"id": 337,
				"name": "Niubiz",
				"country": {
					"id": 3,
					"name": "España",
					"code": "es"
				},
				"description": "negocio de prueba modelo adquiriencia",
				"url": "http://demo.com",
				"square_picture": "https://woowbe-dev.s3.amazonaws.com/media/pictures/square_picture_QL4OVCY.jpg",
				"widescreen_picture": "https://woowbe-dev.s3.amazonaws.com/media/pictures/1685457967.jpeg",
				"cover": "https://woowbe-dev.s3.amazonaws.com/media/covers/cover_OY7jSZl.jpg",
				"sector": {
					"id": 22,
					"name": "Alimentación animal",
					"icon": "https://woowbe-dev.s3.amazonaws.com/media/icons/pets.svg",
					"created": "2021-05-25T11:07:08.658870Z"
				},
				"descriptive_categories": [],
				"return_period": 0,
				"dynamic_link": "https://app.dev.woowbe.com/share/pcT2",
				"is_franchisee_of": null,
				"is_favorite": false,
				"created": "2023-05-30T14:30:12.814776Z",
				"offers_count": 4
			},
			"online": false,
			"url": null,
			"position": {
				"type": "Point",
				"coordinates": [
					-6.1451089,
					36.4236241
				]
			},
			"address": "Calle Soledad",
			"number": "3",
			"postal_code": "11130",
			"state": "Cádiz",
			"city": "Chiclana de la Frontera",
			"merchants_count": 0,
			"modified": "2023-05-30T14:47:09.194426Z",
			"place_id": "ChIJEaSezps0DA0RX2NNFGd427Y",
			"formatted_address": "C. Soledad, 3, 11130 Chiclana de la Frontera, Cádiz",
			"deleted": false,
			"deleted_at": null,
			"created": "2023-05-30T14:47:09.194426Z",
			"selected_offer": {
				"id": 583,
				"reward": "15.00",
				"reward_type": "percentage",
				"kind": "A",
				"instant": false,
				"name": "programa niubiz",
				"standalone": false,
				"purchases": null,
				"online": false,
				"applicable": false,
				"available_percentage": 0.9,
				"available_rewards": null,
				"is_used": false,
				"finish_date": "2023-07-31"
			},
			"public_url": null,
			"is_open": false
		},
		{
			"id": 933,
			"business": {
				"id": 335,
				"name": "Niubizitos",
				"country": {
					"id": 3,
					"name": "España",
					"code": "es"
				},
				"description": "A",
				"url": "http://test.com",
				"square_picture": "https://woowbe-dev.s3.amazonaws.com/media/pictures/square_picture_HQbFtj1.jpg",
				"widescreen_picture": "https://woowbe-dev.s3.amazonaws.com/media/pictures/1683820613.jpeg",
				"cover": "https://woowbe-dev.s3.amazonaws.com/media/covers/cover_ppUTMoX.jpg",
				"sector": {
					"id": 5,
					"name": "Cafetería",
					"icon": "https://woowbe-dev.s3.amazonaws.com/media/icons/toeat.svg",
					"created": "2021-05-25T10:48:41.547333Z"
				},
				"descriptive_categories": [
					{
						"id": 46,
						"name": "americana",
						"owner": null,
						"sector": null,
						"created": "2021-11-29T09:27:36.991965Z"
					}
				],
				"return_period": 0,
				"dynamic_link": "https://app.dev.woowbe.com/share/P5tE",
				"is_franchisee_of": null,
				"is_favorite": false,
				"created": "2023-05-11T15:53:35.937599Z",
				"offers_count": 0
			},
			"online": false,
			"url": null,
			"position": {
				"type": "Point",
				"coordinates": [
					0.1707341,
					38.7153565
				]
			},
			"address": "Calle Pueblo de la Luz",
			"number": "5",
			"postal_code": "03726",
			"state": "Alicante",
			"city": "Benitachell",
			"merchants_count": 0,
			"modified": "2023-05-11T15:57:35.750387Z",
			"place_id": "ChIJ-37UfeoInhIRaKBYnlG7cAE",
			"formatted_address": "C. Pueblo de la Luz, 5, 03726 Benitachell, Alicante",
			"deleted": false,
			"deleted_at": null,
			"created": "2023-05-11T15:57:35.750387Z",
			"selected_offer": {
				"reward": null,
				"reward_type": null,
				"kind": null,
				"instant": false,
				"name": "",
				"standalone": false,
				"purchases": null,
				"online": false,
				"finish_date": null
			},
			"public_url": null,
			"is_open": false
		},
		{
			"id": 932,
			"business": {
				"id": 180,
				"name": "Comercio Pilar",
				"country": {
					"id": 3,
					"name": "España",
					"code": "es"
				},
				"description": "aaaa",
				"url": "https://www.a.com",
				"square_picture": "https://woowbe-dev.s3.amazonaws.com/media/pictures/1673868213.jpeg",
				"widescreen_picture": "https://woowbe-dev.s3.amazonaws.com/media/pictures/1673868214.jpeg",
				"cover": "https://woowbe-dev.s3.amazonaws.com/media/covers/cover_qCWtnT8.jpg",
				"sector": {
					"id": 22,
					"name": "Alimentación animal",
					"icon": "https://woowbe-dev.s3.amazonaws.com/media/icons/pets.svg",
					"created": "2021-05-25T11:07:08.658870Z"
				},
				"descriptive_categories": [
					{
						"id": 30,
						"name": "afterwork",
						"owner": null,
						"sector": 4,
						"created": "2021-10-24T10:04:24.581445Z"
					},
					{
						"id": 67,
						"name": "patata",
						"owner": 177,
						"sector": null,
						"created": "2022-08-22T13:01:31.983340Z"
					}
				],
				"return_period": 0,
				"dynamic_link": "https://app.dev.woowbe.com/share/M3iG",
				"is_franchisee_of": null,
				"is_favorite": false,
				"created": "2022-08-17T12:52:39.491942Z",
				"offers_count": 0
			},
			"online": false,
			"url": null,
			"position": {
				"type": "Point",
				"coordinates": [
					-5.8541185,
					43.3620978
				]
			},
			"address": "Calle Asturias",
			"number": "5",
			"postal_code": "33004",
			"state": "Asturias",
			"city": "Oviedo",
			"merchants_count": 0,
			"modified": "2023-05-11T06:43:25.626259Z",
			"place_id": "ChIJ_Qqh3uKMNg0R0jqQOzd30R0",
			"formatted_address": "C. Asturias, 5, 33004 Oviedo, Asturias",
			"deleted": false,
			"deleted_at": null,
			"created": "2023-05-11T06:43:25.626259Z",
			"selected_offer": {
				"reward": null,
				"reward_type": null,
				"kind": null,
				"instant": false,
				"name": "",
				"standalone": false,
				"purchases": null,
				"online": false,
				"finish_date": null
			},
			"public_url": null,
			"is_open": false
		},
		{
			"id": 928,
			"business": {
				"id": 184,
				"name": "Floristeria MariPepis QA",
				"country": {
					"id": 3,
					"name": "España",
					"code": "es"
				},
				"description": "Floristeria con todo tipo de flores.",
				"url": "http://www.floristeriamaripepis.com",
				"square_picture": "https://woowbe-dev.s3.amazonaws.com/media/pictures/square_picture_wRtqmQ7.jpg",
				"widescreen_picture": "https://woowbe-dev.s3.amazonaws.com/media/pictures/1662040876.jpeg",
				"cover": "https://woowbe-dev.s3.amazonaws.com/media/covers/cover_J8HYh2d.jpg",
				"sector": {
					"id": 42,
					"name": "Floristerias",
					"icon": null,
					"created": "2022-09-01T14:00:20.722960Z"
				},
				"descriptive_categories": [
					{
						"id": 70,
						"name": "flores",
						"owner": null,
						"sector": 42,
						"created": "2022-09-01T14:00:58.674922Z"
					}
				],
				"return_period": 0,
				"dynamic_link": "https://app.dev.woowbe.com/share/duMz",
				"is_franchisee_of": null,
				"is_favorite": false,
				"created": "2022-09-01T13:51:53.835339Z",
				"offers_count": 1
			},
			"online": false,
			"url": null,
			"position": {
				"type": "Point",
				"coordinates": [
					-4.7741962,
					37.8659055
				]
			},
			"address": "Calle Torremolinos",
			"number": "5",
			"postal_code": "14013",
			"state": "Córdoba",
			"city": "Córdoba",
			"merchants_count": 0,
			"modified": "2023-04-17T09:15:49.198178Z",
			"place_id": "ChIJY4mt_4sgbQ0Rh-H4VhyQH0k",
			"formatted_address": "C. Torremolinos, 5, 14013 Córdoba",
			"deleted": false,
			"deleted_at": null,
			"created": "2023-04-17T09:15:49.198178Z",
			"selected_offer": {
				"reward": null,
				"reward_type": null,
				"kind": null,
				"instant": false,
				"name": "",
				"standalone": false,
				"purchases": null,
				"online": false,
				"finish_date": null
			},
			"public_url": null,
			"is_open": false
		},
		{
			"id": 927,
			"business": {
				"id": 250,
				"name": "Adidas recompensas",
				"country": {
					"id": 3,
					"name": "España",
					"code": "es"
				},
				"description": "Adidas recompensas afiliacion woowbe",
				"url": "https://www.adidas.com/",
				"square_picture": "https://woowbe-dev.s3.amazonaws.com/media/pictures/1669197061.jpeg",
				"widescreen_picture": "https://woowbe-dev.s3.amazonaws.com/media/pictures/1669197061_zhy3On1.jpeg",
				"cover": "https://woowbe-dev.s3.amazonaws.com/media/covers/cover_9sJ34Vw.jpg",
				"sector": {
					"id": 18,
					"name": "Ecommerce",
					"icon": "https://woowbe-dev.s3.amazonaws.com/media/icons/others_cI0jsgH.svg",
					"created": "2021-05-25T11:05:05.368820Z"
				},
				"descriptive_categories": [
					{
						"id": 87,
						"name": "adidas",
						"owner": 248,
						"sector": null,
						"created": "2022-11-15T16:16:47.536980Z"
					}
				],
				"return_period": 3,
				"dynamic_link": "https://app.dev.woowbe.com/share/tPUM",
				"is_franchisee_of": null,
				"is_favorite": false,
				"created": "2022-11-23T09:45:33.664832Z",
				"offers_count": 1
			},
			"online": true,
			"url": "https://www.adidas.com",
			"position": null,
			"address": null,
			"number": null,
			"postal_code": null,
			"state": null,
			"city": null,
			"merchants_count": 0,
			"modified": "2023-04-11T13:35:10.983690Z",
			"place_id": null,
			"formatted_address": "",
			"deleted": false,
			"deleted_at": null,
			"created": "2023-04-11T13:35:10.983690Z",
			"selected_offer": {
				"id": 567,
				"reward": "5.00",
				"reward_type": "percentage",
				"kind": "A",
				"instant": false,
				"name": "programa online",
				"standalone": false,
				"purchases": null,
				"online": true,
				"applicable": false,
				"available_percentage": 0.995,
				"available_rewards": null,
				"is_used": false,
				"finish_date": "2023-09-10"
			},
			"public_url": "www.adidas.com",
			"is_open": false
		}
	]
}
