{
	"count": 579,
	"next": "https://backend.dev.woowbe.com/api/v1/points_of_sales/public/?page=11",
	"previous": "https://backend.dev.woowbe.com/api/v1/points_of_sales/public/?page=9",
	"results": [
		{
			"id": 748,
			"business": {
				"id": 12,
				"name": "Scalpers",
				"country": {
					"id": 3,
					"name": "España",
					"code": "es"
				},
				"description": "Scalpers es tu tienda de ropa online si buscas las últimas tendencias en moda para hombre, mujer y niño.\n¡Descubre la nueva colección online de Scalpers!",
				"url": "https://www.scalpers.com",
				"square_picture": "https://woowbe-dev.s3.amazonaws.com/media/pictures/square_picture_z5KHodR.jpg",
				"widescreen_picture": "https://woowbe-dev.s3.amazonaws.com/media/pictures/1664288041.jpeg",
				"cover": "https://woowbe-dev.s3.amazonaws.com/media/covers/cover_71arDkc.jpg",
				"sector": {
					"id": 43,
					"name": "Tienda de ropa",
					"icon": "https://woowbe-dev.s3.amazonaws.com/media/icons/fashion.svg",
					"created": "2022-09-27T14:17:28.722813Z"
				},
				"descriptive_categories": [
					{
						"id": 80,
						"name": "estilo",
						"owner": null,
						"sector": 43,
						"created": "2022-09-27T14:18:12.393840Z"
					},
					{
						"id": 79,
						"name": "moda",
						"owner": 12,
						"sector": null,
						"created": "2022-09-27T14:18:03.512523Z"
					},
					{
						"id": 78,
						"name": "ropa",
						"owner": null,
						"sector": 43,
						"created": "2022-09-27T14:17:59.578804Z"
					},
					{
						"id": 77,
						"name": "ropa hombre",
						"owner": 12,
						"sector": null,
						"created": "2022-09-27T14:17:51.818605Z"
					},
					{
						"id": 81,
						"name": "ropa mujer",
						"owner": 12,
						"sector": null,
						"created": "2022-09-27T14:18:16.628726Z"
					},
					{
						"id": 82,
						"name": "ropa niños",
						"owner": 12,
						"sector": null,
						"created": "2022-09-27T14:18:21.910520Z"
					}
				],
				"return_period": 30,
				"dynamic_link": "https://app.dev.woowbe.com/share/jdF1",
				"is_franchisee_of": null,
				"is_favorite": false,
				"created": "2021-06-10T09:23:04.551544Z",
				"offers_count": 0
			},
			"online": false,
			"url": null,
			"position": {
				"type": "Point",
				"coordinates": [
					-3.7105118,
					40.4304536
				]
			},
			"address": "Castellana",
			"number": "48",
			"postal_code": "28015",
			"state": "",
			"city": "",
			"merchants_count": 0,
			"modified": "2023-03-17T08:01:11.721695Z",
			"place_id": null,
			"formatted_address": "Castellana, 48",
			"deleted": false,
			"deleted_at": null,
			"created": "2022-12-13T08:09:34.263100Z",
			"selected_offer": {
				"reward": null,
				"reward_type": null,
				"kind": null,
				"instant": false,
				"name": "",
				"standalone": false,
				"purchases": null,
				"online": false,
				"finish_date": null
			},
			"public_url": null,
			"is_open": false
		},
		{
			"id": 747,
			"business": {
				"id": 12,
				"name": "Scalpers",
				"country": {
					"id": 3,
					"name": "España",
					"code": "es"
				},
				"description": "Scalpers es tu tienda de ropa online si buscas las últimas tendencias en moda para hombre, mujer y niño.\n¡Descubre la nueva colección online de Scalpers!",
				"url": "https://www.scalpers.com",
				"square_picture": "https://woowbe-dev.s3.amazonaws.com/media/pictures/square_picture_z5KHodR.jpg",
				"widescreen_picture": "https://woowbe-dev.s3.amazonaws.com/media/pictures/1664288041.jpeg",
				"cover": "https://woowbe-dev.s3.amazonaws.com/media/covers/cover_71arDkc.jpg",
				"sector": {
					"id": 43,
					"name": "Tienda de ropa",
					"icon": "https://woowbe-dev.s3.amazonaws.com/media/icons/fashion.svg",
					"created": "2022-09-27T14:17:28.722813Z"
				},
				"descriptive_categories": [
					{
						"id": 80,
						"name": "estilo",
						"owner": null,
						"sector": 43,
						"created": "2022-09-27T14:18:12.393840Z"
					},
					{
						"id": 79,
						"name": "moda",
						"owner": 12,
						"sector": null,
						"created": "2022-09-27T14:18:03.512523Z"
					},
					{
						"id": 78,
						"name": "ropa",
						"owner": null,
						"sector": 43,
						"created": "2022-09-27T14:17:59.578804Z"
					},
					{
						"id": 77,
						"name": "ropa hombre",
						"owner": 12,
						"sector": null,
						"created": "2022-09-27T14:17:51.818605Z"
					},
					{
						"id": 81,
						"name": "ropa mujer",
						"owner": 12,
						"sector": null,
						"created": "2022-09-27T14:18:16.628726Z"
					},
					{
						"id": 82,
						"name": "ropa niños",
						"owner": 12,
						"sector": null,
						"created": "2022-09-27T14:18:21.910520Z"
					}
				],
				"return_period": 30,
				"dynamic_link": "https://app.dev.woowbe.com/share/jdF1",
				"is_franchisee_of": null,
				"is_favorite": false,
				"created": "2021-06-10T09:23:04.551544Z",
				"offers_count": 0
			},
			"online": false,
			"url": null,
			"position": {
				"type": "Point",
				"coordinates": [
					-3.7043675,
					40.4203771
				]
			},
			"address": "Gran via",
			"number": "36",
			"postal_code": "28009",
			"state": "",
			"city": "",
			"merchants_count": 0,
			"modified": "2023-03-17T08:01:11.805259Z",
			"place_id": null,
			"formatted_address": "Gran via, 36",
			"deleted": false,
			"deleted_at": null,
			"created": "2022-12-13T08:09:34.090055Z",
			"selected_offer": {
				"reward": null,
				"reward_type": null,
				"kind": null,
				"instant": false,
				"name": "",
				"standalone": false,
				"purchases": null,
				"online": false,
				"finish_date": null
			},
			"public_url": null,
			"is_open": false
		},
		{
			"id": 745,
			"business": {
				"id": 248,
				"name": "Adidas",
				"country": {
					"id": 3,
					"name": "España",
					"code": "es"
				},
				"description": "El 18 de agosto de 1949, Adi Dassler fundó adidas con el deseo de ayudar a mejorar el rendimiento de los deportistas. Setenta años después, adidas no solo ha dejado huella en el deporte y en los atletas, sino también en la moda, la cultura, la sostenibilidad y en muchos otros ámbitos. Acompáñanos en un viaje en el tiempo y descubre la historia de adidas y los estilos que han influido en nuestras vidas hasta hoy.",
				"url": "https://www.adidas.com",
				"square_picture": "https://woowbe-dev.s3.amazonaws.com/media/pictures/square_picture_mk5CEIv.jpg",
				"widescreen_picture": "https://woowbe-dev.s3.amazonaws.com/media/pictures/1668529037.jpeg",
				"cover": "https://woowbe-dev.s3.amazonaws.com/media/covers/cover_RYgACZk.jpg",
				"sector": {
					"id": 10,
					"name": "Tienda de deporte",
					"icon": null,
					"created": "2021-05-25T11:00:54.849631Z"
				},
				"descriptive_categories": [
					{
						"id": 87,
						"name": "adidas",
						"owner": 248,
						"sector": null,
						"created": "2022-11-15T16:16:47.536980Z"
					},
					{
						"id": 89,
						"name": "clothes",
						"owner": 248,
						"sector": null,
						"created": "2022-11-15T16:17:02.079185Z"
					},
					{
						"id": 88,
						"name": "shoes",
						"owner": 248,
						"sector": null,
						"created": "2022-11-15T16:16:55.033952Z"
					},
					{
						"id": 86,
						"name": "sport",
						"owner": 248,
						"sector": null,
						"created": "2022-11-15T16:16:40.903353Z"
					}
				],
				"return_period": 5,
				"dynamic_link": "https://app.dev.woowbe.com/share/ej5S",
				"is_franchisee_of": null,
				"is_favorite": false,
				"created": "2022-11-15T16:08:43.337659Z",
				"offers_count": 0
			},
			"online": true,
			"url": "http://www.adidas.mx",
			"position": null,
			"address": null,
			"number": null,
			"postal_code": null,
			"state": null,
			"city": null,
			"merchants_count": 0,
			"modified": "2023-03-17T08:01:11.815719Z",
			"place_id": null,
			"formatted_address": "",
			"deleted": false,
			"deleted_at": null,
			"created": "2022-12-05T10:08:37.504730Z",
			"selected_offer": {
				"reward": null,
				"reward_type": null,
				"kind": null,
				"instant": false,
				"name": "",
				"standalone": false,
				"purchases": null,
				"online": false,
				"finish_date": null
			},
			"public_url": "www.adidas.mx",
			"is_open": false
		},
		{
			"id": 744,
			"business": {
				"id": 252,
				"name": "Cosméticos QA Franquiciado",
				"country": {
					"id": 3,
					"name": "España",
					"code": "es"
				},
				"description": "Cosméticos QA descripcion\nadfalsjkfladskjfdas\nhasfasjdfkljasdlkfjasldkfjlsadkfjlsadkjflaskjflsakdjflaskjflsadkjf",
				"url": "https://cosmeticosqa.com",
				"square_picture": "https://woowbe-dev.s3.amazonaws.com/media/pictures/1669720371.jpeg",
				"widescreen_picture": "https://woowbe-dev.s3.amazonaws.com/media/pictures/1669720371_Aga8oWX.jpeg",
				"cover": "https://woowbe-dev.s3.amazonaws.com/media/covers/cover_PNbDalT.jpg",
				"sector": {
					"id": 44,
					"name": "Belleza",
					"icon": "https://woowbe-dev.s3.amazonaws.com/media/icons/beauty.svg",
					"created": "2022-10-06T15:45:50.584206Z"
				},
				"descriptive_categories": [
					{
						"id": 43,
						"name": "barba",
						"owner": null,
						"sector": null,
						"created": "2021-10-26T07:38:43.587103Z"
					},
					{
						"id": 26,
						"name": "detox",
						"owner": null,
						"sector": null,
						"created": "2021-10-23T08:39:01.453615Z"
					},
					{
						"id": 80,
						"name": "estilo",
						"owner": null,
						"sector": 43,
						"created": "2022-09-27T14:18:12.393840Z"
					},
					{
						"id": 42,
						"name": "pelo",
						"owner": null,
						"sector": 44,
						"created": "2021-10-25T13:02:49.420892Z"
					}
				],
				"return_period": 0,
				"dynamic_link": "https://app.dev.woowbe.com/share/bM5B",
				"is_franchisee_of": null,
				"is_favorite": false,
				"created": "2022-11-29T11:09:41.636655Z",
				"offers_count": 0
			},
			"online": false,
			"url": null,
			"position": {
				"type": "Point",
				"coordinates": [
					-6.3306454,
					38.9309659
				]
			},
			"address": "Calle San Lucas",
			"number": "96",
			"postal_code": "06800",
			"state": "Badajoz",
			"city": "Mérida",
			"merchants_count": 0,
			"modified": "2023-03-17T08:01:12.003071Z",
			"place_id": "ChIJ4dzHKoUmFA0R3U79F_h9RbU",
			"formatted_address": "C. San Lucas, 96, 06800 Mérida, Badajoz",
			"deleted": false,
			"deleted_at": null,
			"created": "2022-11-29T11:14:45.050900Z",
			"selected_offer": {
				"reward": null,
				"reward_type": null,
				"kind": null,
				"instant": false,
				"name": "",
				"standalone": false,
				"purchases": null,
				"online": false,
				"finish_date": null
			},
			"public_url": null,
			"is_open": false
		},
		{
			"id": 743,
			"business": {
				"id": 252,
				"name": "Cosméticos QA Franquiciado",
				"country": {
					"id": 3,
					"name": "España",
					"code": "es"
				},
				"description": "Cosméticos QA descripcion\nadfalsjkfladskjfdas\nhasfasjdfkljasdlkfjasldkfjlsadkfjlsadkjflaskjflsakdjflaskjflsadkjf",
				"url": "https://cosmeticosqa.com",
				"square_picture": "https://woowbe-dev.s3.amazonaws.com/media/pictures/1669720371.jpeg",
				"widescreen_picture": "https://woowbe-dev.s3.amazonaws.com/media/pictures/1669720371_Aga8oWX.jpeg",
				"cover": "https://woowbe-dev.s3.amazonaws.com/media/covers/cover_PNbDalT.jpg",
				"sector": {
					"id": 44,
					"name": "Belleza",
					"icon": "https://woowbe-dev.s3.amazonaws.com/media/icons/beauty.svg",
					"created": "2022-10-06T15:45:50.584206Z"
				},
				"descriptive_categories": [
					{
						"id": 43,
						"name": "barba",
						"owner": null,
						"sector": null,
						"created": "2021-10-26T07:38:43.587103Z"
					},
					{
						"id": 26,
						"name": "detox",
						"owner": null,
						"sector": null,
						"created": "2021-10-23T08:39:01.453615Z"
					},
					{
						"id": 80,
						"name": "estilo",
						"owner": null,
						"sector": 43,
						"created": "2022-09-27T14:18:12.393840Z"
					},
					{
						"id": 42,
						"name": "pelo",
						"owner": null,
						"sector": 44,
						"created": "2021-10-25T13:02:49.420892Z"
					}
				],
				"return_period": 0,
				"dynamic_link": "https://app.dev.woowbe.com/share/bM5B",
				"is_franchisee_of": null,
				"is_favorite": false,
				"created": "2022-11-29T11:09:41.636655Z",
				"offers_count": 0
			},
			"online": false,
			"url": null,
			"position": {
				"type": "Point",
				"coordinates": [
					-3.6871661,
					40.42809889999999
				]
			},
			"address": "Calle de Serrano",
			"number": "54",
			"postal_code": "28001",
			"state": "Madrid",
			"city": "Madrid",
			"merchants_count": 0,
			"modified": "2023-03-17T08:01:12.709563Z",
			"place_id": "ChIJuQrHr5YoQg0Rq8KpP8mb5lA",
			"formatted_address": "C. de Serrano, 54, 28001 Madrid",
			"deleted": false,
			"deleted_at": null,
			"created": "2022-11-29T11:14:20.901710Z",
			"selected_offer": {
				"reward": null,
				"reward_type": null,
				"kind": null,
				"instant": false,
				"name": "",
				"standalone": false,
				"purchases": null,
				"online": false,
				"finish_date": null
			},
			"public_url": null,
			"is_open": false
		},
		{
			"id": 742,
			"business": {
				"id": 251,
				"name": "Starbucks",
				"country": {
					"id": 3,
					"name": "España",
					"code": "es"
				},
				"description": "Disfruta tu experiencia Starbucks® donde quieras. ¿Eres más de café, de smoothie, de latte o de Frappuccino®? ¡No esperes más y pide Starbucks a domicilio o para llevar!\n\nEn Starbucks queremos estar cerca de ti y por eso te llevamos tus productos favoritos y tu café Starbucks® a domicilio. \n\n¡Empieza a disfrutar de todos nuestros productos Starbucks® donde quieras!",
				"url": "https://www.starbucks.es/",
				"square_picture": "https://woowbe-dev.s3.amazonaws.com/media/pictures/square_picture_ZWnzePl.jpg",
				"widescreen_picture": "https://woowbe-dev.s3.amazonaws.com/media/pictures/1669300395.jpeg",
				"cover": "https://woowbe-dev.s3.amazonaws.com/media/covers/cover_W8n00mn.jpg",
				"sector": {
					"id": 5,
					"name": "Cafetería",
					"icon": "https://woowbe-dev.s3.amazonaws.com/media/icons/toeat.svg",
					"created": "2021-05-25T10:48:41.547333Z"
				},
				"descriptive_categories": [
					{
						"id": 92,
						"name": "Cafés",
						"owner": 251,
						"sector": null,
						"created": "2022-11-24T14:33:04.883825Z"
					},
					{
						"id": 91,
						"name": "Frappuccino",
						"owner": 251,
						"sector": null,
						"created": "2022-11-24T14:32:50.194186Z"
					},
					{
						"id": 93,
						"name": "Muffins",
						"owner": 251,
						"sector": null,
						"created": "2022-11-24T14:33:13.206404Z"
					}
				],
				"return_period": 0,
				"dynamic_link": "https://app.dev.woowbe.com/share/jSqv",
				"is_franchisee_of": null,
				"is_favorite": false,
				"created": "2022-11-24T14:17:30.242011Z",
				"offers_count": 0
			},
			"online": false,
			"url": null,
			"position": {
				"type": "Point",
				"coordinates": [
					-100.3154988,
					25.6659039
				]
			},
			"address": "Melchor Ocampo",
			"number": "108",
			"postal_code": "64620",
			"state": "",
			"city": "Monterrey",
			"merchants_count": 0,
			"modified": "2023-03-17T08:01:13.512558Z",
			"place_id": "ChIJIViynC--YoYR8x9VKGe4s_w",
			"formatted_address": "Melchor Ocampo 108, Centro, 64620 Monterrey, N.L.",
			"deleted": false,
			"deleted_at": null,
			"created": "2022-11-24T14:54:51.432154Z",
			"selected_offer": {
				"reward": null,
				"reward_type": null,
				"kind": null,
				"instant": false,
				"name": "",
				"standalone": false,
				"purchases": null,
				"online": false,
				"finish_date": null
			},
			"public_url": null,
			"is_open": false
		},
		{
			"id": 741,
			"business": {
				"id": 251,
				"name": "Starbucks",
				"country": {
					"id": 3,
					"name": "España",
					"code": "es"
				},
				"description": "Disfruta tu experiencia Starbucks® donde quieras. ¿Eres más de café, de smoothie, de latte o de Frappuccino®? ¡No esperes más y pide Starbucks a domicilio o para llevar!\n\nEn Starbucks queremos estar cerca de ti y por eso te llevamos tus productos favoritos y tu café Starbucks® a domicilio. \n\n¡Empieza a disfrutar de todos nuestros productos Starbucks® donde quieras!",
				"url": "https://www.starbucks.es/",
				"square_picture": "https://woowbe-dev.s3.amazonaws.com/media/pictures/square_picture_ZWnzePl.jpg",
				"widescreen_picture": "https://woowbe-dev.s3.amazonaws.com/media/pictures/1669300395.jpeg",
				"cover": "https://woowbe-dev.s3.amazonaws.com/media/covers/cover_W8n00mn.jpg",
				"sector": {
					"id": 5,
					"name": "Cafetería",
					"icon": "https://woowbe-dev.s3.amazonaws.com/media/icons/toeat.svg",
					"created": "2021-05-25T10:48:41.547333Z"
				},
				"descriptive_categories": [
					{
						"id": 92,
						"name": "Cafés",
						"owner": 251,
						"sector": null,
						"created": "2022-11-24T14:33:04.883825Z"
					},
					{
						"id": 91,
						"name": "Frappuccino",
						"owner": 251,
						"sector": null,
						"created": "2022-11-24T14:32:50.194186Z"
					},
					{
						"id": 93,
						"name": "Muffins",
						"owner": 251,
						"sector": null,
						"created": "2022-11-24T14:33:13.206404Z"
					}
				],
				"return_period": 0,
				"dynamic_link": "https://app.dev.woowbe.com/share/jSqv",
				"is_franchisee_of": null,
				"is_favorite": false,
				"created": "2022-11-24T14:17:30.242011Z",
				"offers_count": 0
			},
			"online": false,
			"url": null,
			"position": {
				"type": "Point",
				"coordinates": [
					-99.15482620000002,
					19.4105174
				]
			},
			"address": "Avenida Cuauhtémoc",
			"number": "462",
			"postal_code": "06720",
			"state": "",
			"city": "Ciudad de México",
			"merchants_count": 0,
			"modified": "2023-03-17T08:01:13.717509Z",
			"place_id": "Ej9Bdi4gQ3VhdWh0w6ltb2MgNDYyLCBEb2N0b3JlcywgQ2l1ZGFkIGRlIE3DqXhpY28sIENETVgsIE3DqXhpY28iMRIvChQKEglDLy7sIv_RhREn1vKJCCjpDBDOAyoUChIJx4NXvw__0YUR8F2xUA4QyuM",
			"formatted_address": "Av. Cuauhtémoc 462, Doctores, Cuauhtémoc, 06720 Ciudad de México, CDMX",
			"deleted": false,
			"deleted_at": null,
			"created": "2022-11-24T14:53:38.098402Z",
			"selected_offer": {
				"reward": null,
				"reward_type": null,
				"kind": null,
				"instant": false,
				"name": "",
				"standalone": false,
				"purchases": null,
				"online": false,
				"finish_date": null
			},
			"public_url": null,
			"is_open": false
		},
		{
			"id": 740,
			"business": {
				"id": 251,
				"name": "Starbucks",
				"country": {
					"id": 3,
					"name": "España",
					"code": "es"
				},
				"description": "Disfruta tu experiencia Starbucks® donde quieras. ¿Eres más de café, de smoothie, de latte o de Frappuccino®? ¡No esperes más y pide Starbucks a domicilio o para llevar!\n\nEn Starbucks queremos estar cerca de ti y por eso te llevamos tus productos favoritos y tu café Starbucks® a domicilio. \n\n¡Empieza a disfrutar de todos nuestros productos Starbucks® donde quieras!",
				"url": "https://www.starbucks.es/",
				"square_picture": "https://woowbe-dev.s3.amazonaws.com/media/pictures/square_picture_ZWnzePl.jpg",
				"widescreen_picture": "https://woowbe-dev.s3.amazonaws.com/media/pictures/1669300395.jpeg",
				"cover": "https://woowbe-dev.s3.amazonaws.com/media/covers/cover_W8n00mn.jpg",
				"sector": {
					"id": 5,
					"name": "Cafetería",
					"icon": "https://woowbe-dev.s3.amazonaws.com/media/icons/toeat.svg",
					"created": "2021-05-25T10:48:41.547333Z"
				},
				"descriptive_categories": [
					{
						"id": 92,
						"name": "Cafés",
						"owner": 251,
						"sector": null,
						"created": "2022-11-24T14:33:04.883825Z"
					},
					{
						"id": 91,
						"name": "Frappuccino",
						"owner": 251,
						"sector": null,
						"created": "2022-11-24T14:32:50.194186Z"
					},
					{
						"id": 93,
						"name": "Muffins",
						"owner": 251,
						"sector": null,
						"created": "2022-11-24T14:33:13.206404Z"
					}
				],
				"return_period": 0,
				"dynamic_link": "https://app.dev.woowbe.com/share/jSqv",
				"is_franchisee_of": null,
				"is_favorite": false,
				"created": "2022-11-24T14:17:30.242011Z",
				"offers_count": 0
			},
			"online": false,
			"url": null,
			"position": {
				"type": "Point",
				"coordinates": [
					-99.1235987,
					19.3025033
				]
			},
			"address": "Calzada del Hueso",
			"number": "519",
			"postal_code": "14300",
			"state": "",
			"city": "Ciudad de México",
			"merchants_count": 0,
			"modified": "2023-03-17T08:01:13.770348Z",
			"place_id": "ChIJd0PLdZgBzoURzKJVKwC3KLs",
			"formatted_address": "Calz. del Hueso 519, Coapa, Residencial Miramontes, Tlalpan, 14300 Ciudad de México, CDMX",
			"deleted": false,
			"deleted_at": null,
			"created": "2022-11-24T14:52:54.403884Z",
			"selected_offer": {
				"reward": null,
				"reward_type": null,
				"kind": null,
				"instant": false,
				"name": "",
				"standalone": false,
				"purchases": null,
				"online": false,
				"finish_date": null
			},
			"public_url": null,
			"is_open": false
		},
		{
			"id": 739,
			"business": {
				"id": 251,
				"name": "Starbucks",
				"country": {
					"id": 3,
					"name": "España",
					"code": "es"
				},
				"description": "Disfruta tu experiencia Starbucks® donde quieras. ¿Eres más de café, de smoothie, de latte o de Frappuccino®? ¡No esperes más y pide Starbucks a domicilio o para llevar!\n\nEn Starbucks queremos estar cerca de ti y por eso te llevamos tus productos favoritos y tu café Starbucks® a domicilio. \n\n¡Empieza a disfrutar de todos nuestros productos Starbucks® donde quieras!",
				"url": "https://www.starbucks.es/",
				"square_picture": "https://woowbe-dev.s3.amazonaws.com/media/pictures/square_picture_ZWnzePl.jpg",
				"widescreen_picture": "https://woowbe-dev.s3.amazonaws.com/media/pictures/1669300395.jpeg",
				"cover": "https://woowbe-dev.s3.amazonaws.com/media/covers/cover_W8n00mn.jpg",
				"sector": {
					"id": 5,
					"name": "Cafetería",
					"icon": "https://woowbe-dev.s3.amazonaws.com/media/icons/toeat.svg",
					"created": "2021-05-25T10:48:41.547333Z"
				},
				"descriptive_categories": [
					{
						"id": 92,
						"name": "Cafés",
						"owner": 251,
						"sector": null,
						"created": "2022-11-24T14:33:04.883825Z"
					},
					{
						"id": 91,
						"name": "Frappuccino",
						"owner": 251,
						"sector": null,
						"created": "2022-11-24T14:32:50.194186Z"
					},
					{
						"id": 93,
						"name": "Muffins",
						"owner": 251,
						"sector": null,
						"created": "2022-11-24T14:33:13.206404Z"
					}
				],
				"return_period": 0,
				"dynamic_link": "https://app.dev.woowbe.com/share/jSqv",
				"is_franchisee_of": null,
				"is_favorite": false,
				"created": "2022-11-24T14:17:30.242011Z",
				"offers_count": 0
			},
			"online": false,
			"url": null,
			"position": {
				"type": "Point",
				"coordinates": [
					-99.178178,
					19.4239568
				]
			},
			"address": "Calzada General Mariano Escobedo",
			"number": "10",
			"postal_code": "11590",
			"state": "",
			"city": "Ciudad de México",
			"merchants_count": 0,
			"modified": "2023-03-17T08:01:13.839439Z",
			"place_id": "EkpDYWx6LiBHcmFsLiBNYXJpYW5vIEVzY29iZWRvIDEwLCBBbnp1cmVzLCBDaXVkYWQgZGUgTcOpeGljbywgQ0RNWCwgTcOpeGljbyIwEi4KFAoSCX9ozRlO_9GFEe8G6RdAlDKQEAoqFAoSCYl7i7Kv-NGFEQallJPDfxwP",
			"formatted_address": "Calz. Gral. Mariano Escobedo 10, Polanco, Anzures, Miguel Hidalgo, 11590 Ciudad de México, CDMX",
			"deleted": false,
			"deleted_at": null,
			"created": "2022-11-24T14:51:53.015551Z",
			"selected_offer": {
				"reward": null,
				"reward_type": null,
				"kind": null,
				"instant": false,
				"name": "",
				"standalone": false,
				"purchases": null,
				"online": false,
				"finish_date": null
			},
			"public_url": null,
			"is_open": false
		},
		{
			"id": 738,
			"business": {
				"id": 251,
				"name": "Starbucks",
				"country": {
					"id": 3,
					"name": "España",
					"code": "es"
				},
				"description": "Disfruta tu experiencia Starbucks® donde quieras. ¿Eres más de café, de smoothie, de latte o de Frappuccino®? ¡No esperes más y pide Starbucks a domicilio o para llevar!\n\nEn Starbucks queremos estar cerca de ti y por eso te llevamos tus productos favoritos y tu café Starbucks® a domicilio. \n\n¡Empieza a disfrutar de todos nuestros productos Starbucks® donde quieras!",
				"url": "https://www.starbucks.es/",
				"square_picture": "https://woowbe-dev.s3.amazonaws.com/media/pictures/square_picture_ZWnzePl.jpg",
				"widescreen_picture": "https://woowbe-dev.s3.amazonaws.com/media/pictures/1669300395.jpeg",
				"cover": "https://woowbe-dev.s3.amazonaws.com/media/covers/cover_W8n00mn.jpg",
				"sector": {
					"id": 5,
					"name": "Cafetería",
					"icon": "https://woowbe-dev.s3.amazonaws.com/media/icons/toeat.svg",
					"created": "2021-05-25T10:48:41.547333Z"
				},
				"descriptive_categories": [
					{
						"id": 92,
						"name": "Cafés",
						"owner": 251,
						"sector": null,
						"created": "2022-11-24T14:33:04.883825Z"
					},
					{
						"id": 91,
						"name": "Frappuccino",
						"owner": 251,
						"sector": null,
						"created": "2022-11-24T14:32:50.194186Z"
					},
					{
						"id": 93,
						"name": "Muffins",
						"owner": 251,
						"sector": null,
						"created": "2022-11-24T14:33:13.206404Z"
					}
				],
				"return_period": 0,
				"dynamic_link": "https://app.dev.woowbe.com/share/jSqv",
				"is_franchisee_of": null,
				"is_favorite": false,
				"created": "2022-11-24T14:17:30.242011Z",
				"offers_count": 0
			},
			"online": false,
			"url": null,
			"position": {
				"type": "Point",
				"coordinates": [
					-99.1332496,
					19.4311173
				]
			},
			"address": "Calle de Venustiano Carranza",
			"number": "92",
			"postal_code": "06060",
			"state": "",
			"city": "Ciudad de México",
			"merchants_count": 0,
			"modified": "2023-03-17T08:01:13.899196Z",
			"place_id": "ChIJ__Wscs3-0YURDB66l8oNYFc",
			"formatted_address": "C. de Venustiano Carranza 92, Centro Histórico de la Cdad. de México, Centro, Cuauhtémoc, 06060 Ciudad de México, CDMX",
			"deleted": false,
			"deleted_at": null,
			"created": "2022-11-24T14:51:11.879227Z",
			"selected_offer": {
				"reward": null,
				"reward_type": null,
				"kind": null,
				"instant": false,
				"name": "",
				"standalone": false,
				"purchases": null,
				"online": false,
				"finish_date": null
			},
			"public_url": null,
			"is_open": false
		}
	]
}
