{
	"count": 579,
	"next": "https://backend.dev.woowbe.com/api/v1/points_of_sales/public/?page=17",
	"previous": "https://backend.dev.woowbe.com/api/v1/points_of_sales/public/?page=15",
	"results": [
		{
			"id": 638,
			"business": {
				"id": 126,
				"name": "Kilómetros de Pizza",
				"country": null,
				"description": "¡Las pizzas campeonas del mundo por fin en tu ciudad!\r\nDespués de 7 años, más de 3 millones de clientes satisfechos, 8 restaurantes propios y mucho, mucho aprendido… estamos preparados para desembarcar contigo en tu ciudad. Si quieres triunfar con un concepto único en el mundo y obtener estupendas rentabilidades esta es tu oportunidad. Si compartes la filosofía “el ojo del amo, engorda el caballo” te acompañaremos al éxito de principio a fin.",
				"url": "https://kilometrosdepizza.com/",
				"square_picture": "https://woowbe-dev.s3.amazonaws.com/media/pictures/km-pizza-logo-1-1.png",
				"widescreen_picture": "https://woowbe-dev.s3.amazonaws.com/media/pictures/1638192019.png",
				"cover": "https://woowbe-dev.s3.amazonaws.com/media/covers/km-pizza-portada.jpeg",
				"sector": {
					"id": 3,
					"name": "Fast Food",
					"icon": "https://woowbe-dev.s3.amazonaws.com/media/icons/food_TPGNuc7.svg",
					"created": "2021-05-25T10:47:39.210359Z"
				},
				"descriptive_categories": [
					{
						"id": 19,
						"name": "pizza",
						"owner": null,
						"sector": 3,
						"created": "2021-10-21T20:22:48.209376Z"
					}
				],
				"return_period": 0,
				"dynamic_link": "https://app.dev.woowbe.com/share/6bFF",
				"is_franchisee_of": null,
				"is_favorite": false,
				"created": "2021-11-29T13:20:18.931261Z",
				"offers_count": 1
			},
			"online": false,
			"url": null,
			"position": {
				"type": "Point",
				"coordinates": [
					-99.1944093,
					19.429501
				]
			},
			"address": "Avenida Emilio Castelar",
			"number": "118",
			"postal_code": "11550",
			"state": "",
			"city": "Ciudad de México",
			"merchants_count": 0,
			"modified": "2023-03-17T08:01:29.199617Z",
			"place_id": "EltBdmVuaWRhIEVtaWxpbyBDYXN0ZWxhciAxMTgsIFBvbGFuY28sIFBvbGFuY28gSVYgU2VjY2nDs24sIENpdWRhZCBkZSBNw6l4aWNvLCBDRE1YLCBNw6l4aWNvIlASTgo0CjIJF23hQv8B0oURBiLYULzPYOYaHgsQ7sHuoQEaFAoSCflixVoCAtKFEdATx3thFYxFDBB2KhQKEgkBJmMLAgLShRHhUGH8Rkbb-g",
			"formatted_address": "Av. Emilio Castelar 118, Polanco, Polanco IV Secc, Miguel Hidalgo, 11550 Ciudad de México, CDMX",
			"deleted": false,
			"deleted_at": null,
			"created": "2022-05-18T13:36:29.334738Z",
			"selected_offer": {
				"id": 236,
				"reward": "10.00",
				"reward_type": "percentage",
				"kind": "A",
				"instant": false,
				"name": "Kilómetros de pizza 10%",
				"standalone": false,
				"purchases": null,
				"online": false,
				"applicable": false,
				"available_percentage": 1,
				"available_rewards": null,
				"is_used": false,
				"finish_date": null
			},
			"public_url": null,
			"is_open": false
		},
		{
			"id": 637,
			"business": {
				"id": 128,
				"name": "Viena Capellanes",
				"country": null,
				"description": "Lo que empezó en 1873 como una pequeña tahona donde se elaboraba el pan de Viena, se ha convertido hoy en una empresa de cientos de trabajadores, líder en el sector del catering y la repostería, gracias a todos los clientes que diariamente depositan en nosotros su confianza.",
				"url": "https://www.vienacapellanes.com/",
				"square_picture": "https://woowbe-dev.s3.amazonaws.com/media/pictures/viena-capellanes-logo-1-1.png",
				"widescreen_picture": "https://woowbe-dev.s3.amazonaws.com/media/pictures/1638194107.png",
				"cover": "https://woowbe-dev.s3.amazonaws.com/media/covers/viena-capellanes-portada.jpeg",
				"sector": {
					"id": 39,
					"name": "Pastelería",
					"icon": "https://woowbe-dev.s3.amazonaws.com/media/icons/toeat_ZyBTS6v.svg",
					"created": "2021-11-29T13:54:48.886365Z"
				},
				"descriptive_categories": [
					{
						"id": 25,
						"name": "pan",
						"owner": null,
						"sector": null,
						"created": "2021-10-21T21:05:17.331228Z"
					},
					{
						"id": 23,
						"name": "panadería",
						"owner": null,
						"sector": null,
						"created": "2021-10-21T21:04:59.592984Z"
					},
					{
						"id": 60,
						"name": "repostería",
						"owner": null,
						"sector": null,
						"created": "2021-11-29T13:55:03.905322Z"
					}
				],
				"return_period": 0,
				"dynamic_link": "https://app.dev.woowbe.com/share/TYCN",
				"is_franchisee_of": null,
				"is_favorite": false,
				"created": "2021-11-29T13:55:07.721203Z",
				"offers_count": 1
			},
			"online": false,
			"url": null,
			"position": {
				"type": "Point",
				"coordinates": [
					-99.1993098,
					19.4292413
				]
			},
			"address": "Calle Calderón de la Barca",
			"number": "54",
			"postal_code": "11550",
			"state": "",
			"city": "Ciudad de México",
			"merchants_count": 0,
			"modified": "2023-03-17T08:01:29.397366Z",
			"place_id": "El9DYWxsZSBDYWxkZXLDs24gZGUgbGEgQmFyY2EgNTQsIFBvbGFuY28sIFBvbGFuY28gSUlJIFNlY2Npw7NuLCBDaXVkYWQgZGUgTcOpeGljbywgQ0RNWCwgTcOpeGljbyJQEk4KNAoyCUdvLBX4AdKFEdVXYrOs1-_kGh4LEO7B7qEBGhQKEgn5YsVaAgLShRHQE8d7YRWMRQwQNioUChIJL2wAHgMC0oURk-pVg6wPGSE",
			"formatted_address": "C. Calderón de la Barca 54, Polanco, Polanco III Secc, Miguel Hidalgo, 11550 Ciudad de México, CDMX",
			"deleted": false,
			"deleted_at": null,
			"created": "2022-05-18T13:32:05.357538Z",
			"selected_offer": {
				"id": 238,
				"reward": "9.00",
				"reward_type": "percentage",
				"kind": "A",
				"instant": false,
				"name": "Viena Capellanes 9%",
				"standalone": false,
				"purchases": null,
				"online": false,
				"applicable": false,
				"available_percentage": 0.985,
				"available_rewards": null,
				"is_used": false,
				"finish_date": null
			},
			"public_url": null,
			"is_open": false
		},
		{
			"id": 636,
			"business": {
				"id": 128,
				"name": "Viena Capellanes",
				"country": null,
				"description": "Lo que empezó en 1873 como una pequeña tahona donde se elaboraba el pan de Viena, se ha convertido hoy en una empresa de cientos de trabajadores, líder en el sector del catering y la repostería, gracias a todos los clientes que diariamente depositan en nosotros su confianza.",
				"url": "https://www.vienacapellanes.com/",
				"square_picture": "https://woowbe-dev.s3.amazonaws.com/media/pictures/viena-capellanes-logo-1-1.png",
				"widescreen_picture": "https://woowbe-dev.s3.amazonaws.com/media/pictures/1638194107.png",
				"cover": "https://woowbe-dev.s3.amazonaws.com/media/covers/viena-capellanes-portada.jpeg",
				"sector": {
					"id": 39,
					"name": "Pastelería",
					"icon": "https://woowbe-dev.s3.amazonaws.com/media/icons/toeat_ZyBTS6v.svg",
					"created": "2021-11-29T13:54:48.886365Z"
				},
				"descriptive_categories": [
					{
						"id": 25,
						"name": "pan",
						"owner": null,
						"sector": null,
						"created": "2021-10-21T21:05:17.331228Z"
					},
					{
						"id": 23,
						"name": "panadería",
						"owner": null,
						"sector": null,
						"created": "2021-10-21T21:04:59.592984Z"
					},
					{
						"id": 60,
						"name": "repostería",
						"owner": null,
						"sector": null,
						"created": "2021-11-29T13:55:03.905322Z"
					}
				],
				"return_period": 0,
				"dynamic_link": "https://app.dev.woowbe.com/share/TYCN",
				"is_franchisee_of": null,
				"is_favorite": false,
				"created": "2021-11-29T13:55:07.721203Z",
				"offers_count": 1
			},
			"online": false,
			"url": null,
			"position": {
				"type": "Point",
				"coordinates": [
					-99.2019591,
					19.4317218
				]
			},
			"address": "Avenida Moliere",
			"number": "63",
			"postal_code": "11550",
			"state": "",
			"city": "Ciudad de México",
			"merchants_count": 0,
			"modified": "2023-03-17T08:01:29.505664Z",
			"place_id": "ChIJ8c1SOR0C0oURWJ9ZRBCNmU8",
			"formatted_address": "Av Moliere 63, Polanco, Polanco II Secc, Miguel Hidalgo, 11550 Ciudad de México, CDMX",
			"deleted": false,
			"deleted_at": null,
			"created": "2022-05-18T13:31:30.952534Z",
			"selected_offer": {
				"id": 238,
				"reward": "9.00",
				"reward_type": "percentage",
				"kind": "A",
				"instant": false,
				"name": "Viena Capellanes 9%",
				"standalone": false,
				"purchases": null,
				"online": false,
				"applicable": false,
				"available_percentage": 0.985,
				"available_rewards": null,
				"is_used": false,
				"finish_date": null
			},
			"public_url": null,
			"is_open": false
		},
		{
			"id": 635,
			"business": {
				"id": 128,
				"name": "Viena Capellanes",
				"country": null,
				"description": "Lo que empezó en 1873 como una pequeña tahona donde se elaboraba el pan de Viena, se ha convertido hoy en una empresa de cientos de trabajadores, líder en el sector del catering y la repostería, gracias a todos los clientes que diariamente depositan en nosotros su confianza.",
				"url": "https://www.vienacapellanes.com/",
				"square_picture": "https://woowbe-dev.s3.amazonaws.com/media/pictures/viena-capellanes-logo-1-1.png",
				"widescreen_picture": "https://woowbe-dev.s3.amazonaws.com/media/pictures/1638194107.png",
				"cover": "https://woowbe-dev.s3.amazonaws.com/media/covers/viena-capellanes-portada.jpeg",
				"sector": {
					"id": 39,
					"name": "Pastelería",
					"icon": "https://woowbe-dev.s3.amazonaws.com/media/icons/toeat_ZyBTS6v.svg",
					"created": "2021-11-29T13:54:48.886365Z"
				},
				"descriptive_categories": [
					{
						"id": 25,
						"name": "pan",
						"owner": null,
						"sector": null,
						"created": "2021-10-21T21:05:17.331228Z"
					},
					{
						"id": 23,
						"name": "panadería",
						"owner": null,
						"sector": null,
						"created": "2021-10-21T21:04:59.592984Z"
					},
					{
						"id": 60,
						"name": "repostería",
						"owner": null,
						"sector": null,
						"created": "2021-11-29T13:55:03.905322Z"
					}
				],
				"return_period": 0,
				"dynamic_link": "https://app.dev.woowbe.com/share/TYCN",
				"is_franchisee_of": null,
				"is_favorite": false,
				"created": "2021-11-29T13:55:07.721203Z",
				"offers_count": 1
			},
			"online": false,
			"url": null,
			"position": {
				"type": "Point",
				"coordinates": [
					-99.1995536,
					19.4305691
				]
			},
			"address": "Avenida Emilio Castelar",
			"number": "163",
			"postal_code": "11550",
			"state": "",
			"city": "Ciudad de México",
			"merchants_count": 0,
			"modified": "2023-03-17T08:01:29.707666Z",
			"place_id": "ChIJm_yemAIC0oURf7r1DO3yLdY",
			"formatted_address": "Av. Emilio Castelar 163, Polanco, Polanco III Secc, Miguel Hidalgo, 11550 Ciudad de México, CDMX",
			"deleted": false,
			"deleted_at": null,
			"created": "2022-05-18T13:31:12.278114Z",
			"selected_offer": {
				"id": 238,
				"reward": "9.00",
				"reward_type": "percentage",
				"kind": "A",
				"instant": false,
				"name": "Viena Capellanes 9%",
				"standalone": false,
				"purchases": null,
				"online": false,
				"applicable": false,
				"available_percentage": 0.985,
				"available_rewards": null,
				"is_used": false,
				"finish_date": null
			},
			"public_url": null,
			"is_open": false
		},
		{
			"id": 634,
			"business": {
				"id": 130,
				"name": "La Mafia",
				"country": null,
				"description": "El Restaurante La Mafia se sienta a la mesa os ofrece, además de su cocina italiana, otros platos mediterráneos que harán las delicias de vuestro paladar. Disfrutad de una auténtica comida mafiosa que os transportará a una Italia llena de misterio y buen gusto. Dejaos seducir con su lujoso ambiente y transportaos a un bello rincón de Italia donde nadie os encuentre.",
				"url": "https://lamafia.es/",
				"square_picture": "https://woowbe-dev.s3.amazonaws.com/media/pictures/la-mafia-logo-1-1.png",
				"widescreen_picture": "https://woowbe-dev.s3.amazonaws.com/media/pictures/1638196750.png",
				"cover": "https://woowbe-dev.s3.amazonaws.com/media/covers/la-mafia-portada.jpeg",
				"sector": {
					"id": 2,
					"name": "Restaurante",
					"icon": "https://woowbe-dev.s3.amazonaws.com/media/icons/food_Yc99kSV.svg",
					"created": "2021-05-25T10:46:14.371617Z"
				},
				"descriptive_categories": [
					{
						"id": 20,
						"name": "italiano",
						"owner": null,
						"sector": null,
						"created": "2021-10-21T20:22:55.462166Z"
					}
				],
				"return_period": 0,
				"dynamic_link": "https://app.dev.woowbe.com/share/vRGn",
				"is_franchisee_of": null,
				"is_favorite": false,
				"created": "2021-11-29T14:39:10.204240Z",
				"offers_count": 1
			},
			"online": false,
			"url": null,
			"position": {
				"type": "Point",
				"coordinates": [
					-99.1993104,
					19.4292375
				]
			},
			"address": "Calle Calderón de la Barca",
			"number": "47",
			"postal_code": "11550",
			"state": "",
			"city": "Ciudad de México",
			"merchants_count": 0,
			"modified": "2023-03-17T08:01:29.811634Z",
			"place_id": "El9DYWxsZSBDYWxkZXLDs24gZGUgbGEgQmFyY2EgNDcsIFBvbGFuY28sIFBvbGFuY28gSUlJIFNlY2Npw7NuLCBDaXVkYWQgZGUgTcOpeGljbywgQ0RNWCwgTcOpeGljbyJQEk4KNAoyCUdvLBX4AdKFEdVXYrOs1-_kGh4LEO7B7qEBGhQKEgn5YsVaAgLShRHQE8d7YRWMRQwQLyoUChIJL2wAHgMC0oURk-pVg6wPGSE",
			"formatted_address": "C. Calderón de la Barca 47, Polanco, Polanco III Secc, Miguel Hidalgo, 11550 Ciudad de México, CDMX",
			"deleted": false,
			"deleted_at": null,
			"created": "2022-05-18T13:30:09.458134Z",
			"selected_offer": {
				"id": 242,
				"reward": "6.00",
				"reward_type": "percentage",
				"kind": "A",
				"instant": false,
				"name": "La Mafia 6%",
				"standalone": false,
				"purchases": null,
				"online": false,
				"applicable": false,
				"available_percentage": 1,
				"available_rewards": null,
				"is_used": false,
				"finish_date": null
			},
			"public_url": null,
			"is_open": false
		},
		{
			"id": 633,
			"business": {
				"id": 130,
				"name": "La Mafia",
				"country": null,
				"description": "El Restaurante La Mafia se sienta a la mesa os ofrece, además de su cocina italiana, otros platos mediterráneos que harán las delicias de vuestro paladar. Disfrutad de una auténtica comida mafiosa que os transportará a una Italia llena de misterio y buen gusto. Dejaos seducir con su lujoso ambiente y transportaos a un bello rincón de Italia donde nadie os encuentre.",
				"url": "https://lamafia.es/",
				"square_picture": "https://woowbe-dev.s3.amazonaws.com/media/pictures/la-mafia-logo-1-1.png",
				"widescreen_picture": "https://woowbe-dev.s3.amazonaws.com/media/pictures/1638196750.png",
				"cover": "https://woowbe-dev.s3.amazonaws.com/media/covers/la-mafia-portada.jpeg",
				"sector": {
					"id": 2,
					"name": "Restaurante",
					"icon": "https://woowbe-dev.s3.amazonaws.com/media/icons/food_Yc99kSV.svg",
					"created": "2021-05-25T10:46:14.371617Z"
				},
				"descriptive_categories": [
					{
						"id": 20,
						"name": "italiano",
						"owner": null,
						"sector": null,
						"created": "2021-10-21T20:22:55.462166Z"
					}
				],
				"return_period": 0,
				"dynamic_link": "https://app.dev.woowbe.com/share/vRGn",
				"is_franchisee_of": null,
				"is_favorite": false,
				"created": "2021-11-29T14:39:10.204240Z",
				"offers_count": 1
			},
			"online": false,
			"url": null,
			"position": {
				"type": "Point",
				"coordinates": [
					-99.2013305,
					19.436127
				]
			},
			"address": "Avenida Moliere",
			"number": "173",
			"postal_code": "11550",
			"state": "",
			"city": "Ciudad de México",
			"merchants_count": 0,
			"modified": "2023-03-17T08:01:30.001108Z",
			"place_id": "ElRBdmVuaWRhIE1vbGllcmUgMTczLCBQb2xhbmNvLCBQb2xhbmNvIElJSSBTZWNjacOzbiwgQ2l1ZGFkIGRlIE3DqXhpY28sIENETVgsIE3DqXhpY28iURJPCjQKMgnPAcJNGwLShRH7Ml9ozQi0JBoeCxDuwe6hARoUChIJ-WLFWgIC0oUR0BPHe2EVjEUMEK0BKhQKEgk7PnZTGwLShRHb7-sky0_RPQ",
			"formatted_address": "Av Moliere 173, Polanco, Polanco II Secc, Miguel Hidalgo, 11550 Ciudad de México, CDMX",
			"deleted": false,
			"deleted_at": null,
			"created": "2022-05-18T13:29:48.614360Z",
			"selected_offer": {
				"id": 242,
				"reward": "6.00",
				"reward_type": "percentage",
				"kind": "A",
				"instant": false,
				"name": "La Mafia 6%",
				"standalone": false,
				"purchases": null,
				"online": false,
				"applicable": false,
				"available_percentage": 1,
				"available_rewards": null,
				"is_used": false,
				"finish_date": null
			},
			"public_url": null,
			"is_open": false
		},
		{
			"id": 632,
			"business": {
				"id": 130,
				"name": "La Mafia",
				"country": null,
				"description": "El Restaurante La Mafia se sienta a la mesa os ofrece, además de su cocina italiana, otros platos mediterráneos que harán las delicias de vuestro paladar. Disfrutad de una auténtica comida mafiosa que os transportará a una Italia llena de misterio y buen gusto. Dejaos seducir con su lujoso ambiente y transportaos a un bello rincón de Italia donde nadie os encuentre.",
				"url": "https://lamafia.es/",
				"square_picture": "https://woowbe-dev.s3.amazonaws.com/media/pictures/la-mafia-logo-1-1.png",
				"widescreen_picture": "https://woowbe-dev.s3.amazonaws.com/media/pictures/1638196750.png",
				"cover": "https://woowbe-dev.s3.amazonaws.com/media/covers/la-mafia-portada.jpeg",
				"sector": {
					"id": 2,
					"name": "Restaurante",
					"icon": "https://woowbe-dev.s3.amazonaws.com/media/icons/food_Yc99kSV.svg",
					"created": "2021-05-25T10:46:14.371617Z"
				},
				"descriptive_categories": [
					{
						"id": 20,
						"name": "italiano",
						"owner": null,
						"sector": null,
						"created": "2021-10-21T20:22:55.462166Z"
					}
				],
				"return_period": 0,
				"dynamic_link": "https://app.dev.woowbe.com/share/vRGn",
				"is_franchisee_of": null,
				"is_favorite": false,
				"created": "2021-11-29T14:39:10.204240Z",
				"offers_count": 1
			},
			"online": false,
			"url": null,
			"position": {
				"type": "Point",
				"coordinates": [
					-99.1950654,
					19.4298369
				]
			},
			"address": "Avenida Emilio Castelar",
			"number": "65",
			"postal_code": "11550",
			"state": "",
			"city": "Ciudad de México",
			"merchants_count": 0,
			"modified": "2023-03-17T08:01:30.492283Z",
			"place_id": "ChIJmXu4U_8B0oURcBXDvhRZ98g",
			"formatted_address": "Av. Emilio Castelar 65, Polanco, Polanco IV Secc, Miguel Hidalgo, 11550 Ciudad de México, CDMX",
			"deleted": false,
			"deleted_at": null,
			"created": "2022-05-18T13:28:42.096374Z",
			"selected_offer": {
				"id": 242,
				"reward": "6.00",
				"reward_type": "percentage",
				"kind": "A",
				"instant": false,
				"name": "La Mafia 6%",
				"standalone": false,
				"purchases": null,
				"online": false,
				"applicable": false,
				"available_percentage": 1,
				"available_rewards": null,
				"is_used": false,
				"finish_date": null
			},
			"public_url": null,
			"is_open": false
		},
		{
			"id": 631,
			"business": {
				"id": 131,
				"name": "Makkila",
				"country": null,
				"description": "Bienvenido a Makkila, tu casa de comidas sin reglas. Carta española con influencias del mundo.",
				"url": "https://makkila.com/",
				"square_picture": "https://woowbe-dev.s3.amazonaws.com/media/pictures/makkila-logo-1-1.png",
				"widescreen_picture": "https://woowbe-dev.s3.amazonaws.com/media/pictures/1638197128.png",
				"cover": "https://woowbe-dev.s3.amazonaws.com/media/covers/makkila-portada.png",
				"sector": {
					"id": 2,
					"name": "Restaurante",
					"icon": "https://woowbe-dev.s3.amazonaws.com/media/icons/food_Yc99kSV.svg",
					"created": "2021-05-25T10:46:14.371617Z"
				},
				"descriptive_categories": [
					{
						"id": 61,
						"name": "española",
						"owner": null,
						"sector": null,
						"created": "2021-11-29T14:45:24.792550Z"
					}
				],
				"return_period": 0,
				"dynamic_link": "https://app.dev.woowbe.com/share/EFnh",
				"is_franchisee_of": null,
				"is_favorite": false,
				"created": "2021-11-29T14:45:28.299324Z",
				"offers_count": 1
			},
			"online": false,
			"url": null,
			"position": {
				"type": "Point",
				"coordinates": [
					-99.1993101,
					19.4292394
				]
			},
			"address": "Calle Calderón de la Barca",
			"number": "49",
			"postal_code": "11550",
			"state": "",
			"city": "Ciudad de México",
			"merchants_count": 0,
			"modified": "2023-03-17T08:01:30.696396Z",
			"place_id": "El9DYWxsZSBDYWxkZXLDs24gZGUgbGEgQmFyY2EgNDksIFBvbGFuY28sIFBvbGFuY28gSUlJIFNlY2Npw7NuLCBDaXVkYWQgZGUgTcOpeGljbywgQ0RNWCwgTcOpeGljbyJQEk4KNAoyCUdvLBX4AdKFEdVXYrOs1-_kGh4LEO7B7qEBGhQKEgn5YsVaAgLShRHQE8d7YRWMRQwQMSoUChIJL2wAHgMC0oURk-pVg6wPGSE",
			"formatted_address": "C. Calderón de la Barca 49, Polanco, Polanco III Secc, Miguel Hidalgo, 11550 Ciudad de México, CDMX",
			"deleted": false,
			"deleted_at": null,
			"created": "2022-05-18T13:26:42.400589Z",
			"selected_offer": {
				"id": 243,
				"reward": "8.00",
				"reward_type": "percentage",
				"kind": "A",
				"instant": false,
				"name": "Makkila 8%",
				"standalone": false,
				"purchases": null,
				"online": false,
				"applicable": false,
				"available_percentage": 1,
				"available_rewards": null,
				"is_used": false,
				"finish_date": null
			},
			"public_url": null,
			"is_open": false
		},
		{
			"id": 630,
			"business": {
				"id": 131,
				"name": "Makkila",
				"country": null,
				"description": "Bienvenido a Makkila, tu casa de comidas sin reglas. Carta española con influencias del mundo.",
				"url": "https://makkila.com/",
				"square_picture": "https://woowbe-dev.s3.amazonaws.com/media/pictures/makkila-logo-1-1.png",
				"widescreen_picture": "https://woowbe-dev.s3.amazonaws.com/media/pictures/1638197128.png",
				"cover": "https://woowbe-dev.s3.amazonaws.com/media/covers/makkila-portada.png",
				"sector": {
					"id": 2,
					"name": "Restaurante",
					"icon": "https://woowbe-dev.s3.amazonaws.com/media/icons/food_Yc99kSV.svg",
					"created": "2021-05-25T10:46:14.371617Z"
				},
				"descriptive_categories": [
					{
						"id": 61,
						"name": "española",
						"owner": null,
						"sector": null,
						"created": "2021-11-29T14:45:24.792550Z"
					}
				],
				"return_period": 0,
				"dynamic_link": "https://app.dev.woowbe.com/share/EFnh",
				"is_franchisee_of": null,
				"is_favorite": false,
				"created": "2021-11-29T14:45:28.299324Z",
				"offers_count": 1
			},
			"online": false,
			"url": null,
			"position": {
				"type": "Point",
				"coordinates": [
					-99.2024597,
					19.4308884
				]
			},
			"address": "Avenida Moliere",
			"number": "38",
			"postal_code": "11550",
			"state": "",
			"city": "Ciudad de México",
			"merchants_count": 0,
			"modified": "2023-03-17T08:01:30.812771Z",
			"place_id": "ChIJ56sjaB0C0oURsLvilNBwiSk",
			"formatted_address": "Av Moliere 38, Polanco, Polanco II Secc, Miguel Hidalgo, 11550 Ciudad de México, CDMX",
			"deleted": false,
			"deleted_at": null,
			"created": "2022-05-18T13:26:20.280864Z",
			"selected_offer": {
				"id": 243,
				"reward": "8.00",
				"reward_type": "percentage",
				"kind": "A",
				"instant": false,
				"name": "Makkila 8%",
				"standalone": false,
				"purchases": null,
				"online": false,
				"applicable": false,
				"available_percentage": 1,
				"available_rewards": null,
				"is_used": false,
				"finish_date": null
			},
			"public_url": null,
			"is_open": false
		},
		{
			"id": 629,
			"business": {
				"id": 131,
				"name": "Makkila",
				"country": null,
				"description": "Bienvenido a Makkila, tu casa de comidas sin reglas. Carta española con influencias del mundo.",
				"url": "https://makkila.com/",
				"square_picture": "https://woowbe-dev.s3.amazonaws.com/media/pictures/makkila-logo-1-1.png",
				"widescreen_picture": "https://woowbe-dev.s3.amazonaws.com/media/pictures/1638197128.png",
				"cover": "https://woowbe-dev.s3.amazonaws.com/media/covers/makkila-portada.png",
				"sector": {
					"id": 2,
					"name": "Restaurante",
					"icon": "https://woowbe-dev.s3.amazonaws.com/media/icons/food_Yc99kSV.svg",
					"created": "2021-05-25T10:46:14.371617Z"
				},
				"descriptive_categories": [
					{
						"id": 61,
						"name": "española",
						"owner": null,
						"sector": null,
						"created": "2021-11-29T14:45:24.792550Z"
					}
				],
				"return_period": 0,
				"dynamic_link": "https://app.dev.woowbe.com/share/EFnh",
				"is_franchisee_of": null,
				"is_favorite": false,
				"created": "2021-11-29T14:45:28.299324Z",
				"offers_count": 1
			},
			"online": false,
			"url": null,
			"position": {
				"type": "Point",
				"coordinates": [
					-99.1960823,
					19.4298042
				]
			},
			"address": "Avenida Emilio Castelar",
			"number": "91",
			"postal_code": "11550",
			"state": "",
			"city": "Ciudad de México",
			"merchants_count": 0,
			"modified": "2023-03-17T08:01:31.094188Z",
			"place_id": "ElpBdmVuaWRhIEVtaWxpbyBDYXN0ZWxhciA5MSwgUG9sYW5jbywgUG9sYW5jbyBJViBTZWNjacOzbiwgQ2l1ZGFkIGRlIE3DqXhpY28sIENETVgsIE3DqXhpY28iUBJOCjQKMgkTTzSs-AHShRHzIdhQvM9g5hoeCxDuwe6hARoUChIJ-WLFWgIC0oUR0BPHe2EVjEUMEFsqFAoSCQEmYwsCAtKFEeFQYfxGRtv6",
			"formatted_address": "Av. Emilio Castelar 91, Polanco, Polanco IV Secc, Miguel Hidalgo, 11550 Ciudad de México, CDMX",
			"deleted": false,
			"deleted_at": null,
			"created": "2022-05-18T13:26:04.362276Z",
			"selected_offer": {
				"id": 243,
				"reward": "8.00",
				"reward_type": "percentage",
				"kind": "A",
				"instant": false,
				"name": "Makkila 8%",
				"standalone": false,
				"purchases": null,
				"online": false,
				"applicable": false,
				"available_percentage": 1,
				"available_rewards": null,
				"is_used": false,
				"finish_date": null
			},
			"public_url": null,
			"is_open": false
		}
	]
}
