{"count":579,"next":"https://backend.dev.woowbe.com/api/v1/points_of_sales/public/?page=19","previous":"https://backend.dev.woowbe.com/api/v1/points_of_sales/public/?page=17","results":[{"id":617,"business":{"id":125,"name":"Le Coq","country":null,"description":"Le Coq no es solo la mejor rotisserie de aves a las brasas de España, también Le Coq es un modelo de negocio donde todo \"gira\" alrededor de nuestros pollos frescos y de primerísima calidad, marinados previamente con las recetas secretas Le Coq que hacen que la experiencia sea inolvidable y te apetezca repetir una y otra vez.\r\nLe Coq es un viaje permanente por diferentes lugares del mundo, desde la tradición de Francia al exotismo de India o Japón o brindarte la oportunidad de probar el famoso pollo peruano o disfrutar con los sabores de México o Argentina.","url":"https://lcq.es/","square_picture":"https://woowbe-dev.s3.amazonaws.com/media/pictures/le-coq-logo-1-1.png","widescreen_picture":"https://woowbe-dev.s3.amazonaws.com/media/pictures/1638190657.png","cover":"https://woowbe-dev.s3.amazonaws.com/media/covers/le-coq-portada.jpeg","sector":{"id":2,"name":"Restaurante","icon":"https://woowbe-dev.s3.amazonaws.com/media/icons/food_Yc99kSV.svg","created":"2021-05-25T10:46:14.371617Z"},"descriptive_categories":[{"id":59,"name":"pollo asado","owner":null,"sector":null,"created":"2021-11-29T12:57:34.252585Z"},{"id":58,"name":"rotisserie","owner":null,"sector":null,"created":"2021-11-29T12:57:28.377827Z"}],"return_period":0,"dynamic_link":"https://app.dev.woowbe.com/share/ut8s","is_franchisee_of":null,"is_favorite":false,"created":"2021-11-29T12:57:37.328075Z","offers_count":1},"online":false,"url":null,"position":{"type":"Point","coordinates":[-99.1943909,19.429677]},"address":"Avenida Emilio Castelar","number":"47","postal_code":"11550","state":"","city":"Ciudad de México","merchants_count":0,"modified":"2023-03-17T08:01:33.390914Z","place_id":"ElpBdmVuaWRhIEVtaWxpbyBDYXN0ZWxhciA0NywgUG9sYW5jbywgUG9sYW5jbyBJViBTZWNjacOzbiwgQ2l1ZGFkIGRlIE3DqXhpY28sIENETVgsIE3DqXhpY28iUBJOCjQKMgkXbeFC_wHShREHIthQvM9g5hoeCxDuwe6hARoUChIJ-WLFWgIC0oUR0BPHe2EVjEUMEC8qFAoSCQEmYwsCAtKFEeFQYfxGRtv6","formatted_address":"Av. Emilio Castelar 47, Polanco, Polanco IV Secc, Miguel Hidalgo, 11550 Ciudad de México, CDMX","deleted":false,"deleted_at":null,"created":"2022-05-18T12:45:12.299552Z","selected_offer":{"id":228,"reward":"7.00","reward_type":"percentage","kind":"A","instant":false,"name":"Le Coq 7%","standalone":false,"purchases":null,"online":false,"applicable":false,"available_percentage":1,"available_rewards":null,"is_used":false,"finish_date":null},"public_url":null,"is_open":false},{"id":616,"business":{"id":92,"name":"Tierra Burrito","country":null,"description":"En Tierra nos gusta hacer las cosas bien.\r\nTodos los días, llegan hasta nosotros frutas y verduras frescas de productores locales y carne procedente de ganaderías cercanas de cría no intensiva. Estos productos constituyen los ingredientes que empleamos para preparar, delante de ti, nuestros platos saludables y auténticos: burritos, desnudos, nachos y mucho más.\r\n\r\nDesde nuestra cocina abierta, los eficientes y simpáticos camareros de Tierra te ayudarán a personalizar tu plato a tu gusto con una gran variedad de sabores y guarniciones distintas. Acompaña tu comida con nuestras margaritas caseras o con una cerveza artesanal, que tienes a tu disposición en la nevera.","url":"https://www.tierraburritos.com/","square_picture":"https://woowbe-dev.s3.amazonaws.com/media/pictures/tierra-burrito-logo-1-1.png","widescreen_picture":"https://woowbe-dev.s3.amazonaws.com/media/pictures/1634832127.jpeg","cover":"https://woowbe-dev.s3.amazonaws.com/media/covers/cover_UuinGHQ.jpg","sector":{"id":3,"name":"Fast Food","icon":"https://woowbe-dev.s3.amazonaws.com/media/icons/food_TPGNuc7.svg","created":"2021-05-25T10:47:39.210359Z"},"descriptive_categories":[{"id":15,"name":"burrito","owner":92,"sector":null,"created":"2021-10-21T16:01:53.692876Z"},{"id":13,"name":"mexicano","owner":null,"sector":null,"created":"2021-10-21T15:08:54.024427Z"}],"return_period":0,"dynamic_link":"https://app.dev.woowbe.com/share/KPoa","is_franchisee_of":null,"is_favorite":false,"created":"2021-10-21T16:00:35.632774Z","offers_count":1},"online":false,"url":null,"position":{"type":"Point","coordinates":[-99.1993119,19.4292288]},"address":"Calle Calderón de la Barca","number":"38","postal_code":"11550","state":"","city":"Ciudad de México","merchants_count":0,"modified":"2023-03-17T08:01:33.792332Z","place_id":"El9DYWxsZSBDYWxkZXLDs24gZGUgbGEgQmFyY2EgMzgsIFBvbGFuY28sIFBvbGFuY28gSUlJIFNlY2Npw7NuLCBDaXVkYWQgZGUgTcOpeGljbywgQ0RNWCwgTcOpeGljbyJQEk4KNAoyCUdvLBX4AdKFEdVXYrOs1-_kGh4LEO7B7qEBGhQKEgn5YsVaAgLShRHQE8d7YRWMRQwQJioUChIJL2wAHgMC0oURk-pVg6wPGSE","formatted_address":"C. Calderón de la Barca 38, Polanco, Polanco III Secc, Miguel Hidalgo, 11550 Ciudad de México, CDMX","deleted":false,"deleted_at":null,"created":"2022-05-18T11:59:02.665514Z","selected_offer":{"id":168,"reward":"4.00","reward_type":"fixed","kind":"B","instant":false,"name":"4€ por cada comida","standalone":false,"purchases":null,"online":false,"applicable":false,"available_percentage":1,"available_rewards":0,"is_used":false,"finish_date":null},"public_url":null,"is_open":false},{"id":615,"business":{"id":92,"name":"Tierra Burrito","country":null,"description":"En Tierra nos gusta hacer las cosas bien.\r\nTodos los días, llegan hasta nosotros frutas y verduras frescas de productores locales y carne procedente de ganaderías cercanas de cría no intensiva. Estos productos constituyen los ingredientes que empleamos para preparar, delante de ti, nuestros platos saludables y auténticos: burritos, desnudos, nachos y mucho más.\r\n\r\nDesde nuestra cocina abierta, los eficientes y simpáticos camareros de Tierra te ayudarán a personalizar tu plato a tu gusto con una gran variedad de sabores y guarniciones distintas. Acompaña tu comida con nuestras margaritas caseras o con una cerveza artesanal, que tienes a tu disposición en la nevera.","url":"https://www.tierraburritos.com/","square_picture":"https://woowbe-dev.s3.amazonaws.com/media/pictures/tierra-burrito-logo-1-1.png","widescreen_picture":"https://woowbe-dev.s3.amazonaws.com/media/pictures/1634832127.jpeg","cover":"https://woowbe-dev.s3.amazonaws.com/media/covers/cover_UuinGHQ.jpg","sector":{"id":3,"name":"Fast Food","icon":"https://woowbe-dev.s3.amazonaws.com/media/icons/food_TPGNuc7.svg","created":"2021-05-25T10:47:39.210359Z"},"descriptive_categories":[{"id":15,"name":"burrito","owner":92,"sector":null,"created":"2021-10-21T16:01:53.692876Z"},{"id":13,"name":"mexicano","owner":null,"sector":null,"created":"2021-10-21T15:08:54.024427Z"}],"return_period":0,"dynamic_link":"https://app.dev.woowbe.com/share/KPoa","is_franchisee_of":null,"is_favorite":false,"created":"2021-10-21T16:00:35.632774Z","offers_count":1},"online":false,"url":null,"position":{"type":"Point","coordinates":[-99.20214329999999,19.432449]},"address":"Avenida Moliere","number":"80","postal_code":"11550","state":"","city":"Ciudad de México","merchants_count":0,"modified":"2023-03-17T08:01:33.990692Z","place_id":"ChIJxcr22BwC0oURHx21IIxR8so","formatted_address":"Av Moliere 80, Polanco, Polanco II Secc, Miguel Hidalgo, 11550 Ciudad de México, CDMX","deleted":false,"deleted_at":null,"created":"2022-05-18T11:58:43.698899Z","selected_offer":{"id":168,"reward":"4.00","reward_type":"fixed","kind":"B","instant":false,"name":"4€ por cada comida","standalone":false,"purchases":null,"online":false,"applicable":false,"available_percentage":1,"available_rewards":0,"is_used":false,"finish_date":null},"public_url":null,"is_open":false},{"id":614,"business":{"id":92,"name":"Tierra Burrito","country":null,"description":"En Tierra nos gusta hacer las cosas bien.\r\nTodos los días, llegan hasta nosotros frutas y verduras frescas de productores locales y carne procedente de ganaderías cercanas de cría no intensiva. Estos productos constituyen los ingredientes que empleamos para preparar, delante de ti, nuestros platos saludables y auténticos: burritos, desnudos, nachos y mucho más.\r\n\r\nDesde nuestra cocina abierta, los eficientes y simpáticos camareros de Tierra te ayudarán a personalizar tu plato a tu gusto con una gran variedad de sabores y guarniciones distintas. Acompaña tu comida con nuestras margaritas caseras o con una cerveza artesanal, que tienes a tu disposición en la nevera.","url":"https://www.tierraburritos.com/","square_picture":"https://woowbe-dev.s3.amazonaws.com/media/pictures/tierra-burrito-logo-1-1.png","widescreen_picture":"https://woowbe-dev.s3.amazonaws.com/media/pictures/1634832127.jpeg","cover":"https://woowbe-dev.s3.amazonaws.com/media/covers/cover_UuinGHQ.jpg","sector":{"id":3,"name":"Fast Food","icon":"https://woowbe-dev.s3.amazonaws.com/media/icons/food_TPGNuc7.svg","created":"2021-05-25T10:47:39.210359Z"},"descriptive_categories":[{"id":15,"name":"burrito","owner":92,"sector":null,"created":"2021-10-21T16:01:53.692876Z"},{"id":13,"name":"mexicano","owner":null,"sector":null,"created":"2021-10-21T15:08:54.024427Z"}],"return_period":0,"dynamic_link":"https://app.dev.woowbe.com/share/KPoa","is_franchisee_of":null,"is_favorite":false,"created":"2021-10-21T16:00:35.632774Z","offers_count":1},"online":false,"url":null,"position":{"type":"Point","coordinates":[-99.1930712,19.429348]},"address":"Avenida Emilio Castelar","number":"36","postal_code":"11550","state":"","city":"Ciudad de México","merchants_count":0,"modified":"2023-03-17T08:01:34.111751Z","place_id":"ElpBdmVuaWRhIEVtaWxpbyBDYXN0ZWxhciAzNiwgUG9sYW5jbywgUG9sYW5jbyBJViBTZWNjacOzbiwgQ2l1ZGFkIGRlIE3DqXhpY28sIENETVgsIE3DqXhpY28iUBJOCjQKMgmNWltu_wHShREQIthQvM9g5hoeCxDuwe6hARoUChIJ-WLFWgIC0oUR0BPHe2EVjEUMECQqFAoSCQEmYwsCAtKFEeFQYfxGRtv6","formatted_address":"Av. Emilio Castelar 36, Polanco, Polanco IV Secc, Miguel Hidalgo, 11550 Ciudad de México, CDMX","deleted":false,"deleted_at":null,"created":"2022-05-18T11:58:26.948123Z","selected_offer":{"id":168,"reward":"4.00","reward_type":"fixed","kind":"B","instant":false,"name":"4€ por cada comida","standalone":false,"purchases":null,"online":false,"applicable":false,"available_percentage":1,"available_rewards":0,"is_used":false,"finish_date":null},"public_url":null,"is_open":false},{"id":613,"business":{"id":102,"name":"Sushita","country":null,"description":"Música en directo, cócteles a base de ingredientes naturales y el mejor sushi de la ciudad. Y, todo ello, en un lugar con una decoración cuidada al detalle y una terraza muy agradable. ¿Acaso se le puede pedir más a un afterwork?","url":"https://www.sushita.com/","square_picture":"https://woowbe-dev.s3.amazonaws.com/media/pictures/square_picture_VmoZjKe.jpg","widescreen_picture":"https://woowbe-dev.s3.amazonaws.com/media/pictures/1635069991.jpeg","cover":"https://woowbe-dev.s3.amazonaws.com/media/covers/cover_d4UJ9zz.jpg","sector":{"id":37,"name":"Restaurante temático","icon":"https://woowbe-dev.s3.amazonaws.com/media/icons/toeat_T2kMSVS.svg","created":"2021-10-21T14:32:58.019404Z"},"descriptive_categories":[{"id":30,"name":"afterwork","owner":null,"sector":4,"created":"2021-10-24T10:04:24.581445Z"},{"id":10,"name":"Healthy","owner":null,"sector":null,"created":"2021-10-21T14:33:37.426542Z"},{"id":16,"name":"sushi","owner":null,"sector":null,"created":"2021-10-21T19:14:06.256566Z"}],"return_period":0,"dynamic_link":"https://app.dev.woowbe.com/share/LTVM","is_franchisee_of":null,"is_favorite":false,"created":"2021-10-24T10:04:32.084157Z","offers_count":1},"online":false,"url":null,"position":{"type":"Point","coordinates":[-99.1989695,19.4314964]},"address":"Calle Calderón de la Barca","number":"93","postal_code":"11550","state":"","city":"Ciudad de México","merchants_count":0,"modified":"2023-03-17T08:01:34.413008Z","place_id":"ChIJyd28kgIC0oURHIPbsMNpHCs","formatted_address":"C. Calderón de la Barca 93, Polanco, Polanco III Secc, Miguel Hidalgo, 11550 Ciudad de México, CDMX","deleted":false,"deleted_at":null,"created":"2022-05-18T11:46:13.368341Z","selected_offer":{"id":191,"reward":"3.00","reward_type":"fixed","kind":"B","instant":false,"name":"3€ por cenas de +25€","standalone":false,"purchases":null,"online":false,"applicable":false,"available_percentage":1,"available_rewards":0,"is_used":false,"finish_date":null},"public_url":null,"is_open":false},{"id":612,"business":{"id":102,"name":"Sushita","country":null,"description":"Música en directo, cócteles a base de ingredientes naturales y el mejor sushi de la ciudad. Y, todo ello, en un lugar con una decoración cuidada al detalle y una terraza muy agradable. ¿Acaso se le puede pedir más a un afterwork?","url":"https://www.sushita.com/","square_picture":"https://woowbe-dev.s3.amazonaws.com/media/pictures/square_picture_VmoZjKe.jpg","widescreen_picture":"https://woowbe-dev.s3.amazonaws.com/media/pictures/1635069991.jpeg","cover":"https://woowbe-dev.s3.amazonaws.com/media/covers/cover_d4UJ9zz.jpg","sector":{"id":37,"name":"Restaurante temático","icon":"https://woowbe-dev.s3.amazonaws.com/media/icons/toeat_T2kMSVS.svg","created":"2021-10-21T14:32:58.019404Z"},"descriptive_categories":[{"id":30,"name":"afterwork","owner":null,"sector":4,"created":"2021-10-24T10:04:24.581445Z"},{"id":10,"name":"Healthy","owner":null,"sector":null,"created":"2021-10-21T14:33:37.426542Z"},{"id":16,"name":"sushi","owner":null,"sector":null,"created":"2021-10-21T19:14:06.256566Z"}],"return_period":0,"dynamic_link":"https://app.dev.woowbe.com/share/LTVM","is_franchisee_of":null,"is_favorite":false,"created":"2021-10-24T10:04:32.084157Z","offers_count":1},"online":false,"url":null,"position":{"type":"Point","coordinates":[-99.20139,19.4341074]},"address":"Avenida Moliere","number":"159","postal_code":"11550","state":"","city":"Ciudad de México","merchants_count":0,"modified":"2023-03-17T08:01:34.606850Z","place_id":"ElRBdmVuaWRhIE1vbGllcmUgMTU5LCBQb2xhbmNvLCBQb2xhbmNvIElJSSBTZWNjacOzbiwgQ2l1ZGFkIGRlIE3DqXhpY28sIENETVgsIE3DqXhpY28iURJPCjQKMgmponTPHALShRH17tF3kczSDRoeCxDuwe6hARoUChIJ-WLFWgIC0oUR0BPHe2EVjEUMEJ8BKhQKEgk7PnZTGwLShRHb7-sky0_RPQ","formatted_address":"Av Moliere 159, Polanco, Polanco III Secc, Miguel Hidalgo, 11550 Ciudad de México, CDMX","deleted":false,"deleted_at":null,"created":"2022-05-18T11:45:53.530247Z","selected_offer":{"id":191,"reward":"3.00","reward_type":"fixed","kind":"B","instant":false,"name":"3€ por cenas de +25€","standalone":false,"purchases":null,"online":false,"applicable":false,"available_percentage":1,"available_rewards":0,"is_used":false,"finish_date":null},"public_url":null,"is_open":false},{"id":611,"business":{"id":102,"name":"Sushita","country":null,"description":"Música en directo, cócteles a base de ingredientes naturales y el mejor sushi de la ciudad. Y, todo ello, en un lugar con una decoración cuidada al detalle y una terraza muy agradable. ¿Acaso se le puede pedir más a un afterwork?","url":"https://www.sushita.com/","square_picture":"https://woowbe-dev.s3.amazonaws.com/media/pictures/square_picture_VmoZjKe.jpg","widescreen_picture":"https://woowbe-dev.s3.amazonaws.com/media/pictures/1635069991.jpeg","cover":"https://woowbe-dev.s3.amazonaws.com/media/covers/cover_d4UJ9zz.jpg","sector":{"id":37,"name":"Restaurante temático","icon":"https://woowbe-dev.s3.amazonaws.com/media/icons/toeat_T2kMSVS.svg","created":"2021-10-21T14:32:58.019404Z"},"descriptive_categories":[{"id":30,"name":"afterwork","owner":null,"sector":4,"created":"2021-10-24T10:04:24.581445Z"},{"id":10,"name":"Healthy","owner":null,"sector":null,"created":"2021-10-21T14:33:37.426542Z"},{"id":16,"name":"sushi","owner":null,"sector":null,"created":"2021-10-21T19:14:06.256566Z"}],"return_period":0,"dynamic_link":"https://app.dev.woowbe.com/share/LTVM","is_franchisee_of":null,"is_favorite":false,"created":"2021-10-24T10:04:32.084157Z","offers_count":1},"online":false,"url":null,"position":{"type":"Point","coordinates":[-99.19366869999999,19.4293303]},"address":"Avenida Emilio Castelar","number":"58","postal_code":"11550","state":"","city":"Ciudad de México","merchants_count":0,"modified":"2023-03-17T08:01:34.797739Z","place_id":"ElpBdmVuaWRhIEVtaWxpbyBDYXN0ZWxhciA1OCwgUG9sYW5jbywgUG9sYW5jbyBJViBTZWNjacOzbiwgQ2l1ZGFkIGRlIE3DqXhpY28sIENETVgsIE3DqXhpY28iUBJOCjQKMgmNWltu_wHShREQIthQvM9g5hoeCxDuwe6hARoUChIJ-WLFWgIC0oUR0BPHe2EVjEUMEDoqFAoSCQEmYwsCAtKFEeFQYfxGRtv6","formatted_address":"Av. Emilio Castelar 58, Polanco, Polanco IV Secc, Miguel Hidalgo, 11550 Ciudad de México, CDMX","deleted":false,"deleted_at":null,"created":"2022-05-18T11:45:10.355743Z","selected_offer":{"id":191,"reward":"3.00","reward_type":"fixed","kind":"B","instant":false,"name":"3€ por cenas de +25€","standalone":false,"purchases":null,"online":false,"applicable":false,"available_percentage":1,"available_rewards":0,"is_used":false,"finish_date":null},"public_url":null,"is_open":false},{"id":610,"business":{"id":121,"name":"Distrito Ceviche","country":null,"description":"Si compartes nuestra misma pasión por el ceviche o quieres empezar a sentirla, visítanos en nuestro restaurante de Calle Princesa 79, en nuestro puesto n° 17 del Mercado de La Paz  o en nuestro puesto del Mercado de Vallehermoso 36. También puedes venir a recoger tu pedido o incluso, pedir a domicilio a través de nuestra página web o plataformas asociadas. Llámanos y estaremos encantados de ayudarte. Todas las locaciones tienen cartas distintas,","url":"https://www.distritoceviche.com/","square_picture":"https://woowbe-dev.s3.amazonaws.com/media/pictures/distrito-cevivhe-logo-1-1.png","widescreen_picture":"https://woowbe-dev.s3.amazonaws.com/media/pictures/1638181745.png","cover":"https://woowbe-dev.s3.amazonaws.com/media/covers/distrito-ceviche-portada.jpeg","sector":{"id":2,"name":"Restaurante","icon":"https://woowbe-dev.s3.amazonaws.com/media/icons/food_Yc99kSV.svg","created":"2021-05-25T10:46:14.371617Z"},"descriptive_categories":[{"id":53,"name":"ceviche","owner":null,"sector":null,"created":"2021-11-29T10:28:59.539689Z"}],"return_period":0,"dynamic_link":"https://app.dev.woowbe.com/share/D2KP","is_franchisee_of":null,"is_favorite":false,"created":"2021-11-29T10:29:05.333711Z","offers_count":1},"online":false,"url":null,"position":{"type":"Point","coordinates":[-99.199141,19.4316922]},"address":"Calle Calderón de la Barca","number":"100","postal_code":"11550","state":"","city":"Ciudad de México","merchants_count":0,"modified":"2023-03-17T08:01:34.923729Z","place_id":"EmBDYWxsZSBDYWxkZXLDs24gZGUgbGEgQmFyY2EgMTAwLCBQb2xhbmNvLCBQb2xhbmNvIElJSSBTZWNjacOzbiwgQ2l1ZGFkIGRlIE3DqXhpY28sIENETVgsIE3DqXhpY28iUBJOCjQKMgkxsDaRAgLShRHWeJ5IYW0vFxoeCxDuwe6hARoUChIJ-WLFWgIC0oUR0BPHe2EVjEUMEGQqFAoSCS9sAB4DAtKFEZPqVYOsDxkh","formatted_address":"C. Calderón de la Barca 100, Polanco, Polanco III Secc, Miguel Hidalgo, 11550 Ciudad de México, CDMX","deleted":false,"deleted_at":null,"created":"2022-05-18T11:38:43.327308Z","selected_offer":{"id":222,"reward":"10.00","reward_type":"percentage","kind":"A","instant":false,"name":"Distrito Ceviche 10%","standalone":false,"purchases":null,"online":false,"applicable":false,"available_percentage":1,"available_rewards":null,"is_used":false,"finish_date":null},"public_url":null,"is_open":false},{"id":609,"business":{"id":121,"name":"Distrito Ceviche","country":null,"description":"Si compartes nuestra misma pasión por el ceviche o quieres empezar a sentirla, visítanos en nuestro restaurante de Calle Princesa 79, en nuestro puesto n° 17 del Mercado de La Paz  o en nuestro puesto del Mercado de Vallehermoso 36. También puedes venir a recoger tu pedido o incluso, pedir a domicilio a través de nuestra página web o plataformas asociadas. Llámanos y estaremos encantados de ayudarte. Todas las locaciones tienen cartas distintas,","url":"https://www.distritoceviche.com/","square_picture":"https://woowbe-dev.s3.amazonaws.com/media/pictures/distrito-cevivhe-logo-1-1.png","widescreen_picture":"https://woowbe-dev.s3.amazonaws.com/media/pictures/1638181745.png","cover":"https://woowbe-dev.s3.amazonaws.com/media/covers/distrito-ceviche-portada.jpeg","sector":{"id":2,"name":"Restaurante","icon":"https://woowbe-dev.s3.amazonaws.com/media/icons/food_Yc99kSV.svg","created":"2021-05-25T10:46:14.371617Z"},"descriptive_categories":[{"id":53,"name":"ceviche","owner":null,"sector":null,"created":"2021-11-29T10:28:59.539689Z"}],"return_period":0,"dynamic_link":"https://app.dev.woowbe.com/share/D2KP","is_franchisee_of":null,"is_favorite":false,"created":"2021-11-29T10:29:05.333711Z","offers_count":1},"online":false,"url":null,"position":{"type":"Point","coordinates":[-99.201805,19.4356438]},"address":"Avenida Moliere","number":"146","postal_code":"11550","state":"","city":"Ciudad de México","merchants_count":0,"modified":"2023-03-17T08:01:35.306464Z","place_id":"ElRBdmVuaWRhIE1vbGllcmUgMTQ2LCBQb2xhbmNvLCBQb2xhbmNvIElJSSBTZWNjacOzbiwgQ2l1ZGFkIGRlIE3DqXhpY28sIENETVgsIE3DqXhpY28iURJPCjQKMglBAs6uHALShREU_6PwSrxRpRoeCxDuwe6hARoUChIJ-WLFWgIC0oUR0BPHe2EVjEUMEJIBKhQKEgk7PnZTGwLShRHb7-sky0_RPQ","formatted_address":"Av Moliere 146, Polanco, Polanco II Secc, Miguel Hidalgo, 11550 Ciudad de México, CDMX","deleted":false,"deleted_at":null,"created":"2022-05-18T11:38:24.356714Z","selected_offer":{"id":222,"reward":"10.00","reward_type":"percentage","kind":"A","instant":false,"name":"Distrito Ceviche 10%","standalone":false,"purchases":null,"online":false,"applicable":false,"available_percentage":1,"available_rewards":null,"is_used":false,"finish_date":null},"public_url":null,"is_open":false},{"id":608,"business":{"id":121,"name":"Distrito Ceviche","country":null,"description":"Si compartes nuestra misma pasión por el ceviche o quieres empezar a sentirla, visítanos en nuestro restaurante de Calle Princesa 79, en nuestro puesto n° 17 del Mercado de La Paz  o en nuestro puesto del Mercado de Vallehermoso 36. También puedes venir a recoger tu pedido o incluso, pedir a domicilio a través de nuestra página web o plataformas asociadas. Llámanos y estaremos encantados de ayudarte. Todas las locaciones tienen cartas distintas,","url":"https://www.distritoceviche.com/","square_picture":"https://woowbe-dev.s3.amazonaws.com/media/pictures/distrito-cevivhe-logo-1-1.png","widescreen_picture":"https://woowbe-dev.s3.amazonaws.com/media/pictures/1638181745.png","cover":"https://woowbe-dev.s3.amazonaws.com/media/covers/distrito-ceviche-portada.jpeg","sector":{"id":2,"name":"Restaurante","icon":"https://woowbe-dev.s3.amazonaws.com/media/icons/food_Yc99kSV.svg","created":"2021-05-25T10:46:14.371617Z"},"descriptive_categories":[{"id":53,"name":"ceviche","owner":null,"sector":null,"created":"2021-11-29T10:28:59.539689Z"}],"return_period":0,"dynamic_link":"https://app.dev.woowbe.com/share/D2KP","is_franchisee_of":null,"is_favorite":false,"created":"2021-11-29T10:29:05.333711Z","offers_count":1},"online":false,"url":null,"position":{"type":"Point","coordinates":[-99.1959839,19.429782]},"address":"Avenida Emilio Castelar","number":"73","postal_code":"11550","state":"","city":"Ciudad de México","merchants_count":0,"modified":"2023-03-17T08:01:35.514114Z","place_id":"ElpBdmVuaWRhIEVtaWxpbyBDYXN0ZWxhciA3MywgUG9sYW5jbywgUG9sYW5jbyBJViBTZWNjacOzbiwgQ2l1ZGFkIGRlIE3DqXhpY28sIENETVgsIE3DqXhpY28iUBJOCjQKMgkTTzSs-AHShRHzIdhQvM9g5hoeCxDuwe6hARoUChIJ-WLFWgIC0oUR0BPHe2EVjEUMEEkqFAoSCQEmYwsCAtKFEeFQYfxGRtv6","formatted_address":"Av. Emilio Castelar 73, Polanco, Polanco IV Secc, Miguel Hidalgo, 11550 Ciudad de México, CDMX","deleted":false,"deleted_at":null,"created":"2022-05-18T11:38:03.399997Z","selected_offer":{"id":222,"reward":"10.00","reward_type":"percentage","kind":"A","instant":false,"name":"Distrito Ceviche 10%","standalone":false,"purchases":null,"online":false,"applicable":false,"available_percentage":1,"available_rewards":null,"is_used":false,"finish_date":null},"public_url":null,"is_open":false}]}