{
	"count": 579,
	"next": "https://backend.dev.woowbe.com/api/v1/points_of_sales/public/?page=3",
	"previous": "https://backend.dev.woowbe.com/api/v1/points_of_sales/public/",
	"results": [
		{
			"id": 926,
			"business": {
				"id": 310,
				"name": "Test App Shop",
				"country": {
					"id": 2,
					"name": "Malta",
					"code": "mt"
				},
				"description": "AAA",
				"url": "https://google.com",
				"square_picture": "https://woowbe-dev.s3.amazonaws.com/media/pictures/1667494635.jpeg",
				"widescreen_picture": "https://woowbe-dev.s3.amazonaws.com/media/pictures/widescreen_picture_ZiLjO4p.jpg",
				"cover": "https://woowbe-dev.s3.amazonaws.com/media/covers/cover_kvUvSKN.jpg",
				"sector": {
					"id": 22,
					"name": "Alimentación animal",
					"icon": "https://woowbe-dev.s3.amazonaws.com/media/icons/pets.svg",
					"created": "2021-05-25T11:07:08.658870Z"
				},
				"descriptive_categories": [
					{
						"id": 30,
						"name": "afterwork",
						"owner": null,
						"sector": 4,
						"created": "2021-10-24T10:04:24.581445Z"
					}
				],
				"return_period": 0,
				"dynamic_link": "https://app.dev.woowbe.com/share/63RH",
				"is_franchisee_of": 143,
				"is_favorite": false,
				"created": "2023-03-13T08:35:28.703912Z",
				"offers_count": 0
			},
			"online": false,
			"url": null,
			"position": {
				"type": "Point",
				"coordinates": [
					-4.5640243,
					37.0213205
				]
			},
			"address": "Calle Merecillas",
			"number": "43",
			"postal_code": "29200",
			"state": "Málaga",
			"city": "Antequera",
			"merchants_count": 0,
			"modified": "2023-04-03T14:35:15.007220Z",
			"place_id": "EihDYWxsZSBNZXJlY2lsbGFzLCA0MywgQW50ZXF1ZXJhLCBFc3Bhw7FhIjASLgoUChIJzaWubh6Qcg0R5v2Lg10V1u4QKyoUChIJI6j6Hx6Qcg0R4pTqvNbt1-A",
			"formatted_address": "C. Merecillas, 43, 29200 Antequera, Málaga",
			"deleted": false,
			"deleted_at": null,
			"created": "2023-04-03T14:35:15.007220Z",
			"selected_offer": {
				"reward": null,
				"reward_type": null,
				"kind": null,
				"instant": false,
				"name": "",
				"standalone": false,
				"purchases": null,
				"online": false,
				"finish_date": null
			},
			"public_url": null,
			"is_open": false
		},
		{
			"id": 925,
			"business": {
				"id": 310,
				"name": "Test App Shop",
				"country": {
					"id": 2,
					"name": "Malta",
					"code": "mt"
				},
				"description": "AAA",
				"url": "https://google.com",
				"square_picture": "https://woowbe-dev.s3.amazonaws.com/media/pictures/1667494635.jpeg",
				"widescreen_picture": "https://woowbe-dev.s3.amazonaws.com/media/pictures/widescreen_picture_ZiLjO4p.jpg",
				"cover": "https://woowbe-dev.s3.amazonaws.com/media/covers/cover_kvUvSKN.jpg",
				"sector": {
					"id": 22,
					"name": "Alimentación animal",
					"icon": "https://woowbe-dev.s3.amazonaws.com/media/icons/pets.svg",
					"created": "2021-05-25T11:07:08.658870Z"
				},
				"descriptive_categories": [
					{
						"id": 30,
						"name": "afterwork",
						"owner": null,
						"sector": 4,
						"created": "2021-10-24T10:04:24.581445Z"
					}
				],
				"return_period": 0,
				"dynamic_link": "https://app.dev.woowbe.com/share/63RH",
				"is_franchisee_of": 143,
				"is_favorite": false,
				"created": "2023-03-13T08:35:28.703912Z",
				"offers_count": 0
			},
			"online": false,
			"url": null,
			"position": {
				"type": "Point",
				"coordinates": [
					-3.6994958,
					40.4062962
				]
			},
			"address": "Calle de Valencia",
			"number": "23",
			"postal_code": "28012",
			"state": "Madrid",
			"city": "Madrid",
			"merchants_count": 0,
			"modified": "2023-04-03T14:09:58.081313Z",
			"place_id": "ChIJ6ZePQywmQg0RR1YpY7xw07g",
			"formatted_address": "C. de Valencia, 23, 28012 Madrid",
			"deleted": false,
			"deleted_at": null,
			"created": "2023-04-03T14:09:58.081313Z",
			"selected_offer": {
				"reward": null,
				"reward_type": null,
				"kind": null,
				"instant": false,
				"name": "",
				"standalone": false,
				"purchases": null,
				"online": false,
				"finish_date": null
			},
			"public_url": null,
			"is_open": false
		},
		{
			"id": 924,
			"business": {
				"id": 310,
				"name": "Test App Shop",
				"country": {
					"id": 2,
					"name": "Malta",
					"code": "mt"
				},
				"description": "AAA",
				"url": "https://google.com",
				"square_picture": "https://woowbe-dev.s3.amazonaws.com/media/pictures/1667494635.jpeg",
				"widescreen_picture": "https://woowbe-dev.s3.amazonaws.com/media/pictures/widescreen_picture_ZiLjO4p.jpg",
				"cover": "https://woowbe-dev.s3.amazonaws.com/media/covers/cover_kvUvSKN.jpg",
				"sector": {
					"id": 22,
					"name": "Alimentación animal",
					"icon": "https://woowbe-dev.s3.amazonaws.com/media/icons/pets.svg",
					"created": "2021-05-25T11:07:08.658870Z"
				},
				"descriptive_categories": [
					{
						"id": 30,
						"name": "afterwork",
						"owner": null,
						"sector": 4,
						"created": "2021-10-24T10:04:24.581445Z"
					}
				],
				"return_period": 0,
				"dynamic_link": "https://app.dev.woowbe.com/share/63RH",
				"is_franchisee_of": 143,
				"is_favorite": false,
				"created": "2023-03-13T08:35:28.703912Z",
				"offers_count": 0
			},
			"online": false,
			"url": null,
			"position": {
				"type": "Point",
				"coordinates": [
					-3.6331015,
					40.4061368
				]
			},
			"address": "Calle de Mario Cabré",
			"number": "31",
			"postal_code": "28030",
			"state": "Madrid",
			"city": "Madrid",
			"merchants_count": 0,
			"modified": "2023-04-03T13:57:27.471660Z",
			"place_id": "ChIJJVPd6o8lQg0RZDmPzKPSlhE",
			"formatted_address": "C. de Mario Cabré, 31, 28030 Madrid",
			"deleted": false,
			"deleted_at": null,
			"created": "2023-04-03T13:57:27.471660Z",
			"selected_offer": {
				"reward": null,
				"reward_type": null,
				"kind": null,
				"instant": false,
				"name": "",
				"standalone": false,
				"purchases": null,
				"online": false,
				"finish_date": null
			},
			"public_url": null,
			"is_open": false
		},
		{
			"id": 923,
			"business": {
				"id": 310,
				"name": "Test App Shop",
				"country": {
					"id": 2,
					"name": "Malta",
					"code": "mt"
				},
				"description": "AAA",
				"url": "https://google.com",
				"square_picture": "https://woowbe-dev.s3.amazonaws.com/media/pictures/1667494635.jpeg",
				"widescreen_picture": "https://woowbe-dev.s3.amazonaws.com/media/pictures/widescreen_picture_ZiLjO4p.jpg",
				"cover": "https://woowbe-dev.s3.amazonaws.com/media/covers/cover_kvUvSKN.jpg",
				"sector": {
					"id": 22,
					"name": "Alimentación animal",
					"icon": "https://woowbe-dev.s3.amazonaws.com/media/icons/pets.svg",
					"created": "2021-05-25T11:07:08.658870Z"
				},
				"descriptive_categories": [
					{
						"id": 30,
						"name": "afterwork",
						"owner": null,
						"sector": 4,
						"created": "2021-10-24T10:04:24.581445Z"
					}
				],
				"return_period": 0,
				"dynamic_link": "https://app.dev.woowbe.com/share/63RH",
				"is_franchisee_of": 143,
				"is_favorite": false,
				"created": "2023-03-13T08:35:28.703912Z",
				"offers_count": 0
			},
			"online": false,
			"url": null,
			"position": {
				"type": "Point",
				"coordinates": [
					-3.7144545,
					39.4147922
				]
			},
			"address": "Calle Dos Hermanos",
			"number": "43",
			"postal_code": "45480",
			"state": "Toledo",
			"city": "Urda",
			"merchants_count": 0,
			"modified": "2023-04-03T13:57:12.576124Z",
			"place_id": "EiVDYWxsZSBEb3MgSGVybWFub3MsIDQzLCBVcmRhLCBFc3Bhw7FhIjASLgoUChIJzTarDMWHaQ0RIhcSehcagL4QKyoUChIJNbfaosWHaQ0RC-xmF-nmIso",
			"formatted_address": "C. Dos Hermanos, 43, 45480 Urda, Toledo",
			"deleted": false,
			"deleted_at": null,
			"created": "2023-04-03T13:57:12.576124Z",
			"selected_offer": {
				"reward": null,
				"reward_type": null,
				"kind": null,
				"instant": false,
				"name": "",
				"standalone": false,
				"purchases": null,
				"online": false,
				"finish_date": null
			},
			"public_url": null,
			"is_open": false
		},
		{
			"id": 922,
			"business": {
				"id": 310,
				"name": "Test App Shop",
				"country": {
					"id": 2,
					"name": "Malta",
					"code": "mt"
				},
				"description": "AAA",
				"url": "https://google.com",
				"square_picture": "https://woowbe-dev.s3.amazonaws.com/media/pictures/1667494635.jpeg",
				"widescreen_picture": "https://woowbe-dev.s3.amazonaws.com/media/pictures/widescreen_picture_ZiLjO4p.jpg",
				"cover": "https://woowbe-dev.s3.amazonaws.com/media/covers/cover_kvUvSKN.jpg",
				"sector": {
					"id": 22,
					"name": "Alimentación animal",
					"icon": "https://woowbe-dev.s3.amazonaws.com/media/icons/pets.svg",
					"created": "2021-05-25T11:07:08.658870Z"
				},
				"descriptive_categories": [
					{
						"id": 30,
						"name": "afterwork",
						"owner": null,
						"sector": 4,
						"created": "2021-10-24T10:04:24.581445Z"
					}
				],
				"return_period": 0,
				"dynamic_link": "https://app.dev.woowbe.com/share/63RH",
				"is_franchisee_of": 143,
				"is_favorite": false,
				"created": "2023-03-13T08:35:28.703912Z",
				"offers_count": 0
			},
			"online": false,
			"url": null,
			"position": {
				"type": "Point",
				"coordinates": [
					-0.5351064,
					38.4314163
				]
			},
			"address": "Calle Coco",
			"number": "4",
			"postal_code": "03690",
			"state": "Alicante",
			"city": "San Vicente del Raspeig",
			"merchants_count": 0,
			"modified": "2023-04-03T13:56:59.079277Z",
			"place_id": "ChIJeSCjAdAzYg0RH3zBBRoiK30",
			"formatted_address": "C. Coco, 4, 03690 San Vicente del Raspeig, Alicante",
			"deleted": false,
			"deleted_at": null,
			"created": "2023-04-03T13:56:59.079277Z",
			"selected_offer": {
				"reward": null,
				"reward_type": null,
				"kind": null,
				"instant": false,
				"name": "",
				"standalone": false,
				"purchases": null,
				"online": false,
				"finish_date": null
			},
			"public_url": null,
			"is_open": false
		},
		{
			"id": 921,
			"business": {
				"id": 310,
				"name": "Test App Shop",
				"country": {
					"id": 2,
					"name": "Malta",
					"code": "mt"
				},
				"description": "AAA",
				"url": "https://google.com",
				"square_picture": "https://woowbe-dev.s3.amazonaws.com/media/pictures/1667494635.jpeg",
				"widescreen_picture": "https://woowbe-dev.s3.amazonaws.com/media/pictures/widescreen_picture_ZiLjO4p.jpg",
				"cover": "https://woowbe-dev.s3.amazonaws.com/media/covers/cover_kvUvSKN.jpg",
				"sector": {
					"id": 22,
					"name": "Alimentación animal",
					"icon": "https://woowbe-dev.s3.amazonaws.com/media/icons/pets.svg",
					"created": "2021-05-25T11:07:08.658870Z"
				},
				"descriptive_categories": [
					{
						"id": 30,
						"name": "afterwork",
						"owner": null,
						"sector": 4,
						"created": "2021-10-24T10:04:24.581445Z"
					}
				],
				"return_period": 0,
				"dynamic_link": "https://app.dev.woowbe.com/share/63RH",
				"is_franchisee_of": 143,
				"is_favorite": false,
				"created": "2023-03-13T08:35:28.703912Z",
				"offers_count": 0
			},
			"online": false,
			"url": null,
			"position": {
				"type": "Point",
				"coordinates": [
					-3.6771004,
					40.4608851
				]
			},
			"address": "Calle de Triana",
			"number": "2",
			"postal_code": "28016",
			"state": "Madrid",
			"city": "Madrid",
			"merchants_count": 0,
			"modified": "2023-04-03T13:56:44.673915Z",
			"place_id": "ChIJJ1J1cyQpQg0RCvfQKxqI8Ew",
			"formatted_address": "C. de Triana, 2, 28016 Madrid",
			"deleted": false,
			"deleted_at": null,
			"created": "2023-04-03T13:56:44.673915Z",
			"selected_offer": {
				"reward": null,
				"reward_type": null,
				"kind": null,
				"instant": false,
				"name": "",
				"standalone": false,
				"purchases": null,
				"online": false,
				"finish_date": null
			},
			"public_url": null,
			"is_open": false
		},
		{
			"id": 920,
			"business": {
				"id": 310,
				"name": "Test App Shop",
				"country": {
					"id": 2,
					"name": "Malta",
					"code": "mt"
				},
				"description": "AAA",
				"url": "https://google.com",
				"square_picture": "https://woowbe-dev.s3.amazonaws.com/media/pictures/1667494635.jpeg",
				"widescreen_picture": "https://woowbe-dev.s3.amazonaws.com/media/pictures/widescreen_picture_ZiLjO4p.jpg",
				"cover": "https://woowbe-dev.s3.amazonaws.com/media/covers/cover_kvUvSKN.jpg",
				"sector": {
					"id": 22,
					"name": "Alimentación animal",
					"icon": "https://woowbe-dev.s3.amazonaws.com/media/icons/pets.svg",
					"created": "2021-05-25T11:07:08.658870Z"
				},
				"descriptive_categories": [
					{
						"id": 30,
						"name": "afterwork",
						"owner": null,
						"sector": 4,
						"created": "2021-10-24T10:04:24.581445Z"
					}
				],
				"return_period": 0,
				"dynamic_link": "https://app.dev.woowbe.com/share/63RH",
				"is_franchisee_of": 143,
				"is_favorite": false,
				"created": "2023-03-13T08:35:28.703912Z",
				"offers_count": 0
			},
			"online": false,
			"url": null,
			"position": {
				"type": "Point",
				"coordinates": [
					-5.920272,
					37.292596
				]
			},
			"address": "Calle Lorca",
			"number": "43",
			"postal_code": "41704",
			"state": "Sevilla",
			"city": "Dos Hermanas",
			"merchants_count": 0,
			"modified": "2023-04-03T13:56:04.760458Z",
			"place_id": "ChIJx6JUCUJwEg0RK_mvbRYbqOw",
			"formatted_address": "C. Lorca, 43, 41704 Dos Hermanas, Sevilla",
			"deleted": false,
			"deleted_at": null,
			"created": "2023-04-03T13:56:04.760458Z",
			"selected_offer": {
				"reward": null,
				"reward_type": null,
				"kind": null,
				"instant": false,
				"name": "",
				"standalone": false,
				"purchases": null,
				"online": false,
				"finish_date": null
			},
			"public_url": null,
			"is_open": false
		},
		{
			"id": 919,
			"business": {
				"id": 310,
				"name": "Test App Shop",
				"country": {
					"id": 2,
					"name": "Malta",
					"code": "mt"
				},
				"description": "AAA",
				"url": "https://google.com",
				"square_picture": "https://woowbe-dev.s3.amazonaws.com/media/pictures/1667494635.jpeg",
				"widescreen_picture": "https://woowbe-dev.s3.amazonaws.com/media/pictures/widescreen_picture_ZiLjO4p.jpg",
				"cover": "https://woowbe-dev.s3.amazonaws.com/media/covers/cover_kvUvSKN.jpg",
				"sector": {
					"id": 22,
					"name": "Alimentación animal",
					"icon": "https://woowbe-dev.s3.amazonaws.com/media/icons/pets.svg",
					"created": "2021-05-25T11:07:08.658870Z"
				},
				"descriptive_categories": [
					{
						"id": 30,
						"name": "afterwork",
						"owner": null,
						"sector": 4,
						"created": "2021-10-24T10:04:24.581445Z"
					}
				],
				"return_period": 0,
				"dynamic_link": "https://app.dev.woowbe.com/share/63RH",
				"is_franchisee_of": 143,
				"is_favorite": false,
				"created": "2023-03-13T08:35:28.703912Z",
				"offers_count": 0
			},
			"online": false,
			"url": null,
			"position": {
				"type": "Point",
				"coordinates": [
					-3.6994518,
					40.4394308
				]
			},
			"address": "Calle de Ponzano",
			"number": "31",
			"postal_code": "28003",
			"state": "Madrid",
			"city": "Madrid",
			"merchants_count": 0,
			"modified": "2023-04-03T13:55:53.473119Z",
			"place_id": "ChIJX_MclPYoQg0RoWLCaiX1uGE",
			"formatted_address": "C/ de Ponzano, 31, 28003 Madrid",
			"deleted": false,
			"deleted_at": null,
			"created": "2023-04-03T13:55:53.473119Z",
			"selected_offer": {
				"reward": null,
				"reward_type": null,
				"kind": null,
				"instant": false,
				"name": "",
				"standalone": false,
				"purchases": null,
				"online": false,
				"finish_date": null
			},
			"public_url": null,
			"is_open": false
		},
		{
			"id": 918,
			"business": {
				"id": 310,
				"name": "Test App Shop",
				"country": {
					"id": 2,
					"name": "Malta",
					"code": "mt"
				},
				"description": "AAA",
				"url": "https://google.com",
				"square_picture": "https://woowbe-dev.s3.amazonaws.com/media/pictures/1667494635.jpeg",
				"widescreen_picture": "https://woowbe-dev.s3.amazonaws.com/media/pictures/widescreen_picture_ZiLjO4p.jpg",
				"cover": "https://woowbe-dev.s3.amazonaws.com/media/covers/cover_kvUvSKN.jpg",
				"sector": {
					"id": 22,
					"name": "Alimentación animal",
					"icon": "https://woowbe-dev.s3.amazonaws.com/media/icons/pets.svg",
					"created": "2021-05-25T11:07:08.658870Z"
				},
				"descriptive_categories": [
					{
						"id": 30,
						"name": "afterwork",
						"owner": null,
						"sector": 4,
						"created": "2021-10-24T10:04:24.581445Z"
					}
				],
				"return_period": 0,
				"dynamic_link": "https://app.dev.woowbe.com/share/63RH",
				"is_franchisee_of": 143,
				"is_favorite": false,
				"created": "2023-03-13T08:35:28.703912Z",
				"offers_count": 0
			},
			"online": false,
			"url": null,
			"position": {
				"type": "Point",
				"coordinates": [
					-4.7761967,
					41.9602313
				]
			},
			"address": "Calle Morcilla",
			"number": "3",
			"postal_code": "34305",
			"state": "Palencia",
			"city": "Torremormojón",
			"merchants_count": 0,
			"modified": "2023-04-03T13:55:30.193273Z",
			"place_id": "ChIJebF5xsmZRw0Rlcf9mpSH4Us",
			"formatted_address": "C. Morcilla, 3, 34305 Torremormojón, Palencia",
			"deleted": false,
			"deleted_at": null,
			"created": "2023-04-03T13:55:30.193273Z",
			"selected_offer": {
				"reward": null,
				"reward_type": null,
				"kind": null,
				"instant": false,
				"name": "",
				"standalone": false,
				"purchases": null,
				"online": false,
				"finish_date": null
			},
			"public_url": null,
			"is_open": false
		},
		{
			"id": 917,
			"business": {
				"id": 310,
				"name": "Test App Shop",
				"country": {
					"id": 2,
					"name": "Malta",
					"code": "mt"
				},
				"description": "AAA",
				"url": "https://google.com",
				"square_picture": "https://woowbe-dev.s3.amazonaws.com/media/pictures/1667494635.jpeg",
				"widescreen_picture": "https://woowbe-dev.s3.amazonaws.com/media/pictures/widescreen_picture_ZiLjO4p.jpg",
				"cover": "https://woowbe-dev.s3.amazonaws.com/media/covers/cover_kvUvSKN.jpg",
				"sector": {
					"id": 22,
					"name": "Alimentación animal",
					"icon": "https://woowbe-dev.s3.amazonaws.com/media/icons/pets.svg",
					"created": "2021-05-25T11:07:08.658870Z"
				},
				"descriptive_categories": [
					{
						"id": 30,
						"name": "afterwork",
						"owner": null,
						"sector": 4,
						"created": "2021-10-24T10:04:24.581445Z"
					}
				],
				"return_period": 0,
				"dynamic_link": "https://app.dev.woowbe.com/share/63RH",
				"is_franchisee_of": 143,
				"is_favorite": false,
				"created": "2023-03-13T08:35:28.703912Z",
				"offers_count": 0
			},
			"online": false,
			"url": null,
			"position": {
				"type": "Point",
				"coordinates": [
					-3.9684333,
					40.5910229
				]
			},
			"address": "Calle de Lorena",
			"number": "2",
			"postal_code": "28420",
			"state": "Madrid",
			"city": "Parquelagos",
			"merchants_count": 0,
			"modified": "2023-04-03T13:55:19.502181Z",
			"place_id": "ChIJnRSJE2p2QQ0RiEOUzjHzwSU",
			"formatted_address": "C. de Lorena, 2, 28420 Parquelagos, Madrid",
			"deleted": false,
			"deleted_at": null,
			"created": "2023-04-03T13:55:19.502181Z",
			"selected_offer": {
				"reward": null,
				"reward_type": null,
				"kind": null,
				"instant": false,
				"name": "",
				"standalone": false,
				"purchases": null,
				"online": false,
				"finish_date": null
			},
			"public_url": null,
			"is_open": false
		}
	]
}
