{"count":579,"next":"https://backend.dev.woowbe.com/api/v1/points_of_sales/public/?page=22","previous":"https://backend.dev.woowbe.com/api/v1/points_of_sales/public/?page=20","results":[{"id":582,"business":{"id":134,"name":"Taj Mahal","country":{"id":3,"name":"España","code":"es"},"description":"El restaurante Taj Mahal situado en el centro de Madrid dispone de un pequeño local decorado típicamente al estilo hindú. Su amplia carta permite disfrutar de un sin fin de sabores exóticos, ejemplos son las típicas salsas de aperitivo, las samosas de carne, o el pollo o cordero asado.","url":"https://restaurante-taj-mahal.business.site","square_picture":"https://woowbe-dev.s3.amazonaws.com/media/pictures/taj-mahal-logo-1-1_oY8rPRm.png","widescreen_picture":"https://woowbe-dev.s3.amazonaws.com/media/pictures/1638367485.png","cover":"https://woowbe-dev.s3.amazonaws.com/media/covers/cover_fhbL2r4.jpg","sector":{"id":2,"name":"Restaurante","icon":"https://woowbe-dev.s3.amazonaws.com/media/icons/food_Yc99kSV.svg","created":"2021-05-25T10:46:14.371617Z"},"descriptive_categories":[{"id":62,"name":"hindú","owner":null,"sector":null,"created":"2021-12-01T14:04:41.862509Z"}],"return_period":1,"dynamic_link":"https://app.dev.woowbe.com/share/aHeC","is_franchisee_of":null,"is_favorite":false,"created":"2021-12-01T14:04:44.972960Z","offers_count":1},"online":false,"url":null,"position":{"type":"Point","coordinates":[2.147382,41.3810411]},"address":"Carrer de València","number":"23","postal_code":"08015","state":"Barcelona","city":"Barcelona","merchants_count":0,"modified":"2023-03-17T08:01:43.815271Z","place_id":"EiZDYWxsZSBWYWxlbmNpYSwgMjMsIEJhcmNlbG9uYSwgRXNwYcOxYSJQEk4KNAoyCeMD7St-oqQSEYwGPLm7hw8aGh4LEO7B7qEBGhQKEgkpjta2YqKkEhGQTkd64_oAHAwQFyoUChIJ5SE77OuipBIRCot0XjpxydM","formatted_address":"Carrer de València, 23, 08015 Barcelona","deleted":false,"deleted_at":null,"created":"2022-01-11T16:02:56.629650Z","selected_offer":{"id":250,"reward":"10.00","reward_type":"fixed","kind":"B","instant":false,"name":"prueba presupuesto menor que recompensa","standalone":false,"purchases":null,"online":false,"applicable":false,"available_percentage":1,"available_rewards":0,"is_used":false,"finish_date":null},"public_url":null,"is_open":false},{"id":581,"business":{"id":134,"name":"Taj Mahal","country":{"id":3,"name":"España","code":"es"},"description":"El restaurante Taj Mahal situado en el centro de Madrid dispone de un pequeño local decorado típicamente al estilo hindú. Su amplia carta permite disfrutar de un sin fin de sabores exóticos, ejemplos son las típicas salsas de aperitivo, las samosas de carne, o el pollo o cordero asado.","url":"https://restaurante-taj-mahal.business.site","square_picture":"https://woowbe-dev.s3.amazonaws.com/media/pictures/taj-mahal-logo-1-1_oY8rPRm.png","widescreen_picture":"https://woowbe-dev.s3.amazonaws.com/media/pictures/1638367485.png","cover":"https://woowbe-dev.s3.amazonaws.com/media/covers/cover_fhbL2r4.jpg","sector":{"id":2,"name":"Restaurante","icon":"https://woowbe-dev.s3.amazonaws.com/media/icons/food_Yc99kSV.svg","created":"2021-05-25T10:46:14.371617Z"},"descriptive_categories":[{"id":62,"name":"hindú","owner":null,"sector":null,"created":"2021-12-01T14:04:41.862509Z"}],"return_period":1,"dynamic_link":"https://app.dev.woowbe.com/share/aHeC","is_franchisee_of":null,"is_favorite":false,"created":"2021-12-01T14:04:44.972960Z","offers_count":1},"online":false,"url":null,"position":{"type":"Point","coordinates":[-3.7020858,40.4312842]},"address":"Calle del Cardenal Cisneros","number":"29","postal_code":"28010","state":"Madrid","city":"Madrid","merchants_count":0,"modified":"2022-08-01T09:52:54.120931Z","place_id":"ChIJ5ww2joooQg0R2bdcXMG8APY","formatted_address":"Calle del Cardenal Cisneros, 29, 28010 Madrid","deleted":true,"deleted_at":"2022-08-01T09:52:54.097245Z","created":"2021-12-01T14:05:50.995285Z","selected_offer":{"id":250,"reward":"10.00","reward_type":"fixed","kind":"B","instant":false,"name":"prueba presupuesto menor que recompensa","standalone":false,"purchases":null,"online":false,"applicable":false,"available_percentage":1,"available_rewards":0,"is_used":false,"finish_date":null},"public_url":null,"is_open":false},{"id":580,"business":{"id":133,"name":"RAWCOCO","country":{"id":3,"name":"España","code":"es"},"description":"RAWCOCO nace para responder a esta tendencia, ofreciendo una equilibrada carta de calidad saludable, con productos aún poco conocidos para muchas personas y con extraordinarias propiedades para la salud, para todos los gustos y edades; comprometidos igualmente con la necesidad de ser flexibles y amables en el proceso y distinto grado evolutivo de nuestros clientes en el mismo, en un contexto de cambio y de transitoriedad hacia un modelo de desarrollo, más sostenible y más coherente con la necesidad de encontrar en la conservación de la Salud y su prevención, la base del mismo.","url":"http://www.rawcoco.es/","square_picture":"https://woowbe-dev.s3.amazonaws.com/media/pictures/rawcoco-logo-1-1.png","widescreen_picture":"https://woowbe-dev.s3.amazonaws.com/media/pictures/1638198240.png","cover":"https://woowbe-dev.s3.amazonaws.com/media/covers/rawcoco-portada.jpeg","sector":{"id":40,"name":"Healthy Food","icon":"https://woowbe-dev.s3.amazonaws.com/media/icons/health.svg","created":"2021-11-29T15:03:51.168889Z"},"descriptive_categories":[{"id":10,"name":"Healthy","owner":null,"sector":null,"created":"2021-10-21T14:33:37.426542Z"},{"id":50,"name":"saludable","owner":118,"sector":null,"created":"2021-11-29T09:30:31.798207Z"}],"return_period":0,"dynamic_link":"https://app.dev.woowbe.com/share/gs5e","is_franchisee_of":null,"is_favorite":false,"created":"2021-11-29T15:04:00.709554Z","offers_count":0},"online":false,"url":null,"position":{"type":"Point","coordinates":[-3.6754363,40.4409908]},"address":"Calle Zabaleta","number":"1","postal_code":"28002","state":"Madrid","city":"Madrid","merchants_count":0,"modified":"2023-03-17T08:01:44.495557Z","place_id":"ChIJS4oPT8QoQg0RLieBUK4EnFY","formatted_address":"C. Zabaleta, 1, 28002 Madrid","deleted":false,"deleted_at":null,"created":"2021-11-29T15:05:10.368579Z","selected_offer":{"reward":null,"reward_type":null,"kind":null,"instant":false,"name":"","standalone":false,"purchases":null,"online":false,"finish_date":null},"public_url":null,"is_open":false},{"id":579,"business":{"id":133,"name":"RAWCOCO","country":{"id":3,"name":"España","code":"es"},"description":"RAWCOCO nace para responder a esta tendencia, ofreciendo una equilibrada carta de calidad saludable, con productos aún poco conocidos para muchas personas y con extraordinarias propiedades para la salud, para todos los gustos y edades; comprometidos igualmente con la necesidad de ser flexibles y amables en el proceso y distinto grado evolutivo de nuestros clientes en el mismo, en un contexto de cambio y de transitoriedad hacia un modelo de desarrollo, más sostenible y más coherente con la necesidad de encontrar en la conservación de la Salud y su prevención, la base del mismo.","url":"http://www.rawcoco.es/","square_picture":"https://woowbe-dev.s3.amazonaws.com/media/pictures/rawcoco-logo-1-1.png","widescreen_picture":"https://woowbe-dev.s3.amazonaws.com/media/pictures/1638198240.png","cover":"https://woowbe-dev.s3.amazonaws.com/media/covers/rawcoco-portada.jpeg","sector":{"id":40,"name":"Healthy Food","icon":"https://woowbe-dev.s3.amazonaws.com/media/icons/health.svg","created":"2021-11-29T15:03:51.168889Z"},"descriptive_categories":[{"id":10,"name":"Healthy","owner":null,"sector":null,"created":"2021-10-21T14:33:37.426542Z"},{"id":50,"name":"saludable","owner":118,"sector":null,"created":"2021-11-29T09:30:31.798207Z"}],"return_period":0,"dynamic_link":"https://app.dev.woowbe.com/share/gs5e","is_franchisee_of":null,"is_favorite":false,"created":"2021-11-29T15:04:00.709554Z","offers_count":0},"online":false,"url":null,"position":{"type":"Point","coordinates":[-3.6786556,40.4262711]},"address":"Calle del General Pardiñas","number":"21","postal_code":"28001","state":"Madrid","city":"Madrid","merchants_count":0,"modified":"2023-03-17T08:01:45.294752Z","place_id":"ChIJtyj_irwoQg0R0oBjtFIWycU","formatted_address":"Calle del Gral. Pardiñas, 21, 28001 Madrid","deleted":false,"deleted_at":null,"created":"2021-11-29T15:04:51.953712Z","selected_offer":{"reward":null,"reward_type":null,"kind":null,"instant":false,"name":"","standalone":false,"purchases":null,"online":false,"finish_date":null},"public_url":null,"is_open":false},{"id":578,"business":{"id":132,"name":"Panaria","country":null,"description":"Es el sitio para llevar a tus hijos a merendar o donde comer un bocadillo con una cervecita.\r\nAdemás, si quieres darte un capricho puedes hacerlo con nuestra bollería de calidad o con nuestros batidos y smoothies.\r\nUna carta variada y fresca para que cada vez que nos visites puedas probar algo que combine con tu antojo del día.","url":"https://panariapanaderias.es/","square_picture":"https://woowbe-dev.s3.amazonaws.com/media/pictures/panaria-logo-1-1.png","widescreen_picture":"https://woowbe-dev.s3.amazonaws.com/media/pictures/1638197657.png","cover":"https://woowbe-dev.s3.amazonaws.com/media/covers/panaria-portada.webp","sector":{"id":19,"name":"Panadería","icon":"https://woowbe-dev.s3.amazonaws.com/media/icons/toeat_I8A0AM0.svg","created":"2021-05-25T11:05:24.276505Z"},"descriptive_categories":[{"id":25,"name":"pan","owner":null,"sector":null,"created":"2021-10-21T21:05:17.331228Z"},{"id":23,"name":"panadería","owner":null,"sector":null,"created":"2021-10-21T21:04:59.592984Z"}],"return_period":0,"dynamic_link":"https://app.dev.woowbe.com/share/qXUY","is_franchisee_of":null,"is_favorite":false,"created":"2021-11-29T14:54:17.332159Z","offers_count":1},"online":false,"url":null,"position":{"type":"Point","coordinates":[-3.6699691,40.399102]},"address":"Avenida de la Ciudad de Barcelona","number":"113","postal_code":"28007","state":"Madrid","city":"Madrid","merchants_count":0,"modified":"2023-03-17T08:01:46.102305Z","place_id":"ChIJmdHrfQ4mQg0RQPLbeQWRkIk","formatted_address":"Av. de la Ciudad de Barcelona, 113, 28007 Madrid","deleted":false,"deleted_at":null,"created":"2021-11-29T15:00:01.843351Z","selected_offer":{"id":244,"reward":"10.00","reward_type":"percentage","kind":"A","instant":false,"name":"Panaria 10%","standalone":false,"purchases":null,"online":false,"applicable":false,"available_percentage":1,"available_rewards":null,"is_used":false,"finish_date":null},"public_url":null,"is_open":false},{"id":577,"business":{"id":132,"name":"Panaria","country":null,"description":"Es el sitio para llevar a tus hijos a merendar o donde comer un bocadillo con una cervecita.\r\nAdemás, si quieres darte un capricho puedes hacerlo con nuestra bollería de calidad o con nuestros batidos y smoothies.\r\nUna carta variada y fresca para que cada vez que nos visites puedas probar algo que combine con tu antojo del día.","url":"https://panariapanaderias.es/","square_picture":"https://woowbe-dev.s3.amazonaws.com/media/pictures/panaria-logo-1-1.png","widescreen_picture":"https://woowbe-dev.s3.amazonaws.com/media/pictures/1638197657.png","cover":"https://woowbe-dev.s3.amazonaws.com/media/covers/panaria-portada.webp","sector":{"id":19,"name":"Panadería","icon":"https://woowbe-dev.s3.amazonaws.com/media/icons/toeat_I8A0AM0.svg","created":"2021-05-25T11:05:24.276505Z"},"descriptive_categories":[{"id":25,"name":"pan","owner":null,"sector":null,"created":"2021-10-21T21:05:17.331228Z"},{"id":23,"name":"panadería","owner":null,"sector":null,"created":"2021-10-21T21:04:59.592984Z"}],"return_period":0,"dynamic_link":"https://app.dev.woowbe.com/share/qXUY","is_franchisee_of":null,"is_favorite":false,"created":"2021-11-29T14:54:17.332159Z","offers_count":1},"online":false,"url":null,"position":{"type":"Point","coordinates":[-3.6646679,40.39612169999999]},"address":"Calle del Puerto de Suebe","number":"1","postal_code":"28038","state":"Madrid","city":"Madrid","merchants_count":0,"modified":"2023-03-17T08:01:46.594522Z","place_id":"ChIJ4Rfj_gomQg0R2h-BEupGMPY","formatted_address":"C. del Puerto de Suebe, 1, 28038 Madrid","deleted":false,"deleted_at":null,"created":"2021-11-29T14:59:47.212503Z","selected_offer":{"id":244,"reward":"10.00","reward_type":"percentage","kind":"A","instant":false,"name":"Panaria 10%","standalone":false,"purchases":null,"online":false,"applicable":false,"available_percentage":1,"available_rewards":null,"is_used":false,"finish_date":null},"public_url":null,"is_open":false},{"id":576,"business":{"id":132,"name":"Panaria","country":null,"description":"Es el sitio para llevar a tus hijos a merendar o donde comer un bocadillo con una cervecita.\r\nAdemás, si quieres darte un capricho puedes hacerlo con nuestra bollería de calidad o con nuestros batidos y smoothies.\r\nUna carta variada y fresca para que cada vez que nos visites puedas probar algo que combine con tu antojo del día.","url":"https://panariapanaderias.es/","square_picture":"https://woowbe-dev.s3.amazonaws.com/media/pictures/panaria-logo-1-1.png","widescreen_picture":"https://woowbe-dev.s3.amazonaws.com/media/pictures/1638197657.png","cover":"https://woowbe-dev.s3.amazonaws.com/media/covers/panaria-portada.webp","sector":{"id":19,"name":"Panadería","icon":"https://woowbe-dev.s3.amazonaws.com/media/icons/toeat_I8A0AM0.svg","created":"2021-05-25T11:05:24.276505Z"},"descriptive_categories":[{"id":25,"name":"pan","owner":null,"sector":null,"created":"2021-10-21T21:05:17.331228Z"},{"id":23,"name":"panadería","owner":null,"sector":null,"created":"2021-10-21T21:04:59.592984Z"}],"return_period":0,"dynamic_link":"https://app.dev.woowbe.com/share/qXUY","is_franchisee_of":null,"is_favorite":false,"created":"2021-11-29T14:54:17.332159Z","offers_count":1},"online":false,"url":null,"position":{"type":"Point","coordinates":[-3.71751,40.4327931]},"address":"Calle de la Princesa","number":"82","postal_code":"28008","state":"Madrid","city":"Madrid","merchants_count":0,"modified":"2023-03-17T08:01:46.795804Z","place_id":"ChIJS8Sr4mkoQg0RbSA56CPeJAU","formatted_address":"C. de la Princesa, 82, 28008 Madrid","deleted":false,"deleted_at":null,"created":"2021-11-29T14:59:34.777310Z","selected_offer":{"id":244,"reward":"10.00","reward_type":"percentage","kind":"A","instant":false,"name":"Panaria 10%","standalone":false,"purchases":null,"online":false,"applicable":false,"available_percentage":1,"available_rewards":null,"is_used":false,"finish_date":null},"public_url":null,"is_open":false},{"id":575,"business":{"id":132,"name":"Panaria","country":null,"description":"Es el sitio para llevar a tus hijos a merendar o donde comer un bocadillo con una cervecita.\r\nAdemás, si quieres darte un capricho puedes hacerlo con nuestra bollería de calidad o con nuestros batidos y smoothies.\r\nUna carta variada y fresca para que cada vez que nos visites puedas probar algo que combine con tu antojo del día.","url":"https://panariapanaderias.es/","square_picture":"https://woowbe-dev.s3.amazonaws.com/media/pictures/panaria-logo-1-1.png","widescreen_picture":"https://woowbe-dev.s3.amazonaws.com/media/pictures/1638197657.png","cover":"https://woowbe-dev.s3.amazonaws.com/media/covers/panaria-portada.webp","sector":{"id":19,"name":"Panadería","icon":"https://woowbe-dev.s3.amazonaws.com/media/icons/toeat_I8A0AM0.svg","created":"2021-05-25T11:05:24.276505Z"},"descriptive_categories":[{"id":25,"name":"pan","owner":null,"sector":null,"created":"2021-10-21T21:05:17.331228Z"},{"id":23,"name":"panadería","owner":null,"sector":null,"created":"2021-10-21T21:04:59.592984Z"}],"return_period":0,"dynamic_link":"https://app.dev.woowbe.com/share/qXUY","is_franchisee_of":null,"is_favorite":false,"created":"2021-11-29T14:54:17.332159Z","offers_count":1},"online":false,"url":null,"position":{"type":"Point","coordinates":[-3.6959577,40.4035364]},"address":"Calle de la Batalla del Salado","number":"8","postal_code":"28045","state":"Madrid","city":"Madrid","merchants_count":0,"modified":"2023-03-17T08:01:46.920638Z","place_id":"ChIJVbFSJS4mQg0R8GaYJ7rPzhU","formatted_address":"C. de la Batalla del Salado, 8, 28045 Madrid","deleted":false,"deleted_at":null,"created":"2021-11-29T14:59:21.789063Z","selected_offer":{"id":244,"reward":"10.00","reward_type":"percentage","kind":"A","instant":false,"name":"Panaria 10%","standalone":false,"purchases":null,"online":false,"applicable":false,"available_percentage":1,"available_rewards":null,"is_used":false,"finish_date":null},"public_url":null,"is_open":false},{"id":574,"business":{"id":132,"name":"Panaria","country":null,"description":"Es el sitio para llevar a tus hijos a merendar o donde comer un bocadillo con una cervecita.\r\nAdemás, si quieres darte un capricho puedes hacerlo con nuestra bollería de calidad o con nuestros batidos y smoothies.\r\nUna carta variada y fresca para que cada vez que nos visites puedas probar algo que combine con tu antojo del día.","url":"https://panariapanaderias.es/","square_picture":"https://woowbe-dev.s3.amazonaws.com/media/pictures/panaria-logo-1-1.png","widescreen_picture":"https://woowbe-dev.s3.amazonaws.com/media/pictures/1638197657.png","cover":"https://woowbe-dev.s3.amazonaws.com/media/covers/panaria-portada.webp","sector":{"id":19,"name":"Panadería","icon":"https://woowbe-dev.s3.amazonaws.com/media/icons/toeat_I8A0AM0.svg","created":"2021-05-25T11:05:24.276505Z"},"descriptive_categories":[{"id":25,"name":"pan","owner":null,"sector":null,"created":"2021-10-21T21:05:17.331228Z"},{"id":23,"name":"panadería","owner":null,"sector":null,"created":"2021-10-21T21:04:59.592984Z"}],"return_period":0,"dynamic_link":"https://app.dev.woowbe.com/share/qXUY","is_franchisee_of":null,"is_favorite":false,"created":"2021-11-29T14:54:17.332159Z","offers_count":1},"online":false,"url":null,"position":{"type":"Point","coordinates":[-3.6703271,40.4333177]},"address":"Calle de Cartagena","number":"30","postal_code":"28028","state":"Madrid","city":"Madrid","merchants_count":0,"modified":"2023-03-17T08:01:47.290400Z","place_id":"ChIJb2igDsYoQg0R9DFWsdAZ_PM","formatted_address":"C. de Cartagena, 30, 28028 Madrid","deleted":false,"deleted_at":null,"created":"2021-11-29T14:59:07.789032Z","selected_offer":{"id":244,"reward":"10.00","reward_type":"percentage","kind":"A","instant":false,"name":"Panaria 10%","standalone":false,"purchases":null,"online":false,"applicable":false,"available_percentage":1,"available_rewards":null,"is_used":false,"finish_date":null},"public_url":null,"is_open":false},{"id":573,"business":{"id":132,"name":"Panaria","country":null,"description":"Es el sitio para llevar a tus hijos a merendar o donde comer un bocadillo con una cervecita.\r\nAdemás, si quieres darte un capricho puedes hacerlo con nuestra bollería de calidad o con nuestros batidos y smoothies.\r\nUna carta variada y fresca para que cada vez que nos visites puedas probar algo que combine con tu antojo del día.","url":"https://panariapanaderias.es/","square_picture":"https://woowbe-dev.s3.amazonaws.com/media/pictures/panaria-logo-1-1.png","widescreen_picture":"https://woowbe-dev.s3.amazonaws.com/media/pictures/1638197657.png","cover":"https://woowbe-dev.s3.amazonaws.com/media/covers/panaria-portada.webp","sector":{"id":19,"name":"Panadería","icon":"https://woowbe-dev.s3.amazonaws.com/media/icons/toeat_I8A0AM0.svg","created":"2021-05-25T11:05:24.276505Z"},"descriptive_categories":[{"id":25,"name":"pan","owner":null,"sector":null,"created":"2021-10-21T21:05:17.331228Z"},{"id":23,"name":"panadería","owner":null,"sector":null,"created":"2021-10-21T21:04:59.592984Z"}],"return_period":0,"dynamic_link":"https://app.dev.woowbe.com/share/qXUY","is_franchisee_of":null,"is_favorite":false,"created":"2021-11-29T14:54:17.332159Z","offers_count":1},"online":false,"url":null,"position":{"type":"Point","coordinates":[-3.6680676,40.4448804]},"address":"Calle Clara del Rey","number":"44","postal_code":"28002","state":"Madrid","city":"Madrid","merchants_count":0,"modified":"2023-03-17T08:01:47.407712Z","place_id":"ChIJib2Q5NEoQg0RxUMA6L6Nvls","formatted_address":"C. Clara del Rey, 44, 28002 Madrid","deleted":false,"deleted_at":null,"created":"2021-11-29T14:58:55.132474Z","selected_offer":{"id":244,"reward":"10.00","reward_type":"percentage","kind":"A","instant":false,"name":"Panaria 10%","standalone":false,"purchases":null,"online":false,"applicable":false,"available_percentage":1,"available_rewards":null,"is_used":false,"finish_date":null},"public_url":null,"is_open":false}]}