{
	"count": 579,
	"next": "https://backend.dev.woowbe.com/api/v1/points_of_sales/public/?page=23",
	"previous": "https://backend.dev.woowbe.com/api/v1/points_of_sales/public/?page=21",
	"results": [
		{
			"id": 572,
			"business": {
				"id": 132,
				"name": "Panaria",
				"country": null,
				"description": "Es el sitio para llevar a tus hijos a merendar o donde comer un bocadillo con una cervecita.\r\nAdemás, si quieres darte un capricho puedes hacerlo con nuestra bollería de calidad o con nuestros batidos y smoothies.\r\nUna carta variada y fresca para que cada vez que nos visites puedas probar algo que combine con tu antojo del día.",
				"url": "https://panariapanaderias.es/",
				"square_picture": "https://woowbe-dev.s3.amazonaws.com/media/pictures/panaria-logo-1-1.png",
				"widescreen_picture": "https://woowbe-dev.s3.amazonaws.com/media/pictures/1638197657.png",
				"cover": "https://woowbe-dev.s3.amazonaws.com/media/covers/panaria-portada.webp",
				"sector": {
					"id": 19,
					"name": "Panadería",
					"icon": "https://woowbe-dev.s3.amazonaws.com/media/icons/toeat_I8A0AM0.svg",
					"created": "2021-05-25T11:05:24.276505Z"
				},
				"descriptive_categories": [
					{
						"id": 25,
						"name": "pan",
						"owner": null,
						"sector": null,
						"created": "2021-10-21T21:05:17.331228Z"
					},
					{
						"id": 23,
						"name": "panadería",
						"owner": null,
						"sector": null,
						"created": "2021-10-21T21:04:59.592984Z"
					}
				],
				"return_period": 0,
				"dynamic_link": "https://app.dev.woowbe.com/share/qXUY",
				"is_franchisee_of": null,
				"is_favorite": false,
				"created": "2021-11-29T14:54:17.332159Z",
				"offers_count": 1
			},
			"online": false,
			"url": null,
			"position": {
				"type": "Point",
				"coordinates": [
					-3.6516586,
					40.4425091
				]
			},
			"address": "Calle Aristóteles",
			"number": "8",
			"postal_code": "28027",
			"state": "Madrid",
			"city": "Madrid",
			"merchants_count": 0,
			"modified": "2023-03-17T08:01:47.592524Z",
			"place_id": "ChIJ6SV9fTovQg0RLGtCHcLbqdo",
			"formatted_address": "C. Aristóteles, 8, 28027 Madrid",
			"deleted": false,
			"deleted_at": null,
			"created": "2021-11-29T14:58:39.900785Z",
			"selected_offer": {
				"id": 244,
				"reward": "10.00",
				"reward_type": "percentage",
				"kind": "A",
				"instant": false,
				"name": "Panaria 10%",
				"standalone": false,
				"purchases": null,
				"online": false,
				"applicable": false,
				"available_percentage": 1,
				"available_rewards": null,
				"is_used": false,
				"finish_date": null
			},
			"public_url": null,
			"is_open": false
		},
		{
			"id": 571,
			"business": {
				"id": 132,
				"name": "Panaria",
				"country": null,
				"description": "Es el sitio para llevar a tus hijos a merendar o donde comer un bocadillo con una cervecita.\r\nAdemás, si quieres darte un capricho puedes hacerlo con nuestra bollería de calidad o con nuestros batidos y smoothies.\r\nUna carta variada y fresca para que cada vez que nos visites puedas probar algo que combine con tu antojo del día.",
				"url": "https://panariapanaderias.es/",
				"square_picture": "https://woowbe-dev.s3.amazonaws.com/media/pictures/panaria-logo-1-1.png",
				"widescreen_picture": "https://woowbe-dev.s3.amazonaws.com/media/pictures/1638197657.png",
				"cover": "https://woowbe-dev.s3.amazonaws.com/media/covers/panaria-portada.webp",
				"sector": {
					"id": 19,
					"name": "Panadería",
					"icon": "https://woowbe-dev.s3.amazonaws.com/media/icons/toeat_I8A0AM0.svg",
					"created": "2021-05-25T11:05:24.276505Z"
				},
				"descriptive_categories": [
					{
						"id": 25,
						"name": "pan",
						"owner": null,
						"sector": null,
						"created": "2021-10-21T21:05:17.331228Z"
					},
					{
						"id": 23,
						"name": "panadería",
						"owner": null,
						"sector": null,
						"created": "2021-10-21T21:04:59.592984Z"
					}
				],
				"return_period": 0,
				"dynamic_link": "https://app.dev.woowbe.com/share/qXUY",
				"is_franchisee_of": null,
				"is_favorite": false,
				"created": "2021-11-29T14:54:17.332159Z",
				"offers_count": 1
			},
			"online": false,
			"url": null,
			"position": {
				"type": "Point",
				"coordinates": [
					-3.6641537,
					40.43009319999999
				]
			},
			"address": "Calle de Alcalá",
			"number": "198",
			"postal_code": "28027",
			"state": "Madrid",
			"city": "Madrid",
			"merchants_count": 0,
			"modified": "2023-03-17T08:01:47.703300Z",
			"place_id": "ChIJ9RzckbQoQg0R9oYYpMyZAp0",
			"formatted_address": "C. de Alcalá, 198, 28027 Madrid",
			"deleted": false,
			"deleted_at": null,
			"created": "2021-11-29T14:58:21.239842Z",
			"selected_offer": {
				"id": 244,
				"reward": "10.00",
				"reward_type": "percentage",
				"kind": "A",
				"instant": false,
				"name": "Panaria 10%",
				"standalone": false,
				"purchases": null,
				"online": false,
				"applicable": false,
				"available_percentage": 1,
				"available_rewards": null,
				"is_used": false,
				"finish_date": null
			},
			"public_url": null,
			"is_open": false
		},
		{
			"id": 570,
			"business": {
				"id": 132,
				"name": "Panaria",
				"country": null,
				"description": "Es el sitio para llevar a tus hijos a merendar o donde comer un bocadillo con una cervecita.\r\nAdemás, si quieres darte un capricho puedes hacerlo con nuestra bollería de calidad o con nuestros batidos y smoothies.\r\nUna carta variada y fresca para que cada vez que nos visites puedas probar algo que combine con tu antojo del día.",
				"url": "https://panariapanaderias.es/",
				"square_picture": "https://woowbe-dev.s3.amazonaws.com/media/pictures/panaria-logo-1-1.png",
				"widescreen_picture": "https://woowbe-dev.s3.amazonaws.com/media/pictures/1638197657.png",
				"cover": "https://woowbe-dev.s3.amazonaws.com/media/covers/panaria-portada.webp",
				"sector": {
					"id": 19,
					"name": "Panadería",
					"icon": "https://woowbe-dev.s3.amazonaws.com/media/icons/toeat_I8A0AM0.svg",
					"created": "2021-05-25T11:05:24.276505Z"
				},
				"descriptive_categories": [
					{
						"id": 25,
						"name": "pan",
						"owner": null,
						"sector": null,
						"created": "2021-10-21T21:05:17.331228Z"
					},
					{
						"id": 23,
						"name": "panadería",
						"owner": null,
						"sector": null,
						"created": "2021-10-21T21:04:59.592984Z"
					}
				],
				"return_period": 0,
				"dynamic_link": "https://app.dev.woowbe.com/share/qXUY",
				"is_franchisee_of": null,
				"is_favorite": false,
				"created": "2021-11-29T14:54:17.332159Z",
				"offers_count": 1
			},
			"online": false,
			"url": null,
			"position": {
				"type": "Point",
				"coordinates": [
					-3.698017,
					40.4328349
				]
			},
			"address": "Calle de Santa Engracia",
			"number": "45",
			"postal_code": "28010",
			"state": "Madrid",
			"city": "Madrid",
			"merchants_count": 0,
			"modified": "2023-03-17T08:01:47.799553Z",
			"place_id": "ChIJseB5V4soQg0Rg9UNaytfS9Q",
			"formatted_address": "Calle de Sta Engracia, 45, 28010 Madrid",
			"deleted": false,
			"deleted_at": null,
			"created": "2021-11-29T14:58:02.883698Z",
			"selected_offer": {
				"id": 244,
				"reward": "10.00",
				"reward_type": "percentage",
				"kind": "A",
				"instant": false,
				"name": "Panaria 10%",
				"standalone": false,
				"purchases": null,
				"online": false,
				"applicable": false,
				"available_percentage": 1,
				"available_rewards": null,
				"is_used": false,
				"finish_date": null
			},
			"public_url": null,
			"is_open": false
		},
		{
			"id": 569,
			"business": {
				"id": 132,
				"name": "Panaria",
				"country": null,
				"description": "Es el sitio para llevar a tus hijos a merendar o donde comer un bocadillo con una cervecita.\r\nAdemás, si quieres darte un capricho puedes hacerlo con nuestra bollería de calidad o con nuestros batidos y smoothies.\r\nUna carta variada y fresca para que cada vez que nos visites puedas probar algo que combine con tu antojo del día.",
				"url": "https://panariapanaderias.es/",
				"square_picture": "https://woowbe-dev.s3.amazonaws.com/media/pictures/panaria-logo-1-1.png",
				"widescreen_picture": "https://woowbe-dev.s3.amazonaws.com/media/pictures/1638197657.png",
				"cover": "https://woowbe-dev.s3.amazonaws.com/media/covers/panaria-portada.webp",
				"sector": {
					"id": 19,
					"name": "Panadería",
					"icon": "https://woowbe-dev.s3.amazonaws.com/media/icons/toeat_I8A0AM0.svg",
					"created": "2021-05-25T11:05:24.276505Z"
				},
				"descriptive_categories": [
					{
						"id": 25,
						"name": "pan",
						"owner": null,
						"sector": null,
						"created": "2021-10-21T21:05:17.331228Z"
					},
					{
						"id": 23,
						"name": "panadería",
						"owner": null,
						"sector": null,
						"created": "2021-10-21T21:04:59.592984Z"
					}
				],
				"return_period": 0,
				"dynamic_link": "https://app.dev.woowbe.com/share/qXUY",
				"is_franchisee_of": null,
				"is_favorite": false,
				"created": "2021-11-29T14:54:17.332159Z",
				"offers_count": 1
			},
			"online": false,
			"url": null,
			"position": {
				"type": "Point",
				"coordinates": [
					-3.7068803,
					40.4298542
				]
			},
			"address": "Calle de Alberto Aguilera",
			"number": "8",
			"postal_code": "28015",
			"state": "Madrid",
			"city": "Madrid",
			"merchants_count": 0,
			"modified": "2023-03-17T08:01:47.992352Z",
			"place_id": "ChIJvaDgPGEoQg0RVjr_UG-tPSc",
			"formatted_address": "C. de Alberto Aguilera, 8, 28015 Madrid",
			"deleted": false,
			"deleted_at": null,
			"created": "2021-11-29T14:57:49.159587Z",
			"selected_offer": {
				"id": 244,
				"reward": "10.00",
				"reward_type": "percentage",
				"kind": "A",
				"instant": false,
				"name": "Panaria 10%",
				"standalone": false,
				"purchases": null,
				"online": false,
				"applicable": false,
				"available_percentage": 1,
				"available_rewards": null,
				"is_used": false,
				"finish_date": null
			},
			"public_url": null,
			"is_open": false
		},
		{
			"id": 568,
			"business": {
				"id": 132,
				"name": "Panaria",
				"country": null,
				"description": "Es el sitio para llevar a tus hijos a merendar o donde comer un bocadillo con una cervecita.\r\nAdemás, si quieres darte un capricho puedes hacerlo con nuestra bollería de calidad o con nuestros batidos y smoothies.\r\nUna carta variada y fresca para que cada vez que nos visites puedas probar algo que combine con tu antojo del día.",
				"url": "https://panariapanaderias.es/",
				"square_picture": "https://woowbe-dev.s3.amazonaws.com/media/pictures/panaria-logo-1-1.png",
				"widescreen_picture": "https://woowbe-dev.s3.amazonaws.com/media/pictures/1638197657.png",
				"cover": "https://woowbe-dev.s3.amazonaws.com/media/covers/panaria-portada.webp",
				"sector": {
					"id": 19,
					"name": "Panadería",
					"icon": "https://woowbe-dev.s3.amazonaws.com/media/icons/toeat_I8A0AM0.svg",
					"created": "2021-05-25T11:05:24.276505Z"
				},
				"descriptive_categories": [
					{
						"id": 25,
						"name": "pan",
						"owner": null,
						"sector": null,
						"created": "2021-10-21T21:05:17.331228Z"
					},
					{
						"id": 23,
						"name": "panadería",
						"owner": null,
						"sector": null,
						"created": "2021-10-21T21:04:59.592984Z"
					}
				],
				"return_period": 0,
				"dynamic_link": "https://app.dev.woowbe.com/share/qXUY",
				"is_franchisee_of": null,
				"is_favorite": false,
				"created": "2021-11-29T14:54:17.332159Z",
				"offers_count": 1
			},
			"online": false,
			"url": null,
			"position": {
				"type": "Point",
				"coordinates": [
					-3.6966769,
					40.4112966
				]
			},
			"address": "Calle de Atocha",
			"number": "89",
			"postal_code": "28012",
			"state": "Madrid",
			"city": "Madrid",
			"merchants_count": 0,
			"modified": "2023-03-17T08:01:48.197442Z",
			"place_id": "ChIJySlMuykmQg0RiPLp2riBtUM",
			"formatted_address": "C. de Atocha, 89, 28012 Madrid",
			"deleted": false,
			"deleted_at": null,
			"created": "2021-11-29T14:57:34.558100Z",
			"selected_offer": {
				"id": 244,
				"reward": "10.00",
				"reward_type": "percentage",
				"kind": "A",
				"instant": false,
				"name": "Panaria 10%",
				"standalone": false,
				"purchases": null,
				"online": false,
				"applicable": false,
				"available_percentage": 1,
				"available_rewards": null,
				"is_used": false,
				"finish_date": null
			},
			"public_url": null,
			"is_open": false
		},
		{
			"id": 567,
			"business": {
				"id": 132,
				"name": "Panaria",
				"country": null,
				"description": "Es el sitio para llevar a tus hijos a merendar o donde comer un bocadillo con una cervecita.\r\nAdemás, si quieres darte un capricho puedes hacerlo con nuestra bollería de calidad o con nuestros batidos y smoothies.\r\nUna carta variada y fresca para que cada vez que nos visites puedas probar algo que combine con tu antojo del día.",
				"url": "https://panariapanaderias.es/",
				"square_picture": "https://woowbe-dev.s3.amazonaws.com/media/pictures/panaria-logo-1-1.png",
				"widescreen_picture": "https://woowbe-dev.s3.amazonaws.com/media/pictures/1638197657.png",
				"cover": "https://woowbe-dev.s3.amazonaws.com/media/covers/panaria-portada.webp",
				"sector": {
					"id": 19,
					"name": "Panadería",
					"icon": "https://woowbe-dev.s3.amazonaws.com/media/icons/toeat_I8A0AM0.svg",
					"created": "2021-05-25T11:05:24.276505Z"
				},
				"descriptive_categories": [
					{
						"id": 25,
						"name": "pan",
						"owner": null,
						"sector": null,
						"created": "2021-10-21T21:05:17.331228Z"
					},
					{
						"id": 23,
						"name": "panadería",
						"owner": null,
						"sector": null,
						"created": "2021-10-21T21:04:59.592984Z"
					}
				],
				"return_period": 0,
				"dynamic_link": "https://app.dev.woowbe.com/share/qXUY",
				"is_franchisee_of": null,
				"is_favorite": false,
				"created": "2021-11-29T14:54:17.332159Z",
				"offers_count": 1
			},
			"online": false,
			"url": null,
			"position": {
				"type": "Point",
				"coordinates": [
					-3.7102407,
					40.4387281
				]
			},
			"address": "Calle de Cea Bermúdez",
			"number": "25",
			"postal_code": "28003",
			"state": "Madrid",
			"city": "Madrid",
			"merchants_count": 0,
			"modified": "2023-03-17T08:01:48.304535Z",
			"place_id": "ChIJ402znFsoQg0RZLnbJbWEgdk",
			"formatted_address": "C. de Cea Bermúdez, 25, 28003 Madrid",
			"deleted": false,
			"deleted_at": null,
			"created": "2021-11-29T14:57:20.784827Z",
			"selected_offer": {
				"id": 244,
				"reward": "10.00",
				"reward_type": "percentage",
				"kind": "A",
				"instant": false,
				"name": "Panaria 10%",
				"standalone": false,
				"purchases": null,
				"online": false,
				"applicable": false,
				"available_percentage": 1,
				"available_rewards": null,
				"is_used": false,
				"finish_date": null
			},
			"public_url": null,
			"is_open": false
		},
		{
			"id": 566,
			"business": {
				"id": 132,
				"name": "Panaria",
				"country": null,
				"description": "Es el sitio para llevar a tus hijos a merendar o donde comer un bocadillo con una cervecita.\r\nAdemás, si quieres darte un capricho puedes hacerlo con nuestra bollería de calidad o con nuestros batidos y smoothies.\r\nUna carta variada y fresca para que cada vez que nos visites puedas probar algo que combine con tu antojo del día.",
				"url": "https://panariapanaderias.es/",
				"square_picture": "https://woowbe-dev.s3.amazonaws.com/media/pictures/panaria-logo-1-1.png",
				"widescreen_picture": "https://woowbe-dev.s3.amazonaws.com/media/pictures/1638197657.png",
				"cover": "https://woowbe-dev.s3.amazonaws.com/media/covers/panaria-portada.webp",
				"sector": {
					"id": 19,
					"name": "Panadería",
					"icon": "https://woowbe-dev.s3.amazonaws.com/media/icons/toeat_I8A0AM0.svg",
					"created": "2021-05-25T11:05:24.276505Z"
				},
				"descriptive_categories": [
					{
						"id": 25,
						"name": "pan",
						"owner": null,
						"sector": null,
						"created": "2021-10-21T21:05:17.331228Z"
					},
					{
						"id": 23,
						"name": "panadería",
						"owner": null,
						"sector": null,
						"created": "2021-10-21T21:04:59.592984Z"
					}
				],
				"return_period": 0,
				"dynamic_link": "https://app.dev.woowbe.com/share/qXUY",
				"is_franchisee_of": null,
				"is_favorite": false,
				"created": "2021-11-29T14:54:17.332159Z",
				"offers_count": 1
			},
			"online": false,
			"url": null,
			"position": {
				"type": "Point",
				"coordinates": [
					-3.6790617,
					40.4374994
				]
			},
			"address": "Calle del Príncipe de Vergara",
			"number": "8",
			"postal_code": "28006",
			"state": "Madrid",
			"city": "Madrid",
			"merchants_count": 0,
			"modified": "2023-03-17T08:01:48.706271Z",
			"place_id": "EjVDLiBkZWwgUHLDrW5jaXBlIGRlIFZlcmdhcmEsIDgsIDI4MDA2IE1hZHJpZCwgRXNwYcOxYSJQEk4KNAoyCZnoExTBKEINEazEh8RyfPwIGh4LEO7B7qEBGhQKEglHsAJfwChCDRGwrIsz90ADHAwQCCoUChIJTwzS6cMoQg0R-IGH3c3bl90",
			"formatted_address": "C. del Príncipe de Vergara, 8, 28006 Madrid",
			"deleted": false,
			"deleted_at": null,
			"created": "2021-11-29T14:57:06.511496Z",
			"selected_offer": {
				"id": 244,
				"reward": "10.00",
				"reward_type": "percentage",
				"kind": "A",
				"instant": false,
				"name": "Panaria 10%",
				"standalone": false,
				"purchases": null,
				"online": false,
				"applicable": false,
				"available_percentage": 1,
				"available_rewards": null,
				"is_used": false,
				"finish_date": null
			},
			"public_url": null,
			"is_open": false
		},
		{
			"id": 565,
			"business": {
				"id": 132,
				"name": "Panaria",
				"country": null,
				"description": "Es el sitio para llevar a tus hijos a merendar o donde comer un bocadillo con una cervecita.\r\nAdemás, si quieres darte un capricho puedes hacerlo con nuestra bollería de calidad o con nuestros batidos y smoothies.\r\nUna carta variada y fresca para que cada vez que nos visites puedas probar algo que combine con tu antojo del día.",
				"url": "https://panariapanaderias.es/",
				"square_picture": "https://woowbe-dev.s3.amazonaws.com/media/pictures/panaria-logo-1-1.png",
				"widescreen_picture": "https://woowbe-dev.s3.amazonaws.com/media/pictures/1638197657.png",
				"cover": "https://woowbe-dev.s3.amazonaws.com/media/covers/panaria-portada.webp",
				"sector": {
					"id": 19,
					"name": "Panadería",
					"icon": "https://woowbe-dev.s3.amazonaws.com/media/icons/toeat_I8A0AM0.svg",
					"created": "2021-05-25T11:05:24.276505Z"
				},
				"descriptive_categories": [
					{
						"id": 25,
						"name": "pan",
						"owner": null,
						"sector": null,
						"created": "2021-10-21T21:05:17.331228Z"
					},
					{
						"id": 23,
						"name": "panadería",
						"owner": null,
						"sector": null,
						"created": "2021-10-21T21:04:59.592984Z"
					}
				],
				"return_period": 0,
				"dynamic_link": "https://app.dev.woowbe.com/share/qXUY",
				"is_franchisee_of": null,
				"is_favorite": false,
				"created": "2021-11-29T14:54:17.332159Z",
				"offers_count": 1
			},
			"online": false,
			"url": null,
			"position": {
				"type": "Point",
				"coordinates": [
					-3.6794168,
					40.4372331
				]
			},
			"address": "Calle del Príncipe de Vergara",
			"number": "109",
			"postal_code": "28006",
			"state": "Madrid",
			"city": "Madrid",
			"merchants_count": 0,
			"modified": "2023-03-17T08:01:48.992343Z",
			"place_id": "EjdDLiBkZWwgUHLDrW5jaXBlIGRlIFZlcmdhcmEsIDEwOSwgMjgwMDYgTWFkcmlkLCBFc3Bhw7FhIlASTgo0CjIJ1yZFHMEoQg0R0jUBm5-EGaUaHgsQ7sHuoQEaFAoSCUewAl_AKEINEbCsizP3QAMcDBBtKhQKEgnJ052ewyhCDRE8ckWTYa_JAg",
			"formatted_address": "C. del Príncipe de Vergara, 109, 28006 Madrid",
			"deleted": false,
			"deleted_at": null,
			"created": "2021-11-29T14:56:47.112912Z",
			"selected_offer": {
				"id": 244,
				"reward": "10.00",
				"reward_type": "percentage",
				"kind": "A",
				"instant": false,
				"name": "Panaria 10%",
				"standalone": false,
				"purchases": null,
				"online": false,
				"applicable": false,
				"available_percentage": 1,
				"available_rewards": null,
				"is_used": false,
				"finish_date": null
			},
			"public_url": null,
			"is_open": false
		},
		{
			"id": 564,
			"business": {
				"id": 132,
				"name": "Panaria",
				"country": null,
				"description": "Es el sitio para llevar a tus hijos a merendar o donde comer un bocadillo con una cervecita.\r\nAdemás, si quieres darte un capricho puedes hacerlo con nuestra bollería de calidad o con nuestros batidos y smoothies.\r\nUna carta variada y fresca para que cada vez que nos visites puedas probar algo que combine con tu antojo del día.",
				"url": "https://panariapanaderias.es/",
				"square_picture": "https://woowbe-dev.s3.amazonaws.com/media/pictures/panaria-logo-1-1.png",
				"widescreen_picture": "https://woowbe-dev.s3.amazonaws.com/media/pictures/1638197657.png",
				"cover": "https://woowbe-dev.s3.amazonaws.com/media/covers/panaria-portada.webp",
				"sector": {
					"id": 19,
					"name": "Panadería",
					"icon": "https://woowbe-dev.s3.amazonaws.com/media/icons/toeat_I8A0AM0.svg",
					"created": "2021-05-25T11:05:24.276505Z"
				},
				"descriptive_categories": [
					{
						"id": 25,
						"name": "pan",
						"owner": null,
						"sector": null,
						"created": "2021-10-21T21:05:17.331228Z"
					},
					{
						"id": 23,
						"name": "panadería",
						"owner": null,
						"sector": null,
						"created": "2021-10-21T21:04:59.592984Z"
					}
				],
				"return_period": 0,
				"dynamic_link": "https://app.dev.woowbe.com/share/qXUY",
				"is_franchisee_of": null,
				"is_favorite": false,
				"created": "2021-11-29T14:54:17.332159Z",
				"offers_count": 1
			},
			"online": false,
			"url": null,
			"position": {
				"type": "Point",
				"coordinates": [
					-3.6771571,
					40.45769079999999
				]
			},
			"address": "Calle del Príncipe de Vergara",
			"number": "271",
			"postal_code": "28016",
			"state": "Madrid",
			"city": "Madrid",
			"merchants_count": 0,
			"modified": "2023-03-17T08:01:49.112820Z",
			"place_id": "ChIJzzlpziYpQg0REifDYuJWcVY",
			"formatted_address": "C. del Príncipe de Vergara, 271, 28016 Madrid",
			"deleted": false,
			"deleted_at": null,
			"created": "2021-11-29T14:56:31.581595Z",
			"selected_offer": {
				"id": 244,
				"reward": "10.00",
				"reward_type": "percentage",
				"kind": "A",
				"instant": false,
				"name": "Panaria 10%",
				"standalone": false,
				"purchases": null,
				"online": false,
				"applicable": false,
				"available_percentage": 1,
				"available_rewards": null,
				"is_used": false,
				"finish_date": null
			},
			"public_url": null,
			"is_open": false
		},
		{
			"id": 563,
			"business": {
				"id": 132,
				"name": "Panaria",
				"country": null,
				"description": "Es el sitio para llevar a tus hijos a merendar o donde comer un bocadillo con una cervecita.\r\nAdemás, si quieres darte un capricho puedes hacerlo con nuestra bollería de calidad o con nuestros batidos y smoothies.\r\nUna carta variada y fresca para que cada vez que nos visites puedas probar algo que combine con tu antojo del día.",
				"url": "https://panariapanaderias.es/",
				"square_picture": "https://woowbe-dev.s3.amazonaws.com/media/pictures/panaria-logo-1-1.png",
				"widescreen_picture": "https://woowbe-dev.s3.amazonaws.com/media/pictures/1638197657.png",
				"cover": "https://woowbe-dev.s3.amazonaws.com/media/covers/panaria-portada.webp",
				"sector": {
					"id": 19,
					"name": "Panadería",
					"icon": "https://woowbe-dev.s3.amazonaws.com/media/icons/toeat_I8A0AM0.svg",
					"created": "2021-05-25T11:05:24.276505Z"
				},
				"descriptive_categories": [
					{
						"id": 25,
						"name": "pan",
						"owner": null,
						"sector": null,
						"created": "2021-10-21T21:05:17.331228Z"
					},
					{
						"id": 23,
						"name": "panadería",
						"owner": null,
						"sector": null,
						"created": "2021-10-21T21:04:59.592984Z"
					}
				],
				"return_period": 0,
				"dynamic_link": "https://app.dev.woowbe.com/share/qXUY",
				"is_franchisee_of": null,
				"is_favorite": false,
				"created": "2021-11-29T14:54:17.332159Z",
				"offers_count": 1
			},
			"online": false,
			"url": null,
			"position": {
				"type": "Point",
				"coordinates": [
					-3.6782098,
					40.44908909999999
				]
			},
			"address": "Calle del Príncipe de Vergara",
			"number": "203",
			"postal_code": "28002",
			"state": "Madrid",
			"city": "Madrid",
			"merchants_count": 0,
			"modified": "2023-03-17T08:01:49.316123Z",
			"place_id": "ChIJ9SAkA9woQg0RaaHlMn4u2n0",
			"formatted_address": "C. del Príncipe de Vergara, 203, 28002 Madrid",
			"deleted": false,
			"deleted_at": null,
			"created": "2021-11-29T14:56:17.722851Z",
			"selected_offer": {
				"id": 244,
				"reward": "10.00",
				"reward_type": "percentage",
				"kind": "A",
				"instant": false,
				"name": "Panaria 10%",
				"standalone": false,
				"purchases": null,
				"online": false,
				"applicable": false,
				"available_percentage": 1,
				"available_rewards": null,
				"is_used": false,
				"finish_date": null
			},
			"public_url": null,
			"is_open": false
		}
	]
}
