{"count":579,"next":"https://backend.dev.woowbe.com/api/v1/points_of_sales/public/?page=25","previous":"https://backend.dev.woowbe.com/api/v1/points_of_sales/public/?page=23","results":[{"id":552,"business":{"id":130,"name":"La Mafia","country":null,"description":"El Restaurante La Mafia se sienta a la mesa os ofrece, además de su cocina italiana, otros platos mediterráneos que harán las delicias de vuestro paladar. Disfrutad de una auténtica comida mafiosa que os transportará a una Italia llena de misterio y buen gusto. Dejaos seducir con su lujoso ambiente y transportaos a un bello rincón de Italia donde nadie os encuentre.","url":"https://lamafia.es/","square_picture":"https://woowbe-dev.s3.amazonaws.com/media/pictures/la-mafia-logo-1-1.png","widescreen_picture":"https://woowbe-dev.s3.amazonaws.com/media/pictures/1638196750.png","cover":"https://woowbe-dev.s3.amazonaws.com/media/covers/la-mafia-portada.jpeg","sector":{"id":2,"name":"Restaurante","icon":"https://woowbe-dev.s3.amazonaws.com/media/icons/food_Yc99kSV.svg","created":"2021-05-25T10:46:14.371617Z"},"descriptive_categories":[{"id":20,"name":"italiano","owner":null,"sector":null,"created":"2021-10-21T20:22:55.462166Z"}],"return_period":0,"dynamic_link":"https://app.dev.woowbe.com/share/vRGn","is_franchisee_of":null,"is_favorite":false,"created":"2021-11-29T14:39:10.204240Z","offers_count":1},"online":false,"url":null,"position":{"type":"Point","coordinates":[-3.6889139,40.4257494]},"address":"Calle de Goya","number":"5","postal_code":"28001","state":"Madrid","city":"Madrid","merchants_count":0,"modified":"2023-03-17T08:01:51.534166Z","place_id":"ChIJCcsB3pAoQg0R3A0wfO81M70","formatted_address":"Calle de Goya, 5, 28001 Madrid","deleted":false,"deleted_at":null,"created":"2021-11-29T14:41:11.216852Z","selected_offer":{"id":242,"reward":"6.00","reward_type":"percentage","kind":"A","instant":false,"name":"La Mafia 6%","standalone":false,"purchases":null,"online":false,"applicable":false,"available_percentage":1,"available_rewards":null,"is_used":false,"finish_date":null},"public_url":null,"is_open":false},{"id":551,"business":{"id":130,"name":"La Mafia","country":null,"description":"El Restaurante La Mafia se sienta a la mesa os ofrece, además de su cocina italiana, otros platos mediterráneos que harán las delicias de vuestro paladar. Disfrutad de una auténtica comida mafiosa que os transportará a una Italia llena de misterio y buen gusto. Dejaos seducir con su lujoso ambiente y transportaos a un bello rincón de Italia donde nadie os encuentre.","url":"https://lamafia.es/","square_picture":"https://woowbe-dev.s3.amazonaws.com/media/pictures/la-mafia-logo-1-1.png","widescreen_picture":"https://woowbe-dev.s3.amazonaws.com/media/pictures/1638196750.png","cover":"https://woowbe-dev.s3.amazonaws.com/media/covers/la-mafia-portada.jpeg","sector":{"id":2,"name":"Restaurante","icon":"https://woowbe-dev.s3.amazonaws.com/media/icons/food_Yc99kSV.svg","created":"2021-05-25T10:46:14.371617Z"},"descriptive_categories":[{"id":20,"name":"italiano","owner":null,"sector":null,"created":"2021-10-21T20:22:55.462166Z"}],"return_period":0,"dynamic_link":"https://app.dev.woowbe.com/share/vRGn","is_franchisee_of":null,"is_favorite":false,"created":"2021-11-29T14:39:10.204240Z","offers_count":1},"online":false,"url":null,"position":{"type":"Point","coordinates":[-3.6878784,40.4745253]},"address":"Paseo de la Castellana","number":"257","postal_code":"28046","state":"Madrid","city":"Madrid","merchants_count":0,"modified":"2023-03-17T08:01:51.705956Z","place_id":"ChIJuWAoqmwpQg0R5N0sbLpmz4g","formatted_address":"P.º de la Castellana, 257, 28046 Madrid","deleted":false,"deleted_at":null,"created":"2021-11-29T14:40:54.498530Z","selected_offer":{"id":242,"reward":"6.00","reward_type":"percentage","kind":"A","instant":false,"name":"La Mafia 6%","standalone":false,"purchases":null,"online":false,"applicable":false,"available_percentage":1,"available_rewards":null,"is_used":false,"finish_date":null},"public_url":null,"is_open":false},{"id":550,"business":{"id":129,"name":"Le Pain Quotidien","country":null,"description":"Nuestro menú celebra la sencillez de los alimentos frescos y nutritivos. ¡Descubre una nueva comida para incluir entre tus favoritos!","url":"https://www.lepainquotidien.com/es/es/","square_picture":"https://woowbe-dev.s3.amazonaws.com/media/pictures/le-pain-quotidien-logo-1-1.png","widescreen_picture":"https://woowbe-dev.s3.amazonaws.com/media/pictures/1638195543.png","cover":"https://woowbe-dev.s3.amazonaws.com/media/covers/le-pain-quotidien-portada.png","sector":{"id":2,"name":"Restaurante","icon":"https://woowbe-dev.s3.amazonaws.com/media/icons/food_Yc99kSV.svg","created":"2021-05-25T10:46:14.371617Z"},"descriptive_categories":[{"id":25,"name":"pan","owner":null,"sector":null,"created":"2021-10-21T21:05:17.331228Z"}],"return_period":0,"dynamic_link":"https://app.dev.woowbe.com/share/egf9","is_franchisee_of":null,"is_favorite":false,"created":"2021-11-29T14:19:02.965726Z","offers_count":0},"online":false,"url":null,"position":{"type":"Point","coordinates":[-3.694809,40.4273648]},"address":"Calle de Génova","number":"5","postal_code":"28004","state":"Madrid","city":"Madrid","merchants_count":0,"modified":"2023-03-17T08:01:51.757521Z","place_id":"ChIJtylZZo4oQg0R-RMp7oV1XoA","formatted_address":"Calle de Génova, 5, 28004 Madrid","deleted":false,"deleted_at":null,"created":"2021-11-29T14:20:51.703587Z","selected_offer":{"reward":null,"reward_type":null,"kind":null,"instant":false,"name":"","standalone":false,"purchases":null,"online":false,"finish_date":null},"public_url":null,"is_open":false},{"id":549,"business":{"id":129,"name":"Le Pain Quotidien","country":null,"description":"Nuestro menú celebra la sencillez de los alimentos frescos y nutritivos. ¡Descubre una nueva comida para incluir entre tus favoritos!","url":"https://www.lepainquotidien.com/es/es/","square_picture":"https://woowbe-dev.s3.amazonaws.com/media/pictures/le-pain-quotidien-logo-1-1.png","widescreen_picture":"https://woowbe-dev.s3.amazonaws.com/media/pictures/1638195543.png","cover":"https://woowbe-dev.s3.amazonaws.com/media/covers/le-pain-quotidien-portada.png","sector":{"id":2,"name":"Restaurante","icon":"https://woowbe-dev.s3.amazonaws.com/media/icons/food_Yc99kSV.svg","created":"2021-05-25T10:46:14.371617Z"},"descriptive_categories":[{"id":25,"name":"pan","owner":null,"sector":null,"created":"2021-10-21T21:05:17.331228Z"}],"return_period":0,"dynamic_link":"https://app.dev.woowbe.com/share/egf9","is_franchisee_of":null,"is_favorite":false,"created":"2021-11-29T14:19:02.965726Z","offers_count":0},"online":false,"url":null,"position":{"type":"Point","coordinates":[-3.6833197,40.43264]},"address":"Calle de Velázquez","number":"92","postal_code":"28006","state":"Madrid","city":"Madrid","merchants_count":0,"modified":"2023-03-17T08:01:51.806660Z","place_id":"ChIJ4991RJUoQg0R2ZFpIsuRyJs","formatted_address":"C. de Velázquez, 92, 28006 Madrid","deleted":false,"deleted_at":null,"created":"2021-11-29T14:20:38.361538Z","selected_offer":{"reward":null,"reward_type":null,"kind":null,"instant":false,"name":"","standalone":false,"purchases":null,"online":false,"finish_date":null},"public_url":null,"is_open":false},{"id":548,"business":{"id":129,"name":"Le Pain Quotidien","country":null,"description":"Nuestro menú celebra la sencillez de los alimentos frescos y nutritivos. ¡Descubre una nueva comida para incluir entre tus favoritos!","url":"https://www.lepainquotidien.com/es/es/","square_picture":"https://woowbe-dev.s3.amazonaws.com/media/pictures/le-pain-quotidien-logo-1-1.png","widescreen_picture":"https://woowbe-dev.s3.amazonaws.com/media/pictures/1638195543.png","cover":"https://woowbe-dev.s3.amazonaws.com/media/covers/le-pain-quotidien-portada.png","sector":{"id":2,"name":"Restaurante","icon":"https://woowbe-dev.s3.amazonaws.com/media/icons/food_Yc99kSV.svg","created":"2021-05-25T10:46:14.371617Z"},"descriptive_categories":[{"id":25,"name":"pan","owner":null,"sector":null,"created":"2021-10-21T21:05:17.331228Z"}],"return_period":0,"dynamic_link":"https://app.dev.woowbe.com/share/egf9","is_franchisee_of":null,"is_favorite":false,"created":"2021-11-29T14:19:02.965726Z","offers_count":0},"online":false,"url":null,"position":{"type":"Point","coordinates":[-3.6877991,40.4269253]},"address":"Calle Serrano","number":"27","postal_code":"28001","state":"Madrid","city":"Madrid","merchants_count":0,"modified":"2023-03-17T08:01:51.843656Z","place_id":"ChIJ9VWIM5EoQg0RMZ7R-XIcwFQ","formatted_address":"C. Serrano, 27, 28001 Madrid","deleted":false,"deleted_at":null,"created":"2021-11-29T14:20:18.550475Z","selected_offer":{"reward":null,"reward_type":null,"kind":null,"instant":false,"name":"","standalone":false,"purchases":null,"online":false,"finish_date":null},"public_url":null,"is_open":false},{"id":547,"business":{"id":129,"name":"Le Pain Quotidien","country":null,"description":"Nuestro menú celebra la sencillez de los alimentos frescos y nutritivos. ¡Descubre una nueva comida para incluir entre tus favoritos!","url":"https://www.lepainquotidien.com/es/es/","square_picture":"https://woowbe-dev.s3.amazonaws.com/media/pictures/le-pain-quotidien-logo-1-1.png","widescreen_picture":"https://woowbe-dev.s3.amazonaws.com/media/pictures/1638195543.png","cover":"https://woowbe-dev.s3.amazonaws.com/media/covers/le-pain-quotidien-portada.png","sector":{"id":2,"name":"Restaurante","icon":"https://woowbe-dev.s3.amazonaws.com/media/icons/food_Yc99kSV.svg","created":"2021-05-25T10:46:14.371617Z"},"descriptive_categories":[{"id":25,"name":"pan","owner":null,"sector":null,"created":"2021-10-21T21:05:17.331228Z"}],"return_period":0,"dynamic_link":"https://app.dev.woowbe.com/share/egf9","is_franchisee_of":null,"is_favorite":false,"created":"2021-11-29T14:19:02.965726Z","offers_count":0},"online":false,"url":null,"position":{"type":"Point","coordinates":[-3.691918,40.4579003]},"address":"Calle del Poeta Joan Maragall","number":"26","postal_code":"28020","state":"Madrid","city":"Madrid","merchants_count":0,"modified":"2023-03-17T08:01:51.856577Z","place_id":"ChIJpd3iuBwpQg0RaWkz6S7S-3Y","formatted_address":"C. del Poeta Joan Maragall, 26, 28020 Madrid","deleted":false,"deleted_at":null,"created":"2021-11-29T14:19:55.337651Z","selected_offer":{"reward":null,"reward_type":null,"kind":null,"instant":false,"name":"","standalone":false,"purchases":null,"online":false,"finish_date":null},"public_url":null,"is_open":false},{"id":545,"business":{"id":128,"name":"Viena Capellanes","country":null,"description":"Lo que empezó en 1873 como una pequeña tahona donde se elaboraba el pan de Viena, se ha convertido hoy en una empresa de cientos de trabajadores, líder en el sector del catering y la repostería, gracias a todos los clientes que diariamente depositan en nosotros su confianza.","url":"https://www.vienacapellanes.com/","square_picture":"https://woowbe-dev.s3.amazonaws.com/media/pictures/viena-capellanes-logo-1-1.png","widescreen_picture":"https://woowbe-dev.s3.amazonaws.com/media/pictures/1638194107.png","cover":"https://woowbe-dev.s3.amazonaws.com/media/covers/viena-capellanes-portada.jpeg","sector":{"id":39,"name":"Pastelería","icon":"https://woowbe-dev.s3.amazonaws.com/media/icons/toeat_ZyBTS6v.svg","created":"2021-11-29T13:54:48.886365Z"},"descriptive_categories":[{"id":25,"name":"pan","owner":null,"sector":null,"created":"2021-10-21T21:05:17.331228Z"},{"id":23,"name":"panadería","owner":null,"sector":null,"created":"2021-10-21T21:04:59.592984Z"},{"id":60,"name":"repostería","owner":null,"sector":null,"created":"2021-11-29T13:55:03.905322Z"}],"return_period":0,"dynamic_link":"https://app.dev.woowbe.com/share/TYCN","is_franchisee_of":null,"is_favorite":false,"created":"2021-11-29T13:55:07.721203Z","offers_count":1},"online":false,"url":null,"position":{"type":"Point","coordinates":[-3.7134062,40.4040021]},"address":"Calle de Toledo","number":"140","postal_code":"28005","state":"Madrid","city":"Madrid","merchants_count":0,"modified":"2023-03-17T08:01:52.025909Z","place_id":"ChIJ6f_TkdonQg0RcYknvE6r7VU","formatted_address":"C. de Toledo, 140, 28005 Madrid","deleted":false,"deleted_at":null,"created":"2021-11-29T14:11:12.266845Z","selected_offer":{"id":238,"reward":"9.00","reward_type":"percentage","kind":"A","instant":false,"name":"Viena Capellanes 9%","standalone":false,"purchases":null,"online":false,"applicable":false,"available_percentage":0.985,"available_rewards":null,"is_used":false,"finish_date":null},"public_url":null,"is_open":false},{"id":544,"business":{"id":128,"name":"Viena Capellanes","country":null,"description":"Lo que empezó en 1873 como una pequeña tahona donde se elaboraba el pan de Viena, se ha convertido hoy en una empresa de cientos de trabajadores, líder en el sector del catering y la repostería, gracias a todos los clientes que diariamente depositan en nosotros su confianza.","url":"https://www.vienacapellanes.com/","square_picture":"https://woowbe-dev.s3.amazonaws.com/media/pictures/viena-capellanes-logo-1-1.png","widescreen_picture":"https://woowbe-dev.s3.amazonaws.com/media/pictures/1638194107.png","cover":"https://woowbe-dev.s3.amazonaws.com/media/covers/viena-capellanes-portada.jpeg","sector":{"id":39,"name":"Pastelería","icon":"https://woowbe-dev.s3.amazonaws.com/media/icons/toeat_ZyBTS6v.svg","created":"2021-11-29T13:54:48.886365Z"},"descriptive_categories":[{"id":25,"name":"pan","owner":null,"sector":null,"created":"2021-10-21T21:05:17.331228Z"},{"id":23,"name":"panadería","owner":null,"sector":null,"created":"2021-10-21T21:04:59.592984Z"},{"id":60,"name":"repostería","owner":null,"sector":null,"created":"2021-11-29T13:55:03.905322Z"}],"return_period":0,"dynamic_link":"https://app.dev.woowbe.com/share/TYCN","is_franchisee_of":null,"is_favorite":false,"created":"2021-11-29T13:55:07.721203Z","offers_count":1},"online":false,"url":null,"position":{"type":"Point","coordinates":[-3.6700748,40.4176457]},"address":"Calle de Ibiza","number":"72","postal_code":"28009","state":"Madrid","city":"Madrid","merchants_count":0,"modified":"2023-03-17T08:01:52.141576Z","place_id":"ChIJZwt_46goQg0RDGg6F1C1oeQ","formatted_address":"C. de Ibiza, 72, 28009 Madrid","deleted":false,"deleted_at":null,"created":"2021-11-29T14:10:52.817178Z","selected_offer":{"id":238,"reward":"9.00","reward_type":"percentage","kind":"A","instant":false,"name":"Viena Capellanes 9%","standalone":false,"purchases":null,"online":false,"applicable":false,"available_percentage":0.985,"available_rewards":null,"is_used":false,"finish_date":null},"public_url":null,"is_open":false},{"id":543,"business":{"id":128,"name":"Viena Capellanes","country":null,"description":"Lo que empezó en 1873 como una pequeña tahona donde se elaboraba el pan de Viena, se ha convertido hoy en una empresa de cientos de trabajadores, líder en el sector del catering y la repostería, gracias a todos los clientes que diariamente depositan en nosotros su confianza.","url":"https://www.vienacapellanes.com/","square_picture":"https://woowbe-dev.s3.amazonaws.com/media/pictures/viena-capellanes-logo-1-1.png","widescreen_picture":"https://woowbe-dev.s3.amazonaws.com/media/pictures/1638194107.png","cover":"https://woowbe-dev.s3.amazonaws.com/media/covers/viena-capellanes-portada.jpeg","sector":{"id":39,"name":"Pastelería","icon":"https://woowbe-dev.s3.amazonaws.com/media/icons/toeat_ZyBTS6v.svg","created":"2021-11-29T13:54:48.886365Z"},"descriptive_categories":[{"id":25,"name":"pan","owner":null,"sector":null,"created":"2021-10-21T21:05:17.331228Z"},{"id":23,"name":"panadería","owner":null,"sector":null,"created":"2021-10-21T21:04:59.592984Z"},{"id":60,"name":"repostería","owner":null,"sector":null,"created":"2021-11-29T13:55:03.905322Z"}],"return_period":0,"dynamic_link":"https://app.dev.woowbe.com/share/TYCN","is_franchisee_of":null,"is_favorite":false,"created":"2021-11-29T13:55:07.721203Z","offers_count":1},"online":false,"url":null,"position":{"type":"Point","coordinates":[-3.6791841,40.3931382]},"address":"Calle Ariel","number":"7","postal_code":"28045","state":"Madrid","city":"Madrid","merchants_count":0,"modified":"2023-03-17T08:01:52.222222Z","place_id":"ChIJOzdH2GomQg0RnAlYMmDnFLo","formatted_address":"C. Ariel, 7, 28045 Madrid","deleted":false,"deleted_at":null,"created":"2021-11-29T14:10:28.627260Z","selected_offer":{"id":238,"reward":"9.00","reward_type":"percentage","kind":"A","instant":false,"name":"Viena Capellanes 9%","standalone":false,"purchases":null,"online":false,"applicable":false,"available_percentage":0.985,"available_rewards":null,"is_used":false,"finish_date":null},"public_url":null,"is_open":false},{"id":542,"business":{"id":128,"name":"Viena Capellanes","country":null,"description":"Lo que empezó en 1873 como una pequeña tahona donde se elaboraba el pan de Viena, se ha convertido hoy en una empresa de cientos de trabajadores, líder en el sector del catering y la repostería, gracias a todos los clientes que diariamente depositan en nosotros su confianza.","url":"https://www.vienacapellanes.com/","square_picture":"https://woowbe-dev.s3.amazonaws.com/media/pictures/viena-capellanes-logo-1-1.png","widescreen_picture":"https://woowbe-dev.s3.amazonaws.com/media/pictures/1638194107.png","cover":"https://woowbe-dev.s3.amazonaws.com/media/covers/viena-capellanes-portada.jpeg","sector":{"id":39,"name":"Pastelería","icon":"https://woowbe-dev.s3.amazonaws.com/media/icons/toeat_ZyBTS6v.svg","created":"2021-11-29T13:54:48.886365Z"},"descriptive_categories":[{"id":25,"name":"pan","owner":null,"sector":null,"created":"2021-10-21T21:05:17.331228Z"},{"id":23,"name":"panadería","owner":null,"sector":null,"created":"2021-10-21T21:04:59.592984Z"},{"id":60,"name":"repostería","owner":null,"sector":null,"created":"2021-11-29T13:55:03.905322Z"}],"return_period":0,"dynamic_link":"https://app.dev.woowbe.com/share/TYCN","is_franchisee_of":null,"is_favorite":false,"created":"2021-11-29T13:55:07.721203Z","offers_count":1},"online":false,"url":null,"position":{"type":"Point","coordinates":[-3.6934678,40.3899847]},"address":"Paseo del Molino","number":"6","postal_code":"28045","state":"Madrid","city":"Madrid","merchants_count":0,"modified":"2023-03-17T08:01:52.298539Z","place_id":"ChIJI3qeiEgmQg0RBrVPP-9Zm7o","formatted_address":"P.º del Molino, 6, 28045 Madrid","deleted":false,"deleted_at":null,"created":"2021-11-29T14:10:13.559711Z","selected_offer":{"id":238,"reward":"9.00","reward_type":"percentage","kind":"A","instant":false,"name":"Viena Capellanes 9%","standalone":false,"purchases":null,"online":false,"applicable":false,"available_percentage":0.985,"available_rewards":null,"is_used":false,"finish_date":null},"public_url":null,"is_open":false}]}