{
	"count": 579,
	"next": "https://backend.dev.woowbe.com/api/v1/points_of_sales/public/?page=27",
	"previous": "https://backend.dev.woowbe.com/api/v1/points_of_sales/public/?page=25",
	"results": [
		{
			"id": 531,
			"business": {
				"id": 128,
				"name": "Viena Capellanes",
				"country": null,
				"description": "Lo que empezó en 1873 como una pequeña tahona donde se elaboraba el pan de Viena, se ha convertido hoy en una empresa de cientos de trabajadores, líder en el sector del catering y la repostería, gracias a todos los clientes que diariamente depositan en nosotros su confianza.",
				"url": "https://www.vienacapellanes.com/",
				"square_picture": "https://woowbe-dev.s3.amazonaws.com/media/pictures/viena-capellanes-logo-1-1.png",
				"widescreen_picture": "https://woowbe-dev.s3.amazonaws.com/media/pictures/1638194107.png",
				"cover": "https://woowbe-dev.s3.amazonaws.com/media/covers/viena-capellanes-portada.jpeg",
				"sector": {
					"id": 39,
					"name": "Pastelería",
					"icon": "https://woowbe-dev.s3.amazonaws.com/media/icons/toeat_ZyBTS6v.svg",
					"created": "2021-11-29T13:54:48.886365Z"
				},
				"descriptive_categories": [
					{
						"id": 25,
						"name": "pan",
						"owner": null,
						"sector": null,
						"created": "2021-10-21T21:05:17.331228Z"
					},
					{
						"id": 23,
						"name": "panadería",
						"owner": null,
						"sector": null,
						"created": "2021-10-21T21:04:59.592984Z"
					},
					{
						"id": 60,
						"name": "repostería",
						"owner": null,
						"sector": null,
						"created": "2021-11-29T13:55:03.905322Z"
					}
				],
				"return_period": 0,
				"dynamic_link": "https://app.dev.woowbe.com/share/TYCN",
				"is_franchisee_of": null,
				"is_favorite": false,
				"created": "2021-11-29T13:55:07.721203Z",
				"offers_count": 1
			},
			"online": false,
			"url": null,
			"position": {
				"type": "Point",
				"coordinates": [
					-3.7026,
					40.43014
				]
			},
			"address": "Calle de Fuencarral",
			"number": "122",
			"postal_code": "28010",
			"state": "Madrid",
			"city": "Madrid",
			"merchants_count": 0,
			"modified": "2023-03-17T08:01:52.979703Z",
			"place_id": "ChIJlWL0eYooQg0RIk-HYNo_g4g",
			"formatted_address": "Calle de Fuencarral, 122, 28010 Madrid",
			"deleted": false,
			"deleted_at": null,
			"created": "2021-11-29T13:59:01.933696Z",
			"selected_offer": {
				"id": 238,
				"reward": "9.00",
				"reward_type": "percentage",
				"kind": "A",
				"instant": false,
				"name": "Viena Capellanes 9%",
				"standalone": false,
				"purchases": null,
				"online": false,
				"applicable": false,
				"available_percentage": 0.985,
				"available_rewards": null,
				"is_used": false,
				"finish_date": null
			},
			"public_url": null,
			"is_open": false
		},
		{
			"id": 530,
			"business": {
				"id": 128,
				"name": "Viena Capellanes",
				"country": null,
				"description": "Lo que empezó en 1873 como una pequeña tahona donde se elaboraba el pan de Viena, se ha convertido hoy en una empresa de cientos de trabajadores, líder en el sector del catering y la repostería, gracias a todos los clientes que diariamente depositan en nosotros su confianza.",
				"url": "https://www.vienacapellanes.com/",
				"square_picture": "https://woowbe-dev.s3.amazonaws.com/media/pictures/viena-capellanes-logo-1-1.png",
				"widescreen_picture": "https://woowbe-dev.s3.amazonaws.com/media/pictures/1638194107.png",
				"cover": "https://woowbe-dev.s3.amazonaws.com/media/covers/viena-capellanes-portada.jpeg",
				"sector": {
					"id": 39,
					"name": "Pastelería",
					"icon": "https://woowbe-dev.s3.amazonaws.com/media/icons/toeat_ZyBTS6v.svg",
					"created": "2021-11-29T13:54:48.886365Z"
				},
				"descriptive_categories": [
					{
						"id": 25,
						"name": "pan",
						"owner": null,
						"sector": null,
						"created": "2021-10-21T21:05:17.331228Z"
					},
					{
						"id": 23,
						"name": "panadería",
						"owner": null,
						"sector": null,
						"created": "2021-10-21T21:04:59.592984Z"
					},
					{
						"id": 60,
						"name": "repostería",
						"owner": null,
						"sector": null,
						"created": "2021-11-29T13:55:03.905322Z"
					}
				],
				"return_period": 0,
				"dynamic_link": "https://app.dev.woowbe.com/share/TYCN",
				"is_franchisee_of": null,
				"is_favorite": false,
				"created": "2021-11-29T13:55:07.721203Z",
				"offers_count": 1
			},
			"online": false,
			"url": null,
			"position": {
				"type": "Point",
				"coordinates": [
					-3.6835788,
					40.4254496
				]
			},
			"address": "Calle de Goya",
			"number": "37",
			"postal_code": "28001",
			"state": "Madrid",
			"city": "Madrid",
			"merchants_count": 0,
			"modified": "2023-03-17T08:01:53.115068Z",
			"place_id": "ChIJwcfSxZcoQg0RBlOGdZ7CA_o",
			"formatted_address": "Calle de Goya, 37, 28001 Madrid",
			"deleted": false,
			"deleted_at": null,
			"created": "2021-11-29T13:58:45.981293Z",
			"selected_offer": {
				"id": 238,
				"reward": "9.00",
				"reward_type": "percentage",
				"kind": "A",
				"instant": false,
				"name": "Viena Capellanes 9%",
				"standalone": false,
				"purchases": null,
				"online": false,
				"applicable": false,
				"available_percentage": 0.985,
				"available_rewards": null,
				"is_used": false,
				"finish_date": null
			},
			"public_url": null,
			"is_open": false
		},
		{
			"id": 529,
			"business": {
				"id": 128,
				"name": "Viena Capellanes",
				"country": null,
				"description": "Lo que empezó en 1873 como una pequeña tahona donde se elaboraba el pan de Viena, se ha convertido hoy en una empresa de cientos de trabajadores, líder en el sector del catering y la repostería, gracias a todos los clientes que diariamente depositan en nosotros su confianza.",
				"url": "https://www.vienacapellanes.com/",
				"square_picture": "https://woowbe-dev.s3.amazonaws.com/media/pictures/viena-capellanes-logo-1-1.png",
				"widescreen_picture": "https://woowbe-dev.s3.amazonaws.com/media/pictures/1638194107.png",
				"cover": "https://woowbe-dev.s3.amazonaws.com/media/covers/viena-capellanes-portada.jpeg",
				"sector": {
					"id": 39,
					"name": "Pastelería",
					"icon": "https://woowbe-dev.s3.amazonaws.com/media/icons/toeat_ZyBTS6v.svg",
					"created": "2021-11-29T13:54:48.886365Z"
				},
				"descriptive_categories": [
					{
						"id": 25,
						"name": "pan",
						"owner": null,
						"sector": null,
						"created": "2021-10-21T21:05:17.331228Z"
					},
					{
						"id": 23,
						"name": "panadería",
						"owner": null,
						"sector": null,
						"created": "2021-10-21T21:04:59.592984Z"
					},
					{
						"id": 60,
						"name": "repostería",
						"owner": null,
						"sector": null,
						"created": "2021-11-29T13:55:03.905322Z"
					}
				],
				"return_period": 0,
				"dynamic_link": "https://app.dev.woowbe.com/share/TYCN",
				"is_franchisee_of": null,
				"is_favorite": false,
				"created": "2021-11-29T13:55:07.721203Z",
				"offers_count": 1
			},
			"online": false,
			"url": null,
			"position": {
				"type": "Point",
				"coordinates": [
					-3.6884821,
					40.4379743
				]
			},
			"address": "Calle de María de Molina",
			"number": "6",
			"postal_code": "28006",
			"state": "Madrid",
			"city": "Madrid",
			"merchants_count": 0,
			"modified": "2023-03-17T08:01:53.238337Z",
			"place_id": "EjRDYWxsZSBkZSBNYXLDrWEgZGUgTW9saW5hLCA2bywgMjgwMDYgTWFkcmlkLCBFc3Bhw7FhIlASTgo0CjIJH2IAEewoQg0RHYfnmNFrVe8aHgsQ7sHuoQEaFAoSCUewAl_AKEINEbCsizP3QAMcDBAGKhQKEgl7IoU_6ihCDRFOaXidkheBXA",
			"formatted_address": "Calle de María de Molina, 6, 28006 Madrid",
			"deleted": false,
			"deleted_at": null,
			"created": "2021-11-29T13:58:31.067956Z",
			"selected_offer": {
				"id": 238,
				"reward": "9.00",
				"reward_type": "percentage",
				"kind": "A",
				"instant": false,
				"name": "Viena Capellanes 9%",
				"standalone": false,
				"purchases": null,
				"online": false,
				"applicable": false,
				"available_percentage": 0.985,
				"available_rewards": null,
				"is_used": false,
				"finish_date": null
			},
			"public_url": null,
			"is_open": false
		},
		{
			"id": 528,
			"business": {
				"id": 128,
				"name": "Viena Capellanes",
				"country": null,
				"description": "Lo que empezó en 1873 como una pequeña tahona donde se elaboraba el pan de Viena, se ha convertido hoy en una empresa de cientos de trabajadores, líder en el sector del catering y la repostería, gracias a todos los clientes que diariamente depositan en nosotros su confianza.",
				"url": "https://www.vienacapellanes.com/",
				"square_picture": "https://woowbe-dev.s3.amazonaws.com/media/pictures/viena-capellanes-logo-1-1.png",
				"widescreen_picture": "https://woowbe-dev.s3.amazonaws.com/media/pictures/1638194107.png",
				"cover": "https://woowbe-dev.s3.amazonaws.com/media/covers/viena-capellanes-portada.jpeg",
				"sector": {
					"id": 39,
					"name": "Pastelería",
					"icon": "https://woowbe-dev.s3.amazonaws.com/media/icons/toeat_ZyBTS6v.svg",
					"created": "2021-11-29T13:54:48.886365Z"
				},
				"descriptive_categories": [
					{
						"id": 25,
						"name": "pan",
						"owner": null,
						"sector": null,
						"created": "2021-10-21T21:05:17.331228Z"
					},
					{
						"id": 23,
						"name": "panadería",
						"owner": null,
						"sector": null,
						"created": "2021-10-21T21:04:59.592984Z"
					},
					{
						"id": 60,
						"name": "repostería",
						"owner": null,
						"sector": null,
						"created": "2021-11-29T13:55:03.905322Z"
					}
				],
				"return_period": 0,
				"dynamic_link": "https://app.dev.woowbe.com/share/TYCN",
				"is_franchisee_of": null,
				"is_favorite": false,
				"created": "2021-11-29T13:55:07.721203Z",
				"offers_count": 1
			},
			"online": false,
			"url": null,
			"position": {
				"type": "Point",
				"coordinates": [
					-3.6951007,
					40.4533174
				]
			},
			"address": "Calle de Orense",
			"number": "35",
			"postal_code": "28020",
			"state": "Madrid",
			"city": "Madrid",
			"merchants_count": 0,
			"modified": "2023-03-17T08:01:53.324234Z",
			"place_id": "ChIJfzKwef0oQg0RwDMS_hz1quI",
			"formatted_address": "C. de Orense, 35, 28020 Madrid",
			"deleted": false,
			"deleted_at": null,
			"created": "2021-11-29T13:58:15.890688Z",
			"selected_offer": {
				"id": 238,
				"reward": "9.00",
				"reward_type": "percentage",
				"kind": "A",
				"instant": false,
				"name": "Viena Capellanes 9%",
				"standalone": false,
				"purchases": null,
				"online": false,
				"applicable": false,
				"available_percentage": 0.985,
				"available_rewards": null,
				"is_used": false,
				"finish_date": null
			},
			"public_url": null,
			"is_open": false
		},
		{
			"id": 527,
			"business": {
				"id": 128,
				"name": "Viena Capellanes",
				"country": null,
				"description": "Lo que empezó en 1873 como una pequeña tahona donde se elaboraba el pan de Viena, se ha convertido hoy en una empresa de cientos de trabajadores, líder en el sector del catering y la repostería, gracias a todos los clientes que diariamente depositan en nosotros su confianza.",
				"url": "https://www.vienacapellanes.com/",
				"square_picture": "https://woowbe-dev.s3.amazonaws.com/media/pictures/viena-capellanes-logo-1-1.png",
				"widescreen_picture": "https://woowbe-dev.s3.amazonaws.com/media/pictures/1638194107.png",
				"cover": "https://woowbe-dev.s3.amazonaws.com/media/covers/viena-capellanes-portada.jpeg",
				"sector": {
					"id": 39,
					"name": "Pastelería",
					"icon": "https://woowbe-dev.s3.amazonaws.com/media/icons/toeat_ZyBTS6v.svg",
					"created": "2021-11-29T13:54:48.886365Z"
				},
				"descriptive_categories": [
					{
						"id": 25,
						"name": "pan",
						"owner": null,
						"sector": null,
						"created": "2021-10-21T21:05:17.331228Z"
					},
					{
						"id": 23,
						"name": "panadería",
						"owner": null,
						"sector": null,
						"created": "2021-10-21T21:04:59.592984Z"
					},
					{
						"id": 60,
						"name": "repostería",
						"owner": null,
						"sector": null,
						"created": "2021-11-29T13:55:03.905322Z"
					}
				],
				"return_period": 0,
				"dynamic_link": "https://app.dev.woowbe.com/share/TYCN",
				"is_franchisee_of": null,
				"is_favorite": false,
				"created": "2021-11-29T13:55:07.721203Z",
				"offers_count": 1
			},
			"online": false,
			"url": null,
			"position": {
				"type": "Point",
				"coordinates": [
					-3.6884184,
					40.46745749999999
				]
			},
			"address": "Paseo de la Castellana",
			"number": "218",
			"postal_code": "28046",
			"state": "Madrid",
			"city": "Madrid",
			"merchants_count": 0,
			"modified": "2023-03-17T08:01:53.362970Z",
			"place_id": "ChIJWQU7JREpQg0RRk1GxITcshc",
			"formatted_address": "P.º de la Castellana, 218, 28046 Madrid",
			"deleted": false,
			"deleted_at": null,
			"created": "2021-11-29T13:58:00.522255Z",
			"selected_offer": {
				"id": 238,
				"reward": "9.00",
				"reward_type": "percentage",
				"kind": "A",
				"instant": false,
				"name": "Viena Capellanes 9%",
				"standalone": false,
				"purchases": null,
				"online": false,
				"applicable": false,
				"available_percentage": 0.985,
				"available_rewards": null,
				"is_used": false,
				"finish_date": null
			},
			"public_url": null,
			"is_open": false
		},
		{
			"id": 526,
			"business": {
				"id": 128,
				"name": "Viena Capellanes",
				"country": null,
				"description": "Lo que empezó en 1873 como una pequeña tahona donde se elaboraba el pan de Viena, se ha convertido hoy en una empresa de cientos de trabajadores, líder en el sector del catering y la repostería, gracias a todos los clientes que diariamente depositan en nosotros su confianza.",
				"url": "https://www.vienacapellanes.com/",
				"square_picture": "https://woowbe-dev.s3.amazonaws.com/media/pictures/viena-capellanes-logo-1-1.png",
				"widescreen_picture": "https://woowbe-dev.s3.amazonaws.com/media/pictures/1638194107.png",
				"cover": "https://woowbe-dev.s3.amazonaws.com/media/covers/viena-capellanes-portada.jpeg",
				"sector": {
					"id": 39,
					"name": "Pastelería",
					"icon": "https://woowbe-dev.s3.amazonaws.com/media/icons/toeat_ZyBTS6v.svg",
					"created": "2021-11-29T13:54:48.886365Z"
				},
				"descriptive_categories": [
					{
						"id": 25,
						"name": "pan",
						"owner": null,
						"sector": null,
						"created": "2021-10-21T21:05:17.331228Z"
					},
					{
						"id": 23,
						"name": "panadería",
						"owner": null,
						"sector": null,
						"created": "2021-10-21T21:04:59.592984Z"
					},
					{
						"id": 60,
						"name": "repostería",
						"owner": null,
						"sector": null,
						"created": "2021-11-29T13:55:03.905322Z"
					}
				],
				"return_period": 0,
				"dynamic_link": "https://app.dev.woowbe.com/share/TYCN",
				"is_franchisee_of": null,
				"is_favorite": false,
				"created": "2021-11-29T13:55:07.721203Z",
				"offers_count": 1
			},
			"online": false,
			"url": null,
			"position": {
				"type": "Point",
				"coordinates": [
					-3.6923017,
					40.464073
				]
			},
			"address": "Calle del Poeta Joan Maragall",
			"number": "55",
			"postal_code": "28020",
			"state": "Madrid",
			"city": "Madrid",
			"merchants_count": 0,
			"modified": "2023-03-17T08:01:53.596967Z",
			"place_id": "ChIJWYQSqRopQg0RlRJ7e6gPKyU",
			"formatted_address": "C. del Poeta Joan Maragall, 55, 28020 Madrid",
			"deleted": false,
			"deleted_at": null,
			"created": "2021-11-29T13:57:45.214068Z",
			"selected_offer": {
				"id": 238,
				"reward": "9.00",
				"reward_type": "percentage",
				"kind": "A",
				"instant": false,
				"name": "Viena Capellanes 9%",
				"standalone": false,
				"purchases": null,
				"online": false,
				"applicable": false,
				"available_percentage": 0.985,
				"available_rewards": null,
				"is_used": false,
				"finish_date": null
			},
			"public_url": null,
			"is_open": false
		},
		{
			"id": 525,
			"business": {
				"id": 127,
				"name": "Fratelli Figurato",
				"country": null,
				"description": "Dos hermanos napolitanos con una pasión fortísima por la gastronomía italiana. Dejan sus carreras en marketing y business para seguir su gran sueño: llevar la comida italiana popular hasta España, abarcando desde la PIZZA NAPOLETANA, pasando por la PASTA FRESCA, que hacen a diario, y finalizando con las recetas más tradicionales de las abuelas italianas",
				"url": "https://www.fratellifigurato.es/",
				"square_picture": "https://woowbe-dev.s3.amazonaws.com/media/pictures/fratelli-figurato-logo-1-1.png",
				"widescreen_picture": "https://woowbe-dev.s3.amazonaws.com/media/pictures/1638193317.png",
				"cover": "https://woowbe-dev.s3.amazonaws.com/media/covers/cover_K4GzfQw.jpg",
				"sector": {
					"id": 3,
					"name": "Fast Food",
					"icon": "https://woowbe-dev.s3.amazonaws.com/media/icons/food_TPGNuc7.svg",
					"created": "2021-05-25T10:47:39.210359Z"
				},
				"descriptive_categories": [
					{
						"id": 20,
						"name": "italiano",
						"owner": null,
						"sector": null,
						"created": "2021-10-21T20:22:55.462166Z"
					},
					{
						"id": 19,
						"name": "pizza",
						"owner": null,
						"sector": 3,
						"created": "2021-10-21T20:22:48.209376Z"
					}
				],
				"return_period": 0,
				"dynamic_link": "https://app.dev.woowbe.com/share/G3Mm",
				"is_franchisee_of": null,
				"is_favorite": false,
				"created": "2021-11-29T13:41:57.782595Z",
				"offers_count": 0
			},
			"online": false,
			"url": null,
			"position": {
				"type": "Point",
				"coordinates": [
					-3.7005019,
					40.4278123
				]
			},
			"address": "Calle de Larra",
			"number": "13",
			"postal_code": "28004",
			"state": "Madrid",
			"city": "Madrid",
			"merchants_count": 0,
			"modified": "2023-03-17T08:01:53.804364Z",
			"place_id": "ChIJzZtHgokoQg0RAVA1Nq9FMVo",
			"formatted_address": "Calle de Larra, 13, 28004 Madrid",
			"deleted": false,
			"deleted_at": null,
			"created": "2021-11-29T13:43:58.835878Z",
			"selected_offer": {
				"reward": null,
				"reward_type": null,
				"kind": null,
				"instant": false,
				"name": "",
				"standalone": false,
				"purchases": null,
				"online": false,
				"finish_date": null
			},
			"public_url": null,
			"is_open": false
		},
		{
			"id": 524,
			"business": {
				"id": 127,
				"name": "Fratelli Figurato",
				"country": null,
				"description": "Dos hermanos napolitanos con una pasión fortísima por la gastronomía italiana. Dejan sus carreras en marketing y business para seguir su gran sueño: llevar la comida italiana popular hasta España, abarcando desde la PIZZA NAPOLETANA, pasando por la PASTA FRESCA, que hacen a diario, y finalizando con las recetas más tradicionales de las abuelas italianas",
				"url": "https://www.fratellifigurato.es/",
				"square_picture": "https://woowbe-dev.s3.amazonaws.com/media/pictures/fratelli-figurato-logo-1-1.png",
				"widescreen_picture": "https://woowbe-dev.s3.amazonaws.com/media/pictures/1638193317.png",
				"cover": "https://woowbe-dev.s3.amazonaws.com/media/covers/cover_K4GzfQw.jpg",
				"sector": {
					"id": 3,
					"name": "Fast Food",
					"icon": "https://woowbe-dev.s3.amazonaws.com/media/icons/food_TPGNuc7.svg",
					"created": "2021-05-25T10:47:39.210359Z"
				},
				"descriptive_categories": [
					{
						"id": 20,
						"name": "italiano",
						"owner": null,
						"sector": null,
						"created": "2021-10-21T20:22:55.462166Z"
					},
					{
						"id": 19,
						"name": "pizza",
						"owner": null,
						"sector": 3,
						"created": "2021-10-21T20:22:48.209376Z"
					}
				],
				"return_period": 0,
				"dynamic_link": "https://app.dev.woowbe.com/share/G3Mm",
				"is_franchisee_of": null,
				"is_favorite": false,
				"created": "2021-11-29T13:41:57.782595Z",
				"offers_count": 0
			},
			"online": false,
			"url": null,
			"position": {
				"type": "Point",
				"coordinates": [
					-3.6979453,
					40.4389236
				]
			},
			"address": "Calle de Alonso Cano",
			"number": "37",
			"postal_code": "28003",
			"state": "Madrid",
			"city": "Madrid",
			"merchants_count": 0,
			"modified": "2023-03-17T08:01:53.909690Z",
			"place_id": "ChIJG6ThrPYoQg0RxfWXfkYUlKI",
			"formatted_address": "C. de Alonso Cano, 37, 28003 Madrid",
			"deleted": false,
			"deleted_at": null,
			"created": "2021-11-29T13:43:38.475569Z",
			"selected_offer": {
				"reward": null,
				"reward_type": null,
				"kind": null,
				"instant": false,
				"name": "",
				"standalone": false,
				"purchases": null,
				"online": false,
				"finish_date": null
			},
			"public_url": null,
			"is_open": false
		},
		{
			"id": 523,
			"business": {
				"id": 126,
				"name": "Kilómetros de Pizza",
				"country": null,
				"description": "¡Las pizzas campeonas del mundo por fin en tu ciudad!\r\nDespués de 7 años, más de 3 millones de clientes satisfechos, 8 restaurantes propios y mucho, mucho aprendido… estamos preparados para desembarcar contigo en tu ciudad. Si quieres triunfar con un concepto único en el mundo y obtener estupendas rentabilidades esta es tu oportunidad. Si compartes la filosofía “el ojo del amo, engorda el caballo” te acompañaremos al éxito de principio a fin.",
				"url": "https://kilometrosdepizza.com/",
				"square_picture": "https://woowbe-dev.s3.amazonaws.com/media/pictures/km-pizza-logo-1-1.png",
				"widescreen_picture": "https://woowbe-dev.s3.amazonaws.com/media/pictures/1638192019.png",
				"cover": "https://woowbe-dev.s3.amazonaws.com/media/covers/km-pizza-portada.jpeg",
				"sector": {
					"id": 3,
					"name": "Fast Food",
					"icon": "https://woowbe-dev.s3.amazonaws.com/media/icons/food_TPGNuc7.svg",
					"created": "2021-05-25T10:47:39.210359Z"
				},
				"descriptive_categories": [
					{
						"id": 19,
						"name": "pizza",
						"owner": null,
						"sector": 3,
						"created": "2021-10-21T20:22:48.209376Z"
					}
				],
				"return_period": 0,
				"dynamic_link": "https://app.dev.woowbe.com/share/6bFF",
				"is_franchisee_of": null,
				"is_favorite": false,
				"created": "2021-11-29T13:20:18.931261Z",
				"offers_count": 1
			},
			"online": false,
			"url": null,
			"position": {
				"type": "Point",
				"coordinates": [
					-3.8476744,
					40.3406504
				]
			},
			"address": "Calle Oslo",
			"number": "53",
			"postal_code": "28922",
			"state": "Madrid",
			"city": "Alcorcón",
			"merchants_count": 0,
			"modified": "2023-03-17T08:01:53.925596Z",
			"place_id": "ChIJYU3uJXIpQg0RvX9u3A7Bfnw",
			"formatted_address": "C. Oslo, 53, 28922 Alcorcón, Madrid",
			"deleted": false,
			"deleted_at": null,
			"created": "2021-11-29T13:26:10.165571Z",
			"selected_offer": {
				"reward": null,
				"reward_type": null,
				"kind": null,
				"instant": false,
				"name": "",
				"standalone": false,
				"purchases": null,
				"online": false,
				"finish_date": null
			},
			"public_url": null,
			"is_open": false
		},
		{
			"id": 519,
			"business": {
				"id": 126,
				"name": "Kilómetros de Pizza",
				"country": null,
				"description": "¡Las pizzas campeonas del mundo por fin en tu ciudad!\r\nDespués de 7 años, más de 3 millones de clientes satisfechos, 8 restaurantes propios y mucho, mucho aprendido… estamos preparados para desembarcar contigo en tu ciudad. Si quieres triunfar con un concepto único en el mundo y obtener estupendas rentabilidades esta es tu oportunidad. Si compartes la filosofía “el ojo del amo, engorda el caballo” te acompañaremos al éxito de principio a fin.",
				"url": "https://kilometrosdepizza.com/",
				"square_picture": "https://woowbe-dev.s3.amazonaws.com/media/pictures/km-pizza-logo-1-1.png",
				"widescreen_picture": "https://woowbe-dev.s3.amazonaws.com/media/pictures/1638192019.png",
				"cover": "https://woowbe-dev.s3.amazonaws.com/media/covers/km-pizza-portada.jpeg",
				"sector": {
					"id": 3,
					"name": "Fast Food",
					"icon": "https://woowbe-dev.s3.amazonaws.com/media/icons/food_TPGNuc7.svg",
					"created": "2021-05-25T10:47:39.210359Z"
				},
				"descriptive_categories": [
					{
						"id": 19,
						"name": "pizza",
						"owner": null,
						"sector": 3,
						"created": "2021-10-21T20:22:48.209376Z"
					}
				],
				"return_period": 0,
				"dynamic_link": "https://app.dev.woowbe.com/share/6bFF",
				"is_franchisee_of": null,
				"is_favorite": false,
				"created": "2021-11-29T13:20:18.931261Z",
				"offers_count": 1
			},
			"online": false,
			"url": null,
			"position": {
				"type": "Point",
				"coordinates": [
					-3.6662346,
					40.5064185
				]
			},
			"address": "Calle de Palas de Rey",
			"number": "",
			"postal_code": "28050",
			"state": "Madrid",
			"city": "Madrid",
			"merchants_count": 0,
			"modified": "2023-03-17T08:01:54.002514Z",
			"place_id": "EiNDLiBkZSBQYWxhcyBkZSBSZXksIE1hZHJpZCwgRXNwYcOxYSIuKiwKFAoSCUEQrib3K0INEeeHH35fzjAsEhQKEgmBPAqAlylCDRFpIoxhwd42xA",
			"formatted_address": "C. de Palas de Rey, 28050 Madrid",
			"deleted": false,
			"deleted_at": null,
			"created": "2021-11-29T13:24:51.172373Z",
			"selected_offer": {
				"reward": null,
				"reward_type": null,
				"kind": null,
				"instant": false,
				"name": "",
				"standalone": false,
				"purchases": null,
				"online": false,
				"finish_date": null
			},
			"public_url": null,
			"is_open": false
		}
	]
}
