{"count":579,"next":"https://backend.dev.woowbe.com/api/v1/points_of_sales/public/?page=28","previous":"https://backend.dev.woowbe.com/api/v1/points_of_sales/public/?page=26","results":[{"id":518,"business":{"id":126,"name":"Kilómetros de Pizza","country":null,"description":"¡Las pizzas campeonas del mundo por fin en tu ciudad!\r\nDespués de 7 años, más de 3 millones de clientes satisfechos, 8 restaurantes propios y mucho, mucho aprendido… estamos preparados para desembarcar contigo en tu ciudad. Si quieres triunfar con un concepto único en el mundo y obtener estupendas rentabilidades esta es tu oportunidad. Si compartes la filosofía “el ojo del amo, engorda el caballo” te acompañaremos al éxito de principio a fin.","url":"https://kilometrosdepizza.com/","square_picture":"https://woowbe-dev.s3.amazonaws.com/media/pictures/km-pizza-logo-1-1.png","widescreen_picture":"https://woowbe-dev.s3.amazonaws.com/media/pictures/1638192019.png","cover":"https://woowbe-dev.s3.amazonaws.com/media/covers/km-pizza-portada.jpeg","sector":{"id":3,"name":"Fast Food","icon":"https://woowbe-dev.s3.amazonaws.com/media/icons/food_TPGNuc7.svg","created":"2021-05-25T10:47:39.210359Z"},"descriptive_categories":[{"id":19,"name":"pizza","owner":null,"sector":3,"created":"2021-10-21T20:22:48.209376Z"}],"return_period":0,"dynamic_link":"https://app.dev.woowbe.com/share/6bFF","is_franchisee_of":null,"is_favorite":false,"created":"2021-11-29T13:20:18.931261Z","offers_count":1},"online":false,"url":null,"position":{"type":"Point","coordinates":[-3.69355,40.4292179]},"address":"Calle de Zurbano","number":"26","postal_code":"28010","state":"Madrid","city":"Madrid","merchants_count":0,"modified":"2023-03-17T08:01:54.105449Z","place_id":"ChIJQWFU7o0oQg0RmdmXVrl0Wnc","formatted_address":"Calle de Zurbano, 26, 28010 Madrid","deleted":false,"deleted_at":null,"created":"2021-11-29T13:24:13.208874Z","selected_offer":{"id":236,"reward":"10.00","reward_type":"percentage","kind":"A","instant":false,"name":"Kilómetros de pizza 10%","standalone":false,"purchases":null,"online":false,"applicable":false,"available_percentage":1,"available_rewards":null,"is_used":false,"finish_date":null},"public_url":null,"is_open":false},{"id":517,"business":{"id":126,"name":"Kilómetros de Pizza","country":null,"description":"¡Las pizzas campeonas del mundo por fin en tu ciudad!\r\nDespués de 7 años, más de 3 millones de clientes satisfechos, 8 restaurantes propios y mucho, mucho aprendido… estamos preparados para desembarcar contigo en tu ciudad. Si quieres triunfar con un concepto único en el mundo y obtener estupendas rentabilidades esta es tu oportunidad. Si compartes la filosofía “el ojo del amo, engorda el caballo” te acompañaremos al éxito de principio a fin.","url":"https://kilometrosdepizza.com/","square_picture":"https://woowbe-dev.s3.amazonaws.com/media/pictures/km-pizza-logo-1-1.png","widescreen_picture":"https://woowbe-dev.s3.amazonaws.com/media/pictures/1638192019.png","cover":"https://woowbe-dev.s3.amazonaws.com/media/covers/km-pizza-portada.jpeg","sector":{"id":3,"name":"Fast Food","icon":"https://woowbe-dev.s3.amazonaws.com/media/icons/food_TPGNuc7.svg","created":"2021-05-25T10:47:39.210359Z"},"descriptive_categories":[{"id":19,"name":"pizza","owner":null,"sector":3,"created":"2021-10-21T20:22:48.209376Z"}],"return_period":0,"dynamic_link":"https://app.dev.woowbe.com/share/6bFF","is_franchisee_of":null,"is_favorite":false,"created":"2021-11-29T13:20:18.931261Z","offers_count":1},"online":false,"url":null,"position":{"type":"Point","coordinates":[-3.6932683,40.454173]},"address":"Avenida de Brasil","number":"6","postal_code":"28020","state":"Madrid","city":"Madrid","merchants_count":0,"modified":"2023-03-17T08:01:54.206314Z","place_id":"ChIJpcWQrQIpQg0R1a7MUSUN-20","formatted_address":"Av. de Brasil, 6, 28020 Madrid","deleted":false,"deleted_at":null,"created":"2021-11-29T13:23:58.143871Z","selected_offer":{"id":236,"reward":"10.00","reward_type":"percentage","kind":"A","instant":false,"name":"Kilómetros de pizza 10%","standalone":false,"purchases":null,"online":false,"applicable":false,"available_percentage":1,"available_rewards":null,"is_used":false,"finish_date":null},"public_url":null,"is_open":false},{"id":516,"business":{"id":125,"name":"Le Coq","country":null,"description":"Le Coq no es solo la mejor rotisserie de aves a las brasas de España, también Le Coq es un modelo de negocio donde todo \"gira\" alrededor de nuestros pollos frescos y de primerísima calidad, marinados previamente con las recetas secretas Le Coq que hacen que la experiencia sea inolvidable y te apetezca repetir una y otra vez.\r\nLe Coq es un viaje permanente por diferentes lugares del mundo, desde la tradición de Francia al exotismo de India o Japón o brindarte la oportunidad de probar el famoso pollo peruano o disfrutar con los sabores de México o Argentina.","url":"https://lcq.es/","square_picture":"https://woowbe-dev.s3.amazonaws.com/media/pictures/le-coq-logo-1-1.png","widescreen_picture":"https://woowbe-dev.s3.amazonaws.com/media/pictures/1638190657.png","cover":"https://woowbe-dev.s3.amazonaws.com/media/covers/le-coq-portada.jpeg","sector":{"id":2,"name":"Restaurante","icon":"https://woowbe-dev.s3.amazonaws.com/media/icons/food_Yc99kSV.svg","created":"2021-05-25T10:46:14.371617Z"},"descriptive_categories":[{"id":59,"name":"pollo asado","owner":null,"sector":null,"created":"2021-11-29T12:57:34.252585Z"},{"id":58,"name":"rotisserie","owner":null,"sector":null,"created":"2021-11-29T12:57:28.377827Z"}],"return_period":0,"dynamic_link":"https://app.dev.woowbe.com/share/ut8s","is_franchisee_of":null,"is_favorite":false,"created":"2021-11-29T12:57:37.328075Z","offers_count":1},"online":false,"url":null,"position":{"type":"Point","coordinates":[-3.7009578,40.4133866]},"address":"Calle de Atocha","number":"43","postal_code":"28012","state":"Madrid","city":"Madrid","merchants_count":0,"modified":"2023-03-17T08:01:54.316121Z","place_id":"ChIJqbeWL4AoQg0Rh1pFwukSnoo","formatted_address":"C. de Atocha, 43, 28012 Madrid","deleted":false,"deleted_at":null,"created":"2021-11-29T13:01:17.940551Z","selected_offer":{"id":228,"reward":"7.00","reward_type":"percentage","kind":"A","instant":false,"name":"Le Coq 7%","standalone":false,"purchases":null,"online":false,"applicable":false,"available_percentage":1,"available_rewards":null,"is_used":false,"finish_date":null},"public_url":null,"is_open":false},{"id":515,"business":{"id":125,"name":"Le Coq","country":null,"description":"Le Coq no es solo la mejor rotisserie de aves a las brasas de España, también Le Coq es un modelo de negocio donde todo \"gira\" alrededor de nuestros pollos frescos y de primerísima calidad, marinados previamente con las recetas secretas Le Coq que hacen que la experiencia sea inolvidable y te apetezca repetir una y otra vez.\r\nLe Coq es un viaje permanente por diferentes lugares del mundo, desde la tradición de Francia al exotismo de India o Japón o brindarte la oportunidad de probar el famoso pollo peruano o disfrutar con los sabores de México o Argentina.","url":"https://lcq.es/","square_picture":"https://woowbe-dev.s3.amazonaws.com/media/pictures/le-coq-logo-1-1.png","widescreen_picture":"https://woowbe-dev.s3.amazonaws.com/media/pictures/1638190657.png","cover":"https://woowbe-dev.s3.amazonaws.com/media/covers/le-coq-portada.jpeg","sector":{"id":2,"name":"Restaurante","icon":"https://woowbe-dev.s3.amazonaws.com/media/icons/food_Yc99kSV.svg","created":"2021-05-25T10:46:14.371617Z"},"descriptive_categories":[{"id":59,"name":"pollo asado","owner":null,"sector":null,"created":"2021-11-29T12:57:34.252585Z"},{"id":58,"name":"rotisserie","owner":null,"sector":null,"created":"2021-11-29T12:57:28.377827Z"}],"return_period":0,"dynamic_link":"https://app.dev.woowbe.com/share/ut8s","is_franchisee_of":null,"is_favorite":false,"created":"2021-11-29T12:57:37.328075Z","offers_count":1},"online":false,"url":null,"position":{"type":"Point","coordinates":[-3.788796,40.4446523]},"address":"Avenida de Europa","number":"29","postal_code":"28023","state":"Madrid","city":"Madrid","merchants_count":0,"modified":"2023-03-17T08:01:54.425699Z","place_id":"ChIJSVfz5lOGQQ0RVGSAvBnw4VE","formatted_address":"Av. de Europa, 29, 28023 Madrid","deleted":false,"deleted_at":null,"created":"2021-11-29T13:01:01.954553Z","selected_offer":{"id":228,"reward":"7.00","reward_type":"percentage","kind":"A","instant":false,"name":"Le Coq 7%","standalone":false,"purchases":null,"online":false,"applicable":false,"available_percentage":1,"available_rewards":null,"is_used":false,"finish_date":null},"public_url":null,"is_open":false},{"id":514,"business":{"id":125,"name":"Le Coq","country":null,"description":"Le Coq no es solo la mejor rotisserie de aves a las brasas de España, también Le Coq es un modelo de negocio donde todo \"gira\" alrededor de nuestros pollos frescos y de primerísima calidad, marinados previamente con las recetas secretas Le Coq que hacen que la experiencia sea inolvidable y te apetezca repetir una y otra vez.\r\nLe Coq es un viaje permanente por diferentes lugares del mundo, desde la tradición de Francia al exotismo de India o Japón o brindarte la oportunidad de probar el famoso pollo peruano o disfrutar con los sabores de México o Argentina.","url":"https://lcq.es/","square_picture":"https://woowbe-dev.s3.amazonaws.com/media/pictures/le-coq-logo-1-1.png","widescreen_picture":"https://woowbe-dev.s3.amazonaws.com/media/pictures/1638190657.png","cover":"https://woowbe-dev.s3.amazonaws.com/media/covers/le-coq-portada.jpeg","sector":{"id":2,"name":"Restaurante","icon":"https://woowbe-dev.s3.amazonaws.com/media/icons/food_Yc99kSV.svg","created":"2021-05-25T10:46:14.371617Z"},"descriptive_categories":[{"id":59,"name":"pollo asado","owner":null,"sector":null,"created":"2021-11-29T12:57:34.252585Z"},{"id":58,"name":"rotisserie","owner":null,"sector":null,"created":"2021-11-29T12:57:28.377827Z"}],"return_period":0,"dynamic_link":"https://app.dev.woowbe.com/share/ut8s","is_franchisee_of":null,"is_favorite":false,"created":"2021-11-29T12:57:37.328075Z","offers_count":1},"online":false,"url":null,"position":{"type":"Point","coordinates":[-3.6885181,40.4563297]},"address":"Calle del Doctor Fleming","number":"11","postal_code":"28036","state":"Madrid","city":"Madrid","merchants_count":0,"modified":"2023-03-17T08:01:54.610413Z","place_id":"ChIJyeAkzB0pQg0RfcFhWYVDxEI","formatted_address":"Calle del Dr. Fleming, 11, 28036 Madrid","deleted":false,"deleted_at":null,"created":"2021-11-29T13:00:19.651136Z","selected_offer":{"id":228,"reward":"7.00","reward_type":"percentage","kind":"A","instant":false,"name":"Le Coq 7%","standalone":false,"purchases":null,"online":false,"applicable":false,"available_percentage":1,"available_rewards":null,"is_used":false,"finish_date":null},"public_url":null,"is_open":false},{"id":513,"business":{"id":125,"name":"Le Coq","country":null,"description":"Le Coq no es solo la mejor rotisserie de aves a las brasas de España, también Le Coq es un modelo de negocio donde todo \"gira\" alrededor de nuestros pollos frescos y de primerísima calidad, marinados previamente con las recetas secretas Le Coq que hacen que la experiencia sea inolvidable y te apetezca repetir una y otra vez.\r\nLe Coq es un viaje permanente por diferentes lugares del mundo, desde la tradición de Francia al exotismo de India o Japón o brindarte la oportunidad de probar el famoso pollo peruano o disfrutar con los sabores de México o Argentina.","url":"https://lcq.es/","square_picture":"https://woowbe-dev.s3.amazonaws.com/media/pictures/le-coq-logo-1-1.png","widescreen_picture":"https://woowbe-dev.s3.amazonaws.com/media/pictures/1638190657.png","cover":"https://woowbe-dev.s3.amazonaws.com/media/covers/le-coq-portada.jpeg","sector":{"id":2,"name":"Restaurante","icon":"https://woowbe-dev.s3.amazonaws.com/media/icons/food_Yc99kSV.svg","created":"2021-05-25T10:46:14.371617Z"},"descriptive_categories":[{"id":59,"name":"pollo asado","owner":null,"sector":null,"created":"2021-11-29T12:57:34.252585Z"},{"id":58,"name":"rotisserie","owner":null,"sector":null,"created":"2021-11-29T12:57:28.377827Z"}],"return_period":0,"dynamic_link":"https://app.dev.woowbe.com/share/ut8s","is_franchisee_of":null,"is_favorite":false,"created":"2021-11-29T12:57:37.328075Z","offers_count":1},"online":false,"url":null,"position":{"type":"Point","coordinates":[-3.6747526,40.5057933]},"address":"Calle Viloria de La Rioja","number":"56","postal_code":"28050","state":"Madrid","city":"Madrid","merchants_count":0,"modified":"2023-03-17T08:01:54.790552Z","place_id":"ChIJoTKeg-8rQg0R0jRiL5AN0Ms","formatted_address":"C. Viloria de La Rioja, 56, 28050 Madrid","deleted":false,"deleted_at":null,"created":"2021-11-29T13:00:02.204878Z","selected_offer":{"id":228,"reward":"7.00","reward_type":"percentage","kind":"A","instant":false,"name":"Le Coq 7%","standalone":false,"purchases":null,"online":false,"applicable":false,"available_percentage":1,"available_rewards":null,"is_used":false,"finish_date":null},"public_url":null,"is_open":false},{"id":512,"business":{"id":125,"name":"Le Coq","country":null,"description":"Le Coq no es solo la mejor rotisserie de aves a las brasas de España, también Le Coq es un modelo de negocio donde todo \"gira\" alrededor de nuestros pollos frescos y de primerísima calidad, marinados previamente con las recetas secretas Le Coq que hacen que la experiencia sea inolvidable y te apetezca repetir una y otra vez.\r\nLe Coq es un viaje permanente por diferentes lugares del mundo, desde la tradición de Francia al exotismo de India o Japón o brindarte la oportunidad de probar el famoso pollo peruano o disfrutar con los sabores de México o Argentina.","url":"https://lcq.es/","square_picture":"https://woowbe-dev.s3.amazonaws.com/media/pictures/le-coq-logo-1-1.png","widescreen_picture":"https://woowbe-dev.s3.amazonaws.com/media/pictures/1638190657.png","cover":"https://woowbe-dev.s3.amazonaws.com/media/covers/le-coq-portada.jpeg","sector":{"id":2,"name":"Restaurante","icon":"https://woowbe-dev.s3.amazonaws.com/media/icons/food_Yc99kSV.svg","created":"2021-05-25T10:46:14.371617Z"},"descriptive_categories":[{"id":59,"name":"pollo asado","owner":null,"sector":null,"created":"2021-11-29T12:57:34.252585Z"},{"id":58,"name":"rotisserie","owner":null,"sector":null,"created":"2021-11-29T12:57:28.377827Z"}],"return_period":0,"dynamic_link":"https://app.dev.woowbe.com/share/ut8s","is_franchisee_of":null,"is_favorite":false,"created":"2021-11-29T12:57:37.328075Z","offers_count":1},"online":false,"url":null,"position":{"type":"Point","coordinates":[-3.6771295,40.42982569999999]},"address":"Calle de José Ortega y Gasset","number":"54","postal_code":"28006","state":"Madrid","city":"Madrid","merchants_count":0,"modified":"2023-03-17T08:01:54.908497Z","place_id":"ChIJEZ_7TrkoQg0RetpvMvds1Qc","formatted_address":"C. de José Ortega y Gasset, 54, 28006 Madrid","deleted":false,"deleted_at":null,"created":"2021-11-29T12:59:15.576251Z","selected_offer":{"id":228,"reward":"7.00","reward_type":"percentage","kind":"A","instant":false,"name":"Le Coq 7%","standalone":false,"purchases":null,"online":false,"applicable":false,"available_percentage":1,"available_rewards":null,"is_used":false,"finish_date":null},"public_url":null,"is_open":false},{"id":511,"business":{"id":125,"name":"Le Coq","country":null,"description":"Le Coq no es solo la mejor rotisserie de aves a las brasas de España, también Le Coq es un modelo de negocio donde todo \"gira\" alrededor de nuestros pollos frescos y de primerísima calidad, marinados previamente con las recetas secretas Le Coq que hacen que la experiencia sea inolvidable y te apetezca repetir una y otra vez.\r\nLe Coq es un viaje permanente por diferentes lugares del mundo, desde la tradición de Francia al exotismo de India o Japón o brindarte la oportunidad de probar el famoso pollo peruano o disfrutar con los sabores de México o Argentina.","url":"https://lcq.es/","square_picture":"https://woowbe-dev.s3.amazonaws.com/media/pictures/le-coq-logo-1-1.png","widescreen_picture":"https://woowbe-dev.s3.amazonaws.com/media/pictures/1638190657.png","cover":"https://woowbe-dev.s3.amazonaws.com/media/covers/le-coq-portada.jpeg","sector":{"id":2,"name":"Restaurante","icon":"https://woowbe-dev.s3.amazonaws.com/media/icons/food_Yc99kSV.svg","created":"2021-05-25T10:46:14.371617Z"},"descriptive_categories":[{"id":59,"name":"pollo asado","owner":null,"sector":null,"created":"2021-11-29T12:57:34.252585Z"},{"id":58,"name":"rotisserie","owner":null,"sector":null,"created":"2021-11-29T12:57:28.377827Z"}],"return_period":0,"dynamic_link":"https://app.dev.woowbe.com/share/ut8s","is_franchisee_of":null,"is_favorite":false,"created":"2021-11-29T12:57:37.328075Z","offers_count":1},"online":false,"url":null,"position":{"type":"Point","coordinates":[-3.6865269,40.4375418]},"address":"Calle Serrano","number":"93","postal_code":"28006","state":"Madrid","city":"Madrid","merchants_count":0,"modified":"2023-03-17T08:01:55.211520Z","place_id":"ChIJgyQ0lesoQg0RHmLj2UVC7yw","formatted_address":"C. Serrano, 93, 28006 Madrid","deleted":false,"deleted_at":null,"created":"2021-11-29T12:58:55.727699Z","selected_offer":{"id":228,"reward":"7.00","reward_type":"percentage","kind":"A","instant":false,"name":"Le Coq 7%","standalone":false,"purchases":null,"online":false,"applicable":false,"available_percentage":1,"available_rewards":null,"is_used":false,"finish_date":null},"public_url":null,"is_open":false},{"id":510,"business":{"id":125,"name":"Le Coq","country":null,"description":"Le Coq no es solo la mejor rotisserie de aves a las brasas de España, también Le Coq es un modelo de negocio donde todo \"gira\" alrededor de nuestros pollos frescos y de primerísima calidad, marinados previamente con las recetas secretas Le Coq que hacen que la experiencia sea inolvidable y te apetezca repetir una y otra vez.\r\nLe Coq es un viaje permanente por diferentes lugares del mundo, desde la tradición de Francia al exotismo de India o Japón o brindarte la oportunidad de probar el famoso pollo peruano o disfrutar con los sabores de México o Argentina.","url":"https://lcq.es/","square_picture":"https://woowbe-dev.s3.amazonaws.com/media/pictures/le-coq-logo-1-1.png","widescreen_picture":"https://woowbe-dev.s3.amazonaws.com/media/pictures/1638190657.png","cover":"https://woowbe-dev.s3.amazonaws.com/media/covers/le-coq-portada.jpeg","sector":{"id":2,"name":"Restaurante","icon":"https://woowbe-dev.s3.amazonaws.com/media/icons/food_Yc99kSV.svg","created":"2021-05-25T10:46:14.371617Z"},"descriptive_categories":[{"id":59,"name":"pollo asado","owner":null,"sector":null,"created":"2021-11-29T12:57:34.252585Z"},{"id":58,"name":"rotisserie","owner":null,"sector":null,"created":"2021-11-29T12:57:28.377827Z"}],"return_period":0,"dynamic_link":"https://app.dev.woowbe.com/share/ut8s","is_franchisee_of":null,"is_favorite":false,"created":"2021-11-29T12:57:37.328075Z","offers_count":1},"online":false,"url":null,"position":{"type":"Point","coordinates":[-3.6771779,40.4575062]},"address":"Calle del Príncipe de Vergara","number":"269","postal_code":"28016","state":"Madrid","city":"Madrid","merchants_count":0,"modified":"2023-03-17T08:01:55.600450Z","place_id":"ChIJCVPt0SYpQg0RX7zKYxH3QNM","formatted_address":"C. del Príncipe de Vergara, 269, 28016 Madrid","deleted":false,"deleted_at":null,"created":"2021-11-29T12:58:39.046535Z","selected_offer":{"id":228,"reward":"7.00","reward_type":"percentage","kind":"A","instant":false,"name":"Le Coq 7%","standalone":false,"purchases":null,"online":false,"applicable":false,"available_percentage":1,"available_rewards":null,"is_used":false,"finish_date":null},"public_url":null,"is_open":false},{"id":509,"business":{"id":124,"name":"BaRRa de Pintxos","country":null,"description":"Recetas caseras con toques de autor. Tu lugar perfecto para tapear y comer bien con nuestros pintxos Canallas XL y cazuelas","url":"https://barradepintxos.com/","square_picture":"https://woowbe-dev.s3.amazonaws.com/media/pictures/barra-de-pintxos-logo-1-1.png","widescreen_picture":"https://woowbe-dev.s3.amazonaws.com/media/pictures/1638189433.png","cover":"https://woowbe-dev.s3.amazonaws.com/media/covers/barra-de-pintxos-portada.jpeg","sector":{"id":2,"name":"Restaurante","icon":"https://woowbe-dev.s3.amazonaws.com/media/icons/food_Yc99kSV.svg","created":"2021-05-25T10:46:14.371617Z"},"descriptive_categories":[{"id":57,"name":"pintxos","owner":null,"sector":null,"created":"2021-11-29T12:37:02.679581Z"}],"return_period":0,"dynamic_link":"https://app.dev.woowbe.com/share/b1ar","is_franchisee_of":null,"is_favorite":false,"created":"2021-11-29T12:37:12.601056Z","offers_count":1},"online":false,"url":null,"position":{"type":"Point","coordinates":[-3.6990596,40.4398904]},"address":"Calle de Ponzano","number":"40","postal_code":"28003","state":"Madrid","city":"Madrid","merchants_count":0,"modified":"2023-03-17T08:01:55.793076Z","place_id":"ChIJWQ0wwPYoQg0RCLPwgJuUmg0","formatted_address":"C. de Ponzano, 40, 28003 Madrid","deleted":false,"deleted_at":null,"created":"2021-11-29T12:39:33.133108Z","selected_offer":{"id":227,"reward":"3.00","reward_type":"fixed","kind":"B","instant":false,"name":"Barra de pintxos 3€","standalone":false,"purchases":null,"online":false,"applicable":false,"available_percentage":1,"available_rewards":100,"is_used":false,"finish_date":null},"public_url":null,"is_open":false}]}