{
	"count": 579,
	"next": "https://backend.dev.woowbe.com/api/v1/points_of_sales/public/?page=29",
	"previous": "https://backend.dev.woowbe.com/api/v1/points_of_sales/public/?page=27",
	"results": [
		{
			"id": 508,
			"business": {
				"id": 124,
				"name": "BaRRa de Pintxos",
				"country": null,
				"description": "Recetas caseras con toques de autor. Tu lugar perfecto para tapear y comer bien con nuestros pintxos Canallas XL y cazuelas",
				"url": "https://barradepintxos.com/",
				"square_picture": "https://woowbe-dev.s3.amazonaws.com/media/pictures/barra-de-pintxos-logo-1-1.png",
				"widescreen_picture": "https://woowbe-dev.s3.amazonaws.com/media/pictures/1638189433.png",
				"cover": "https://woowbe-dev.s3.amazonaws.com/media/covers/barra-de-pintxos-portada.jpeg",
				"sector": {
					"id": 2,
					"name": "Restaurante",
					"icon": "https://woowbe-dev.s3.amazonaws.com/media/icons/food_Yc99kSV.svg",
					"created": "2021-05-25T10:46:14.371617Z"
				},
				"descriptive_categories": [
					{
						"id": 57,
						"name": "pintxos",
						"owner": null,
						"sector": null,
						"created": "2021-11-29T12:37:02.679581Z"
					}
				],
				"return_period": 0,
				"dynamic_link": "https://app.dev.woowbe.com/share/b1ar",
				"is_franchisee_of": null,
				"is_favorite": false,
				"created": "2021-11-29T12:37:12.601056Z",
				"offers_count": 1
			},
			"online": false,
			"url": null,
			"position": {
				"type": "Point",
				"coordinates": [
					-3.7079216,
					40.4930477
				]
			},
			"address": "Calle de Nuria",
			"number": "59",
			"postal_code": "28034",
			"state": "Madrid",
			"city": "Madrid",
			"merchants_count": 0,
			"modified": "2023-03-17T08:01:56.002108Z",
			"place_id": "ChIJfZQhtIApQg0RyHVhG-H4224",
			"formatted_address": "C. de Nuria, 59, 28034 Madrid",
			"deleted": false,
			"deleted_at": null,
			"created": "2021-11-29T12:39:16.648934Z",
			"selected_offer": {
				"id": 227,
				"reward": "3.00",
				"reward_type": "fixed",
				"kind": "B",
				"instant": false,
				"name": "Barra de pintxos 3€",
				"standalone": false,
				"purchases": null,
				"online": false,
				"applicable": false,
				"available_percentage": 1,
				"available_rewards": 100,
				"is_used": false,
				"finish_date": null
			},
			"public_url": null,
			"is_open": false
		},
		{
			"id": 507,
			"business": {
				"id": 124,
				"name": "BaRRa de Pintxos",
				"country": null,
				"description": "Recetas caseras con toques de autor. Tu lugar perfecto para tapear y comer bien con nuestros pintxos Canallas XL y cazuelas",
				"url": "https://barradepintxos.com/",
				"square_picture": "https://woowbe-dev.s3.amazonaws.com/media/pictures/barra-de-pintxos-logo-1-1.png",
				"widescreen_picture": "https://woowbe-dev.s3.amazonaws.com/media/pictures/1638189433.png",
				"cover": "https://woowbe-dev.s3.amazonaws.com/media/covers/barra-de-pintxos-portada.jpeg",
				"sector": {
					"id": 2,
					"name": "Restaurante",
					"icon": "https://woowbe-dev.s3.amazonaws.com/media/icons/food_Yc99kSV.svg",
					"created": "2021-05-25T10:46:14.371617Z"
				},
				"descriptive_categories": [
					{
						"id": 57,
						"name": "pintxos",
						"owner": null,
						"sector": null,
						"created": "2021-11-29T12:37:02.679581Z"
					}
				],
				"return_period": 0,
				"dynamic_link": "https://app.dev.woowbe.com/share/b1ar",
				"is_franchisee_of": null,
				"is_favorite": false,
				"created": "2021-11-29T12:37:12.601056Z",
				"offers_count": 1
			},
			"online": false,
			"url": null,
			"position": {
				"type": "Point",
				"coordinates": [
					-3.706197,
					40.5042835
				]
			},
			"address": "Avenida del Monasterio de El Escorial",
			"number": "26",
			"postal_code": "28049",
			"state": "Madrid",
			"city": "Madrid",
			"merchants_count": 0,
			"modified": "2023-03-17T08:01:56.208093Z",
			"place_id": "ChIJpdTAhy0qQg0R-SRzcnMpOE8",
			"formatted_address": "Av. del Monasterio de El Escorial, 26, 28049 Madrid",
			"deleted": false,
			"deleted_at": null,
			"created": "2021-11-29T12:38:56.377990Z",
			"selected_offer": {
				"id": 227,
				"reward": "3.00",
				"reward_type": "fixed",
				"kind": "B",
				"instant": false,
				"name": "Barra de pintxos 3€",
				"standalone": false,
				"purchases": null,
				"online": false,
				"applicable": false,
				"available_percentage": 1,
				"available_rewards": 100,
				"is_used": false,
				"finish_date": null
			},
			"public_url": null,
			"is_open": false
		},
		{
			"id": 506,
			"business": {
				"id": 124,
				"name": "BaRRa de Pintxos",
				"country": null,
				"description": "Recetas caseras con toques de autor. Tu lugar perfecto para tapear y comer bien con nuestros pintxos Canallas XL y cazuelas",
				"url": "https://barradepintxos.com/",
				"square_picture": "https://woowbe-dev.s3.amazonaws.com/media/pictures/barra-de-pintxos-logo-1-1.png",
				"widescreen_picture": "https://woowbe-dev.s3.amazonaws.com/media/pictures/1638189433.png",
				"cover": "https://woowbe-dev.s3.amazonaws.com/media/covers/barra-de-pintxos-portada.jpeg",
				"sector": {
					"id": 2,
					"name": "Restaurante",
					"icon": "https://woowbe-dev.s3.amazonaws.com/media/icons/food_Yc99kSV.svg",
					"created": "2021-05-25T10:46:14.371617Z"
				},
				"descriptive_categories": [
					{
						"id": 57,
						"name": "pintxos",
						"owner": null,
						"sector": null,
						"created": "2021-11-29T12:37:02.679581Z"
					}
				],
				"return_period": 0,
				"dynamic_link": "https://app.dev.woowbe.com/share/b1ar",
				"is_franchisee_of": null,
				"is_favorite": false,
				"created": "2021-11-29T12:37:12.601056Z",
				"offers_count": 1
			},
			"online": false,
			"url": null,
			"position": {
				"type": "Point",
				"coordinates": [
					-3.6921334,
					40.4640714
				]
			},
			"address": "Calle José Castán Tobeñas",
			"number": "1",
			"postal_code": "28020",
			"state": "Madrid",
			"city": "Madrid",
			"merchants_count": 0,
			"modified": "2023-03-17T08:01:56.314299Z",
			"place_id": "ChIJt18GqBopQg0R8uqZnxcCXw4",
			"formatted_address": "C. José Castán Tobeñas, 1, 28020 Madrid",
			"deleted": false,
			"deleted_at": null,
			"created": "2021-11-29T12:38:39.249158Z",
			"selected_offer": {
				"id": 227,
				"reward": "3.00",
				"reward_type": "fixed",
				"kind": "B",
				"instant": false,
				"name": "Barra de pintxos 3€",
				"standalone": false,
				"purchases": null,
				"online": false,
				"applicable": false,
				"available_percentage": 1,
				"available_rewards": 100,
				"is_used": false,
				"finish_date": null
			},
			"public_url": null,
			"is_open": false
		},
		{
			"id": 505,
			"business": {
				"id": 123,
				"name": "Mistura",
				"country": null,
				"description": "Helados artesanos de alta calidad elaborados con materias primas naturales, personalizables y mezclados sobre una plancha de cuarzo.",
				"url": "https://misturaicecream.com/",
				"square_picture": "https://woowbe-dev.s3.amazonaws.com/media/pictures/mistura-logo-1-1.png",
				"widescreen_picture": "https://woowbe-dev.s3.amazonaws.com/media/pictures/1638187452.png",
				"cover": "https://woowbe-dev.s3.amazonaws.com/media/covers/mistura-portada.jpeg",
				"sector": {
					"id": 6,
					"name": "Heladería",
					"icon": "https://woowbe-dev.s3.amazonaws.com/media/icons/food_oEA91PT.svg",
					"created": "2021-05-25T10:48:59.349078Z"
				},
				"descriptive_categories": [
					{
						"id": 55,
						"name": "helado",
						"owner": null,
						"sector": null,
						"created": "2021-11-29T12:03:57.629516Z"
					},
					{
						"id": 56,
						"name": "icecream",
						"owner": null,
						"sector": null,
						"created": "2021-11-29T12:04:08.836732Z"
					}
				],
				"return_period": 0,
				"dynamic_link": "https://app.dev.woowbe.com/share/RF2L",
				"is_franchisee_of": null,
				"is_favorite": false,
				"created": "2021-11-29T12:04:12.389745Z",
				"offers_count": 1
			},
			"online": false,
			"url": null,
			"position": {
				"type": "Point",
				"coordinates": [
					-3.708629,
					40.410802
				]
			},
			"address": "Calle de Toledo",
			"number": "71",
			"postal_code": "28005",
			"state": "Madrid",
			"city": "Madrid",
			"merchants_count": 0,
			"modified": "2023-03-17T08:01:56.595352Z",
			"place_id": "ChIJlcz4b9YnQg0R2A3IboOO7sg",
			"formatted_address": "C. de Toledo, 71, 28005 Madrid",
			"deleted": false,
			"deleted_at": null,
			"created": "2021-11-29T12:07:14.525103Z",
			"selected_offer": {
				"id": 226,
				"reward": "15.00",
				"reward_type": "percentage",
				"kind": "A",
				"instant": false,
				"name": "Mistura 15%",
				"standalone": false,
				"purchases": null,
				"online": false,
				"applicable": false,
				"available_percentage": 1,
				"available_rewards": null,
				"is_used": false,
				"finish_date": null
			},
			"public_url": null,
			"is_open": false
		},
		{
			"id": 504,
			"business": {
				"id": 123,
				"name": "Mistura",
				"country": null,
				"description": "Helados artesanos de alta calidad elaborados con materias primas naturales, personalizables y mezclados sobre una plancha de cuarzo.",
				"url": "https://misturaicecream.com/",
				"square_picture": "https://woowbe-dev.s3.amazonaws.com/media/pictures/mistura-logo-1-1.png",
				"widescreen_picture": "https://woowbe-dev.s3.amazonaws.com/media/pictures/1638187452.png",
				"cover": "https://woowbe-dev.s3.amazonaws.com/media/covers/mistura-portada.jpeg",
				"sector": {
					"id": 6,
					"name": "Heladería",
					"icon": "https://woowbe-dev.s3.amazonaws.com/media/icons/food_oEA91PT.svg",
					"created": "2021-05-25T10:48:59.349078Z"
				},
				"descriptive_categories": [
					{
						"id": 55,
						"name": "helado",
						"owner": null,
						"sector": null,
						"created": "2021-11-29T12:03:57.629516Z"
					},
					{
						"id": 56,
						"name": "icecream",
						"owner": null,
						"sector": null,
						"created": "2021-11-29T12:04:08.836732Z"
					}
				],
				"return_period": 0,
				"dynamic_link": "https://app.dev.woowbe.com/share/RF2L",
				"is_franchisee_of": null,
				"is_favorite": false,
				"created": "2021-11-29T12:04:12.389745Z",
				"offers_count": 1
			},
			"online": false,
			"url": null,
			"position": {
				"type": "Point",
				"coordinates": [
					-3.7084877,
					40.4158
				]
			},
			"address": "Calle de Ciudad Rodrigo",
			"number": "6",
			"postal_code": "28012",
			"state": "Madrid",
			"city": "Madrid",
			"merchants_count": 0,
			"modified": "2023-03-17T08:01:56.890543Z",
			"place_id": "ChIJFXu3L3koQg0RoKiukFJ9Is8",
			"formatted_address": "Calle de Cdad. Rodrigo, 6, 28012 Madrid",
			"deleted": false,
			"deleted_at": null,
			"created": "2021-11-29T12:06:46.739971Z",
			"selected_offer": {
				"id": 226,
				"reward": "15.00",
				"reward_type": "percentage",
				"kind": "A",
				"instant": false,
				"name": "Mistura 15%",
				"standalone": false,
				"purchases": null,
				"online": false,
				"applicable": false,
				"available_percentage": 1,
				"available_rewards": null,
				"is_used": false,
				"finish_date": null
			},
			"public_url": null,
			"is_open": false
		},
		{
			"id": 503,
			"business": {
				"id": 123,
				"name": "Mistura",
				"country": null,
				"description": "Helados artesanos de alta calidad elaborados con materias primas naturales, personalizables y mezclados sobre una plancha de cuarzo.",
				"url": "https://misturaicecream.com/",
				"square_picture": "https://woowbe-dev.s3.amazonaws.com/media/pictures/mistura-logo-1-1.png",
				"widescreen_picture": "https://woowbe-dev.s3.amazonaws.com/media/pictures/1638187452.png",
				"cover": "https://woowbe-dev.s3.amazonaws.com/media/covers/mistura-portada.jpeg",
				"sector": {
					"id": 6,
					"name": "Heladería",
					"icon": "https://woowbe-dev.s3.amazonaws.com/media/icons/food_oEA91PT.svg",
					"created": "2021-05-25T10:48:59.349078Z"
				},
				"descriptive_categories": [
					{
						"id": 55,
						"name": "helado",
						"owner": null,
						"sector": null,
						"created": "2021-11-29T12:03:57.629516Z"
					},
					{
						"id": 56,
						"name": "icecream",
						"owner": null,
						"sector": null,
						"created": "2021-11-29T12:04:08.836732Z"
					}
				],
				"return_period": 0,
				"dynamic_link": "https://app.dev.woowbe.com/share/RF2L",
				"is_franchisee_of": null,
				"is_favorite": false,
				"created": "2021-11-29T12:04:12.389745Z",
				"offers_count": 1
			},
			"online": false,
			"url": null,
			"position": {
				"type": "Point",
				"coordinates": [
					-3.6784797,
					40.4247756
				]
			},
			"address": "Calle de Goya",
			"number": "50",
			"postal_code": "28001",
			"state": "Madrid",
			"city": "Madrid",
			"merchants_count": 0,
			"modified": "2023-03-17T08:01:57.116092Z",
			"place_id": "ChIJ_979u7woQg0Rvyx8o0Qo0Dg",
			"formatted_address": "Calle de Goya, 50, 28001 Madrid",
			"deleted": false,
			"deleted_at": null,
			"created": "2021-11-29T12:06:21.542075Z",
			"selected_offer": {
				"id": 226,
				"reward": "15.00",
				"reward_type": "percentage",
				"kind": "A",
				"instant": false,
				"name": "Mistura 15%",
				"standalone": false,
				"purchases": null,
				"online": false,
				"applicable": false,
				"available_percentage": 1,
				"available_rewards": null,
				"is_used": false,
				"finish_date": null
			},
			"public_url": null,
			"is_open": false
		},
		{
			"id": 502,
			"business": {
				"id": 123,
				"name": "Mistura",
				"country": null,
				"description": "Helados artesanos de alta calidad elaborados con materias primas naturales, personalizables y mezclados sobre una plancha de cuarzo.",
				"url": "https://misturaicecream.com/",
				"square_picture": "https://woowbe-dev.s3.amazonaws.com/media/pictures/mistura-logo-1-1.png",
				"widescreen_picture": "https://woowbe-dev.s3.amazonaws.com/media/pictures/1638187452.png",
				"cover": "https://woowbe-dev.s3.amazonaws.com/media/covers/mistura-portada.jpeg",
				"sector": {
					"id": 6,
					"name": "Heladería",
					"icon": "https://woowbe-dev.s3.amazonaws.com/media/icons/food_oEA91PT.svg",
					"created": "2021-05-25T10:48:59.349078Z"
				},
				"descriptive_categories": [
					{
						"id": 55,
						"name": "helado",
						"owner": null,
						"sector": null,
						"created": "2021-11-29T12:03:57.629516Z"
					},
					{
						"id": 56,
						"name": "icecream",
						"owner": null,
						"sector": null,
						"created": "2021-11-29T12:04:08.836732Z"
					}
				],
				"return_period": 0,
				"dynamic_link": "https://app.dev.woowbe.com/share/RF2L",
				"is_franchisee_of": null,
				"is_favorite": false,
				"created": "2021-11-29T12:04:12.389745Z",
				"offers_count": 1
			},
			"online": false,
			"url": null,
			"position": {
				"type": "Point",
				"coordinates": [
					-3.7000758,
					40.4231054
				]
			},
			"address": "Calle de Augusto Figueroa",
			"number": "5",
			"postal_code": "28004",
			"state": "Madrid",
			"city": "Madrid",
			"merchants_count": 0,
			"modified": "2023-03-17T08:01:57.400981Z",
			"place_id": "ChIJOy4WKoYoQg0RzVeklEISfsU",
			"formatted_address": "C. de Augusto Figueroa, 5, 28004 Madrid",
			"deleted": false,
			"deleted_at": null,
			"created": "2021-11-29T12:05:55.824569Z",
			"selected_offer": {
				"id": 226,
				"reward": "15.00",
				"reward_type": "percentage",
				"kind": "A",
				"instant": false,
				"name": "Mistura 15%",
				"standalone": false,
				"purchases": null,
				"online": false,
				"applicable": false,
				"available_percentage": 1,
				"available_rewards": null,
				"is_used": false,
				"finish_date": null
			},
			"public_url": null,
			"is_open": false
		},
		{
			"id": 501,
			"business": {
				"id": 123,
				"name": "Mistura",
				"country": null,
				"description": "Helados artesanos de alta calidad elaborados con materias primas naturales, personalizables y mezclados sobre una plancha de cuarzo.",
				"url": "https://misturaicecream.com/",
				"square_picture": "https://woowbe-dev.s3.amazonaws.com/media/pictures/mistura-logo-1-1.png",
				"widescreen_picture": "https://woowbe-dev.s3.amazonaws.com/media/pictures/1638187452.png",
				"cover": "https://woowbe-dev.s3.amazonaws.com/media/covers/mistura-portada.jpeg",
				"sector": {
					"id": 6,
					"name": "Heladería",
					"icon": "https://woowbe-dev.s3.amazonaws.com/media/icons/food_oEA91PT.svg",
					"created": "2021-05-25T10:48:59.349078Z"
				},
				"descriptive_categories": [
					{
						"id": 55,
						"name": "helado",
						"owner": null,
						"sector": null,
						"created": "2021-11-29T12:03:57.629516Z"
					},
					{
						"id": 56,
						"name": "icecream",
						"owner": null,
						"sector": null,
						"created": "2021-11-29T12:04:08.836732Z"
					}
				],
				"return_period": 0,
				"dynamic_link": "https://app.dev.woowbe.com/share/RF2L",
				"is_franchisee_of": null,
				"is_favorite": false,
				"created": "2021-11-29T12:04:12.389745Z",
				"offers_count": 1
			},
			"online": false,
			"url": null,
			"position": {
				"type": "Point",
				"coordinates": [
					-3.6768762,
					40.455672
				]
			},
			"address": "Calle del Príncipe de Vergara",
			"number": "254",
			"postal_code": "28016",
			"state": "Madrid",
			"city": "Madrid",
			"merchants_count": 0,
			"modified": "2023-03-17T08:01:57.521232Z",
			"place_id": "ChIJv9UaOCcpQg0RB8KamdR7new",
			"formatted_address": "C. del Príncipe de Vergara, 254, 28016 Madrid",
			"deleted": false,
			"deleted_at": null,
			"created": "2021-11-29T12:05:34.984127Z",
			"selected_offer": {
				"id": 226,
				"reward": "15.00",
				"reward_type": "percentage",
				"kind": "A",
				"instant": false,
				"name": "Mistura 15%",
				"standalone": false,
				"purchases": null,
				"online": false,
				"applicable": false,
				"available_percentage": 1,
				"available_rewards": null,
				"is_used": false,
				"finish_date": null
			},
			"public_url": null,
			"is_open": false
		},
		{
			"id": 500,
			"business": {
				"id": 122,
				"name": "Good News",
				"country": null,
				"description": "¡Esto no va solo de buen café, ni de café solo!\r\n\r\nBuen rollo, alegría, positivismo, felicidad o empoderamiento, son algunos de los Good Feelings que sentirás con cada sorbo de un café GoodNews.\r\n\r\n¡Disfruta del buen rollo que te dará beberte el café GoodNews!",
				"url": "https://goodnewsco.es/",
				"square_picture": "https://woowbe-dev.s3.amazonaws.com/media/pictures/good-news-logo-1-1.png",
				"widescreen_picture": "https://woowbe-dev.s3.amazonaws.com/media/pictures/1638184510.png",
				"cover": "https://woowbe-dev.s3.amazonaws.com/media/covers/good-news-portada.jpeg",
				"sector": {
					"id": 5,
					"name": "Cafetería",
					"icon": "https://woowbe-dev.s3.amazonaws.com/media/icons/toeat.svg",
					"created": "2021-05-25T10:48:41.547333Z"
				},
				"descriptive_categories": [
					{
						"id": 54,
						"name": "café",
						"owner": null,
						"sector": null,
						"created": "2021-11-29T11:15:07.797534Z"
					}
				],
				"return_period": 0,
				"dynamic_link": "https://app.dev.woowbe.com/share/Sbq9",
				"is_franchisee_of": null,
				"is_favorite": false,
				"created": "2021-11-29T11:15:10.513173Z",
				"offers_count": 1
			},
			"online": false,
			"url": null,
			"position": {
				"type": "Point",
				"coordinates": [
					-3.6863526,
					40.433405
				]
			},
			"address": "Calle Serrano",
			"number": "98",
			"postal_code": "28006",
			"state": "Madrid",
			"city": "Madrid",
			"merchants_count": 0,
			"modified": "2023-03-17T08:01:57.607123Z",
			"place_id": "ChIJH5cRtpQoQg0RnP7aFhXiDEI",
			"formatted_address": "C. Serrano, 98, 28006 Madrid",
			"deleted": false,
			"deleted_at": null,
			"created": "2021-11-29T11:35:29.648947Z",
			"selected_offer": {
				"id": 223,
				"reward": "12.00",
				"reward_type": "percentage",
				"kind": "A",
				"instant": false,
				"name": "Good News 12%",
				"standalone": false,
				"purchases": null,
				"online": false,
				"applicable": false,
				"available_percentage": 1,
				"available_rewards": null,
				"is_used": false,
				"finish_date": null
			},
			"public_url": null,
			"is_open": false
		},
		{
			"id": 499,
			"business": {
				"id": 122,
				"name": "Good News",
				"country": null,
				"description": "¡Esto no va solo de buen café, ni de café solo!\r\n\r\nBuen rollo, alegría, positivismo, felicidad o empoderamiento, son algunos de los Good Feelings que sentirás con cada sorbo de un café GoodNews.\r\n\r\n¡Disfruta del buen rollo que te dará beberte el café GoodNews!",
				"url": "https://goodnewsco.es/",
				"square_picture": "https://woowbe-dev.s3.amazonaws.com/media/pictures/good-news-logo-1-1.png",
				"widescreen_picture": "https://woowbe-dev.s3.amazonaws.com/media/pictures/1638184510.png",
				"cover": "https://woowbe-dev.s3.amazonaws.com/media/covers/good-news-portada.jpeg",
				"sector": {
					"id": 5,
					"name": "Cafetería",
					"icon": "https://woowbe-dev.s3.amazonaws.com/media/icons/toeat.svg",
					"created": "2021-05-25T10:48:41.547333Z"
				},
				"descriptive_categories": [
					{
						"id": 54,
						"name": "café",
						"owner": null,
						"sector": null,
						"created": "2021-11-29T11:15:07.797534Z"
					}
				],
				"return_period": 0,
				"dynamic_link": "https://app.dev.woowbe.com/share/Sbq9",
				"is_franchisee_of": null,
				"is_favorite": false,
				"created": "2021-11-29T11:15:10.513173Z",
				"offers_count": 1
			},
			"online": false,
			"url": null,
			"position": {
				"type": "Point",
				"coordinates": [
					-3.6802817,
					40.4039978
				]
			},
			"address": "Avenida de la Ciudad de Barcelona",
			"number": "",
			"postal_code": "28007",
			"state": "Madrid",
			"city": "Madrid",
			"merchants_count": 0,
			"modified": "2023-03-17T08:01:57.651934Z",
			"place_id": "EjhBdmVuaWRhIGRlIGxhIENpdWRhZCBkZSBCYXJjZWxvbmEsIDI4MDA3IE1hZHJpZCwgRXNwYcOxYSIuKiwKFAoSCR223X4XJkINEWhEdgQaiYB-EhQKEgkRy9BDGyZCDRFA1Isz90ADHA",
			"formatted_address": "Av. de la Ciudad de Barcelona, 28007 Madrid",
			"deleted": false,
			"deleted_at": null,
			"created": "2021-11-29T11:35:15.664700Z",
			"selected_offer": {
				"id": 223,
				"reward": "12.00",
				"reward_type": "percentage",
				"kind": "A",
				"instant": false,
				"name": "Good News 12%",
				"standalone": false,
				"purchases": null,
				"online": false,
				"applicable": false,
				"available_percentage": 1,
				"available_rewards": null,
				"is_used": false,
				"finish_date": null
			},
			"public_url": null,
			"is_open": false
		}
	]
}
