{"count":579,"next":"https://backend.dev.woowbe.com/api/v1/points_of_sales/public/?page=4","previous":"https://backend.dev.woowbe.com/api/v1/points_of_sales/public/?page=2","results":[{"id":916,"business":{"id":310,"name":"Test App Shop","country":{"id":2,"name":"Malta","code":"mt"},"description":"AAA","url":"https://google.com","square_picture":"https://woowbe-dev.s3.amazonaws.com/media/pictures/1667494635.jpeg","widescreen_picture":"https://woowbe-dev.s3.amazonaws.com/media/pictures/widescreen_picture_ZiLjO4p.jpg","cover":"https://woowbe-dev.s3.amazonaws.com/media/covers/cover_kvUvSKN.jpg","sector":{"id":22,"name":"Alimentación animal","icon":"https://woowbe-dev.s3.amazonaws.com/media/icons/pets.svg","created":"2021-05-25T11:07:08.658870Z"},"descriptive_categories":[{"id":30,"name":"afterwork","owner":null,"sector":4,"created":"2021-10-24T10:04:24.581445Z"}],"return_period":0,"dynamic_link":"https://app.dev.woowbe.com/share/63RH","is_franchisee_of":143,"is_favorite":false,"created":"2023-03-13T08:35:28.703912Z","offers_count":0},"online":false,"url":null,"position":{"type":"Point","coordinates":[-3.8534638,40.3181088]},"address":"Calle Versalles","number":"3","postal_code":"28936","state":"Madrid","city":"Móstoles","merchants_count":0,"modified":"2023-04-03T13:55:08.108065Z","place_id":"ChIJc5VjGiWMQQ0R4Oe-UjTbnQc","formatted_address":"C. Versalles, 3, 28936 Móstoles, Madrid","deleted":false,"deleted_at":null,"created":"2023-04-03T13:55:08.108065Z","selected_offer":{"reward":null,"reward_type":null,"kind":null,"instant":false,"name":"","standalone":false,"purchases":null,"online":false,"finish_date":null},"public_url":null,"is_open":false},{"id":915,"business":{"id":310,"name":"Test App Shop","country":{"id":2,"name":"Malta","code":"mt"},"description":"AAA","url":"https://google.com","square_picture":"https://woowbe-dev.s3.amazonaws.com/media/pictures/1667494635.jpeg","widescreen_picture":"https://woowbe-dev.s3.amazonaws.com/media/pictures/widescreen_picture_ZiLjO4p.jpg","cover":"https://woowbe-dev.s3.amazonaws.com/media/covers/cover_kvUvSKN.jpg","sector":{"id":22,"name":"Alimentación animal","icon":"https://woowbe-dev.s3.amazonaws.com/media/icons/pets.svg","created":"2021-05-25T11:07:08.658870Z"},"descriptive_categories":[{"id":30,"name":"afterwork","owner":null,"sector":4,"created":"2021-10-24T10:04:24.581445Z"}],"return_period":0,"dynamic_link":"https://app.dev.woowbe.com/share/63RH","is_franchisee_of":143,"is_favorite":false,"created":"2023-03-13T08:35:28.703912Z","offers_count":0},"online":false,"url":null,"position":{"type":"Point","coordinates":[2.1898967,41.4157521]},"address":"Carrer de Múrcia","number":"42","postal_code":"08027","state":"Barcelona","city":"Barcelona","merchants_count":0,"modified":"2023-04-03T13:54:56.328846Z","place_id":"ChIJFamxHSyjpBIR7mgxs5ychSs","formatted_address":"C/ de Múrcia, 42, 08027 Barcelona","deleted":false,"deleted_at":null,"created":"2023-04-03T13:54:56.328846Z","selected_offer":{"reward":null,"reward_type":null,"kind":null,"instant":false,"name":"","standalone":false,"purchases":null,"online":false,"finish_date":null},"public_url":null,"is_open":false},{"id":900,"business":{"id":246,"name":"Veterinaria QA aaaaaddddddbbbbbbb","country":{"id":3,"name":"España","code":"es"},"description":"clinica veterinaria con mucha experiencia en el cuidado de animales. Tratamos a todos los animales como si fuesen parte de nuestra familia.","url":"http://www.vete.com","square_picture":"https://woowbe-dev.s3.amazonaws.com/media/pictures/1667842927.jpeg","widescreen_picture":"https://woowbe-dev.s3.amazonaws.com/media/pictures/1669722210.jpeg","cover":"https://woowbe-dev.s3.amazonaws.com/media/covers/cover_0hwbWev.jpg","sector":{"id":33,"name":"Veterinario","icon":null,"created":"2021-05-25T11:17:24.318169Z"},"descriptive_categories":[{"id":84,"name":"perro","owner":246,"sector":null,"created":"2022-11-07T17:42:00.446793Z"}],"return_period":0,"dynamic_link":"https://app.dev.woowbe.com/share/gJuv","is_franchisee_of":null,"is_favorite":false,"created":"2022-11-07T17:23:35.313746Z","offers_count":1},"online":false,"url":null,"position":{"type":"Point","coordinates":[-3.634406,40.5421112]},"address":"Calle del Fuego","number":"4","postal_code":"28100","state":"Madrid","city":"Alcobendas","merchants_count":0,"modified":"2023-03-27T16:06:36.438877Z","place_id":"EidDYWxsZSBkZWwgRnVlZ28sIDQsIEFsY29iZW5kYXMsIEVzcGHDsWEiMBIuChQKEgnHkDfV9ixCDRGVNYzADxk6IxAEKhQKEgnBhISh8SxCDRGOxPCLhdrfRg","formatted_address":"C. del Fuego, 4, 28100 Alcobendas, Madrid","deleted":false,"deleted_at":null,"created":"2023-03-27T16:06:36.438877Z","selected_offer":{"id":584,"reward":"15.00","reward_type":"percentage","kind":"A","instant":false,"name":"q","standalone":false,"purchases":null,"online":false,"applicable":false,"available_percentage":1,"available_rewards":null,"is_used":false,"finish_date":"2023-07-31"},"public_url":null,"is_open":false},{"id":899,"business":{"id":246,"name":"Veterinaria QA aaaaaddddddbbbbbbb","country":{"id":3,"name":"España","code":"es"},"description":"clinica veterinaria con mucha experiencia en el cuidado de animales. Tratamos a todos los animales como si fuesen parte de nuestra familia.","url":"http://www.vete.com","square_picture":"https://woowbe-dev.s3.amazonaws.com/media/pictures/1667842927.jpeg","widescreen_picture":"https://woowbe-dev.s3.amazonaws.com/media/pictures/1669722210.jpeg","cover":"https://woowbe-dev.s3.amazonaws.com/media/covers/cover_0hwbWev.jpg","sector":{"id":33,"name":"Veterinario","icon":null,"created":"2021-05-25T11:17:24.318169Z"},"descriptive_categories":[{"id":84,"name":"perro","owner":246,"sector":null,"created":"2022-11-07T17:42:00.446793Z"}],"return_period":0,"dynamic_link":"https://app.dev.woowbe.com/share/gJuv","is_franchisee_of":null,"is_favorite":false,"created":"2022-11-07T17:23:35.313746Z","offers_count":1},"online":false,"url":null,"position":{"type":"Point","coordinates":[-3.2479326,40.6010851]},"address":"Calle Manuel de Falla","number":"78","postal_code":"19208","state":"Guadalajara","city":"Alovera","merchants_count":0,"modified":"2023-03-27T16:03:54.901248Z","place_id":"ChIJWY6YMUWtQw0RMMnUEsSiFTk","formatted_address":"C. Manuel de Falla, 78, 19208 Alovera, Guadalajara","deleted":false,"deleted_at":null,"created":"2023-03-27T16:03:54.901248Z","selected_offer":{"reward":null,"reward_type":null,"kind":null,"instant":false,"name":"","standalone":false,"purchases":null,"online":false,"finish_date":null},"public_url":null,"is_open":false},{"id":897,"business":{"id":310,"name":"Test App Shop","country":{"id":2,"name":"Malta","code":"mt"},"description":"AAA","url":"https://google.com","square_picture":"https://woowbe-dev.s3.amazonaws.com/media/pictures/1667494635.jpeg","widescreen_picture":"https://woowbe-dev.s3.amazonaws.com/media/pictures/widescreen_picture_ZiLjO4p.jpg","cover":"https://woowbe-dev.s3.amazonaws.com/media/covers/cover_kvUvSKN.jpg","sector":{"id":22,"name":"Alimentación animal","icon":"https://woowbe-dev.s3.amazonaws.com/media/icons/pets.svg","created":"2021-05-25T11:07:08.658870Z"},"descriptive_categories":[{"id":30,"name":"afterwork","owner":null,"sector":4,"created":"2021-10-24T10:04:24.581445Z"}],"return_period":0,"dynamic_link":"https://app.dev.woowbe.com/share/63RH","is_franchisee_of":143,"is_favorite":false,"created":"2023-03-13T08:35:28.703912Z","offers_count":0},"online":false,"url":null,"position":{"type":"Point","coordinates":[-0.6936008,37.9748757]},"address":"Calle Valencia","number":"12","postal_code":"03185","state":"Alicante","city":"Torrevieja","merchants_count":0,"modified":"2023-03-21T16:57:32.002577Z","place_id":"ChIJ3x-KC18HYw0RZB38GtE-V-c","formatted_address":"C. Valencia, 12, 03185 Torrevieja, Alicante","deleted":false,"deleted_at":null,"created":"2023-03-21T16:57:32.002577Z","selected_offer":{"reward":null,"reward_type":null,"kind":null,"instant":false,"name":"","standalone":false,"purchases":null,"online":false,"finish_date":null},"public_url":null,"is_open":false},{"id":896,"business":{"id":313,"name":"Yogui QA","country":{"id":3,"name":"España","code":"es"},"description":"Yogui QA es el comercio offline \n\nLorem Ipsum is simply dummy text of the printing and typesetting industry. Lorem Ipsum has been the industry's standard dummy text ever since the 1500s, when an unknown printer took a galley of type and scrambled it to make a type specimen book. It has survived not only five centuries, but also the leap into electronic typesetting, remaining essentially unchanged. It was popularised in the 1960s with the release of Letraset sheets containing Lorem Ipsum passages","url":"https://www.yogui.com","square_picture":"https://woowbe-dev.s3.amazonaws.com/media/pictures/1679417828.jpeg","widescreen_picture":"https://woowbe-dev.s3.amazonaws.com/media/pictures/1665492408_Z9SKuNG.jpeg","cover":"https://woowbe-dev.s3.amazonaws.com/media/covers/cover_HYuhoAb.jpg","sector":{"id":24,"name":"Gimnasio","icon":"https://woowbe-dev.s3.amazonaws.com/media/icons/sport.svg","created":"2021-05-25T11:07:47.157431Z"},"descriptive_categories":[{"id":10,"name":"Healthy","owner":null,"sector":null,"created":"2021-10-21T14:33:37.426542Z"}],"return_period":0,"dynamic_link":"https://app.dev.woowbe.com/share/wbBf","is_franchisee_of":236,"is_favorite":false,"created":"2023-03-21T16:57:07.407058Z","offers_count":0},"online":false,"url":null,"position":null,"address":null,"number":null,"postal_code":null,"state":null,"city":null,"merchants_count":0,"modified":"2023-03-21T16:57:09.078833Z","place_id":null,"formatted_address":"","deleted":false,"deleted_at":null,"created":"2023-03-21T16:57:09.078833Z","selected_offer":{"reward":null,"reward_type":null,"kind":null,"instant":false,"name":"","standalone":false,"purchases":null,"online":false,"finish_date":null},"public_url":null,"is_open":false},{"id":892,"business":{"id":311,"name":"Test App Shop","country":{"id":2,"name":"Malta","code":"mt"},"description":"AAA","url":"https://google.com","square_picture":"https://woowbe-dev.s3.amazonaws.com/media/pictures/1667494635.jpeg","widescreen_picture":"https://woowbe-dev.s3.amazonaws.com/media/pictures/widescreen_picture_ZiLjO4p.jpg","cover":"https://woowbe-dev.s3.amazonaws.com/media/covers/cover_kvUvSKN.jpg","sector":{"id":22,"name":"Alimentación animal","icon":"https://woowbe-dev.s3.amazonaws.com/media/icons/pets.svg","created":"2021-05-25T11:07:08.658870Z"},"descriptive_categories":[{"id":30,"name":"afterwork","owner":null,"sector":4,"created":"2021-10-24T10:04:24.581445Z"}],"return_period":0,"dynamic_link":"https://app.dev.woowbe.com/share/tVcg","is_franchisee_of":143,"is_favorite":false,"created":"2023-03-13T08:39:46.392750Z","offers_count":0},"online":false,"url":null,"position":null,"address":null,"number":null,"postal_code":null,"state":null,"city":null,"merchants_count":0,"modified":"2023-03-17T08:00:02.397264Z","place_id":null,"formatted_address":"","deleted":false,"deleted_at":null,"created":"2023-03-13T08:39:47.114143Z","selected_offer":{"reward":null,"reward_type":null,"kind":null,"instant":false,"name":"","standalone":false,"purchases":null,"online":false,"finish_date":null},"public_url":null,"is_open":false},{"id":889,"business":{"id":143,"name":"Test App","country":{"id":2,"name":"Malta","code":"mt"},"description":"Descri","url":"https://google.com","square_picture":"https://woowbe-dev.s3.amazonaws.com/media/pictures/1667494635.jpeg","widescreen_picture":"https://woowbe-dev.s3.amazonaws.com/media/pictures/widescreen_picture_ZiLjO4p.jpg","cover":"https://woowbe-dev.s3.amazonaws.com/media/covers/cover_kvUvSKN.jpg","sector":{"id":22,"name":"Alimentación animal","icon":"https://woowbe-dev.s3.amazonaws.com/media/icons/pets.svg","created":"2021-05-25T11:07:08.658870Z"},"descriptive_categories":[{"id":30,"name":"afterwork","owner":null,"sector":4,"created":"2021-10-24T10:04:24.581445Z"}],"return_period":0,"dynamic_link":"https://app.dev.woowbe.com/share/9CqB","is_franchisee_of":null,"is_favorite":false,"created":"2022-05-18T16:12:43.026936Z","offers_count":16},"online":false,"url":null,"position":{"type":"Point","coordinates":[-3.7159624,40.3951906]},"address":"Calle de la Verdad","number":"3","postal_code":"28019","state":"Madrid","city":"Madrid","merchants_count":0,"modified":"2023-03-10T14:09:43.520052Z","place_id":"ChIJl8Ii-sYnQg0RoEjTGytgOIE","formatted_address":"C. de la Verdad, 3, 28019 Madrid","deleted":true,"deleted_at":"2023-03-10T14:09:43.491154Z","created":"2023-03-08T16:06:08.696945Z","selected_offer":{"id":521,"reward":"10.00","reward_type":"percentage","kind":"A","instant":false,"name":"Nuevo programa","standalone":false,"purchases":null,"online":false,"applicable":false,"available_percentage":1,"available_rewards":null,"is_used":false,"finish_date":"2023-09-08"},"public_url":null,"is_open":false},{"id":888,"business":{"id":236,"name":"Yogui QA","country":{"id":3,"name":"España","code":"es"},"description":"Yogui QA es el comercio offline \n\nLorem Ipsum is simply dummy text of the printing and typesetting industry. Lorem Ipsum has been the industry's standard dummy text ever since the 1500s, when an unknown printer took a galley of type and scrambled it to make a type specimen book. It has survived not only five centuries, but also the leap into electronic typesetting, remaining essentially unchanged. It was popularised in the 1960s with the release of Letraset sheets containing Lorem Ipsum passages","url":"https://www.yogui.com","square_picture":"https://woowbe-dev.s3.amazonaws.com/media/pictures/1676631810.jpeg","widescreen_picture":"https://woowbe-dev.s3.amazonaws.com/media/pictures/1665492408_Z9SKuNG.jpeg","cover":"https://woowbe-dev.s3.amazonaws.com/media/covers/cover_HYuhoAb.jpg","sector":{"id":24,"name":"Gimnasio","icon":"https://woowbe-dev.s3.amazonaws.com/media/icons/sport.svg","created":"2021-05-25T11:07:47.157431Z"},"descriptive_categories":[{"id":10,"name":"Healthy","owner":null,"sector":null,"created":"2021-10-21T14:33:37.426542Z"}],"return_period":0,"dynamic_link":"https://app.dev.woowbe.com/share/KcyB","is_franchisee_of":null,"is_favorite":false,"created":"2022-10-11T11:27:09.183229Z","offers_count":1},"online":false,"url":null,"position":{"type":"Point","coordinates":[-3.6470806,40.4763984]},"address":"Calle de Santa Susana","number":"7","postal_code":"28033","state":"Madrid","city":"Madrid","merchants_count":0,"modified":"2023-03-17T08:00:17.496948Z","place_id":"ChIJFZRITb8uQg0R2iWiZ3pv_L0","formatted_address":"C. de Sta. Susana, 7, 28033 Madrid","deleted":false,"deleted_at":null,"created":"2023-03-08T15:44:12.023996Z","selected_offer":{"reward":null,"reward_type":null,"kind":null,"instant":false,"name":"","standalone":false,"purchases":null,"online":false,"finish_date":null},"public_url":null,"is_open":false},{"id":887,"business":{"id":305,"name":"Test App Shop","country":{"id":2,"name":"Malta","code":"mt"},"description":"AAA","url":"https://google.com","square_picture":"https://woowbe-dev.s3.amazonaws.com/media/pictures/1667494635.jpeg","widescreen_picture":"https://woowbe-dev.s3.amazonaws.com/media/pictures/widescreen_picture_ZiLjO4p.jpg","cover":"https://woowbe-dev.s3.amazonaws.com/media/covers/cover_kvUvSKN.jpg","sector":{"id":22,"name":"Alimentación animal","icon":"https://woowbe-dev.s3.amazonaws.com/media/icons/pets.svg","created":"2021-05-25T11:07:08.658870Z"},"descriptive_categories":[{"id":30,"name":"afterwork","owner":null,"sector":4,"created":"2021-10-24T10:04:24.581445Z"}],"return_period":10,"dynamic_link":"https://app.dev.woowbe.com/share/vTNq","is_franchisee_of":143,"is_favorite":false,"created":"2023-03-05T21:23:42.695486Z","offers_count":0},"online":false,"url":null,"position":{"type":"Point","coordinates":[-5.6696866,43.5381092]},"address":"Calle Lieres","number":"2","postal_code":"33207","state":"Asturias","city":"Gijón","merchants_count":0,"modified":"2023-03-09T10:14:28.733402Z","place_id":"ChIJ20FZ_l58Ng0RWkyf7Vee-VE","formatted_address":"C. Lieres, 2, 33207 Gijón, Asturias","deleted":true,"deleted_at":"2023-03-09T10:14:28.691280Z","created":"2023-03-08T15:42:25.920236Z","selected_offer":{"id":521,"reward":"10.00","reward_type":"percentage","kind":"A","instant":false,"name":"Nuevo programa","standalone":false,"purchases":null,"online":false,"applicable":false,"available_percentage":1,"available_rewards":null,"is_used":false,"finish_date":"2023-09-08"},"public_url":null,"is_open":false}]}