{"count":579,"next":"https://backend.dev.woowbe.com/api/v1/points_of_sales/public/?page=32","previous":"https://backend.dev.woowbe.com/api/v1/points_of_sales/public/?page=30","results":[{"id":477,"business":{"id":118,"name":"New York Burger","country":{"id":3,"name":"España","code":"es"},"description":"Como tú, somos apasionados de la buena comida americana.\r\n\r\nDe aquí evolucionamos a la barbacoa, creando recetas auténticas americanas a base de brasa, madera y humo.\r\n\r\nEn NYB queremos verte disfrutar, sean cuáles sean tus gustos o principios. Por ello, nuestra apuesta más reciente es New York Green con ensaladas y bowls veganos y vegetarianos, que preparamos cada día con ingredientes frescos y de proximidad.","url":"https://newyorkburger.es/","square_picture":"https://woowbe-dev.s3.amazonaws.com/media/pictures/newyorkburger-logo-1-1.jpeg","widescreen_picture":"https://woowbe-dev.s3.amazonaws.com/media/pictures/newyorkburger-logo-16-9.jpeg","cover":"https://woowbe-dev.s3.amazonaws.com/media/covers/newyorkburger-portada.jpeg","sector":{"id":2,"name":"Restaurante","icon":"https://woowbe-dev.s3.amazonaws.com/media/icons/food_Yc99kSV.svg","created":"2021-05-25T10:46:14.371617Z"},"descriptive_categories":[{"id":87,"name":"adidas","owner":248,"sector":null,"created":"2022-11-15T16:16:47.536980Z"},{"id":46,"name":"americana","owner":null,"sector":null,"created":"2021-11-29T09:27:36.991965Z"},{"id":47,"name":"brasas","owner":null,"sector":null,"created":"2021-11-29T09:27:43.625917Z"},{"id":48,"name":"burger","owner":null,"sector":null,"created":"2021-11-29T09:27:58.948006Z"},{"id":39,"name":"ensaladas","owner":null,"sector":null,"created":"2021-10-25T12:45:54.528824Z"},{"id":37,"name":"hamburguesa","owner":null,"sector":null,"created":"2021-10-25T11:59:24.358507Z"},{"id":10,"name":"Healthy","owner":null,"sector":null,"created":"2021-10-21T14:33:37.426542Z"},{"id":49,"name":"niños","owner":118,"sector":null,"created":"2021-11-29T09:30:23.079267Z"},{"id":50,"name":"saludable","owner":118,"sector":null,"created":"2021-11-29T09:30:31.798207Z"},{"id":51,"name":"vegana","owner":118,"sector":null,"created":"2021-11-29T09:30:34.948300Z"},{"id":52,"name":"vegano","owner":118,"sector":null,"created":"2021-11-29T09:30:37.746041Z"}],"return_period":0,"dynamic_link":"https://app.dev.woowbe.com/share/Tcpk","is_franchisee_of":null,"is_favorite":false,"created":"2021-11-29T09:28:59.442688Z","offers_count":3},"online":false,"url":null,"position":{"type":"Point","coordinates":[-3.6907318,40.435656]},"address":"Calle de Miguel Ángel","number":"16","postal_code":"28010","state":"Madrid","city":"Madrid","merchants_count":0,"modified":"2023-03-17T08:01:59.446013Z","place_id":"ChIJF1M_Du0oQg0RZpL9yodIgo4","formatted_address":"C. de Miguel Ángel, 16, 28010 Madrid","deleted":false,"deleted_at":null,"created":"2021-11-29T09:33:06.596987Z","selected_offer":{"id":400,"reward":"15.00","reward_type":"percentage","kind":"A","instant":false,"name":"Prueba franquicias","standalone":false,"purchases":null,"online":false,"applicable":false,"available_percentage":1,"available_rewards":null,"is_used":false,"finish_date":"2023-08-01"},"public_url":null,"is_open":false},{"id":476,"business":{"id":118,"name":"New York Burger","country":{"id":3,"name":"España","code":"es"},"description":"Como tú, somos apasionados de la buena comida americana.\r\n\r\nDe aquí evolucionamos a la barbacoa, creando recetas auténticas americanas a base de brasa, madera y humo.\r\n\r\nEn NYB queremos verte disfrutar, sean cuáles sean tus gustos o principios. Por ello, nuestra apuesta más reciente es New York Green con ensaladas y bowls veganos y vegetarianos, que preparamos cada día con ingredientes frescos y de proximidad.","url":"https://newyorkburger.es/","square_picture":"https://woowbe-dev.s3.amazonaws.com/media/pictures/newyorkburger-logo-1-1.jpeg","widescreen_picture":"https://woowbe-dev.s3.amazonaws.com/media/pictures/newyorkburger-logo-16-9.jpeg","cover":"https://woowbe-dev.s3.amazonaws.com/media/covers/newyorkburger-portada.jpeg","sector":{"id":2,"name":"Restaurante","icon":"https://woowbe-dev.s3.amazonaws.com/media/icons/food_Yc99kSV.svg","created":"2021-05-25T10:46:14.371617Z"},"descriptive_categories":[{"id":87,"name":"adidas","owner":248,"sector":null,"created":"2022-11-15T16:16:47.536980Z"},{"id":46,"name":"americana","owner":null,"sector":null,"created":"2021-11-29T09:27:36.991965Z"},{"id":47,"name":"brasas","owner":null,"sector":null,"created":"2021-11-29T09:27:43.625917Z"},{"id":48,"name":"burger","owner":null,"sector":null,"created":"2021-11-29T09:27:58.948006Z"},{"id":39,"name":"ensaladas","owner":null,"sector":null,"created":"2021-10-25T12:45:54.528824Z"},{"id":37,"name":"hamburguesa","owner":null,"sector":null,"created":"2021-10-25T11:59:24.358507Z"},{"id":10,"name":"Healthy","owner":null,"sector":null,"created":"2021-10-21T14:33:37.426542Z"},{"id":49,"name":"niños","owner":118,"sector":null,"created":"2021-11-29T09:30:23.079267Z"},{"id":50,"name":"saludable","owner":118,"sector":null,"created":"2021-11-29T09:30:31.798207Z"},{"id":51,"name":"vegana","owner":118,"sector":null,"created":"2021-11-29T09:30:34.948300Z"},{"id":52,"name":"vegano","owner":118,"sector":null,"created":"2021-11-29T09:30:37.746041Z"}],"return_period":0,"dynamic_link":"https://app.dev.woowbe.com/share/Tcpk","is_franchisee_of":null,"is_favorite":false,"created":"2021-11-29T09:28:59.442688Z","offers_count":3},"online":false,"url":null,"position":{"type":"Point","coordinates":[-3.6917824,40.4205773]},"address":"Paseo de Recoletos","number":"4","postal_code":"28001","state":"Madrid","city":"Madrid","merchants_count":0,"modified":"2023-03-17T08:01:59.531976Z","place_id":"ChIJYWVNIZsoQg0RaJA_lwGKqeY","formatted_address":"P.º de Recoletos, 4, 28001 Madrid","deleted":false,"deleted_at":null,"created":"2021-11-29T09:32:51.004700Z","selected_offer":{"id":400,"reward":"15.00","reward_type":"percentage","kind":"A","instant":false,"name":"Prueba franquicias","standalone":false,"purchases":null,"online":false,"applicable":false,"available_percentage":1,"available_rewards":null,"is_used":false,"finish_date":"2023-08-01"},"public_url":null,"is_open":false},{"id":474,"business":{"id":118,"name":"New York Burger","country":{"id":3,"name":"España","code":"es"},"description":"Como tú, somos apasionados de la buena comida americana.\r\n\r\nDe aquí evolucionamos a la barbacoa, creando recetas auténticas americanas a base de brasa, madera y humo.\r\n\r\nEn NYB queremos verte disfrutar, sean cuáles sean tus gustos o principios. Por ello, nuestra apuesta más reciente es New York Green con ensaladas y bowls veganos y vegetarianos, que preparamos cada día con ingredientes frescos y de proximidad.","url":"https://newyorkburger.es/","square_picture":"https://woowbe-dev.s3.amazonaws.com/media/pictures/newyorkburger-logo-1-1.jpeg","widescreen_picture":"https://woowbe-dev.s3.amazonaws.com/media/pictures/newyorkburger-logo-16-9.jpeg","cover":"https://woowbe-dev.s3.amazonaws.com/media/covers/newyorkburger-portada.jpeg","sector":{"id":2,"name":"Restaurante","icon":"https://woowbe-dev.s3.amazonaws.com/media/icons/food_Yc99kSV.svg","created":"2021-05-25T10:46:14.371617Z"},"descriptive_categories":[{"id":87,"name":"adidas","owner":248,"sector":null,"created":"2022-11-15T16:16:47.536980Z"},{"id":46,"name":"americana","owner":null,"sector":null,"created":"2021-11-29T09:27:36.991965Z"},{"id":47,"name":"brasas","owner":null,"sector":null,"created":"2021-11-29T09:27:43.625917Z"},{"id":48,"name":"burger","owner":null,"sector":null,"created":"2021-11-29T09:27:58.948006Z"},{"id":39,"name":"ensaladas","owner":null,"sector":null,"created":"2021-10-25T12:45:54.528824Z"},{"id":37,"name":"hamburguesa","owner":null,"sector":null,"created":"2021-10-25T11:59:24.358507Z"},{"id":10,"name":"Healthy","owner":null,"sector":null,"created":"2021-10-21T14:33:37.426542Z"},{"id":49,"name":"niños","owner":118,"sector":null,"created":"2021-11-29T09:30:23.079267Z"},{"id":50,"name":"saludable","owner":118,"sector":null,"created":"2021-11-29T09:30:31.798207Z"},{"id":51,"name":"vegana","owner":118,"sector":null,"created":"2021-11-29T09:30:34.948300Z"},{"id":52,"name":"vegano","owner":118,"sector":null,"created":"2021-11-29T09:30:37.746041Z"}],"return_period":0,"dynamic_link":"https://app.dev.woowbe.com/share/Tcpk","is_franchisee_of":null,"is_favorite":false,"created":"2021-11-29T09:28:59.442688Z","offers_count":3},"online":false,"url":null,"position":{"type":"Point","coordinates":[-3.6929611,40.4560497]},"address":"Calle de San Germán","number":"5","postal_code":"28020","state":"Madrid","city":"Madrid","merchants_count":0,"modified":"2023-03-17T08:01:59.602350Z","place_id":"ChIJh3-90wIpQg0R2lDBSSnSMXU","formatted_address":"C. de San Germán, 5, 28020 Madrid","deleted":false,"deleted_at":null,"created":"2021-11-29T09:32:25.764440Z","selected_offer":{"id":400,"reward":"15.00","reward_type":"percentage","kind":"A","instant":false,"name":"Prueba franquicias","standalone":false,"purchases":null,"online":false,"applicable":false,"available_percentage":1,"available_rewards":null,"is_used":false,"finish_date":"2023-08-01"},"public_url":null,"is_open":false},{"id":468,"business":{"id":113,"name":"Granier","country":null,"description":"Pans Granier son panaderías con pan artesano cerca de casa, elaborado en nuestro obrador siguiendo las recetas y tiempos de fermentación tradicionales.","url":"https://pansgranier.com/","square_picture":"https://woowbe-dev.s3.amazonaws.com/media/pictures/square_picture_5W2BYMH.jpg","widescreen_picture":"https://woowbe-dev.s3.amazonaws.com/media/pictures/1635411299.jpeg","cover":"https://woowbe-dev.s3.amazonaws.com/media/covers/cover_RC8Wr1o.jpg","sector":{"id":19,"name":"Panadería","icon":"https://woowbe-dev.s3.amazonaws.com/media/icons/toeat_I8A0AM0.svg","created":"2021-05-25T11:05:24.276505Z"},"descriptive_categories":[{"id":25,"name":"pan","owner":null,"sector":null,"created":"2021-10-21T21:05:17.331228Z"}],"return_period":0,"dynamic_link":"https://app.dev.woowbe.com/share/ytHt","is_franchisee_of":null,"is_favorite":false,"created":"2021-10-28T08:51:16.798668Z","offers_count":0},"online":false,"url":null,"position":{"type":"Point","coordinates":[-3.7018796,40.4046138]},"address":"Calle de Embajadores","number":"55","postal_code":"28012","state":"Madrid","city":"Madrid","merchants_count":0,"modified":"2023-03-17T08:01:59.700243Z","place_id":"ChIJMwCoPC0mQg0Rnko_1SBRW1U","formatted_address":"C. de Embajadores, 55, 28012 Madrid","deleted":false,"deleted_at":null,"created":"2021-10-28T09:00:11.068100Z","selected_offer":{"reward":null,"reward_type":null,"kind":null,"instant":false,"name":"","standalone":false,"purchases":null,"online":false,"finish_date":null},"public_url":null,"is_open":false},{"id":467,"business":{"id":113,"name":"Granier","country":null,"description":"Pans Granier son panaderías con pan artesano cerca de casa, elaborado en nuestro obrador siguiendo las recetas y tiempos de fermentación tradicionales.","url":"https://pansgranier.com/","square_picture":"https://woowbe-dev.s3.amazonaws.com/media/pictures/square_picture_5W2BYMH.jpg","widescreen_picture":"https://woowbe-dev.s3.amazonaws.com/media/pictures/1635411299.jpeg","cover":"https://woowbe-dev.s3.amazonaws.com/media/covers/cover_RC8Wr1o.jpg","sector":{"id":19,"name":"Panadería","icon":"https://woowbe-dev.s3.amazonaws.com/media/icons/toeat_I8A0AM0.svg","created":"2021-05-25T11:05:24.276505Z"},"descriptive_categories":[{"id":25,"name":"pan","owner":null,"sector":null,"created":"2021-10-21T21:05:17.331228Z"}],"return_period":0,"dynamic_link":"https://app.dev.woowbe.com/share/ytHt","is_franchisee_of":null,"is_favorite":false,"created":"2021-10-28T08:51:16.798668Z","offers_count":0},"online":false,"url":null,"position":{"type":"Point","coordinates":[-3.6968949,40.4068163]},"address":"Ronda de Atocha","number":"14","postal_code":"28012","state":"Madrid","city":"Madrid","merchants_count":0,"modified":"2023-03-17T08:01:59.904546Z","place_id":"ChIJeSvWvS4mQg0Rwk11pB4rIPQ","formatted_address":"Rda. de Atocha, 14, 28012 Madrid","deleted":false,"deleted_at":null,"created":"2021-10-28T08:59:55.969962Z","selected_offer":{"reward":null,"reward_type":null,"kind":null,"instant":false,"name":"","standalone":false,"purchases":null,"online":false,"finish_date":null},"public_url":null,"is_open":false},{"id":466,"business":{"id":113,"name":"Granier","country":null,"description":"Pans Granier son panaderías con pan artesano cerca de casa, elaborado en nuestro obrador siguiendo las recetas y tiempos de fermentación tradicionales.","url":"https://pansgranier.com/","square_picture":"https://woowbe-dev.s3.amazonaws.com/media/pictures/square_picture_5W2BYMH.jpg","widescreen_picture":"https://woowbe-dev.s3.amazonaws.com/media/pictures/1635411299.jpeg","cover":"https://woowbe-dev.s3.amazonaws.com/media/covers/cover_RC8Wr1o.jpg","sector":{"id":19,"name":"Panadería","icon":"https://woowbe-dev.s3.amazonaws.com/media/icons/toeat_I8A0AM0.svg","created":"2021-05-25T11:05:24.276505Z"},"descriptive_categories":[{"id":25,"name":"pan","owner":null,"sector":null,"created":"2021-10-21T21:05:17.331228Z"}],"return_period":0,"dynamic_link":"https://app.dev.woowbe.com/share/ytHt","is_franchisee_of":null,"is_favorite":false,"created":"2021-10-28T08:51:16.798668Z","offers_count":0},"online":false,"url":null,"position":{"type":"Point","coordinates":[-3.7051297,40.4116475]},"address":"Calle del Mesón de Paredes","number":"5","postal_code":"28012","state":"Madrid","city":"Madrid","merchants_count":0,"modified":"2023-03-17T08:02:00.125424Z","place_id":"ChIJd7SfdNUnQg0RVyE_FF_u1MQ","formatted_address":"C. del Mesón de Paredes, 5, 28012 Madrid","deleted":false,"deleted_at":null,"created":"2021-10-28T08:59:41.929954Z","selected_offer":{"reward":null,"reward_type":null,"kind":null,"instant":false,"name":"","standalone":false,"purchases":null,"online":false,"finish_date":null},"public_url":null,"is_open":false},{"id":465,"business":{"id":113,"name":"Granier","country":null,"description":"Pans Granier son panaderías con pan artesano cerca de casa, elaborado en nuestro obrador siguiendo las recetas y tiempos de fermentación tradicionales.","url":"https://pansgranier.com/","square_picture":"https://woowbe-dev.s3.amazonaws.com/media/pictures/square_picture_5W2BYMH.jpg","widescreen_picture":"https://woowbe-dev.s3.amazonaws.com/media/pictures/1635411299.jpeg","cover":"https://woowbe-dev.s3.amazonaws.com/media/covers/cover_RC8Wr1o.jpg","sector":{"id":19,"name":"Panadería","icon":"https://woowbe-dev.s3.amazonaws.com/media/icons/toeat_I8A0AM0.svg","created":"2021-05-25T11:05:24.276505Z"},"descriptive_categories":[{"id":25,"name":"pan","owner":null,"sector":null,"created":"2021-10-21T21:05:17.331228Z"}],"return_period":0,"dynamic_link":"https://app.dev.woowbe.com/share/ytHt","is_franchisee_of":null,"is_favorite":false,"created":"2021-10-28T08:51:16.798668Z","offers_count":0},"online":false,"url":null,"position":{"type":"Point","coordinates":[-3.635381,40.438338]},"address":"Calle de Albarracín","number":"2","postal_code":"28037","state":"Madrid","city":"Madrid","merchants_count":0,"modified":"2023-03-17T08:02:00.417633Z","place_id":"ChIJVZ12pBMvQg0RbB-E3l_hQGM","formatted_address":"C. de Albarracín, 2, 28037 Madrid","deleted":false,"deleted_at":null,"created":"2021-10-28T08:59:28.845175Z","selected_offer":{"reward":null,"reward_type":null,"kind":null,"instant":false,"name":"","standalone":false,"purchases":null,"online":false,"finish_date":null},"public_url":null,"is_open":false},{"id":464,"business":{"id":113,"name":"Granier","country":null,"description":"Pans Granier son panaderías con pan artesano cerca de casa, elaborado en nuestro obrador siguiendo las recetas y tiempos de fermentación tradicionales.","url":"https://pansgranier.com/","square_picture":"https://woowbe-dev.s3.amazonaws.com/media/pictures/square_picture_5W2BYMH.jpg","widescreen_picture":"https://woowbe-dev.s3.amazonaws.com/media/pictures/1635411299.jpeg","cover":"https://woowbe-dev.s3.amazonaws.com/media/covers/cover_RC8Wr1o.jpg","sector":{"id":19,"name":"Panadería","icon":"https://woowbe-dev.s3.amazonaws.com/media/icons/toeat_I8A0AM0.svg","created":"2021-05-25T11:05:24.276505Z"},"descriptive_categories":[{"id":25,"name":"pan","owner":null,"sector":null,"created":"2021-10-21T21:05:17.331228Z"}],"return_period":0,"dynamic_link":"https://app.dev.woowbe.com/share/ytHt","is_franchisee_of":null,"is_favorite":false,"created":"2021-10-28T08:51:16.798668Z","offers_count":0},"online":false,"url":null,"position":{"type":"Point","coordinates":[-3.7303988,40.4131784]},"address":"Paseo de Extremadura","number":"60","postal_code":"28011","state":"Madrid","city":"Madrid","merchants_count":0,"modified":"2023-03-17T08:02:00.521418Z","place_id":"ChIJuZc4lAkoQg0Rmfa1MgULxfw","formatted_address":"P.º de Extremadura, 60, 28011 Madrid","deleted":false,"deleted_at":null,"created":"2021-10-28T08:59:14.362776Z","selected_offer":{"reward":null,"reward_type":null,"kind":null,"instant":false,"name":"","standalone":false,"purchases":null,"online":false,"finish_date":null},"public_url":null,"is_open":false},{"id":463,"business":{"id":113,"name":"Granier","country":null,"description":"Pans Granier son panaderías con pan artesano cerca de casa, elaborado en nuestro obrador siguiendo las recetas y tiempos de fermentación tradicionales.","url":"https://pansgranier.com/","square_picture":"https://woowbe-dev.s3.amazonaws.com/media/pictures/square_picture_5W2BYMH.jpg","widescreen_picture":"https://woowbe-dev.s3.amazonaws.com/media/pictures/1635411299.jpeg","cover":"https://woowbe-dev.s3.amazonaws.com/media/covers/cover_RC8Wr1o.jpg","sector":{"id":19,"name":"Panadería","icon":"https://woowbe-dev.s3.amazonaws.com/media/icons/toeat_I8A0AM0.svg","created":"2021-05-25T11:05:24.276505Z"},"descriptive_categories":[{"id":25,"name":"pan","owner":null,"sector":null,"created":"2021-10-21T21:05:17.331228Z"}],"return_period":0,"dynamic_link":"https://app.dev.woowbe.com/share/ytHt","is_franchisee_of":null,"is_favorite":false,"created":"2021-10-28T08:51:16.798668Z","offers_count":0},"online":false,"url":null,"position":{"type":"Point","coordinates":[-0.885503,41.6568973]},"address":"Plaza Mariano de Cavia","number":"2","postal_code":"50003","state":"Zaragoza","city":"Zaragoza","merchants_count":0,"modified":"2023-03-17T08:02:00.910456Z","place_id":"ChIJg7zcpeoUWQ0RFS6nWoEp0SE","formatted_address":"Pl. Mariano de Cavia, 2, 50003 Zaragoza","deleted":false,"deleted_at":null,"created":"2021-10-28T08:58:56.651622Z","selected_offer":{"reward":null,"reward_type":null,"kind":null,"instant":false,"name":"","standalone":false,"purchases":null,"online":false,"finish_date":null},"public_url":null,"is_open":false},{"id":462,"business":{"id":113,"name":"Granier","country":null,"description":"Pans Granier son panaderías con pan artesano cerca de casa, elaborado en nuestro obrador siguiendo las recetas y tiempos de fermentación tradicionales.","url":"https://pansgranier.com/","square_picture":"https://woowbe-dev.s3.amazonaws.com/media/pictures/square_picture_5W2BYMH.jpg","widescreen_picture":"https://woowbe-dev.s3.amazonaws.com/media/pictures/1635411299.jpeg","cover":"https://woowbe-dev.s3.amazonaws.com/media/covers/cover_RC8Wr1o.jpg","sector":{"id":19,"name":"Panadería","icon":"https://woowbe-dev.s3.amazonaws.com/media/icons/toeat_I8A0AM0.svg","created":"2021-05-25T11:05:24.276505Z"},"descriptive_categories":[{"id":25,"name":"pan","owner":null,"sector":null,"created":"2021-10-21T21:05:17.331228Z"}],"return_period":0,"dynamic_link":"https://app.dev.woowbe.com/share/ytHt","is_franchisee_of":null,"is_favorite":false,"created":"2021-10-28T08:51:16.798668Z","offers_count":0},"online":false,"url":null,"position":{"type":"Point","coordinates":[-3.6756639,40.42168849999999]},"address":"Calle de O'Donnell","number":"37","postal_code":"28009","state":"Madrid","city":"Madrid","merchants_count":0,"modified":"2023-03-17T08:02:01.120461Z","place_id":"ChIJR81T96QoQg0Rh26EK0-98p8","formatted_address":"Calle de O'Donnell, 37, 28009 Madrid","deleted":false,"deleted_at":null,"created":"2021-10-28T08:58:42.149259Z","selected_offer":{"reward":null,"reward_type":null,"kind":null,"instant":false,"name":"","standalone":false,"purchases":null,"online":false,"finish_date":null},"public_url":null,"is_open":false}]}