{
	"count": 579,
	"next": "https://backend.dev.woowbe.com/api/v1/points_of_sales/public/?page=33",
	"previous": "https://backend.dev.woowbe.com/api/v1/points_of_sales/public/?page=31",
	"results": [
		{
			"id": 461,
			"business": {
				"id": 113,
				"name": "Granier",
				"country": null,
				"description": "Pans Granier son panaderías con pan artesano cerca de casa, elaborado en nuestro obrador siguiendo las recetas y tiempos de fermentación tradicionales.",
				"url": "https://pansgranier.com/",
				"square_picture": "https://woowbe-dev.s3.amazonaws.com/media/pictures/square_picture_5W2BYMH.jpg",
				"widescreen_picture": "https://woowbe-dev.s3.amazonaws.com/media/pictures/1635411299.jpeg",
				"cover": "https://woowbe-dev.s3.amazonaws.com/media/covers/cover_RC8Wr1o.jpg",
				"sector": {
					"id": 19,
					"name": "Panadería",
					"icon": "https://woowbe-dev.s3.amazonaws.com/media/icons/toeat_I8A0AM0.svg",
					"created": "2021-05-25T11:05:24.276505Z"
				},
				"descriptive_categories": [
					{
						"id": 25,
						"name": "pan",
						"owner": null,
						"sector": null,
						"created": "2021-10-21T21:05:17.331228Z"
					}
				],
				"return_period": 0,
				"dynamic_link": "https://app.dev.woowbe.com/share/ytHt",
				"is_franchisee_of": null,
				"is_favorite": false,
				"created": "2021-10-28T08:51:16.798668Z",
				"offers_count": 0
			},
			"online": false,
			"url": null,
			"position": {
				"type": "Point",
				"coordinates": [
					-3.7000608,
					40.41270189999999
				]
			},
			"address": "Calle de Atocha",
			"number": "42",
			"postal_code": "28012",
			"state": "Madrid",
			"city": "Madrid",
			"merchants_count": 0,
			"modified": "2023-03-17T08:02:01.492170Z",
			"place_id": "ChIJK9OyfiomQg0RYGlQ_bn8i70",
			"formatted_address": "C. de Atocha, 42, 28012 Madrid",
			"deleted": false,
			"deleted_at": null,
			"created": "2021-10-28T08:58:27.185909Z",
			"selected_offer": {
				"reward": null,
				"reward_type": null,
				"kind": null,
				"instant": false,
				"name": "",
				"standalone": false,
				"purchases": null,
				"online": false,
				"finish_date": null
			},
			"public_url": null,
			"is_open": false
		},
		{
			"id": 460,
			"business": {
				"id": 113,
				"name": "Granier",
				"country": null,
				"description": "Pans Granier son panaderías con pan artesano cerca de casa, elaborado en nuestro obrador siguiendo las recetas y tiempos de fermentación tradicionales.",
				"url": "https://pansgranier.com/",
				"square_picture": "https://woowbe-dev.s3.amazonaws.com/media/pictures/square_picture_5W2BYMH.jpg",
				"widescreen_picture": "https://woowbe-dev.s3.amazonaws.com/media/pictures/1635411299.jpeg",
				"cover": "https://woowbe-dev.s3.amazonaws.com/media/covers/cover_RC8Wr1o.jpg",
				"sector": {
					"id": 19,
					"name": "Panadería",
					"icon": "https://woowbe-dev.s3.amazonaws.com/media/icons/toeat_I8A0AM0.svg",
					"created": "2021-05-25T11:05:24.276505Z"
				},
				"descriptive_categories": [
					{
						"id": 25,
						"name": "pan",
						"owner": null,
						"sector": null,
						"created": "2021-10-21T21:05:17.331228Z"
					}
				],
				"return_period": 0,
				"dynamic_link": "https://app.dev.woowbe.com/share/ytHt",
				"is_franchisee_of": null,
				"is_favorite": false,
				"created": "2021-10-28T08:51:16.798668Z",
				"offers_count": 0
			},
			"online": false,
			"url": null,
			"position": {
				"type": "Point",
				"coordinates": [
					-3.7076177,
					40.42199979999999
				]
			},
			"address": "Calle de San Bernardo",
			"number": "10",
			"postal_code": "28015",
			"state": "Madrid",
			"city": "Madrid",
			"merchants_count": 0,
			"modified": "2023-03-17T08:02:01.711112Z",
			"place_id": "ChIJf9ZDvHwoQg0RUU3wnCCC2uU",
			"formatted_address": "C. de San Bernardo, 10, 28015 Madrid",
			"deleted": false,
			"deleted_at": null,
			"created": "2021-10-28T08:58:12.991496Z",
			"selected_offer": {
				"reward": null,
				"reward_type": null,
				"kind": null,
				"instant": false,
				"name": "",
				"standalone": false,
				"purchases": null,
				"online": false,
				"finish_date": null
			},
			"public_url": null,
			"is_open": false
		},
		{
			"id": 459,
			"business": {
				"id": 113,
				"name": "Granier",
				"country": null,
				"description": "Pans Granier son panaderías con pan artesano cerca de casa, elaborado en nuestro obrador siguiendo las recetas y tiempos de fermentación tradicionales.",
				"url": "https://pansgranier.com/",
				"square_picture": "https://woowbe-dev.s3.amazonaws.com/media/pictures/square_picture_5W2BYMH.jpg",
				"widescreen_picture": "https://woowbe-dev.s3.amazonaws.com/media/pictures/1635411299.jpeg",
				"cover": "https://woowbe-dev.s3.amazonaws.com/media/covers/cover_RC8Wr1o.jpg",
				"sector": {
					"id": 19,
					"name": "Panadería",
					"icon": "https://woowbe-dev.s3.amazonaws.com/media/icons/toeat_I8A0AM0.svg",
					"created": "2021-05-25T11:05:24.276505Z"
				},
				"descriptive_categories": [
					{
						"id": 25,
						"name": "pan",
						"owner": null,
						"sector": null,
						"created": "2021-10-21T21:05:17.331228Z"
					}
				],
				"return_period": 0,
				"dynamic_link": "https://app.dev.woowbe.com/share/ytHt",
				"is_franchisee_of": null,
				"is_favorite": false,
				"created": "2021-10-28T08:51:16.798668Z",
				"offers_count": 0
			},
			"online": false,
			"url": null,
			"position": {
				"type": "Point",
				"coordinates": [
					-3.6547849,
					40.4323757
				]
			},
			"address": "Calle de Alcalá",
			"number": "283",
			"postal_code": "28027",
			"state": "Madrid",
			"city": "Madrid",
			"merchants_count": 0,
			"modified": "2023-03-17T08:02:01.899284Z",
			"place_id": "ChIJd4oaq0kvQg0RIsgUwgv7vjo",
			"formatted_address": "C. de Alcalá, 283, 28027 Madrid",
			"deleted": false,
			"deleted_at": null,
			"created": "2021-10-28T08:57:59.689438Z",
			"selected_offer": {
				"reward": null,
				"reward_type": null,
				"kind": null,
				"instant": false,
				"name": "",
				"standalone": false,
				"purchases": null,
				"online": false,
				"finish_date": null
			},
			"public_url": null,
			"is_open": false
		},
		{
			"id": 458,
			"business": {
				"id": 113,
				"name": "Granier",
				"country": null,
				"description": "Pans Granier son panaderías con pan artesano cerca de casa, elaborado en nuestro obrador siguiendo las recetas y tiempos de fermentación tradicionales.",
				"url": "https://pansgranier.com/",
				"square_picture": "https://woowbe-dev.s3.amazonaws.com/media/pictures/square_picture_5W2BYMH.jpg",
				"widescreen_picture": "https://woowbe-dev.s3.amazonaws.com/media/pictures/1635411299.jpeg",
				"cover": "https://woowbe-dev.s3.amazonaws.com/media/covers/cover_RC8Wr1o.jpg",
				"sector": {
					"id": 19,
					"name": "Panadería",
					"icon": "https://woowbe-dev.s3.amazonaws.com/media/icons/toeat_I8A0AM0.svg",
					"created": "2021-05-25T11:05:24.276505Z"
				},
				"descriptive_categories": [
					{
						"id": 25,
						"name": "pan",
						"owner": null,
						"sector": null,
						"created": "2021-10-21T21:05:17.331228Z"
					}
				],
				"return_period": 0,
				"dynamic_link": "https://app.dev.woowbe.com/share/ytHt",
				"is_franchisee_of": null,
				"is_favorite": false,
				"created": "2021-10-28T08:51:16.798668Z",
				"offers_count": 0
			},
			"online": false,
			"url": null,
			"position": {
				"type": "Point",
				"coordinates": [
					-3.6434537,
					40.4355072
				]
			},
			"address": "Calle de Alcalá",
			"number": "379",
			"postal_code": "28027",
			"state": "Madrid",
			"city": "Madrid",
			"merchants_count": 0,
			"modified": "2023-03-17T08:02:02.097190Z",
			"place_id": "ChIJjdOJjD8vQg0RFGNLrVa_8Gw",
			"formatted_address": "C. de Alcalá, 379, 28027 Madrid",
			"deleted": false,
			"deleted_at": null,
			"created": "2021-10-28T08:57:45.970209Z",
			"selected_offer": {
				"reward": null,
				"reward_type": null,
				"kind": null,
				"instant": false,
				"name": "",
				"standalone": false,
				"purchases": null,
				"online": false,
				"finish_date": null
			},
			"public_url": null,
			"is_open": false
		},
		{
			"id": 457,
			"business": {
				"id": 113,
				"name": "Granier",
				"country": null,
				"description": "Pans Granier son panaderías con pan artesano cerca de casa, elaborado en nuestro obrador siguiendo las recetas y tiempos de fermentación tradicionales.",
				"url": "https://pansgranier.com/",
				"square_picture": "https://woowbe-dev.s3.amazonaws.com/media/pictures/square_picture_5W2BYMH.jpg",
				"widescreen_picture": "https://woowbe-dev.s3.amazonaws.com/media/pictures/1635411299.jpeg",
				"cover": "https://woowbe-dev.s3.amazonaws.com/media/covers/cover_RC8Wr1o.jpg",
				"sector": {
					"id": 19,
					"name": "Panadería",
					"icon": "https://woowbe-dev.s3.amazonaws.com/media/icons/toeat_I8A0AM0.svg",
					"created": "2021-05-25T11:05:24.276505Z"
				},
				"descriptive_categories": [
					{
						"id": 25,
						"name": "pan",
						"owner": null,
						"sector": null,
						"created": "2021-10-21T21:05:17.331228Z"
					}
				],
				"return_period": 0,
				"dynamic_link": "https://app.dev.woowbe.com/share/ytHt",
				"is_franchisee_of": null,
				"is_favorite": false,
				"created": "2021-10-28T08:51:16.798668Z",
				"offers_count": 0
			},
			"online": false,
			"url": null,
			"position": {
				"type": "Point",
				"coordinates": [
					-3.7042678,
					40.4327004
				]
			},
			"address": "Calle de Fuencarral",
			"number": "147",
			"postal_code": "28010",
			"state": "Madrid",
			"city": "Madrid",
			"merchants_count": 0,
			"modified": "2023-03-17T08:02:02.905110Z",
			"place_id": "ChIJe5J9bGAoQg0RilBDoGTvTpo",
			"formatted_address": "Calle de Fuencarral, 147, 28010 Madrid",
			"deleted": false,
			"deleted_at": null,
			"created": "2021-10-28T08:57:31.721651Z",
			"selected_offer": {
				"reward": null,
				"reward_type": null,
				"kind": null,
				"instant": false,
				"name": "",
				"standalone": false,
				"purchases": null,
				"online": false,
				"finish_date": null
			},
			"public_url": null,
			"is_open": false
		},
		{
			"id": 456,
			"business": {
				"id": 113,
				"name": "Granier",
				"country": null,
				"description": "Pans Granier son panaderías con pan artesano cerca de casa, elaborado en nuestro obrador siguiendo las recetas y tiempos de fermentación tradicionales.",
				"url": "https://pansgranier.com/",
				"square_picture": "https://woowbe-dev.s3.amazonaws.com/media/pictures/square_picture_5W2BYMH.jpg",
				"widescreen_picture": "https://woowbe-dev.s3.amazonaws.com/media/pictures/1635411299.jpeg",
				"cover": "https://woowbe-dev.s3.amazonaws.com/media/covers/cover_RC8Wr1o.jpg",
				"sector": {
					"id": 19,
					"name": "Panadería",
					"icon": "https://woowbe-dev.s3.amazonaws.com/media/icons/toeat_I8A0AM0.svg",
					"created": "2021-05-25T11:05:24.276505Z"
				},
				"descriptive_categories": [
					{
						"id": 25,
						"name": "pan",
						"owner": null,
						"sector": null,
						"created": "2021-10-21T21:05:17.331228Z"
					}
				],
				"return_period": 0,
				"dynamic_link": "https://app.dev.woowbe.com/share/ytHt",
				"is_franchisee_of": null,
				"is_favorite": false,
				"created": "2021-10-28T08:51:16.798668Z",
				"offers_count": 0
			},
			"online": false,
			"url": null,
			"position": {
				"type": "Point",
				"coordinates": [
					-3.6674674,
					40.42909520000001
				]
			},
			"address": "Calle de Alcalá",
			"number": "201",
			"postal_code": "28028",
			"state": "Madrid",
			"city": "Madrid",
			"merchants_count": 0,
			"modified": "2023-03-17T08:02:03.104781Z",
			"place_id": "ChIJvVEW_7MoQg0RnqAjnOG0tqw",
			"formatted_address": "C. de Alcalá, 201, 28028 Madrid",
			"deleted": false,
			"deleted_at": null,
			"created": "2021-10-28T08:57:18.583554Z",
			"selected_offer": {
				"reward": null,
				"reward_type": null,
				"kind": null,
				"instant": false,
				"name": "",
				"standalone": false,
				"purchases": null,
				"online": false,
				"finish_date": null
			},
			"public_url": null,
			"is_open": false
		},
		{
			"id": 455,
			"business": {
				"id": 113,
				"name": "Granier",
				"country": null,
				"description": "Pans Granier son panaderías con pan artesano cerca de casa, elaborado en nuestro obrador siguiendo las recetas y tiempos de fermentación tradicionales.",
				"url": "https://pansgranier.com/",
				"square_picture": "https://woowbe-dev.s3.amazonaws.com/media/pictures/square_picture_5W2BYMH.jpg",
				"widescreen_picture": "https://woowbe-dev.s3.amazonaws.com/media/pictures/1635411299.jpeg",
				"cover": "https://woowbe-dev.s3.amazonaws.com/media/covers/cover_RC8Wr1o.jpg",
				"sector": {
					"id": 19,
					"name": "Panadería",
					"icon": "https://woowbe-dev.s3.amazonaws.com/media/icons/toeat_I8A0AM0.svg",
					"created": "2021-05-25T11:05:24.276505Z"
				},
				"descriptive_categories": [
					{
						"id": 25,
						"name": "pan",
						"owner": null,
						"sector": null,
						"created": "2021-10-21T21:05:17.331228Z"
					}
				],
				"return_period": 0,
				"dynamic_link": "https://app.dev.woowbe.com/share/ytHt",
				"is_franchisee_of": null,
				"is_favorite": false,
				"created": "2021-10-28T08:51:16.798668Z",
				"offers_count": 0
			},
			"online": false,
			"url": null,
			"position": {
				"type": "Point",
				"coordinates": [
					-3.7151259,
					40.4388407
				]
			},
			"address": "Calle de Gaztambide",
			"number": "64",
			"postal_code": "28015",
			"state": "Madrid",
			"city": "Madrid",
			"merchants_count": 0,
			"modified": "2023-03-17T08:02:03.294438Z",
			"place_id": "ChIJp9WOjkQoQg0RqfrSldf1JSs",
			"formatted_address": "C. de Gaztambide, 64, 28015 Madrid",
			"deleted": false,
			"deleted_at": null,
			"created": "2021-10-28T08:57:03.989808Z",
			"selected_offer": {
				"reward": null,
				"reward_type": null,
				"kind": null,
				"instant": false,
				"name": "",
				"standalone": false,
				"purchases": null,
				"online": false,
				"finish_date": null
			},
			"public_url": null,
			"is_open": false
		},
		{
			"id": 454,
			"business": {
				"id": 113,
				"name": "Granier",
				"country": null,
				"description": "Pans Granier son panaderías con pan artesano cerca de casa, elaborado en nuestro obrador siguiendo las recetas y tiempos de fermentación tradicionales.",
				"url": "https://pansgranier.com/",
				"square_picture": "https://woowbe-dev.s3.amazonaws.com/media/pictures/square_picture_5W2BYMH.jpg",
				"widescreen_picture": "https://woowbe-dev.s3.amazonaws.com/media/pictures/1635411299.jpeg",
				"cover": "https://woowbe-dev.s3.amazonaws.com/media/covers/cover_RC8Wr1o.jpg",
				"sector": {
					"id": 19,
					"name": "Panadería",
					"icon": "https://woowbe-dev.s3.amazonaws.com/media/icons/toeat_I8A0AM0.svg",
					"created": "2021-05-25T11:05:24.276505Z"
				},
				"descriptive_categories": [
					{
						"id": 25,
						"name": "pan",
						"owner": null,
						"sector": null,
						"created": "2021-10-21T21:05:17.331228Z"
					}
				],
				"return_period": 0,
				"dynamic_link": "https://app.dev.woowbe.com/share/ytHt",
				"is_franchisee_of": null,
				"is_favorite": false,
				"created": "2021-10-28T08:51:16.798668Z",
				"offers_count": 0
			},
			"online": false,
			"url": null,
			"position": {
				"type": "Point",
				"coordinates": [
					-3.6815338,
					40.4260493
				]
			},
			"address": "Calle de Castelló",
			"number": "39",
			"postal_code": "28001",
			"state": "Madrid",
			"city": "Madrid",
			"merchants_count": 0,
			"modified": "2023-03-17T08:02:03.416791Z",
			"place_id": "ChIJncxxdL0oQg0RqvXwh2bM2DU",
			"formatted_address": "Calle de Castelló, 39, 28001 Madrid",
			"deleted": false,
			"deleted_at": null,
			"created": "2021-10-28T08:56:37.508291Z",
			"selected_offer": {
				"reward": null,
				"reward_type": null,
				"kind": null,
				"instant": false,
				"name": "",
				"standalone": false,
				"purchases": null,
				"online": false,
				"finish_date": null
			},
			"public_url": null,
			"is_open": false
		},
		{
			"id": 453,
			"business": {
				"id": 113,
				"name": "Granier",
				"country": null,
				"description": "Pans Granier son panaderías con pan artesano cerca de casa, elaborado en nuestro obrador siguiendo las recetas y tiempos de fermentación tradicionales.",
				"url": "https://pansgranier.com/",
				"square_picture": "https://woowbe-dev.s3.amazonaws.com/media/pictures/square_picture_5W2BYMH.jpg",
				"widescreen_picture": "https://woowbe-dev.s3.amazonaws.com/media/pictures/1635411299.jpeg",
				"cover": "https://woowbe-dev.s3.amazonaws.com/media/covers/cover_RC8Wr1o.jpg",
				"sector": {
					"id": 19,
					"name": "Panadería",
					"icon": "https://woowbe-dev.s3.amazonaws.com/media/icons/toeat_I8A0AM0.svg",
					"created": "2021-05-25T11:05:24.276505Z"
				},
				"descriptive_categories": [
					{
						"id": 25,
						"name": "pan",
						"owner": null,
						"sector": null,
						"created": "2021-10-21T21:05:17.331228Z"
					}
				],
				"return_period": 0,
				"dynamic_link": "https://app.dev.woowbe.com/share/ytHt",
				"is_franchisee_of": null,
				"is_favorite": false,
				"created": "2021-10-28T08:51:16.798668Z",
				"offers_count": 0
			},
			"online": false,
			"url": null,
			"position": {
				"type": "Point",
				"coordinates": [
					-3.6749655,
					40.4385292
				]
			},
			"address": "Avenida de América",
			"number": "16",
			"postal_code": "28028",
			"state": "Madrid",
			"city": "Madrid",
			"merchants_count": 0,
			"modified": "2023-03-17T08:02:03.608608Z",
			"place_id": "ChIJLYAaiMYoQg0R5wUcVIhCtEc",
			"formatted_address": "Avenida de América, 16, 28028 Madrid",
			"deleted": false,
			"deleted_at": null,
			"created": "2021-10-28T08:56:13.809438Z",
			"selected_offer": {
				"reward": null,
				"reward_type": null,
				"kind": null,
				"instant": false,
				"name": "",
				"standalone": false,
				"purchases": null,
				"online": false,
				"finish_date": null
			},
			"public_url": null,
			"is_open": false
		},
		{
			"id": 452,
			"business": {
				"id": 113,
				"name": "Granier",
				"country": null,
				"description": "Pans Granier son panaderías con pan artesano cerca de casa, elaborado en nuestro obrador siguiendo las recetas y tiempos de fermentación tradicionales.",
				"url": "https://pansgranier.com/",
				"square_picture": "https://woowbe-dev.s3.amazonaws.com/media/pictures/square_picture_5W2BYMH.jpg",
				"widescreen_picture": "https://woowbe-dev.s3.amazonaws.com/media/pictures/1635411299.jpeg",
				"cover": "https://woowbe-dev.s3.amazonaws.com/media/covers/cover_RC8Wr1o.jpg",
				"sector": {
					"id": 19,
					"name": "Panadería",
					"icon": "https://woowbe-dev.s3.amazonaws.com/media/icons/toeat_I8A0AM0.svg",
					"created": "2021-05-25T11:05:24.276505Z"
				},
				"descriptive_categories": [
					{
						"id": 25,
						"name": "pan",
						"owner": null,
						"sector": null,
						"created": "2021-10-21T21:05:17.331228Z"
					}
				],
				"return_period": 0,
				"dynamic_link": "https://app.dev.woowbe.com/share/ytHt",
				"is_franchisee_of": null,
				"is_favorite": false,
				"created": "2021-10-28T08:51:16.798668Z",
				"offers_count": 0
			},
			"online": false,
			"url": null,
			"position": {
				"type": "Point",
				"coordinates": [
					-3.7027812,
					40.4471145
				]
			},
			"address": "Calle de Raimundo Fernández Villaverde",
			"number": "5",
			"postal_code": "28003",
			"state": "Madrid",
			"city": "Madrid",
			"merchants_count": 0,
			"modified": "2023-03-17T08:02:03.800506Z",
			"place_id": "ChIJnxAWnvgoQg0R5wXrPg5PGz0",
			"formatted_address": "C. de Raimundo Fernández Villaverde, 5, 28003 Madrid",
			"deleted": false,
			"deleted_at": null,
			"created": "2021-10-28T08:55:59.287355Z",
			"selected_offer": {
				"reward": null,
				"reward_type": null,
				"kind": null,
				"instant": false,
				"name": "",
				"standalone": false,
				"purchases": null,
				"online": false,
				"finish_date": null
			},
			"public_url": null,
			"is_open": false
		}
	]
}
