{
	"count": 579,
	"next": "https://backend.dev.woowbe.com/api/v1/points_of_sales/public/?page=35",
	"previous": "https://backend.dev.woowbe.com/api/v1/points_of_sales/public/?page=33",
	"results": [
		{
			"id": 441,
			"business": {
				"id": 111,
				"name": "Carlos Conde peluqueros",
				"country": null,
				"description": "Carlos Conde se inicia en el mundo de la peluquería con 15 años. En 1997 se abre la primera barbería Carlos Conde.\r\nPeluquero por vocación, se considera también un hombre de negocios, totalmente vinculado al mundo de las barberías, por eso en el año 2010 comienza a forjar las bases para franquiciar su modelo de negocio.",
				"url": "https://www.carloscondepeluqueros.com/",
				"square_picture": "https://woowbe-dev.s3.amazonaws.com/media/pictures/square_picture_NNjVQc5.jpg",
				"widescreen_picture": "https://woowbe-dev.s3.amazonaws.com/media/pictures/1635234170.jpeg",
				"cover": "https://woowbe-dev.s3.amazonaws.com/media/covers/cover_tvoOUZh.jpg",
				"sector": {
					"id": 13,
					"name": "Peluquería",
					"icon": null,
					"created": "2021-05-25T11:02:31.426987Z"
				},
				"descriptive_categories": [
					{
						"id": 43,
						"name": "barba",
						"owner": null,
						"sector": null,
						"created": "2021-10-26T07:38:43.587103Z"
					},
					{
						"id": 44,
						"name": "barbería",
						"owner": null,
						"sector": null,
						"created": "2021-10-26T07:38:49.830200Z"
					},
					{
						"id": 41,
						"name": "corte de pelo",
						"owner": null,
						"sector": null,
						"created": "2021-10-25T13:02:44.637545Z"
					}
				],
				"return_period": 0,
				"dynamic_link": "https://app.dev.woowbe.com/share/znLw",
				"is_franchisee_of": null,
				"is_favorite": false,
				"created": "2021-10-26T07:39:07.521908Z",
				"offers_count": 0
			},
			"online": false,
			"url": null,
			"position": {
				"type": "Point",
				"coordinates": [
					-3.669946,
					40.4164161
				]
			},
			"address": "Calle del Alcalde Sainz de Baranda",
			"number": "64",
			"postal_code": "28009",
			"state": "Madrid",
			"city": "Madrid",
			"merchants_count": 0,
			"modified": "2023-03-17T08:02:05.706335Z",
			"place_id": "ChIJF-lLVagoQg0R1f2IR1kPR-M",
			"formatted_address": "C/ del Alcalde Sainz de Baranda, 64, 28009 Madrid",
			"deleted": false,
			"deleted_at": null,
			"created": "2021-10-26T07:47:53.316076Z",
			"selected_offer": {
				"reward": null,
				"reward_type": null,
				"kind": null,
				"instant": false,
				"name": "",
				"standalone": false,
				"purchases": null,
				"online": false,
				"finish_date": null
			},
			"public_url": null,
			"is_open": false
		},
		{
			"id": 440,
			"business": {
				"id": 111,
				"name": "Carlos Conde peluqueros",
				"country": null,
				"description": "Carlos Conde se inicia en el mundo de la peluquería con 15 años. En 1997 se abre la primera barbería Carlos Conde.\r\nPeluquero por vocación, se considera también un hombre de negocios, totalmente vinculado al mundo de las barberías, por eso en el año 2010 comienza a forjar las bases para franquiciar su modelo de negocio.",
				"url": "https://www.carloscondepeluqueros.com/",
				"square_picture": "https://woowbe-dev.s3.amazonaws.com/media/pictures/square_picture_NNjVQc5.jpg",
				"widescreen_picture": "https://woowbe-dev.s3.amazonaws.com/media/pictures/1635234170.jpeg",
				"cover": "https://woowbe-dev.s3.amazonaws.com/media/covers/cover_tvoOUZh.jpg",
				"sector": {
					"id": 13,
					"name": "Peluquería",
					"icon": null,
					"created": "2021-05-25T11:02:31.426987Z"
				},
				"descriptive_categories": [
					{
						"id": 43,
						"name": "barba",
						"owner": null,
						"sector": null,
						"created": "2021-10-26T07:38:43.587103Z"
					},
					{
						"id": 44,
						"name": "barbería",
						"owner": null,
						"sector": null,
						"created": "2021-10-26T07:38:49.830200Z"
					},
					{
						"id": 41,
						"name": "corte de pelo",
						"owner": null,
						"sector": null,
						"created": "2021-10-25T13:02:44.637545Z"
					}
				],
				"return_period": 0,
				"dynamic_link": "https://app.dev.woowbe.com/share/znLw",
				"is_franchisee_of": null,
				"is_favorite": false,
				"created": "2021-10-26T07:39:07.521908Z",
				"offers_count": 0
			},
			"online": false,
			"url": null,
			"position": {
				"type": "Point",
				"coordinates": [
					-3.6731472,
					40.4057107
				]
			},
			"address": "Calle de Sánchez Barcáiztegui",
			"number": "34",
			"postal_code": "28007",
			"state": "Madrid",
			"city": "Madrid",
			"merchants_count": 0,
			"modified": "2023-03-17T08:02:05.901358Z",
			"place_id": "ChIJGcrYxBomQg0Rc43zwMRG0xo",
			"formatted_address": "C. de Sánchez Barcáiztegui, 34, 28007 Madrid",
			"deleted": false,
			"deleted_at": null,
			"created": "2021-10-26T07:47:36.815330Z",
			"selected_offer": {
				"reward": null,
				"reward_type": null,
				"kind": null,
				"instant": false,
				"name": "",
				"standalone": false,
				"purchases": null,
				"online": false,
				"finish_date": null
			},
			"public_url": null,
			"is_open": false
		},
		{
			"id": 439,
			"business": {
				"id": 111,
				"name": "Carlos Conde peluqueros",
				"country": null,
				"description": "Carlos Conde se inicia en el mundo de la peluquería con 15 años. En 1997 se abre la primera barbería Carlos Conde.\r\nPeluquero por vocación, se considera también un hombre de negocios, totalmente vinculado al mundo de las barberías, por eso en el año 2010 comienza a forjar las bases para franquiciar su modelo de negocio.",
				"url": "https://www.carloscondepeluqueros.com/",
				"square_picture": "https://woowbe-dev.s3.amazonaws.com/media/pictures/square_picture_NNjVQc5.jpg",
				"widescreen_picture": "https://woowbe-dev.s3.amazonaws.com/media/pictures/1635234170.jpeg",
				"cover": "https://woowbe-dev.s3.amazonaws.com/media/covers/cover_tvoOUZh.jpg",
				"sector": {
					"id": 13,
					"name": "Peluquería",
					"icon": null,
					"created": "2021-05-25T11:02:31.426987Z"
				},
				"descriptive_categories": [
					{
						"id": 43,
						"name": "barba",
						"owner": null,
						"sector": null,
						"created": "2021-10-26T07:38:43.587103Z"
					},
					{
						"id": 44,
						"name": "barbería",
						"owner": null,
						"sector": null,
						"created": "2021-10-26T07:38:49.830200Z"
					},
					{
						"id": 41,
						"name": "corte de pelo",
						"owner": null,
						"sector": null,
						"created": "2021-10-25T13:02:44.637545Z"
					}
				],
				"return_period": 0,
				"dynamic_link": "https://app.dev.woowbe.com/share/znLw",
				"is_franchisee_of": null,
				"is_favorite": false,
				"created": "2021-10-26T07:39:07.521908Z",
				"offers_count": 0
			},
			"online": false,
			"url": null,
			"position": {
				"type": "Point",
				"coordinates": [
					-3.6336262,
					40.4389439
				]
			},
			"address": "Calle de Alcalá",
			"number": "462",
			"postal_code": "28027",
			"state": "Madrid",
			"city": "Madrid",
			"merchants_count": 0,
			"modified": "2023-03-17T08:02:06.102121Z",
			"place_id": "ChIJCWXwRRIvQg0RwhO2fH98gag",
			"formatted_address": "C. de Alcalá, 462, 28027 Madrid",
			"deleted": false,
			"deleted_at": null,
			"created": "2021-10-26T07:47:18.824196Z",
			"selected_offer": {
				"reward": null,
				"reward_type": null,
				"kind": null,
				"instant": false,
				"name": "",
				"standalone": false,
				"purchases": null,
				"online": false,
				"finish_date": null
			},
			"public_url": null,
			"is_open": false
		},
		{
			"id": 438,
			"business": {
				"id": 111,
				"name": "Carlos Conde peluqueros",
				"country": null,
				"description": "Carlos Conde se inicia en el mundo de la peluquería con 15 años. En 1997 se abre la primera barbería Carlos Conde.\r\nPeluquero por vocación, se considera también un hombre de negocios, totalmente vinculado al mundo de las barberías, por eso en el año 2010 comienza a forjar las bases para franquiciar su modelo de negocio.",
				"url": "https://www.carloscondepeluqueros.com/",
				"square_picture": "https://woowbe-dev.s3.amazonaws.com/media/pictures/square_picture_NNjVQc5.jpg",
				"widescreen_picture": "https://woowbe-dev.s3.amazonaws.com/media/pictures/1635234170.jpeg",
				"cover": "https://woowbe-dev.s3.amazonaws.com/media/covers/cover_tvoOUZh.jpg",
				"sector": {
					"id": 13,
					"name": "Peluquería",
					"icon": null,
					"created": "2021-05-25T11:02:31.426987Z"
				},
				"descriptive_categories": [
					{
						"id": 43,
						"name": "barba",
						"owner": null,
						"sector": null,
						"created": "2021-10-26T07:38:43.587103Z"
					},
					{
						"id": 44,
						"name": "barbería",
						"owner": null,
						"sector": null,
						"created": "2021-10-26T07:38:49.830200Z"
					},
					{
						"id": 41,
						"name": "corte de pelo",
						"owner": null,
						"sector": null,
						"created": "2021-10-25T13:02:44.637545Z"
					}
				],
				"return_period": 0,
				"dynamic_link": "https://app.dev.woowbe.com/share/znLw",
				"is_franchisee_of": null,
				"is_favorite": false,
				"created": "2021-10-26T07:39:07.521908Z",
				"offers_count": 0
			},
			"online": false,
			"url": null,
			"position": {
				"type": "Point",
				"coordinates": [
					-3.6507593,
					40.4499968
				]
			},
			"address": "Calle de Arturo Soria",
			"number": "126",
			"postal_code": "28043",
			"state": "Madrid",
			"city": "Madrid",
			"merchants_count": 0,
			"modified": "2023-03-17T08:02:06.214934Z",
			"place_id": "ChIJTeIb3yUvQg0R2H7kBOwDufI",
			"formatted_address": "C. de Arturo Soria, 126, 28043 Madrid",
			"deleted": false,
			"deleted_at": null,
			"created": "2021-10-26T07:47:01.562777Z",
			"selected_offer": {
				"reward": null,
				"reward_type": null,
				"kind": null,
				"instant": false,
				"name": "",
				"standalone": false,
				"purchases": null,
				"online": false,
				"finish_date": null
			},
			"public_url": null,
			"is_open": false
		},
		{
			"id": 437,
			"business": {
				"id": 111,
				"name": "Carlos Conde peluqueros",
				"country": null,
				"description": "Carlos Conde se inicia en el mundo de la peluquería con 15 años. En 1997 se abre la primera barbería Carlos Conde.\r\nPeluquero por vocación, se considera también un hombre de negocios, totalmente vinculado al mundo de las barberías, por eso en el año 2010 comienza a forjar las bases para franquiciar su modelo de negocio.",
				"url": "https://www.carloscondepeluqueros.com/",
				"square_picture": "https://woowbe-dev.s3.amazonaws.com/media/pictures/square_picture_NNjVQc5.jpg",
				"widescreen_picture": "https://woowbe-dev.s3.amazonaws.com/media/pictures/1635234170.jpeg",
				"cover": "https://woowbe-dev.s3.amazonaws.com/media/covers/cover_tvoOUZh.jpg",
				"sector": {
					"id": 13,
					"name": "Peluquería",
					"icon": null,
					"created": "2021-05-25T11:02:31.426987Z"
				},
				"descriptive_categories": [
					{
						"id": 43,
						"name": "barba",
						"owner": null,
						"sector": null,
						"created": "2021-10-26T07:38:43.587103Z"
					},
					{
						"id": 44,
						"name": "barbería",
						"owner": null,
						"sector": null,
						"created": "2021-10-26T07:38:49.830200Z"
					},
					{
						"id": 41,
						"name": "corte de pelo",
						"owner": null,
						"sector": null,
						"created": "2021-10-25T13:02:44.637545Z"
					}
				],
				"return_period": 0,
				"dynamic_link": "https://app.dev.woowbe.com/share/znLw",
				"is_franchisee_of": null,
				"is_favorite": false,
				"created": "2021-10-26T07:39:07.521908Z",
				"offers_count": 0
			},
			"online": false,
			"url": null,
			"position": {
				"type": "Point",
				"coordinates": [
					-3.6788239,
					40.4245273
				]
			},
			"address": "Calle del General Pardiñas",
			"number": "9",
			"postal_code": "28001",
			"state": "Madrid",
			"city": "Madrid",
			"merchants_count": 0,
			"modified": "2023-03-17T08:02:06.504450Z",
			"place_id": "ChIJ2Yzqx7woQg0RowaLOvZVaiI",
			"formatted_address": "Calle del Gral. Pardiñas, 9, 28001 Madrid",
			"deleted": false,
			"deleted_at": null,
			"created": "2021-10-26T07:46:42.391024Z",
			"selected_offer": {
				"reward": null,
				"reward_type": null,
				"kind": null,
				"instant": false,
				"name": "",
				"standalone": false,
				"purchases": null,
				"online": false,
				"finish_date": null
			},
			"public_url": null,
			"is_open": false
		},
		{
			"id": 436,
			"business": {
				"id": 111,
				"name": "Carlos Conde peluqueros",
				"country": null,
				"description": "Carlos Conde se inicia en el mundo de la peluquería con 15 años. En 1997 se abre la primera barbería Carlos Conde.\r\nPeluquero por vocación, se considera también un hombre de negocios, totalmente vinculado al mundo de las barberías, por eso en el año 2010 comienza a forjar las bases para franquiciar su modelo de negocio.",
				"url": "https://www.carloscondepeluqueros.com/",
				"square_picture": "https://woowbe-dev.s3.amazonaws.com/media/pictures/square_picture_NNjVQc5.jpg",
				"widescreen_picture": "https://woowbe-dev.s3.amazonaws.com/media/pictures/1635234170.jpeg",
				"cover": "https://woowbe-dev.s3.amazonaws.com/media/covers/cover_tvoOUZh.jpg",
				"sector": {
					"id": 13,
					"name": "Peluquería",
					"icon": null,
					"created": "2021-05-25T11:02:31.426987Z"
				},
				"descriptive_categories": [
					{
						"id": 43,
						"name": "barba",
						"owner": null,
						"sector": null,
						"created": "2021-10-26T07:38:43.587103Z"
					},
					{
						"id": 44,
						"name": "barbería",
						"owner": null,
						"sector": null,
						"created": "2021-10-26T07:38:49.830200Z"
					},
					{
						"id": 41,
						"name": "corte de pelo",
						"owner": null,
						"sector": null,
						"created": "2021-10-25T13:02:44.637545Z"
					}
				],
				"return_period": 0,
				"dynamic_link": "https://app.dev.woowbe.com/share/znLw",
				"is_franchisee_of": null,
				"is_favorite": false,
				"created": "2021-10-26T07:39:07.521908Z",
				"offers_count": 0
			},
			"online": false,
			"url": null,
			"position": {
				"type": "Point",
				"coordinates": [
					-3.699526,
					40.4063474
				]
			},
			"address": "Calle de Valencia",
			"number": "23",
			"postal_code": "28012",
			"state": "Madrid",
			"city": "Madrid",
			"merchants_count": 0,
			"modified": "2023-03-17T08:02:06.610639Z",
			"place_id": "ChIJ6ZePQywmQg0RR1YpY7xw07g",
			"formatted_address": "C. de Valencia, 23, 28012 Madrid",
			"deleted": false,
			"deleted_at": null,
			"created": "2021-10-26T07:46:27.133789Z",
			"selected_offer": {
				"reward": null,
				"reward_type": null,
				"kind": null,
				"instant": false,
				"name": "",
				"standalone": false,
				"purchases": null,
				"online": false,
				"finish_date": null
			},
			"public_url": null,
			"is_open": false
		},
		{
			"id": 435,
			"business": {
				"id": 111,
				"name": "Carlos Conde peluqueros",
				"country": null,
				"description": "Carlos Conde se inicia en el mundo de la peluquería con 15 años. En 1997 se abre la primera barbería Carlos Conde.\r\nPeluquero por vocación, se considera también un hombre de negocios, totalmente vinculado al mundo de las barberías, por eso en el año 2010 comienza a forjar las bases para franquiciar su modelo de negocio.",
				"url": "https://www.carloscondepeluqueros.com/",
				"square_picture": "https://woowbe-dev.s3.amazonaws.com/media/pictures/square_picture_NNjVQc5.jpg",
				"widescreen_picture": "https://woowbe-dev.s3.amazonaws.com/media/pictures/1635234170.jpeg",
				"cover": "https://woowbe-dev.s3.amazonaws.com/media/covers/cover_tvoOUZh.jpg",
				"sector": {
					"id": 13,
					"name": "Peluquería",
					"icon": null,
					"created": "2021-05-25T11:02:31.426987Z"
				},
				"descriptive_categories": [
					{
						"id": 43,
						"name": "barba",
						"owner": null,
						"sector": null,
						"created": "2021-10-26T07:38:43.587103Z"
					},
					{
						"id": 44,
						"name": "barbería",
						"owner": null,
						"sector": null,
						"created": "2021-10-26T07:38:49.830200Z"
					},
					{
						"id": 41,
						"name": "corte de pelo",
						"owner": null,
						"sector": null,
						"created": "2021-10-25T13:02:44.637545Z"
					}
				],
				"return_period": 0,
				"dynamic_link": "https://app.dev.woowbe.com/share/znLw",
				"is_franchisee_of": null,
				"is_favorite": false,
				"created": "2021-10-26T07:39:07.521908Z",
				"offers_count": 0
			},
			"online": false,
			"url": null,
			"position": {
				"type": "Point",
				"coordinates": [
					-3.6970534,
					40.4219596
				]
			},
			"address": "Calle de Augusto Figueroa",
			"number": "28",
			"postal_code": "28004",
			"state": "Madrid",
			"city": "Madrid",
			"merchants_count": 0,
			"modified": "2023-03-17T08:02:06.819238Z",
			"place_id": "ChIJ_fqJwoUoQg0Rh-ARsZbLT38",
			"formatted_address": "C. de Augusto Figueroa, 28, 28004 Madrid",
			"deleted": false,
			"deleted_at": null,
			"created": "2021-10-26T07:46:09.265556Z",
			"selected_offer": {
				"reward": null,
				"reward_type": null,
				"kind": null,
				"instant": false,
				"name": "",
				"standalone": false,
				"purchases": null,
				"online": false,
				"finish_date": null
			},
			"public_url": null,
			"is_open": false
		},
		{
			"id": 434,
			"business": {
				"id": 111,
				"name": "Carlos Conde peluqueros",
				"country": null,
				"description": "Carlos Conde se inicia en el mundo de la peluquería con 15 años. En 1997 se abre la primera barbería Carlos Conde.\r\nPeluquero por vocación, se considera también un hombre de negocios, totalmente vinculado al mundo de las barberías, por eso en el año 2010 comienza a forjar las bases para franquiciar su modelo de negocio.",
				"url": "https://www.carloscondepeluqueros.com/",
				"square_picture": "https://woowbe-dev.s3.amazonaws.com/media/pictures/square_picture_NNjVQc5.jpg",
				"widescreen_picture": "https://woowbe-dev.s3.amazonaws.com/media/pictures/1635234170.jpeg",
				"cover": "https://woowbe-dev.s3.amazonaws.com/media/covers/cover_tvoOUZh.jpg",
				"sector": {
					"id": 13,
					"name": "Peluquería",
					"icon": null,
					"created": "2021-05-25T11:02:31.426987Z"
				},
				"descriptive_categories": [
					{
						"id": 43,
						"name": "barba",
						"owner": null,
						"sector": null,
						"created": "2021-10-26T07:38:43.587103Z"
					},
					{
						"id": 44,
						"name": "barbería",
						"owner": null,
						"sector": null,
						"created": "2021-10-26T07:38:49.830200Z"
					},
					{
						"id": 41,
						"name": "corte de pelo",
						"owner": null,
						"sector": null,
						"created": "2021-10-25T13:02:44.637545Z"
					}
				],
				"return_period": 0,
				"dynamic_link": "https://app.dev.woowbe.com/share/znLw",
				"is_franchisee_of": null,
				"is_favorite": false,
				"created": "2021-10-26T07:39:07.521908Z",
				"offers_count": 0
			},
			"online": false,
			"url": null,
			"position": {
				"type": "Point",
				"coordinates": [
					-3.6647203,
					40.4297045
				]
			},
			"address": "Calle de Alcalá",
			"number": "190",
			"postal_code": "28028",
			"state": "Madrid",
			"city": "Madrid",
			"merchants_count": 0,
			"modified": "2023-03-17T08:02:07.011657Z",
			"place_id": "ChIJK65Jh7QoQg0R7qhb_nB3NEc",
			"formatted_address": "C. de Alcalá, 190, 28028 Madrid",
			"deleted": false,
			"deleted_at": null,
			"created": "2021-10-26T07:45:52.444635Z",
			"selected_offer": {
				"reward": null,
				"reward_type": null,
				"kind": null,
				"instant": false,
				"name": "",
				"standalone": false,
				"purchases": null,
				"online": false,
				"finish_date": null
			},
			"public_url": null,
			"is_open": false
		},
		{
			"id": 433,
			"business": {
				"id": 111,
				"name": "Carlos Conde peluqueros",
				"country": null,
				"description": "Carlos Conde se inicia en el mundo de la peluquería con 15 años. En 1997 se abre la primera barbería Carlos Conde.\r\nPeluquero por vocación, se considera también un hombre de negocios, totalmente vinculado al mundo de las barberías, por eso en el año 2010 comienza a forjar las bases para franquiciar su modelo de negocio.",
				"url": "https://www.carloscondepeluqueros.com/",
				"square_picture": "https://woowbe-dev.s3.amazonaws.com/media/pictures/square_picture_NNjVQc5.jpg",
				"widescreen_picture": "https://woowbe-dev.s3.amazonaws.com/media/pictures/1635234170.jpeg",
				"cover": "https://woowbe-dev.s3.amazonaws.com/media/covers/cover_tvoOUZh.jpg",
				"sector": {
					"id": 13,
					"name": "Peluquería",
					"icon": null,
					"created": "2021-05-25T11:02:31.426987Z"
				},
				"descriptive_categories": [
					{
						"id": 43,
						"name": "barba",
						"owner": null,
						"sector": null,
						"created": "2021-10-26T07:38:43.587103Z"
					},
					{
						"id": 44,
						"name": "barbería",
						"owner": null,
						"sector": null,
						"created": "2021-10-26T07:38:49.830200Z"
					},
					{
						"id": 41,
						"name": "corte de pelo",
						"owner": null,
						"sector": null,
						"created": "2021-10-25T13:02:44.637545Z"
					}
				],
				"return_period": 0,
				"dynamic_link": "https://app.dev.woowbe.com/share/znLw",
				"is_franchisee_of": null,
				"is_favorite": false,
				"created": "2021-10-26T07:39:07.521908Z",
				"offers_count": 0
			},
			"online": false,
			"url": null,
			"position": {
				"type": "Point",
				"coordinates": [
					-3.7177083,
					40.4298852
				]
			},
			"address": "Calle del Marqués de Urquijo",
			"number": "15",
			"postal_code": "28008",
			"state": "Madrid",
			"city": "Madrid",
			"merchants_count": 0,
			"modified": "2023-03-17T08:02:07.299225Z",
			"place_id": "ChIJMTPhe2koQg0ROsHr9TR9xxg",
			"formatted_address": "C. del Marqués de Urquijo, 15, 28008 Madrid",
			"deleted": false,
			"deleted_at": null,
			"created": "2021-10-26T07:45:31.897558Z",
			"selected_offer": {
				"reward": null,
				"reward_type": null,
				"kind": null,
				"instant": false,
				"name": "",
				"standalone": false,
				"purchases": null,
				"online": false,
				"finish_date": null
			},
			"public_url": null,
			"is_open": false
		},
		{
			"id": 432,
			"business": {
				"id": 111,
				"name": "Carlos Conde peluqueros",
				"country": null,
				"description": "Carlos Conde se inicia en el mundo de la peluquería con 15 años. En 1997 se abre la primera barbería Carlos Conde.\r\nPeluquero por vocación, se considera también un hombre de negocios, totalmente vinculado al mundo de las barberías, por eso en el año 2010 comienza a forjar las bases para franquiciar su modelo de negocio.",
				"url": "https://www.carloscondepeluqueros.com/",
				"square_picture": "https://woowbe-dev.s3.amazonaws.com/media/pictures/square_picture_NNjVQc5.jpg",
				"widescreen_picture": "https://woowbe-dev.s3.amazonaws.com/media/pictures/1635234170.jpeg",
				"cover": "https://woowbe-dev.s3.amazonaws.com/media/covers/cover_tvoOUZh.jpg",
				"sector": {
					"id": 13,
					"name": "Peluquería",
					"icon": null,
					"created": "2021-05-25T11:02:31.426987Z"
				},
				"descriptive_categories": [
					{
						"id": 43,
						"name": "barba",
						"owner": null,
						"sector": null,
						"created": "2021-10-26T07:38:43.587103Z"
					},
					{
						"id": 44,
						"name": "barbería",
						"owner": null,
						"sector": null,
						"created": "2021-10-26T07:38:49.830200Z"
					},
					{
						"id": 41,
						"name": "corte de pelo",
						"owner": null,
						"sector": null,
						"created": "2021-10-25T13:02:44.637545Z"
					}
				],
				"return_period": 0,
				"dynamic_link": "https://app.dev.woowbe.com/share/znLw",
				"is_franchisee_of": null,
				"is_favorite": false,
				"created": "2021-10-26T07:39:07.521908Z",
				"offers_count": 0
			},
			"online": false,
			"url": null,
			"position": {
				"type": "Point",
				"coordinates": [
					-3.7051584,
					40.4306107
				]
			},
			"address": "Calle de San Bernardo",
			"number": "104",
			"postal_code": "28015",
			"state": "Madrid",
			"city": "Madrid",
			"merchants_count": 0,
			"modified": "2023-03-17T08:02:07.611925Z",
			"place_id": "ChIJ9cIyq2EoQg0R0D448iK6d-o",
			"formatted_address": "C. de San Bernardo, 104, 28015 Madrid",
			"deleted": false,
			"deleted_at": null,
			"created": "2021-10-26T07:45:16.177804Z",
			"selected_offer": {
				"reward": null,
				"reward_type": null,
				"kind": null,
				"instant": false,
				"name": "",
				"standalone": false,
				"purchases": null,
				"online": false,
				"finish_date": null
			},
			"public_url": null,
			"is_open": false
		}
	]
}
