{
	"count": 579,
	"next": "https://backend.dev.woowbe.com/api/v1/points_of_sales/public/?page=39",
	"previous": "https://backend.dev.woowbe.com/api/v1/points_of_sales/public/?page=37",
	"results": [
		{
			"id": 401,
			"business": {
				"id": 109,
				"name": "Faborit",
				"country": null,
				"description": "Cafés tés, infusiones, zumos y ensaladas, con los mejores ingredientes y en un ambiente acogedor para que disfrutes de estupendos momentos Faborit.",
				"url": "https://www.faborit.com/",
				"square_picture": "https://woowbe-dev.s3.amazonaws.com/media/pictures/square_picture_cVUk2PT.jpg",
				"widescreen_picture": "https://woowbe-dev.s3.amazonaws.com/media/pictures/1635166099.jpeg",
				"cover": "https://woowbe-dev.s3.amazonaws.com/media/covers/cover_9ZWnEMe.jpg",
				"sector": {
					"id": 38,
					"name": "Casual food",
					"icon": "https://woowbe-dev.s3.amazonaws.com/media/icons/food_hlfMlAY.svg",
					"created": "2021-10-21T19:51:53.839559Z"
				},
				"descriptive_categories": [
					{
						"id": 28,
						"name": "batidos",
						"owner": 100,
						"sector": null,
						"created": "2021-10-23T08:39:27.122811Z"
					},
					{
						"id": 39,
						"name": "ensaladas",
						"owner": null,
						"sector": null,
						"created": "2021-10-25T12:45:54.528824Z"
					},
					{
						"id": 27,
						"name": "zumos",
						"owner": null,
						"sector": null,
						"created": "2021-10-23T08:39:21.905307Z"
					}
				],
				"return_period": 0,
				"dynamic_link": "https://app.dev.woowbe.com/share/1XPf",
				"is_franchisee_of": null,
				"is_favorite": false,
				"created": "2021-10-25T12:45:57.078698Z",
				"offers_count": 0
			},
			"online": false,
			"url": null,
			"position": {
				"type": "Point",
				"coordinates": [
					-3.6911102,
					40.4199094
				]
			},
			"address": "Calle de Alcalá",
			"number": "61",
			"postal_code": "28014",
			"state": "Madrid",
			"city": "Madrid",
			"merchants_count": 0,
			"modified": "2023-03-17T08:02:12.813185Z",
			"place_id": "ChIJ3SAMFJsoQg0RKJ8iy53uT1s",
			"formatted_address": "C. de Alcalá, 61, 28014 Madrid",
			"deleted": false,
			"deleted_at": null,
			"created": "2021-10-25T12:51:41.654916Z",
			"selected_offer": {
				"reward": null,
				"reward_type": null,
				"kind": null,
				"instant": false,
				"name": "",
				"standalone": false,
				"purchases": null,
				"online": false,
				"finish_date": null
			},
			"public_url": null,
			"is_open": false
		},
		{
			"id": 400,
			"business": {
				"id": 109,
				"name": "Faborit",
				"country": null,
				"description": "Cafés tés, infusiones, zumos y ensaladas, con los mejores ingredientes y en un ambiente acogedor para que disfrutes de estupendos momentos Faborit.",
				"url": "https://www.faborit.com/",
				"square_picture": "https://woowbe-dev.s3.amazonaws.com/media/pictures/square_picture_cVUk2PT.jpg",
				"widescreen_picture": "https://woowbe-dev.s3.amazonaws.com/media/pictures/1635166099.jpeg",
				"cover": "https://woowbe-dev.s3.amazonaws.com/media/covers/cover_9ZWnEMe.jpg",
				"sector": {
					"id": 38,
					"name": "Casual food",
					"icon": "https://woowbe-dev.s3.amazonaws.com/media/icons/food_hlfMlAY.svg",
					"created": "2021-10-21T19:51:53.839559Z"
				},
				"descriptive_categories": [
					{
						"id": 28,
						"name": "batidos",
						"owner": 100,
						"sector": null,
						"created": "2021-10-23T08:39:27.122811Z"
					},
					{
						"id": 39,
						"name": "ensaladas",
						"owner": null,
						"sector": null,
						"created": "2021-10-25T12:45:54.528824Z"
					},
					{
						"id": 27,
						"name": "zumos",
						"owner": null,
						"sector": null,
						"created": "2021-10-23T08:39:21.905307Z"
					}
				],
				"return_period": 0,
				"dynamic_link": "https://app.dev.woowbe.com/share/1XPf",
				"is_franchisee_of": null,
				"is_favorite": false,
				"created": "2021-10-25T12:45:57.078698Z",
				"offers_count": 0
			},
			"online": false,
			"url": null,
			"position": {
				"type": "Point",
				"coordinates": [
					-3.7117055,
					40.4246381
				]
			},
			"address": "Calle de la Princesa",
			"number": "2",
			"postal_code": "28008",
			"state": "Madrid",
			"city": "Madrid",
			"merchants_count": 0,
			"modified": "2023-03-17T08:02:12.915124Z",
			"place_id": "EitDLiBkZSBsYSBQcmluY2VzYSwgMiwgMjgwMDggTWFkcmlkLCBFc3Bhw7FhIlASTgo0CjIJrdjJbGUoQg0RJhUBaFUD964aHgsQ7sHuoQEaFAoSCSWlfoMUKEINEaDXizP3QAMcDBACKhQKEgnhn1riaChCDREXdiMUVfVXlQ",
			"formatted_address": "C. de la Princesa, 2, 28008 Madrid",
			"deleted": false,
			"deleted_at": null,
			"created": "2021-10-25T12:51:25.918939Z",
			"selected_offer": {
				"reward": null,
				"reward_type": null,
				"kind": null,
				"instant": false,
				"name": "",
				"standalone": false,
				"purchases": null,
				"online": false,
				"finish_date": null
			},
			"public_url": null,
			"is_open": false
		},
		{
			"id": 399,
			"business": {
				"id": 109,
				"name": "Faborit",
				"country": null,
				"description": "Cafés tés, infusiones, zumos y ensaladas, con los mejores ingredientes y en un ambiente acogedor para que disfrutes de estupendos momentos Faborit.",
				"url": "https://www.faborit.com/",
				"square_picture": "https://woowbe-dev.s3.amazonaws.com/media/pictures/square_picture_cVUk2PT.jpg",
				"widescreen_picture": "https://woowbe-dev.s3.amazonaws.com/media/pictures/1635166099.jpeg",
				"cover": "https://woowbe-dev.s3.amazonaws.com/media/covers/cover_9ZWnEMe.jpg",
				"sector": {
					"id": 38,
					"name": "Casual food",
					"icon": "https://woowbe-dev.s3.amazonaws.com/media/icons/food_hlfMlAY.svg",
					"created": "2021-10-21T19:51:53.839559Z"
				},
				"descriptive_categories": [
					{
						"id": 28,
						"name": "batidos",
						"owner": 100,
						"sector": null,
						"created": "2021-10-23T08:39:27.122811Z"
					},
					{
						"id": 39,
						"name": "ensaladas",
						"owner": null,
						"sector": null,
						"created": "2021-10-25T12:45:54.528824Z"
					},
					{
						"id": 27,
						"name": "zumos",
						"owner": null,
						"sector": null,
						"created": "2021-10-23T08:39:21.905307Z"
					}
				],
				"return_period": 0,
				"dynamic_link": "https://app.dev.woowbe.com/share/1XPf",
				"is_franchisee_of": null,
				"is_favorite": false,
				"created": "2021-10-25T12:45:57.078698Z",
				"offers_count": 0
			},
			"online": false,
			"url": null,
			"position": {
				"type": "Point",
				"coordinates": [
					-3.6955958,
					40.4159034
				]
			},
			"address": "Plaza de las Cortes",
			"number": "4",
			"postal_code": "28014",
			"state": "Madrid",
			"city": "Madrid",
			"merchants_count": 0,
			"modified": "2023-03-17T08:02:13.216320Z",
			"place_id": "ChIJ08Z4rIMoQg0RG5CzCD_6kds",
			"formatted_address": "Pl. de las Cortes, 4, 28014 Madrid",
			"deleted": false,
			"deleted_at": null,
			"created": "2021-10-25T12:51:10.684246Z",
			"selected_offer": {
				"reward": null,
				"reward_type": null,
				"kind": null,
				"instant": false,
				"name": "",
				"standalone": false,
				"purchases": null,
				"online": false,
				"finish_date": null
			},
			"public_url": null,
			"is_open": false
		},
		{
			"id": 398,
			"business": {
				"id": 109,
				"name": "Faborit",
				"country": null,
				"description": "Cafés tés, infusiones, zumos y ensaladas, con los mejores ingredientes y en un ambiente acogedor para que disfrutes de estupendos momentos Faborit.",
				"url": "https://www.faborit.com/",
				"square_picture": "https://woowbe-dev.s3.amazonaws.com/media/pictures/square_picture_cVUk2PT.jpg",
				"widescreen_picture": "https://woowbe-dev.s3.amazonaws.com/media/pictures/1635166099.jpeg",
				"cover": "https://woowbe-dev.s3.amazonaws.com/media/covers/cover_9ZWnEMe.jpg",
				"sector": {
					"id": 38,
					"name": "Casual food",
					"icon": "https://woowbe-dev.s3.amazonaws.com/media/icons/food_hlfMlAY.svg",
					"created": "2021-10-21T19:51:53.839559Z"
				},
				"descriptive_categories": [
					{
						"id": 28,
						"name": "batidos",
						"owner": 100,
						"sector": null,
						"created": "2021-10-23T08:39:27.122811Z"
					},
					{
						"id": 39,
						"name": "ensaladas",
						"owner": null,
						"sector": null,
						"created": "2021-10-25T12:45:54.528824Z"
					},
					{
						"id": 27,
						"name": "zumos",
						"owner": null,
						"sector": null,
						"created": "2021-10-23T08:39:21.905307Z"
					}
				],
				"return_period": 0,
				"dynamic_link": "https://app.dev.woowbe.com/share/1XPf",
				"is_franchisee_of": null,
				"is_favorite": false,
				"created": "2021-10-25T12:45:57.078698Z",
				"offers_count": 0
			},
			"online": false,
			"url": null,
			"position": {
				"type": "Point",
				"coordinates": [
					-3.711219,
					40.422971
				]
			},
			"address": "Plaza de España",
			"number": "2",
			"postal_code": "28008",
			"state": "Madrid",
			"city": "Madrid",
			"merchants_count": 0,
			"modified": "2023-03-17T08:02:13.340681Z",
			"place_id": "ChIJJ8lZMmUoQg0Rai6UjiM5uEo",
			"formatted_address": "Pl. de España, 2, 28008 Madrid",
			"deleted": false,
			"deleted_at": null,
			"created": "2021-10-25T12:50:55.962939Z",
			"selected_offer": {
				"reward": null,
				"reward_type": null,
				"kind": null,
				"instant": false,
				"name": "",
				"standalone": false,
				"purchases": null,
				"online": false,
				"finish_date": null
			},
			"public_url": null,
			"is_open": false
		},
		{
			"id": 397,
			"business": {
				"id": 109,
				"name": "Faborit",
				"country": null,
				"description": "Cafés tés, infusiones, zumos y ensaladas, con los mejores ingredientes y en un ambiente acogedor para que disfrutes de estupendos momentos Faborit.",
				"url": "https://www.faborit.com/",
				"square_picture": "https://woowbe-dev.s3.amazonaws.com/media/pictures/square_picture_cVUk2PT.jpg",
				"widescreen_picture": "https://woowbe-dev.s3.amazonaws.com/media/pictures/1635166099.jpeg",
				"cover": "https://woowbe-dev.s3.amazonaws.com/media/covers/cover_9ZWnEMe.jpg",
				"sector": {
					"id": 38,
					"name": "Casual food",
					"icon": "https://woowbe-dev.s3.amazonaws.com/media/icons/food_hlfMlAY.svg",
					"created": "2021-10-21T19:51:53.839559Z"
				},
				"descriptive_categories": [
					{
						"id": 28,
						"name": "batidos",
						"owner": 100,
						"sector": null,
						"created": "2021-10-23T08:39:27.122811Z"
					},
					{
						"id": 39,
						"name": "ensaladas",
						"owner": null,
						"sector": null,
						"created": "2021-10-25T12:45:54.528824Z"
					},
					{
						"id": 27,
						"name": "zumos",
						"owner": null,
						"sector": null,
						"created": "2021-10-23T08:39:21.905307Z"
					}
				],
				"return_period": 0,
				"dynamic_link": "https://app.dev.woowbe.com/share/1XPf",
				"is_franchisee_of": null,
				"is_favorite": false,
				"created": "2021-10-25T12:45:57.078698Z",
				"offers_count": 0
			},
			"online": false,
			"url": null,
			"position": {
				"type": "Point",
				"coordinates": [
					-3.6829305,
					40.4373521
				]
			},
			"address": "Calle de Velázquez",
			"number": "128",
			"postal_code": "28006",
			"state": "Madrid",
			"city": "Madrid",
			"merchants_count": 0,
			"modified": "2023-03-17T08:02:13.607031Z",
			"place_id": "ChIJH6RSceooQg0RYlSxbCacxEU",
			"formatted_address": "C. de Velázquez, 128, 28006 Madrid",
			"deleted": false,
			"deleted_at": null,
			"created": "2021-10-25T12:50:40.537290Z",
			"selected_offer": {
				"reward": null,
				"reward_type": null,
				"kind": null,
				"instant": false,
				"name": "",
				"standalone": false,
				"purchases": null,
				"online": false,
				"finish_date": null
			},
			"public_url": null,
			"is_open": false
		},
		{
			"id": 396,
			"business": {
				"id": 109,
				"name": "Faborit",
				"country": null,
				"description": "Cafés tés, infusiones, zumos y ensaladas, con los mejores ingredientes y en un ambiente acogedor para que disfrutes de estupendos momentos Faborit.",
				"url": "https://www.faborit.com/",
				"square_picture": "https://woowbe-dev.s3.amazonaws.com/media/pictures/square_picture_cVUk2PT.jpg",
				"widescreen_picture": "https://woowbe-dev.s3.amazonaws.com/media/pictures/1635166099.jpeg",
				"cover": "https://woowbe-dev.s3.amazonaws.com/media/covers/cover_9ZWnEMe.jpg",
				"sector": {
					"id": 38,
					"name": "Casual food",
					"icon": "https://woowbe-dev.s3.amazonaws.com/media/icons/food_hlfMlAY.svg",
					"created": "2021-10-21T19:51:53.839559Z"
				},
				"descriptive_categories": [
					{
						"id": 28,
						"name": "batidos",
						"owner": 100,
						"sector": null,
						"created": "2021-10-23T08:39:27.122811Z"
					},
					{
						"id": 39,
						"name": "ensaladas",
						"owner": null,
						"sector": null,
						"created": "2021-10-25T12:45:54.528824Z"
					},
					{
						"id": 27,
						"name": "zumos",
						"owner": null,
						"sector": null,
						"created": "2021-10-23T08:39:21.905307Z"
					}
				],
				"return_period": 0,
				"dynamic_link": "https://app.dev.woowbe.com/share/1XPf",
				"is_franchisee_of": null,
				"is_favorite": false,
				"created": "2021-10-25T12:45:57.078698Z",
				"offers_count": 0
			},
			"online": false,
			"url": null,
			"position": {
				"type": "Point",
				"coordinates": [
					-3.6830366,
					40.4250076
				]
			},
			"address": "Calle de Goya",
			"number": "24",
			"postal_code": "28001",
			"state": "Madrid",
			"city": "Madrid",
			"merchants_count": 0,
			"modified": "2023-03-17T08:02:13.790908Z",
			"place_id": "ChIJ716P3ZcoQg0R2XTxvNtsLns",
			"formatted_address": "Calle de Goya, 24, 28001 Madrid",
			"deleted": false,
			"deleted_at": null,
			"created": "2021-10-25T12:50:23.213310Z",
			"selected_offer": {
				"reward": null,
				"reward_type": null,
				"kind": null,
				"instant": false,
				"name": "",
				"standalone": false,
				"purchases": null,
				"online": false,
				"finish_date": null
			},
			"public_url": null,
			"is_open": false
		},
		{
			"id": 395,
			"business": {
				"id": 109,
				"name": "Faborit",
				"country": null,
				"description": "Cafés tés, infusiones, zumos y ensaladas, con los mejores ingredientes y en un ambiente acogedor para que disfrutes de estupendos momentos Faborit.",
				"url": "https://www.faborit.com/",
				"square_picture": "https://woowbe-dev.s3.amazonaws.com/media/pictures/square_picture_cVUk2PT.jpg",
				"widescreen_picture": "https://woowbe-dev.s3.amazonaws.com/media/pictures/1635166099.jpeg",
				"cover": "https://woowbe-dev.s3.amazonaws.com/media/covers/cover_9ZWnEMe.jpg",
				"sector": {
					"id": 38,
					"name": "Casual food",
					"icon": "https://woowbe-dev.s3.amazonaws.com/media/icons/food_hlfMlAY.svg",
					"created": "2021-10-21T19:51:53.839559Z"
				},
				"descriptive_categories": [
					{
						"id": 28,
						"name": "batidos",
						"owner": 100,
						"sector": null,
						"created": "2021-10-23T08:39:27.122811Z"
					},
					{
						"id": 39,
						"name": "ensaladas",
						"owner": null,
						"sector": null,
						"created": "2021-10-25T12:45:54.528824Z"
					},
					{
						"id": 27,
						"name": "zumos",
						"owner": null,
						"sector": null,
						"created": "2021-10-23T08:39:21.905307Z"
					}
				],
				"return_period": 0,
				"dynamic_link": "https://app.dev.woowbe.com/share/1XPf",
				"is_franchisee_of": null,
				"is_favorite": false,
				"created": "2021-10-25T12:45:57.078698Z",
				"offers_count": 0
			},
			"online": false,
			"url": null,
			"position": {
				"type": "Point",
				"coordinates": [
					-3.6919105,
					40.4476847
				]
			},
			"address": "Paseo de la Castellana",
			"number": "81",
			"postal_code": "28046",
			"state": "Madrid",
			"city": "Madrid",
			"merchants_count": 0,
			"modified": "2023-03-17T08:02:13.900673Z",
			"place_id": "ChIJp5bxXAopQg0RmEJwtzZK6AE",
			"formatted_address": "P.º de la Castellana, 81, 28046 Madrid",
			"deleted": false,
			"deleted_at": null,
			"created": "2021-10-25T12:50:07.630986Z",
			"selected_offer": {
				"reward": null,
				"reward_type": null,
				"kind": null,
				"instant": false,
				"name": "",
				"standalone": false,
				"purchases": null,
				"online": false,
				"finish_date": null
			},
			"public_url": null,
			"is_open": false
		},
		{
			"id": 394,
			"business": {
				"id": 109,
				"name": "Faborit",
				"country": null,
				"description": "Cafés tés, infusiones, zumos y ensaladas, con los mejores ingredientes y en un ambiente acogedor para que disfrutes de estupendos momentos Faborit.",
				"url": "https://www.faborit.com/",
				"square_picture": "https://woowbe-dev.s3.amazonaws.com/media/pictures/square_picture_cVUk2PT.jpg",
				"widescreen_picture": "https://woowbe-dev.s3.amazonaws.com/media/pictures/1635166099.jpeg",
				"cover": "https://woowbe-dev.s3.amazonaws.com/media/covers/cover_9ZWnEMe.jpg",
				"sector": {
					"id": 38,
					"name": "Casual food",
					"icon": "https://woowbe-dev.s3.amazonaws.com/media/icons/food_hlfMlAY.svg",
					"created": "2021-10-21T19:51:53.839559Z"
				},
				"descriptive_categories": [
					{
						"id": 28,
						"name": "batidos",
						"owner": 100,
						"sector": null,
						"created": "2021-10-23T08:39:27.122811Z"
					},
					{
						"id": 39,
						"name": "ensaladas",
						"owner": null,
						"sector": null,
						"created": "2021-10-25T12:45:54.528824Z"
					},
					{
						"id": 27,
						"name": "zumos",
						"owner": null,
						"sector": null,
						"created": "2021-10-23T08:39:21.905307Z"
					}
				],
				"return_period": 0,
				"dynamic_link": "https://app.dev.woowbe.com/share/1XPf",
				"is_franchisee_of": null,
				"is_favorite": false,
				"created": "2021-10-25T12:45:57.078698Z",
				"offers_count": 0
			},
			"online": false,
			"url": null,
			"position": {
				"type": "Point",
				"coordinates": [
					-3.6947105,
					40.4508579
				]
			},
			"address": "Calle de Orense",
			"number": "22",
			"postal_code": "28020",
			"state": "Madrid",
			"city": "Madrid",
			"merchants_count": 0,
			"modified": "2023-03-17T08:02:14.018525Z",
			"place_id": "ChIJbdSi5fwoQg0Rm-zMib7tDkg",
			"formatted_address": "C. de Orense, 22, 28020 Madrid",
			"deleted": false,
			"deleted_at": null,
			"created": "2021-10-25T12:49:49.189346Z",
			"selected_offer": {
				"reward": null,
				"reward_type": null,
				"kind": null,
				"instant": false,
				"name": "",
				"standalone": false,
				"purchases": null,
				"online": false,
				"finish_date": null
			},
			"public_url": null,
			"is_open": false
		},
		{
			"id": 393,
			"business": {
				"id": 109,
				"name": "Faborit",
				"country": null,
				"description": "Cafés tés, infusiones, zumos y ensaladas, con los mejores ingredientes y en un ambiente acogedor para que disfrutes de estupendos momentos Faborit.",
				"url": "https://www.faborit.com/",
				"square_picture": "https://woowbe-dev.s3.amazonaws.com/media/pictures/square_picture_cVUk2PT.jpg",
				"widescreen_picture": "https://woowbe-dev.s3.amazonaws.com/media/pictures/1635166099.jpeg",
				"cover": "https://woowbe-dev.s3.amazonaws.com/media/covers/cover_9ZWnEMe.jpg",
				"sector": {
					"id": 38,
					"name": "Casual food",
					"icon": "https://woowbe-dev.s3.amazonaws.com/media/icons/food_hlfMlAY.svg",
					"created": "2021-10-21T19:51:53.839559Z"
				},
				"descriptive_categories": [
					{
						"id": 28,
						"name": "batidos",
						"owner": 100,
						"sector": null,
						"created": "2021-10-23T08:39:27.122811Z"
					},
					{
						"id": 39,
						"name": "ensaladas",
						"owner": null,
						"sector": null,
						"created": "2021-10-25T12:45:54.528824Z"
					},
					{
						"id": 27,
						"name": "zumos",
						"owner": null,
						"sector": null,
						"created": "2021-10-23T08:39:21.905307Z"
					}
				],
				"return_period": 0,
				"dynamic_link": "https://app.dev.woowbe.com/share/1XPf",
				"is_franchisee_of": null,
				"is_favorite": false,
				"created": "2021-10-25T12:45:57.078698Z",
				"offers_count": 0
			},
			"online": false,
			"url": null,
			"position": {
				"type": "Point",
				"coordinates": [
					-3.67636,
					40.4743926
				]
			},
			"address": "Avenida de Burgos",
			"number": "21",
			"postal_code": "28036",
			"state": "Madrid",
			"city": "Madrid",
			"merchants_count": 0,
			"modified": "2023-03-17T08:02:14.209191Z",
			"place_id": "ChIJx-brmDgpQg0R3rzqP20jWZA",
			"formatted_address": "Av. de Burgos, 21, 28036 Madrid",
			"deleted": false,
			"deleted_at": null,
			"created": "2021-10-25T12:49:36.282569Z",
			"selected_offer": {
				"reward": null,
				"reward_type": null,
				"kind": null,
				"instant": false,
				"name": "",
				"standalone": false,
				"purchases": null,
				"online": false,
				"finish_date": null
			},
			"public_url": null,
			"is_open": false
		},
		{
			"id": 392,
			"business": {
				"id": 109,
				"name": "Faborit",
				"country": null,
				"description": "Cafés tés, infusiones, zumos y ensaladas, con los mejores ingredientes y en un ambiente acogedor para que disfrutes de estupendos momentos Faborit.",
				"url": "https://www.faborit.com/",
				"square_picture": "https://woowbe-dev.s3.amazonaws.com/media/pictures/square_picture_cVUk2PT.jpg",
				"widescreen_picture": "https://woowbe-dev.s3.amazonaws.com/media/pictures/1635166099.jpeg",
				"cover": "https://woowbe-dev.s3.amazonaws.com/media/covers/cover_9ZWnEMe.jpg",
				"sector": {
					"id": 38,
					"name": "Casual food",
					"icon": "https://woowbe-dev.s3.amazonaws.com/media/icons/food_hlfMlAY.svg",
					"created": "2021-10-21T19:51:53.839559Z"
				},
				"descriptive_categories": [
					{
						"id": 28,
						"name": "batidos",
						"owner": 100,
						"sector": null,
						"created": "2021-10-23T08:39:27.122811Z"
					},
					{
						"id": 39,
						"name": "ensaladas",
						"owner": null,
						"sector": null,
						"created": "2021-10-25T12:45:54.528824Z"
					},
					{
						"id": 27,
						"name": "zumos",
						"owner": null,
						"sector": null,
						"created": "2021-10-23T08:39:21.905307Z"
					}
				],
				"return_period": 0,
				"dynamic_link": "https://app.dev.woowbe.com/share/1XPf",
				"is_franchisee_of": null,
				"is_favorite": false,
				"created": "2021-10-25T12:45:57.078698Z",
				"offers_count": 0
			},
			"online": false,
			"url": null,
			"position": {
				"type": "Point",
				"coordinates": [
					-3.691667,
					40.451667
				]
			},
			"address": "Paseo de la Castellana",
			"number": "95",
			"postal_code": "28046",
			"state": "Madrid",
			"city": "Madrid",
			"merchants_count": 0,
			"modified": "2023-03-17T08:02:14.248955Z",
			"place_id": "ChIJ6f9z3uIoQg0REnOfBsYSuXU",
			"formatted_address": "Torre Europa, P.º de la Castellana, 95, 28046 Madrid",
			"deleted": false,
			"deleted_at": null,
			"created": "2021-10-25T12:49:18.758417Z",
			"selected_offer": {
				"reward": null,
				"reward_type": null,
				"kind": null,
				"instant": false,
				"name": "",
				"standalone": false,
				"purchases": null,
				"online": false,
				"finish_date": null
			},
			"public_url": null,
			"is_open": false
		}
	]
}
