{
	"count": 579,
	"next": "https://backend.dev.woowbe.com/api/v1/points_of_sales/public/?page=41",
	"previous": "https://backend.dev.woowbe.com/api/v1/points_of_sales/public/?page=39",
	"results": [
		{
			"id": 381,
			"business": {
				"id": 107,
				"name": "Steak Burger",
				"country": null,
				"description": "Las mejores hamburguesas de Madrid y Murcia están en SteakBurger: hamburguesas gourmet de ternera y buey. Calidad a buen precio.",
				"url": "https://www.steakburger.es/nuestros-restaurantes/",
				"square_picture": "https://woowbe-dev.s3.amazonaws.com/media/pictures/square_picture_wdDt5gW.jpg",
				"widescreen_picture": "https://woowbe-dev.s3.amazonaws.com/media/pictures/1635163467.jpeg",
				"cover": "https://woowbe-dev.s3.amazonaws.com/media/covers/cover_pSQeN7T.jpg",
				"sector": {
					"id": 37,
					"name": "Restaurante temático",
					"icon": "https://woowbe-dev.s3.amazonaws.com/media/icons/toeat_T2kMSVS.svg",
					"created": "2021-10-21T14:32:58.019404Z"
				},
				"descriptive_categories": [
					{
						"id": 36,
						"name": "carne",
						"owner": null,
						"sector": null,
						"created": "2021-10-25T11:59:13.899272Z"
					},
					{
						"id": 37,
						"name": "hamburguesa",
						"owner": null,
						"sector": null,
						"created": "2021-10-25T11:59:24.358507Z"
					}
				],
				"return_period": 0,
				"dynamic_link": "https://app.dev.woowbe.com/share/w3An",
				"is_franchisee_of": null,
				"is_favorite": false,
				"created": "2021-10-25T11:59:40.482490Z",
				"offers_count": 0
			},
			"online": false,
			"url": null,
			"position": {
				"type": "Point",
				"coordinates": [
					-3.7081798,
					40.4178794
				]
			},
			"address": "Calle del Arenal",
			"number": "26",
			"postal_code": "28013",
			"state": "Madrid",
			"city": "Madrid",
			"merchants_count": 0,
			"modified": "2023-03-17T08:02:14.811771Z",
			"place_id": "ChIJXa74_XsoQg0ROaMXLUlg8bs",
			"formatted_address": "C. del Arenal, 26, 28013 Madrid",
			"deleted": false,
			"deleted_at": null,
			"created": "2021-10-25T12:06:04.490835Z",
			"selected_offer": {
				"reward": null,
				"reward_type": null,
				"kind": null,
				"instant": false,
				"name": "",
				"standalone": false,
				"purchases": null,
				"online": false,
				"finish_date": null
			},
			"public_url": null,
			"is_open": false
		},
		{
			"id": 380,
			"business": {
				"id": 107,
				"name": "Steak Burger",
				"country": null,
				"description": "Las mejores hamburguesas de Madrid y Murcia están en SteakBurger: hamburguesas gourmet de ternera y buey. Calidad a buen precio.",
				"url": "https://www.steakburger.es/nuestros-restaurantes/",
				"square_picture": "https://woowbe-dev.s3.amazonaws.com/media/pictures/square_picture_wdDt5gW.jpg",
				"widescreen_picture": "https://woowbe-dev.s3.amazonaws.com/media/pictures/1635163467.jpeg",
				"cover": "https://woowbe-dev.s3.amazonaws.com/media/covers/cover_pSQeN7T.jpg",
				"sector": {
					"id": 37,
					"name": "Restaurante temático",
					"icon": "https://woowbe-dev.s3.amazonaws.com/media/icons/toeat_T2kMSVS.svg",
					"created": "2021-10-21T14:32:58.019404Z"
				},
				"descriptive_categories": [
					{
						"id": 36,
						"name": "carne",
						"owner": null,
						"sector": null,
						"created": "2021-10-25T11:59:13.899272Z"
					},
					{
						"id": 37,
						"name": "hamburguesa",
						"owner": null,
						"sector": null,
						"created": "2021-10-25T11:59:24.358507Z"
					}
				],
				"return_period": 0,
				"dynamic_link": "https://app.dev.woowbe.com/share/w3An",
				"is_franchisee_of": null,
				"is_favorite": false,
				"created": "2021-10-25T11:59:40.482490Z",
				"offers_count": 0
			},
			"online": false,
			"url": null,
			"position": {
				"type": "Point",
				"coordinates": [
					-3.6936573,
					40.409597
				]
			},
			"address": "Calle de Atocha",
			"number": "110",
			"postal_code": "28012",
			"state": "Madrid",
			"city": "Madrid",
			"merchants_count": 0,
			"modified": "2023-03-17T08:02:14.845890Z",
			"place_id": "ChIJo4yYligmQg0Rk4bpOw15wsc",
			"formatted_address": "C. de Atocha, 110, 28012 Madrid",
			"deleted": false,
			"deleted_at": null,
			"created": "2021-10-25T12:05:47.893685Z",
			"selected_offer": {
				"reward": null,
				"reward_type": null,
				"kind": null,
				"instant": false,
				"name": "",
				"standalone": false,
				"purchases": null,
				"online": false,
				"finish_date": null
			},
			"public_url": null,
			"is_open": false
		},
		{
			"id": 379,
			"business": {
				"id": 107,
				"name": "Steak Burger",
				"country": null,
				"description": "Las mejores hamburguesas de Madrid y Murcia están en SteakBurger: hamburguesas gourmet de ternera y buey. Calidad a buen precio.",
				"url": "https://www.steakburger.es/nuestros-restaurantes/",
				"square_picture": "https://woowbe-dev.s3.amazonaws.com/media/pictures/square_picture_wdDt5gW.jpg",
				"widescreen_picture": "https://woowbe-dev.s3.amazonaws.com/media/pictures/1635163467.jpeg",
				"cover": "https://woowbe-dev.s3.amazonaws.com/media/covers/cover_pSQeN7T.jpg",
				"sector": {
					"id": 37,
					"name": "Restaurante temático",
					"icon": "https://woowbe-dev.s3.amazonaws.com/media/icons/toeat_T2kMSVS.svg",
					"created": "2021-10-21T14:32:58.019404Z"
				},
				"descriptive_categories": [
					{
						"id": 36,
						"name": "carne",
						"owner": null,
						"sector": null,
						"created": "2021-10-25T11:59:13.899272Z"
					},
					{
						"id": 37,
						"name": "hamburguesa",
						"owner": null,
						"sector": null,
						"created": "2021-10-25T11:59:24.358507Z"
					}
				],
				"return_period": 0,
				"dynamic_link": "https://app.dev.woowbe.com/share/w3An",
				"is_franchisee_of": null,
				"is_favorite": false,
				"created": "2021-10-25T11:59:40.482490Z",
				"offers_count": 0
			},
			"online": false,
			"url": null,
			"position": {
				"type": "Point",
				"coordinates": [
					-3.7025092,
					40.42944689999999
				]
			},
			"address": "Calle de Fuencarral",
			"number": "73",
			"postal_code": "28010",
			"state": "Madrid",
			"city": "Madrid",
			"merchants_count": 0,
			"modified": "2023-03-17T08:02:14.911569Z",
			"place_id": "Ei5DYWxsZSBkZSBGdWVuY2FycmFsLCA3MywgMjgwMTAgTWFkcmlkLCBFc3Bhw7FhIlASTgo0CjIJXRXxDIooQg0Ren-JdNqUnUgaHgsQ7sHuoQEaFAoSCZmtyZmMKEINEVCrizP3QAMcDBBJKhQKEglRzWHciShCDREvVaDmj3GHfQ",
			"formatted_address": "Calle de Fuencarral, 73, 28010 Madrid",
			"deleted": false,
			"deleted_at": null,
			"created": "2021-10-25T12:05:32.628628Z",
			"selected_offer": {
				"reward": null,
				"reward_type": null,
				"kind": null,
				"instant": false,
				"name": "",
				"standalone": false,
				"purchases": null,
				"online": false,
				"finish_date": null
			},
			"public_url": null,
			"is_open": false
		},
		{
			"id": 378,
			"business": {
				"id": 107,
				"name": "Steak Burger",
				"country": null,
				"description": "Las mejores hamburguesas de Madrid y Murcia están en SteakBurger: hamburguesas gourmet de ternera y buey. Calidad a buen precio.",
				"url": "https://www.steakburger.es/nuestros-restaurantes/",
				"square_picture": "https://woowbe-dev.s3.amazonaws.com/media/pictures/square_picture_wdDt5gW.jpg",
				"widescreen_picture": "https://woowbe-dev.s3.amazonaws.com/media/pictures/1635163467.jpeg",
				"cover": "https://woowbe-dev.s3.amazonaws.com/media/covers/cover_pSQeN7T.jpg",
				"sector": {
					"id": 37,
					"name": "Restaurante temático",
					"icon": "https://woowbe-dev.s3.amazonaws.com/media/icons/toeat_T2kMSVS.svg",
					"created": "2021-10-21T14:32:58.019404Z"
				},
				"descriptive_categories": [
					{
						"id": 36,
						"name": "carne",
						"owner": null,
						"sector": null,
						"created": "2021-10-25T11:59:13.899272Z"
					},
					{
						"id": 37,
						"name": "hamburguesa",
						"owner": null,
						"sector": null,
						"created": "2021-10-25T11:59:24.358507Z"
					}
				],
				"return_period": 0,
				"dynamic_link": "https://app.dev.woowbe.com/share/w3An",
				"is_franchisee_of": null,
				"is_favorite": false,
				"created": "2021-10-25T11:59:40.482490Z",
				"offers_count": 0
			},
			"online": false,
			"url": null,
			"position": {
				"type": "Point",
				"coordinates": [
					-3.7072621,
					40.4198118
				]
			},
			"address": "Calle de Preciados",
			"number": "42",
			"postal_code": "28013",
			"state": "Madrid",
			"city": "Madrid",
			"merchants_count": 0,
			"modified": "2023-03-17T08:02:14.963370Z",
			"place_id": "ChIJhes3ZXwoQg0R9J0WQa372bE",
			"formatted_address": "C. de Preciados, 42, 28013 Madrid",
			"deleted": false,
			"deleted_at": null,
			"created": "2021-10-25T12:05:15.675507Z",
			"selected_offer": {
				"reward": null,
				"reward_type": null,
				"kind": null,
				"instant": false,
				"name": "",
				"standalone": false,
				"purchases": null,
				"online": false,
				"finish_date": null
			},
			"public_url": null,
			"is_open": false
		},
		{
			"id": 377,
			"business": {
				"id": 107,
				"name": "Steak Burger",
				"country": null,
				"description": "Las mejores hamburguesas de Madrid y Murcia están en SteakBurger: hamburguesas gourmet de ternera y buey. Calidad a buen precio.",
				"url": "https://www.steakburger.es/nuestros-restaurantes/",
				"square_picture": "https://woowbe-dev.s3.amazonaws.com/media/pictures/square_picture_wdDt5gW.jpg",
				"widescreen_picture": "https://woowbe-dev.s3.amazonaws.com/media/pictures/1635163467.jpeg",
				"cover": "https://woowbe-dev.s3.amazonaws.com/media/covers/cover_pSQeN7T.jpg",
				"sector": {
					"id": 37,
					"name": "Restaurante temático",
					"icon": "https://woowbe-dev.s3.amazonaws.com/media/icons/toeat_T2kMSVS.svg",
					"created": "2021-10-21T14:32:58.019404Z"
				},
				"descriptive_categories": [
					{
						"id": 36,
						"name": "carne",
						"owner": null,
						"sector": null,
						"created": "2021-10-25T11:59:13.899272Z"
					},
					{
						"id": 37,
						"name": "hamburguesa",
						"owner": null,
						"sector": null,
						"created": "2021-10-25T11:59:24.358507Z"
					}
				],
				"return_period": 0,
				"dynamic_link": "https://app.dev.woowbe.com/share/w3An",
				"is_franchisee_of": null,
				"is_favorite": false,
				"created": "2021-10-25T11:59:40.482490Z",
				"offers_count": 0
			},
			"online": false,
			"url": null,
			"position": {
				"type": "Point",
				"coordinates": [
					-3.6993808,
					40.4198527
				]
			},
			"address": "Calle Gran Vía",
			"number": "16",
			"postal_code": "28013",
			"state": "Madrid",
			"city": "Madrid",
			"merchants_count": 0,
			"modified": "2023-03-17T08:02:15.203394Z",
			"place_id": "ChIJI2iC7oYoQg0Rs8Qv_qEtE9A",
			"formatted_address": "C/ Gran Vía, 16, 28013 Madrid",
			"deleted": false,
			"deleted_at": null,
			"created": "2021-10-25T12:04:44.883445Z",
			"selected_offer": {
				"reward": null,
				"reward_type": null,
				"kind": null,
				"instant": false,
				"name": "",
				"standalone": false,
				"purchases": null,
				"online": false,
				"finish_date": null
			},
			"public_url": null,
			"is_open": false
		},
		{
			"id": 376,
			"business": {
				"id": 106,
				"name": "Lateral",
				"country": null,
				"description": "Lateral es un concepto de restaurantes diferente que combina las recetas más tradicionales con creaciones vanguardistas.",
				"url": "https://www.lateral.com/",
				"square_picture": "https://woowbe-dev.s3.amazonaws.com/media/pictures/square_picture_Dw0X61I.jpg",
				"widescreen_picture": "https://woowbe-dev.s3.amazonaws.com/media/pictures/1635151647.jpeg",
				"cover": "https://woowbe-dev.s3.amazonaws.com/media/covers/cover_e0g2OVc.jpg",
				"sector": {
					"id": 38,
					"name": "Casual food",
					"icon": "https://woowbe-dev.s3.amazonaws.com/media/icons/food_hlfMlAY.svg",
					"created": "2021-10-21T19:51:53.839559Z"
				},
				"descriptive_categories": [],
				"return_period": 0,
				"dynamic_link": "https://app.dev.woowbe.com/share/SesU",
				"is_franchisee_of": null,
				"is_favorite": false,
				"created": "2021-10-25T08:38:22.315729Z",
				"offers_count": 0
			},
			"online": false,
			"url": null,
			"position": {
				"type": "Point",
				"coordinates": [
					-3.8010518,
					40.4334983
				]
			},
			"address": "Calle Mónaco",
			"number": "1",
			"postal_code": "28224",
			"state": "Madrid",
			"city": "Pozuelo de Alarcón",
			"merchants_count": 0,
			"modified": "2023-03-17T08:02:15.317413Z",
			"place_id": "EjlDLiBNw7NuYWNvLCAxLCAyODIyNCBQb3p1ZWxvIGRlIEFsYXJjw7NuLCBNYWRyaWQsIEVzcGHDsWEiUBJOCjQKMglFbB4YQYZBDRHnwVQdiLeVzBoeCxDuwe6hARoUChIJG5617l6GQQ0RcLOLM_dAAxwMEAEqFAoSCQsXQRVBhkENEZ_Rf6GzjTV4",
			"formatted_address": "C. Mónaco, 1, 28224 Pozuelo de Alarcón, Madrid",
			"deleted": false,
			"deleted_at": null,
			"created": "2021-10-25T08:56:03.522075Z",
			"selected_offer": {
				"reward": null,
				"reward_type": null,
				"kind": null,
				"instant": false,
				"name": "",
				"standalone": false,
				"purchases": null,
				"online": false,
				"finish_date": null
			},
			"public_url": null,
			"is_open": false
		},
		{
			"id": 375,
			"business": {
				"id": 106,
				"name": "Lateral",
				"country": null,
				"description": "Lateral es un concepto de restaurantes diferente que combina las recetas más tradicionales con creaciones vanguardistas.",
				"url": "https://www.lateral.com/",
				"square_picture": "https://woowbe-dev.s3.amazonaws.com/media/pictures/square_picture_Dw0X61I.jpg",
				"widescreen_picture": "https://woowbe-dev.s3.amazonaws.com/media/pictures/1635151647.jpeg",
				"cover": "https://woowbe-dev.s3.amazonaws.com/media/covers/cover_e0g2OVc.jpg",
				"sector": {
					"id": 38,
					"name": "Casual food",
					"icon": "https://woowbe-dev.s3.amazonaws.com/media/icons/food_hlfMlAY.svg",
					"created": "2021-10-21T19:51:53.839559Z"
				},
				"descriptive_categories": [],
				"return_period": 0,
				"dynamic_link": "https://app.dev.woowbe.com/share/SesU",
				"is_franchisee_of": null,
				"is_favorite": false,
				"created": "2021-10-25T08:38:22.315729Z",
				"offers_count": 0
			},
			"online": false,
			"url": null,
			"position": {
				"type": "Point",
				"coordinates": [
					-3.6849321,
					40.4456001
				]
			},
			"address": "Plaza de la República Argentina",
			"number": "7",
			"postal_code": "28002",
			"state": "Madrid",
			"city": "Madrid",
			"merchants_count": 0,
			"modified": "2023-03-17T08:02:15.502281Z",
			"place_id": "ChIJA2uHtOcoQg0R-ANyBzhA4Hg",
			"formatted_address": "Pl. de la República Argentina, 7, 28002 Madrid",
			"deleted": false,
			"deleted_at": null,
			"created": "2021-10-25T08:55:47.824952Z",
			"selected_offer": {
				"reward": null,
				"reward_type": null,
				"kind": null,
				"instant": false,
				"name": "",
				"standalone": false,
				"purchases": null,
				"online": false,
				"finish_date": null
			},
			"public_url": null,
			"is_open": false
		},
		{
			"id": 374,
			"business": {
				"id": 106,
				"name": "Lateral",
				"country": null,
				"description": "Lateral es un concepto de restaurantes diferente que combina las recetas más tradicionales con creaciones vanguardistas.",
				"url": "https://www.lateral.com/",
				"square_picture": "https://woowbe-dev.s3.amazonaws.com/media/pictures/square_picture_Dw0X61I.jpg",
				"widescreen_picture": "https://woowbe-dev.s3.amazonaws.com/media/pictures/1635151647.jpeg",
				"cover": "https://woowbe-dev.s3.amazonaws.com/media/covers/cover_e0g2OVc.jpg",
				"sector": {
					"id": 38,
					"name": "Casual food",
					"icon": "https://woowbe-dev.s3.amazonaws.com/media/icons/food_hlfMlAY.svg",
					"created": "2021-10-21T19:51:53.839559Z"
				},
				"descriptive_categories": [],
				"return_period": 0,
				"dynamic_link": "https://app.dev.woowbe.com/share/SesU",
				"is_franchisee_of": null,
				"is_favorite": false,
				"created": "2021-10-25T08:38:22.315729Z",
				"offers_count": 0
			},
			"online": false,
			"url": null,
			"position": {
				"type": "Point",
				"coordinates": [
					-3.6509745,
					40.4497368
				]
			},
			"address": "Calle de Arturo Soria",
			"number": "126",
			"postal_code": "28043",
			"state": "Madrid",
			"city": "Madrid",
			"merchants_count": 0,
			"modified": "2023-03-17T08:02:15.598820Z",
			"place_id": "EjJDLiBkZSBBcnR1cm8gU29yaWEsIDEyNi0xMjgsIDI4MDQzIE1hZHJpZCwgRXNwYcOxYSJQEk4KNAoyCZ-6KuYlL0INEXZN8DqKnHPKGh4LEO7B7qEBGhQKEgn3TRWR4C5CDRFwrYsz90ADHAwQfioUChIJi1n_tdAuQg0RsOuerHawJYw",
			"formatted_address": "C. de Arturo Soria, 126, 28043 Madrid",
			"deleted": false,
			"deleted_at": null,
			"created": "2021-10-25T08:55:31.626202Z",
			"selected_offer": {
				"reward": null,
				"reward_type": null,
				"kind": null,
				"instant": false,
				"name": "",
				"standalone": false,
				"purchases": null,
				"online": false,
				"finish_date": null
			},
			"public_url": null,
			"is_open": false
		},
		{
			"id": 373,
			"business": {
				"id": 106,
				"name": "Lateral",
				"country": null,
				"description": "Lateral es un concepto de restaurantes diferente que combina las recetas más tradicionales con creaciones vanguardistas.",
				"url": "https://www.lateral.com/",
				"square_picture": "https://woowbe-dev.s3.amazonaws.com/media/pictures/square_picture_Dw0X61I.jpg",
				"widescreen_picture": "https://woowbe-dev.s3.amazonaws.com/media/pictures/1635151647.jpeg",
				"cover": "https://woowbe-dev.s3.amazonaws.com/media/covers/cover_e0g2OVc.jpg",
				"sector": {
					"id": 38,
					"name": "Casual food",
					"icon": "https://woowbe-dev.s3.amazonaws.com/media/icons/food_hlfMlAY.svg",
					"created": "2021-10-21T19:51:53.839559Z"
				},
				"descriptive_categories": [],
				"return_period": 0,
				"dynamic_link": "https://app.dev.woowbe.com/share/SesU",
				"is_franchisee_of": null,
				"is_favorite": false,
				"created": "2021-10-25T08:38:22.315729Z",
				"offers_count": 0
			},
			"online": false,
			"url": null,
			"position": {
				"type": "Point",
				"coordinates": [
					-3.7011201,
					40.4143617
				]
			},
			"address": "Plaza de Santa Ana",
			"number": "12",
			"postal_code": "28012",
			"state": "Madrid",
			"city": "Madrid",
			"merchants_count": 0,
			"modified": "2023-03-17T08:02:15.810804Z",
			"place_id": "ChIJO5GFR4AoQg0R9IQJeQ-MerI",
			"formatted_address": "Plaza de Sta. Ana, 12, 28012 Madrid",
			"deleted": false,
			"deleted_at": null,
			"created": "2021-10-25T08:55:15.424637Z",
			"selected_offer": {
				"reward": null,
				"reward_type": null,
				"kind": null,
				"instant": false,
				"name": "",
				"standalone": false,
				"purchases": null,
				"online": false,
				"finish_date": null
			},
			"public_url": null,
			"is_open": false
		},
		{
			"id": 372,
			"business": {
				"id": 106,
				"name": "Lateral",
				"country": null,
				"description": "Lateral es un concepto de restaurantes diferente que combina las recetas más tradicionales con creaciones vanguardistas.",
				"url": "https://www.lateral.com/",
				"square_picture": "https://woowbe-dev.s3.amazonaws.com/media/pictures/square_picture_Dw0X61I.jpg",
				"widescreen_picture": "https://woowbe-dev.s3.amazonaws.com/media/pictures/1635151647.jpeg",
				"cover": "https://woowbe-dev.s3.amazonaws.com/media/covers/cover_e0g2OVc.jpg",
				"sector": {
					"id": 38,
					"name": "Casual food",
					"icon": "https://woowbe-dev.s3.amazonaws.com/media/icons/food_hlfMlAY.svg",
					"created": "2021-10-21T19:51:53.839559Z"
				},
				"descriptive_categories": [],
				"return_period": 0,
				"dynamic_link": "https://app.dev.woowbe.com/share/SesU",
				"is_franchisee_of": null,
				"is_favorite": false,
				"created": "2021-10-25T08:38:22.315729Z",
				"offers_count": 0
			},
			"online": false,
			"url": null,
			"position": {
				"type": "Point",
				"coordinates": [
					-3.6995366,
					40.4373773
				]
			},
			"address": "Calle de Ponzano",
			"number": "1",
			"postal_code": "28010",
			"state": "Madrid",
			"city": "Madrid",
			"merchants_count": 0,
			"modified": "2023-03-17T08:02:15.911683Z",
			"place_id": "ChIJ7WUOOfQoQg0RuE-TbHvN98I",
			"formatted_address": "C. de Ponzano, 1, 28010 Madrid",
			"deleted": false,
			"deleted_at": null,
			"created": "2021-10-25T08:55:00.443351Z",
			"selected_offer": {
				"reward": null,
				"reward_type": null,
				"kind": null,
				"instant": false,
				"name": "",
				"standalone": false,
				"purchases": null,
				"online": false,
				"finish_date": null
			},
			"public_url": null,
			"is_open": false
		}
	]
}
