{"count":579,"next":"https://backend.dev.woowbe.com/api/v1/points_of_sales/public/?page=44","previous":"https://backend.dev.woowbe.com/api/v1/points_of_sales/public/?page=42","results":[{"id":351,"business":{"id":104,"name":"Subway","country":null,"description":"Subway IP Inc. es una cadena de restaurantes de comida rápida estadounidense especializada en la elaboración de sándwich submarino y bocadillos, ensaladas y pizza por ración. Su sede central se encuentra en Milford. Se encuentra en la tercera posición a nivel de negocios, por detrás de McDonald's y KFC.​","url":"https://subwayspain.com/es/","square_picture":"https://woowbe-dev.s3.amazonaws.com/media/pictures/square_picture_ZDYBoWe.jpg","widescreen_picture":"https://woowbe-dev.s3.amazonaws.com/media/pictures/1635148401.jpeg","cover":"https://woowbe-dev.s3.amazonaws.com/media/covers/cover_bpjdx7E.jpg","sector":{"id":3,"name":"Fast Food","icon":"https://woowbe-dev.s3.amazonaws.com/media/icons/food_TPGNuc7.svg","created":"2021-05-25T10:47:39.210359Z"},"descriptive_categories":[{"id":32,"name":"bocadillo","owner":null,"sector":null,"created":"2021-10-25T07:50:16.230899Z"},{"id":31,"name":"sandwich","owner":null,"sector":null,"created":"2021-10-25T07:50:09.597799Z"}],"return_period":0,"dynamic_link":"https://app.dev.woowbe.com/share/UQmb","is_franchisee_of":null,"is_favorite":false,"created":"2021-10-25T07:50:19.935271Z","offers_count":1},"online":false,"url":null,"position":{"type":"Point","coordinates":[-3.5743632,40.4754558]},"address":"Avenida de la Hispanidad","number":"s/n","postal_code":"28042","state":"Madrid","city":"Madrid","merchants_count":0,"modified":"2023-03-17T08:02:17.810817Z","place_id":"ChIJj_RWrd0xQg0RgD523hq0rKg","formatted_address":"Av de la Hispanidad, s/n, 28042 Madrid","deleted":false,"deleted_at":null,"created":"2021-10-25T07:56:53.817628Z","selected_offer":{"id":196,"reward":"3.00","reward_type":"fixed","kind":"B","instant":false,"name":"3€ por tus menus sandwich","standalone":false,"purchases":null,"online":false,"applicable":false,"available_percentage":1,"available_rewards":0,"is_used":false,"finish_date":null},"public_url":null,"is_open":false},{"id":350,"business":{"id":104,"name":"Subway","country":null,"description":"Subway IP Inc. es una cadena de restaurantes de comida rápida estadounidense especializada en la elaboración de sándwich submarino y bocadillos, ensaladas y pizza por ración. Su sede central se encuentra en Milford. Se encuentra en la tercera posición a nivel de negocios, por detrás de McDonald's y KFC.​","url":"https://subwayspain.com/es/","square_picture":"https://woowbe-dev.s3.amazonaws.com/media/pictures/square_picture_ZDYBoWe.jpg","widescreen_picture":"https://woowbe-dev.s3.amazonaws.com/media/pictures/1635148401.jpeg","cover":"https://woowbe-dev.s3.amazonaws.com/media/covers/cover_bpjdx7E.jpg","sector":{"id":3,"name":"Fast Food","icon":"https://woowbe-dev.s3.amazonaws.com/media/icons/food_TPGNuc7.svg","created":"2021-05-25T10:47:39.210359Z"},"descriptive_categories":[{"id":32,"name":"bocadillo","owner":null,"sector":null,"created":"2021-10-25T07:50:16.230899Z"},{"id":31,"name":"sandwich","owner":null,"sector":null,"created":"2021-10-25T07:50:09.597799Z"}],"return_period":0,"dynamic_link":"https://app.dev.woowbe.com/share/UQmb","is_franchisee_of":null,"is_favorite":false,"created":"2021-10-25T07:50:19.935271Z","offers_count":1},"online":false,"url":null,"position":{"type":"Point","coordinates":[-3.7128763,40.442165]},"address":"Paseo de San Francisco de Sales","number":"38","postal_code":"28003","state":"Madrid","city":"Madrid","merchants_count":0,"modified":"2023-03-17T08:02:17.850846Z","place_id":"ChIJ8cKDs1ooQg0RGqjhNOYOdv4","formatted_address":"Paseo de S. Fco. de Sales, 38, 28003 Madrid","deleted":false,"deleted_at":null,"created":"2021-10-25T07:56:37.795247Z","selected_offer":{"id":196,"reward":"3.00","reward_type":"fixed","kind":"B","instant":false,"name":"3€ por tus menus sandwich","standalone":false,"purchases":null,"online":false,"applicable":false,"available_percentage":1,"available_rewards":0,"is_used":false,"finish_date":null},"public_url":null,"is_open":false},{"id":349,"business":{"id":104,"name":"Subway","country":null,"description":"Subway IP Inc. es una cadena de restaurantes de comida rápida estadounidense especializada en la elaboración de sándwich submarino y bocadillos, ensaladas y pizza por ración. Su sede central se encuentra en Milford. Se encuentra en la tercera posición a nivel de negocios, por detrás de McDonald's y KFC.​","url":"https://subwayspain.com/es/","square_picture":"https://woowbe-dev.s3.amazonaws.com/media/pictures/square_picture_ZDYBoWe.jpg","widescreen_picture":"https://woowbe-dev.s3.amazonaws.com/media/pictures/1635148401.jpeg","cover":"https://woowbe-dev.s3.amazonaws.com/media/covers/cover_bpjdx7E.jpg","sector":{"id":3,"name":"Fast Food","icon":"https://woowbe-dev.s3.amazonaws.com/media/icons/food_TPGNuc7.svg","created":"2021-05-25T10:47:39.210359Z"},"descriptive_categories":[{"id":32,"name":"bocadillo","owner":null,"sector":null,"created":"2021-10-25T07:50:16.230899Z"},{"id":31,"name":"sandwich","owner":null,"sector":null,"created":"2021-10-25T07:50:09.597799Z"}],"return_period":0,"dynamic_link":"https://app.dev.woowbe.com/share/UQmb","is_franchisee_of":null,"is_favorite":false,"created":"2021-10-25T07:50:19.935271Z","offers_count":1},"online":false,"url":null,"position":{"type":"Point","coordinates":[-3.7037525,40.4457523]},"address":"Calle de Bravo Murillo","number":"92","postal_code":"28003","state":"Madrid","city":"Madrid","merchants_count":0,"modified":"2023-03-17T08:02:17.883421Z","place_id":"ChIJE8hTzFcoQg0RXRAvEAzJkqI","formatted_address":"C. de Bravo Murillo, 92, 28003 Madrid","deleted":false,"deleted_at":null,"created":"2021-10-25T07:56:22.269623Z","selected_offer":{"id":196,"reward":"3.00","reward_type":"fixed","kind":"B","instant":false,"name":"3€ por tus menus sandwich","standalone":false,"purchases":null,"online":false,"applicable":false,"available_percentage":1,"available_rewards":0,"is_used":false,"finish_date":null},"public_url":null,"is_open":false},{"id":348,"business":{"id":104,"name":"Subway","country":null,"description":"Subway IP Inc. es una cadena de restaurantes de comida rápida estadounidense especializada en la elaboración de sándwich submarino y bocadillos, ensaladas y pizza por ración. Su sede central se encuentra en Milford. Se encuentra en la tercera posición a nivel de negocios, por detrás de McDonald's y KFC.​","url":"https://subwayspain.com/es/","square_picture":"https://woowbe-dev.s3.amazonaws.com/media/pictures/square_picture_ZDYBoWe.jpg","widescreen_picture":"https://woowbe-dev.s3.amazonaws.com/media/pictures/1635148401.jpeg","cover":"https://woowbe-dev.s3.amazonaws.com/media/covers/cover_bpjdx7E.jpg","sector":{"id":3,"name":"Fast Food","icon":"https://woowbe-dev.s3.amazonaws.com/media/icons/food_TPGNuc7.svg","created":"2021-05-25T10:47:39.210359Z"},"descriptive_categories":[{"id":32,"name":"bocadillo","owner":null,"sector":null,"created":"2021-10-25T07:50:16.230899Z"},{"id":31,"name":"sandwich","owner":null,"sector":null,"created":"2021-10-25T07:50:09.597799Z"}],"return_period":0,"dynamic_link":"https://app.dev.woowbe.com/share/UQmb","is_franchisee_of":null,"is_favorite":false,"created":"2021-10-25T07:50:19.935271Z","offers_count":1},"online":false,"url":null,"position":{"type":"Point","coordinates":[-3.6348247,40.4752344]},"address":"Calle Vía de los Poblados","number":"3","postal_code":"28033","state":"Madrid","city":"Madrid","merchants_count":0,"modified":"2023-03-17T08:02:17.930110Z","place_id":"ChIJvxYytuwuQg0RFswNKqKb280","formatted_address":"C. Vía de los Poblados, 3, 28033 Madrid","deleted":false,"deleted_at":null,"created":"2021-10-25T07:56:06.998747Z","selected_offer":{"id":196,"reward":"3.00","reward_type":"fixed","kind":"B","instant":false,"name":"3€ por tus menus sandwich","standalone":false,"purchases":null,"online":false,"applicable":false,"available_percentage":1,"available_rewards":0,"is_used":false,"finish_date":null},"public_url":null,"is_open":false},{"id":347,"business":{"id":104,"name":"Subway","country":null,"description":"Subway IP Inc. es una cadena de restaurantes de comida rápida estadounidense especializada en la elaboración de sándwich submarino y bocadillos, ensaladas y pizza por ración. Su sede central se encuentra en Milford. Se encuentra en la tercera posición a nivel de negocios, por detrás de McDonald's y KFC.​","url":"https://subwayspain.com/es/","square_picture":"https://woowbe-dev.s3.amazonaws.com/media/pictures/square_picture_ZDYBoWe.jpg","widescreen_picture":"https://woowbe-dev.s3.amazonaws.com/media/pictures/1635148401.jpeg","cover":"https://woowbe-dev.s3.amazonaws.com/media/covers/cover_bpjdx7E.jpg","sector":{"id":3,"name":"Fast Food","icon":"https://woowbe-dev.s3.amazonaws.com/media/icons/food_TPGNuc7.svg","created":"2021-05-25T10:47:39.210359Z"},"descriptive_categories":[{"id":32,"name":"bocadillo","owner":null,"sector":null,"created":"2021-10-25T07:50:16.230899Z"},{"id":31,"name":"sandwich","owner":null,"sector":null,"created":"2021-10-25T07:50:09.597799Z"}],"return_period":0,"dynamic_link":"https://app.dev.woowbe.com/share/UQmb","is_franchisee_of":null,"is_favorite":false,"created":"2021-10-25T07:50:19.935271Z","offers_count":1},"online":false,"url":null,"position":{"type":"Point","coordinates":[-3.6996226,40.4224918]},"address":"Calle de Hortaleza","number":"37","postal_code":"28004","state":"Madrid","city":"Madrid","merchants_count":0,"modified":"2023-03-17T08:02:17.961124Z","place_id":"ChIJ2_5hOoYoQg0RdnrIJ0ytHXU","formatted_address":"C. de Hortaleza, 37, 28004 Madrid","deleted":false,"deleted_at":null,"created":"2021-10-25T07:55:52.915639Z","selected_offer":{"id":196,"reward":"3.00","reward_type":"fixed","kind":"B","instant":false,"name":"3€ por tus menus sandwich","standalone":false,"purchases":null,"online":false,"applicable":false,"available_percentage":1,"available_rewards":0,"is_used":false,"finish_date":null},"public_url":null,"is_open":false},{"id":346,"business":{"id":104,"name":"Subway","country":null,"description":"Subway IP Inc. es una cadena de restaurantes de comida rápida estadounidense especializada en la elaboración de sándwich submarino y bocadillos, ensaladas y pizza por ración. Su sede central se encuentra en Milford. Se encuentra en la tercera posición a nivel de negocios, por detrás de McDonald's y KFC.​","url":"https://subwayspain.com/es/","square_picture":"https://woowbe-dev.s3.amazonaws.com/media/pictures/square_picture_ZDYBoWe.jpg","widescreen_picture":"https://woowbe-dev.s3.amazonaws.com/media/pictures/1635148401.jpeg","cover":"https://woowbe-dev.s3.amazonaws.com/media/covers/cover_bpjdx7E.jpg","sector":{"id":3,"name":"Fast Food","icon":"https://woowbe-dev.s3.amazonaws.com/media/icons/food_TPGNuc7.svg","created":"2021-05-25T10:47:39.210359Z"},"descriptive_categories":[{"id":32,"name":"bocadillo","owner":null,"sector":null,"created":"2021-10-25T07:50:16.230899Z"},{"id":31,"name":"sandwich","owner":null,"sector":null,"created":"2021-10-25T07:50:09.597799Z"}],"return_period":0,"dynamic_link":"https://app.dev.woowbe.com/share/UQmb","is_franchisee_of":null,"is_favorite":false,"created":"2021-10-25T07:50:19.935271Z","offers_count":1},"online":false,"url":null,"position":{"type":"Point","coordinates":[-3.7178405,40.4340094]},"address":"Calle Arcipreste de Hita","number":"","postal_code":"28015","state":"Madrid","city":"Madrid","merchants_count":0,"modified":"2023-03-17T08:02:17.991891Z","place_id":"EixDLiBBcmNpcHJlc3RlIGRlIEhpdGEsIDI4MDE1IE1hZHJpZCwgRXNwYcOxYSIuKiwKFAoSCdc9zhhCKEINEQ0Qa2ssAz_bEhQKEgm7Kz0zZihCDREwrosz90ADHA","formatted_address":"C. Arcipreste de Hita, 28015 Madrid","deleted":false,"deleted_at":null,"created":"2021-10-25T07:55:29.441010Z","selected_offer":{"id":196,"reward":"3.00","reward_type":"fixed","kind":"B","instant":false,"name":"3€ por tus menus sandwich","standalone":false,"purchases":null,"online":false,"applicable":false,"available_percentage":1,"available_rewards":0,"is_used":false,"finish_date":null},"public_url":null,"is_open":false},{"id":345,"business":{"id":104,"name":"Subway","country":null,"description":"Subway IP Inc. es una cadena de restaurantes de comida rápida estadounidense especializada en la elaboración de sándwich submarino y bocadillos, ensaladas y pizza por ración. Su sede central se encuentra en Milford. Se encuentra en la tercera posición a nivel de negocios, por detrás de McDonald's y KFC.​","url":"https://subwayspain.com/es/","square_picture":"https://woowbe-dev.s3.amazonaws.com/media/pictures/square_picture_ZDYBoWe.jpg","widescreen_picture":"https://woowbe-dev.s3.amazonaws.com/media/pictures/1635148401.jpeg","cover":"https://woowbe-dev.s3.amazonaws.com/media/covers/cover_bpjdx7E.jpg","sector":{"id":3,"name":"Fast Food","icon":"https://woowbe-dev.s3.amazonaws.com/media/icons/food_TPGNuc7.svg","created":"2021-05-25T10:47:39.210359Z"},"descriptive_categories":[{"id":32,"name":"bocadillo","owner":null,"sector":null,"created":"2021-10-25T07:50:16.230899Z"},{"id":31,"name":"sandwich","owner":null,"sector":null,"created":"2021-10-25T07:50:09.597799Z"}],"return_period":0,"dynamic_link":"https://app.dev.woowbe.com/share/UQmb","is_franchisee_of":null,"is_favorite":false,"created":"2021-10-25T07:50:19.935271Z","offers_count":1},"online":false,"url":null,"position":{"type":"Point","coordinates":[-3.6925385,40.4262704]},"address":"Calle de Génova","number":"25","postal_code":"28004","state":"Madrid","city":"Madrid","merchants_count":0,"modified":"2023-03-17T08:02:18.101752Z","place_id":"ChIJg4cq1JEoQg0R3oTzoOrct5Y","formatted_address":"Calle de Génova, 25, 28004 Madrid","deleted":false,"deleted_at":null,"created":"2021-10-25T07:55:10.518634Z","selected_offer":{"id":196,"reward":"3.00","reward_type":"fixed","kind":"B","instant":false,"name":"3€ por tus menus sandwich","standalone":false,"purchases":null,"online":false,"applicable":false,"available_percentage":1,"available_rewards":0,"is_used":false,"finish_date":null},"public_url":null,"is_open":false},{"id":344,"business":{"id":104,"name":"Subway","country":null,"description":"Subway IP Inc. es una cadena de restaurantes de comida rápida estadounidense especializada en la elaboración de sándwich submarino y bocadillos, ensaladas y pizza por ración. Su sede central se encuentra en Milford. Se encuentra en la tercera posición a nivel de negocios, por detrás de McDonald's y KFC.​","url":"https://subwayspain.com/es/","square_picture":"https://woowbe-dev.s3.amazonaws.com/media/pictures/square_picture_ZDYBoWe.jpg","widescreen_picture":"https://woowbe-dev.s3.amazonaws.com/media/pictures/1635148401.jpeg","cover":"https://woowbe-dev.s3.amazonaws.com/media/covers/cover_bpjdx7E.jpg","sector":{"id":3,"name":"Fast Food","icon":"https://woowbe-dev.s3.amazonaws.com/media/icons/food_TPGNuc7.svg","created":"2021-05-25T10:47:39.210359Z"},"descriptive_categories":[{"id":32,"name":"bocadillo","owner":null,"sector":null,"created":"2021-10-25T07:50:16.230899Z"},{"id":31,"name":"sandwich","owner":null,"sector":null,"created":"2021-10-25T07:50:09.597799Z"}],"return_period":0,"dynamic_link":"https://app.dev.woowbe.com/share/UQmb","is_franchisee_of":null,"is_favorite":false,"created":"2021-10-25T07:50:19.935271Z","offers_count":1},"online":false,"url":null,"position":{"type":"Point","coordinates":[-3.7037542,40.4457524]},"address":"Calle de Bravo Murillo","number":"92","postal_code":"28003","state":"Madrid","city":"Madrid","merchants_count":0,"modified":"2023-03-17T08:02:18.214557Z","place_id":"Ei5DLiBkZSBCcmF2byBNdXJpbGxvLCA5MiwgMjgwMDMgTWFkcmlkLCBFc3Bhw7FhIlASTgo0CjIJp5gGy1coQg0RHZ7KMB9_20waHgsQ7sHuoQEaFAoSCVdKC81ZKEINEZCrizP3QAMcDBBcKhQKEglB-4mi_ihCDREZXUVcwKUCVQ","formatted_address":"C. de Bravo Murillo, 92, 28003 Madrid","deleted":false,"deleted_at":null,"created":"2021-10-25T07:54:55.144928Z","selected_offer":{"id":196,"reward":"3.00","reward_type":"fixed","kind":"B","instant":false,"name":"3€ por tus menus sandwich","standalone":false,"purchases":null,"online":false,"applicable":false,"available_percentage":1,"available_rewards":0,"is_used":false,"finish_date":null},"public_url":null,"is_open":false},{"id":343,"business":{"id":104,"name":"Subway","country":null,"description":"Subway IP Inc. es una cadena de restaurantes de comida rápida estadounidense especializada en la elaboración de sándwich submarino y bocadillos, ensaladas y pizza por ración. Su sede central se encuentra en Milford. Se encuentra en la tercera posición a nivel de negocios, por detrás de McDonald's y KFC.​","url":"https://subwayspain.com/es/","square_picture":"https://woowbe-dev.s3.amazonaws.com/media/pictures/square_picture_ZDYBoWe.jpg","widescreen_picture":"https://woowbe-dev.s3.amazonaws.com/media/pictures/1635148401.jpeg","cover":"https://woowbe-dev.s3.amazonaws.com/media/covers/cover_bpjdx7E.jpg","sector":{"id":3,"name":"Fast Food","icon":"https://woowbe-dev.s3.amazonaws.com/media/icons/food_TPGNuc7.svg","created":"2021-05-25T10:47:39.210359Z"},"descriptive_categories":[{"id":32,"name":"bocadillo","owner":null,"sector":null,"created":"2021-10-25T07:50:16.230899Z"},{"id":31,"name":"sandwich","owner":null,"sector":null,"created":"2021-10-25T07:50:09.597799Z"}],"return_period":0,"dynamic_link":"https://app.dev.woowbe.com/share/UQmb","is_franchisee_of":null,"is_favorite":false,"created":"2021-10-25T07:50:19.935271Z","offers_count":1},"online":false,"url":null,"position":{"type":"Point","coordinates":[-3.6911102,40.4199094]},"address":"Calle de Alcalá","number":"61","postal_code":"28014","state":"Madrid","city":"Madrid","merchants_count":0,"modified":"2023-03-17T08:02:18.338838Z","place_id":"ChIJ3SAMFJsoQg0RKJ8iy53uT1s","formatted_address":"C. de Alcalá, 61, 28014 Madrid","deleted":false,"deleted_at":null,"created":"2021-10-25T07:54:40.170640Z","selected_offer":{"id":196,"reward":"3.00","reward_type":"fixed","kind":"B","instant":false,"name":"3€ por tus menus sandwich","standalone":false,"purchases":null,"online":false,"applicable":false,"available_percentage":1,"available_rewards":0,"is_used":false,"finish_date":null},"public_url":null,"is_open":false},{"id":342,"business":{"id":104,"name":"Subway","country":null,"description":"Subway IP Inc. es una cadena de restaurantes de comida rápida estadounidense especializada en la elaboración de sándwich submarino y bocadillos, ensaladas y pizza por ración. Su sede central se encuentra en Milford. Se encuentra en la tercera posición a nivel de negocios, por detrás de McDonald's y KFC.​","url":"https://subwayspain.com/es/","square_picture":"https://woowbe-dev.s3.amazonaws.com/media/pictures/square_picture_ZDYBoWe.jpg","widescreen_picture":"https://woowbe-dev.s3.amazonaws.com/media/pictures/1635148401.jpeg","cover":"https://woowbe-dev.s3.amazonaws.com/media/covers/cover_bpjdx7E.jpg","sector":{"id":3,"name":"Fast Food","icon":"https://woowbe-dev.s3.amazonaws.com/media/icons/food_TPGNuc7.svg","created":"2021-05-25T10:47:39.210359Z"},"descriptive_categories":[{"id":32,"name":"bocadillo","owner":null,"sector":null,"created":"2021-10-25T07:50:16.230899Z"},{"id":31,"name":"sandwich","owner":null,"sector":null,"created":"2021-10-25T07:50:09.597799Z"}],"return_period":0,"dynamic_link":"https://app.dev.woowbe.com/share/UQmb","is_franchisee_of":null,"is_favorite":false,"created":"2021-10-25T07:50:19.935271Z","offers_count":1},"online":false,"url":null,"position":{"type":"Point","coordinates":[-3.587576,40.4475939]},"address":"Calle de Aracne","number":"s/n","postal_code":"28022","state":"Madrid","city":"Madrid","merchants_count":0,"modified":"2023-03-17T08:02:18.697465Z","place_id":"ChIJMUjmCtovQg0Rvqd6GZQ4qkc","formatted_address":"C. de Aracne, s/n, 28022 Madrid","deleted":false,"deleted_at":null,"created":"2021-10-25T07:54:23.867257Z","selected_offer":{"id":196,"reward":"3.00","reward_type":"fixed","kind":"B","instant":false,"name":"3€ por tus menus sandwich","standalone":false,"purchases":null,"online":false,"applicable":false,"available_percentage":1,"available_rewards":0,"is_used":false,"finish_date":null},"public_url":null,"is_open":false}]}