{"count":579,"next":"https://backend.dev.woowbe.com/api/v1/points_of_sales/public/?page=45","previous":"https://backend.dev.woowbe.com/api/v1/points_of_sales/public/?page=43","results":[{"id":341,"business":{"id":104,"name":"Subway","country":null,"description":"Subway IP Inc. es una cadena de restaurantes de comida rápida estadounidense especializada en la elaboración de sándwich submarino y bocadillos, ensaladas y pizza por ración. Su sede central se encuentra en Milford. Se encuentra en la tercera posición a nivel de negocios, por detrás de McDonald's y KFC.​","url":"https://subwayspain.com/es/","square_picture":"https://woowbe-dev.s3.amazonaws.com/media/pictures/square_picture_ZDYBoWe.jpg","widescreen_picture":"https://woowbe-dev.s3.amazonaws.com/media/pictures/1635148401.jpeg","cover":"https://woowbe-dev.s3.amazonaws.com/media/covers/cover_bpjdx7E.jpg","sector":{"id":3,"name":"Fast Food","icon":"https://woowbe-dev.s3.amazonaws.com/media/icons/food_TPGNuc7.svg","created":"2021-05-25T10:47:39.210359Z"},"descriptive_categories":[{"id":32,"name":"bocadillo","owner":null,"sector":null,"created":"2021-10-25T07:50:16.230899Z"},{"id":31,"name":"sandwich","owner":null,"sector":null,"created":"2021-10-25T07:50:09.597799Z"}],"return_period":0,"dynamic_link":"https://app.dev.woowbe.com/share/UQmb","is_franchisee_of":null,"is_favorite":false,"created":"2021-10-25T07:50:19.935271Z","offers_count":1},"online":false,"url":null,"position":{"type":"Point","coordinates":[-3.6796362,40.4371217]},"address":"Calle de María de Molina","number":"56","postal_code":"28006","state":"Madrid","city":"Madrid","merchants_count":0,"modified":"2023-03-17T08:02:18.806673Z","place_id":"ChIJpbTyCMEoQg0R9oLibdMcuyM","formatted_address":"Calle de María de Molina, 56, 28006 Madrid","deleted":false,"deleted_at":null,"created":"2021-10-25T07:54:08.042037Z","selected_offer":{"id":196,"reward":"3.00","reward_type":"fixed","kind":"B","instant":false,"name":"3€ por tus menus sandwich","standalone":false,"purchases":null,"online":false,"applicable":false,"available_percentage":1,"available_rewards":0,"is_used":false,"finish_date":null},"public_url":null,"is_open":false},{"id":340,"business":{"id":104,"name":"Subway","country":null,"description":"Subway IP Inc. es una cadena de restaurantes de comida rápida estadounidense especializada en la elaboración de sándwich submarino y bocadillos, ensaladas y pizza por ración. Su sede central se encuentra en Milford. Se encuentra en la tercera posición a nivel de negocios, por detrás de McDonald's y KFC.​","url":"https://subwayspain.com/es/","square_picture":"https://woowbe-dev.s3.amazonaws.com/media/pictures/square_picture_ZDYBoWe.jpg","widescreen_picture":"https://woowbe-dev.s3.amazonaws.com/media/pictures/1635148401.jpeg","cover":"https://woowbe-dev.s3.amazonaws.com/media/covers/cover_bpjdx7E.jpg","sector":{"id":3,"name":"Fast Food","icon":"https://woowbe-dev.s3.amazonaws.com/media/icons/food_TPGNuc7.svg","created":"2021-05-25T10:47:39.210359Z"},"descriptive_categories":[{"id":32,"name":"bocadillo","owner":null,"sector":null,"created":"2021-10-25T07:50:16.230899Z"},{"id":31,"name":"sandwich","owner":null,"sector":null,"created":"2021-10-25T07:50:09.597799Z"}],"return_period":0,"dynamic_link":"https://app.dev.woowbe.com/share/UQmb","is_franchisee_of":null,"is_favorite":false,"created":"2021-10-25T07:50:19.935271Z","offers_count":1},"online":false,"url":null,"position":{"type":"Point","coordinates":[-3.7032269,40.4147101]},"address":"Calle de Carretas","number":"33","postal_code":"28012","state":"Madrid","city":"Madrid","merchants_count":0,"modified":"2023-03-17T08:02:19.099648Z","place_id":"ChIJSzgd2n8oQg0RryLuAKwpKaA","formatted_address":"C. de Carretas, 33, 28012 Madrid","deleted":false,"deleted_at":null,"created":"2021-10-25T07:53:53.257645Z","selected_offer":{"id":196,"reward":"3.00","reward_type":"fixed","kind":"B","instant":false,"name":"3€ por tus menus sandwich","standalone":false,"purchases":null,"online":false,"applicable":false,"available_percentage":1,"available_rewards":0,"is_used":false,"finish_date":null},"public_url":null,"is_open":false},{"id":339,"business":{"id":104,"name":"Subway","country":null,"description":"Subway IP Inc. es una cadena de restaurantes de comida rápida estadounidense especializada en la elaboración de sándwich submarino y bocadillos, ensaladas y pizza por ración. Su sede central se encuentra en Milford. Se encuentra en la tercera posición a nivel de negocios, por detrás de McDonald's y KFC.​","url":"https://subwayspain.com/es/","square_picture":"https://woowbe-dev.s3.amazonaws.com/media/pictures/square_picture_ZDYBoWe.jpg","widescreen_picture":"https://woowbe-dev.s3.amazonaws.com/media/pictures/1635148401.jpeg","cover":"https://woowbe-dev.s3.amazonaws.com/media/covers/cover_bpjdx7E.jpg","sector":{"id":3,"name":"Fast Food","icon":"https://woowbe-dev.s3.amazonaws.com/media/icons/food_TPGNuc7.svg","created":"2021-05-25T10:47:39.210359Z"},"descriptive_categories":[{"id":32,"name":"bocadillo","owner":null,"sector":null,"created":"2021-10-25T07:50:16.230899Z"},{"id":31,"name":"sandwich","owner":null,"sector":null,"created":"2021-10-25T07:50:09.597799Z"}],"return_period":0,"dynamic_link":"https://app.dev.woowbe.com/share/UQmb","is_franchisee_of":null,"is_favorite":false,"created":"2021-10-25T07:50:19.935271Z","offers_count":1},"online":false,"url":null,"position":{"type":"Point","coordinates":[-3.7030534,40.4183042]},"address":"Calle de Tetuán","number":"38","postal_code":"28013","state":"Madrid","city":"Madrid","merchants_count":0,"modified":"2023-03-17T08:02:19.308633Z","place_id":"ChIJVZ_V-H0oQg0RqNXLuDMQ_yk","formatted_address":"C. de Tetuán, 38, 28013 Madrid","deleted":false,"deleted_at":null,"created":"2021-10-25T07:53:39.238483Z","selected_offer":{"id":196,"reward":"3.00","reward_type":"fixed","kind":"B","instant":false,"name":"3€ por tus menus sandwich","standalone":false,"purchases":null,"online":false,"applicable":false,"available_percentage":1,"available_rewards":0,"is_used":false,"finish_date":null},"public_url":null,"is_open":false},{"id":338,"business":{"id":103,"name":"Supermercado Suma","country":null,"description":"En Suma encontrarás un surtido de proximidad adaptado al entorno y con el que podrás cubrir tus necesidades de compra diarias a unos precios muy competitivos. Primeras marcas, producto regional y local, productos frescos y un amplio surtido de marcas propias (Gourmet, Sabor Español, Mical, Micaderm, GM Wines, Mic&Friends). Todo lo que necesitas, a tu servicio.","url":"https://www.sumasupermercados.es/es","square_picture":"https://woowbe-dev.s3.amazonaws.com/media/pictures/square_picture_DQaAhb4.jpg","widescreen_picture":"https://woowbe-dev.s3.amazonaws.com/media/pictures/1635147636.jpeg","cover":"https://woowbe-dev.s3.amazonaws.com/media/covers/cover_XW3kvzk.jpg","sector":{"id":20,"name":"Supermercado o hipermercado","icon":null,"created":"2021-05-25T11:05:57.388449Z"},"descriptive_categories":[],"return_period":0,"dynamic_link":"https://app.dev.woowbe.com/share/mXi3","is_franchisee_of":null,"is_favorite":false,"created":"2021-10-25T07:36:30.410882Z","offers_count":0},"online":false,"url":null,"position":{"type":"Point","coordinates":[-3.7012053,40.4156163]},"address":"Calle de Núñez de Arce","number":"7","postal_code":"28012","state":"Madrid","city":"Madrid","merchants_count":0,"modified":"2023-03-17T08:02:19.719117Z","place_id":"ChIJo1Ra9oAoQg0RuwvcSuu6-oo","formatted_address":"C. de Núñez de Arce, 7, 28012 Madrid","deleted":false,"deleted_at":null,"created":"2021-10-25T07:40:54.925425Z","selected_offer":{"reward":null,"reward_type":null,"kind":null,"instant":false,"name":"","standalone":false,"purchases":null,"online":false,"finish_date":null},"public_url":null,"is_open":false},{"id":337,"business":{"id":102,"name":"Sushita","country":null,"description":"Música en directo, cócteles a base de ingredientes naturales y el mejor sushi de la ciudad. Y, todo ello, en un lugar con una decoración cuidada al detalle y una terraza muy agradable. ¿Acaso se le puede pedir más a un afterwork?","url":"https://www.sushita.com/","square_picture":"https://woowbe-dev.s3.amazonaws.com/media/pictures/square_picture_VmoZjKe.jpg","widescreen_picture":"https://woowbe-dev.s3.amazonaws.com/media/pictures/1635069991.jpeg","cover":"https://woowbe-dev.s3.amazonaws.com/media/covers/cover_d4UJ9zz.jpg","sector":{"id":37,"name":"Restaurante temático","icon":"https://woowbe-dev.s3.amazonaws.com/media/icons/toeat_T2kMSVS.svg","created":"2021-10-21T14:32:58.019404Z"},"descriptive_categories":[{"id":30,"name":"afterwork","owner":null,"sector":4,"created":"2021-10-24T10:04:24.581445Z"},{"id":10,"name":"Healthy","owner":null,"sector":null,"created":"2021-10-21T14:33:37.426542Z"},{"id":16,"name":"sushi","owner":null,"sector":null,"created":"2021-10-21T19:14:06.256566Z"}],"return_period":0,"dynamic_link":"https://app.dev.woowbe.com/share/LTVM","is_franchisee_of":null,"is_favorite":false,"created":"2021-10-24T10:04:32.084157Z","offers_count":1},"online":false,"url":null,"position":{"type":"Point","coordinates":[-3.7315292,40.3388449]},"address":"Avenida gran bretaña","number":"S/N","postal_code":"28916","state":"Madrid","city":"Leganés","merchants_count":0,"modified":"2023-03-17T08:02:19.900655Z","place_id":"ChIJF4-CsE8nQg0RWyRLt7IMRqQ","formatted_address":"Av. gran bretaña, S/N, 28916 Leganés, Madrid","deleted":false,"deleted_at":null,"created":"2021-10-24T10:08:34.953076Z","selected_offer":{"id":191,"reward":"3.00","reward_type":"fixed","kind":"B","instant":false,"name":"3€ por cenas de +25€","standalone":false,"purchases":null,"online":false,"applicable":false,"available_percentage":1,"available_rewards":0,"is_used":false,"finish_date":null},"public_url":null,"is_open":false},{"id":336,"business":{"id":102,"name":"Sushita","country":null,"description":"Música en directo, cócteles a base de ingredientes naturales y el mejor sushi de la ciudad. Y, todo ello, en un lugar con una decoración cuidada al detalle y una terraza muy agradable. ¿Acaso se le puede pedir más a un afterwork?","url":"https://www.sushita.com/","square_picture":"https://woowbe-dev.s3.amazonaws.com/media/pictures/square_picture_VmoZjKe.jpg","widescreen_picture":"https://woowbe-dev.s3.amazonaws.com/media/pictures/1635069991.jpeg","cover":"https://woowbe-dev.s3.amazonaws.com/media/covers/cover_d4UJ9zz.jpg","sector":{"id":37,"name":"Restaurante temático","icon":"https://woowbe-dev.s3.amazonaws.com/media/icons/toeat_T2kMSVS.svg","created":"2021-10-21T14:32:58.019404Z"},"descriptive_categories":[{"id":30,"name":"afterwork","owner":null,"sector":4,"created":"2021-10-24T10:04:24.581445Z"},{"id":10,"name":"Healthy","owner":null,"sector":null,"created":"2021-10-21T14:33:37.426542Z"},{"id":16,"name":"sushi","owner":null,"sector":null,"created":"2021-10-21T19:14:06.256566Z"}],"return_period":0,"dynamic_link":"https://app.dev.woowbe.com/share/LTVM","is_franchisee_of":null,"is_favorite":false,"created":"2021-10-24T10:04:32.084157Z","offers_count":1},"online":false,"url":null,"position":{"type":"Point","coordinates":[-3.6554383,40.5185774]},"address":"Avenida de Europa","number":"13","postal_code":"28100","state":"Madrid","city":"Alcobendas","merchants_count":0,"modified":"2023-03-17T08:02:20.104250Z","place_id":"ChIJhWlJWp4sQg0RNO1kbJSy8KI","formatted_address":"Av. de Europa, 13, 28100 Alcobendas, Madrid","deleted":false,"deleted_at":null,"created":"2021-10-24T10:08:17.701106Z","selected_offer":{"id":191,"reward":"3.00","reward_type":"fixed","kind":"B","instant":false,"name":"3€ por cenas de +25€","standalone":false,"purchases":null,"online":false,"applicable":false,"available_percentage":1,"available_rewards":0,"is_used":false,"finish_date":null},"public_url":null,"is_open":false},{"id":335,"business":{"id":102,"name":"Sushita","country":null,"description":"Música en directo, cócteles a base de ingredientes naturales y el mejor sushi de la ciudad. Y, todo ello, en un lugar con una decoración cuidada al detalle y una terraza muy agradable. ¿Acaso se le puede pedir más a un afterwork?","url":"https://www.sushita.com/","square_picture":"https://woowbe-dev.s3.amazonaws.com/media/pictures/square_picture_VmoZjKe.jpg","widescreen_picture":"https://woowbe-dev.s3.amazonaws.com/media/pictures/1635069991.jpeg","cover":"https://woowbe-dev.s3.amazonaws.com/media/covers/cover_d4UJ9zz.jpg","sector":{"id":37,"name":"Restaurante temático","icon":"https://woowbe-dev.s3.amazonaws.com/media/icons/toeat_T2kMSVS.svg","created":"2021-10-21T14:32:58.019404Z"},"descriptive_categories":[{"id":30,"name":"afterwork","owner":null,"sector":4,"created":"2021-10-24T10:04:24.581445Z"},{"id":10,"name":"Healthy","owner":null,"sector":null,"created":"2021-10-21T14:33:37.426542Z"},{"id":16,"name":"sushi","owner":null,"sector":null,"created":"2021-10-21T19:14:06.256566Z"}],"return_period":0,"dynamic_link":"https://app.dev.woowbe.com/share/LTVM","is_franchisee_of":null,"is_favorite":false,"created":"2021-10-24T10:04:32.084157Z","offers_count":1},"online":false,"url":null,"position":{"type":"Point","coordinates":[-3.6832816,40.428659]},"address":"Calle de Velázquez","number":"68","postal_code":"28001","state":"Madrid","city":"Madrid","merchants_count":0,"modified":"2023-03-17T08:02:20.295059Z","place_id":"ChIJPfWmCZYoQg0RhVhI77IqhDo","formatted_address":"C. de Velázquez, 68, 28001 Madrid","deleted":false,"deleted_at":null,"created":"2021-10-24T10:07:58.291060Z","selected_offer":{"id":191,"reward":"3.00","reward_type":"fixed","kind":"B","instant":false,"name":"3€ por cenas de +25€","standalone":false,"purchases":null,"online":false,"applicable":false,"available_percentage":1,"available_rewards":0,"is_used":false,"finish_date":null},"public_url":null,"is_open":false},{"id":334,"business":{"id":102,"name":"Sushita","country":null,"description":"Música en directo, cócteles a base de ingredientes naturales y el mejor sushi de la ciudad. Y, todo ello, en un lugar con una decoración cuidada al detalle y una terraza muy agradable. ¿Acaso se le puede pedir más a un afterwork?","url":"https://www.sushita.com/","square_picture":"https://woowbe-dev.s3.amazonaws.com/media/pictures/square_picture_VmoZjKe.jpg","widescreen_picture":"https://woowbe-dev.s3.amazonaws.com/media/pictures/1635069991.jpeg","cover":"https://woowbe-dev.s3.amazonaws.com/media/covers/cover_d4UJ9zz.jpg","sector":{"id":37,"name":"Restaurante temático","icon":"https://woowbe-dev.s3.amazonaws.com/media/icons/toeat_T2kMSVS.svg","created":"2021-10-21T14:32:58.019404Z"},"descriptive_categories":[{"id":30,"name":"afterwork","owner":null,"sector":4,"created":"2021-10-24T10:04:24.581445Z"},{"id":10,"name":"Healthy","owner":null,"sector":null,"created":"2021-10-21T14:33:37.426542Z"},{"id":16,"name":"sushi","owner":null,"sector":null,"created":"2021-10-21T19:14:06.256566Z"}],"return_period":0,"dynamic_link":"https://app.dev.woowbe.com/share/LTVM","is_franchisee_of":null,"is_favorite":false,"created":"2021-10-24T10:04:32.084157Z","offers_count":1},"online":false,"url":null,"position":{"type":"Point","coordinates":[-3.6905792,40.4199651]},"address":"Calle de Alcalá","number":"63","postal_code":"28014","state":"Madrid","city":"Madrid","merchants_count":0,"modified":"2023-03-17T08:02:20.348776Z","place_id":"ChIJr24cDJsoQg0RTzI7c4ydq3s","formatted_address":"C. de Alcalá, 63, 28014 Madrid","deleted":false,"deleted_at":null,"created":"2021-10-24T10:07:40.126484Z","selected_offer":{"id":191,"reward":"3.00","reward_type":"fixed","kind":"B","instant":false,"name":"3€ por cenas de +25€","standalone":false,"purchases":null,"online":false,"applicable":false,"available_percentage":1,"available_rewards":0,"is_used":false,"finish_date":null},"public_url":null,"is_open":false},{"id":333,"business":{"id":102,"name":"Sushita","country":null,"description":"Música en directo, cócteles a base de ingredientes naturales y el mejor sushi de la ciudad. Y, todo ello, en un lugar con una decoración cuidada al detalle y una terraza muy agradable. ¿Acaso se le puede pedir más a un afterwork?","url":"https://www.sushita.com/","square_picture":"https://woowbe-dev.s3.amazonaws.com/media/pictures/square_picture_VmoZjKe.jpg","widescreen_picture":"https://woowbe-dev.s3.amazonaws.com/media/pictures/1635069991.jpeg","cover":"https://woowbe-dev.s3.amazonaws.com/media/covers/cover_d4UJ9zz.jpg","sector":{"id":37,"name":"Restaurante temático","icon":"https://woowbe-dev.s3.amazonaws.com/media/icons/toeat_T2kMSVS.svg","created":"2021-10-21T14:32:58.019404Z"},"descriptive_categories":[{"id":30,"name":"afterwork","owner":null,"sector":4,"created":"2021-10-24T10:04:24.581445Z"},{"id":10,"name":"Healthy","owner":null,"sector":null,"created":"2021-10-21T14:33:37.426542Z"},{"id":16,"name":"sushi","owner":null,"sector":null,"created":"2021-10-21T19:14:06.256566Z"}],"return_period":0,"dynamic_link":"https://app.dev.woowbe.com/share/LTVM","is_franchisee_of":null,"is_favorite":false,"created":"2021-10-24T10:04:32.084157Z","offers_count":1},"online":false,"url":null,"position":{"type":"Point","coordinates":[-3.6881954,40.4500433]},"address":"Paseo de la Habana","number":"15","postal_code":"28036","state":"Madrid","city":"Madrid","merchants_count":0,"modified":"2023-03-17T08:02:20.419354Z","place_id":"ChIJs29H5uMoQg0RLlkc4kc_Y0M","formatted_address":"P.º de la Habana, 15, 28036 Madrid","deleted":false,"deleted_at":null,"created":"2021-10-24T10:07:23.333170Z","selected_offer":{"id":191,"reward":"3.00","reward_type":"fixed","kind":"B","instant":false,"name":"3€ por cenas de +25€","standalone":false,"purchases":null,"online":false,"applicable":false,"available_percentage":1,"available_rewards":0,"is_used":false,"finish_date":null},"public_url":null,"is_open":false},{"id":332,"business":{"id":102,"name":"Sushita","country":null,"description":"Música en directo, cócteles a base de ingredientes naturales y el mejor sushi de la ciudad. Y, todo ello, en un lugar con una decoración cuidada al detalle y una terraza muy agradable. ¿Acaso se le puede pedir más a un afterwork?","url":"https://www.sushita.com/","square_picture":"https://woowbe-dev.s3.amazonaws.com/media/pictures/square_picture_VmoZjKe.jpg","widescreen_picture":"https://woowbe-dev.s3.amazonaws.com/media/pictures/1635069991.jpeg","cover":"https://woowbe-dev.s3.amazonaws.com/media/covers/cover_d4UJ9zz.jpg","sector":{"id":37,"name":"Restaurante temático","icon":"https://woowbe-dev.s3.amazonaws.com/media/icons/toeat_T2kMSVS.svg","created":"2021-10-21T14:32:58.019404Z"},"descriptive_categories":[{"id":30,"name":"afterwork","owner":null,"sector":4,"created":"2021-10-24T10:04:24.581445Z"},{"id":10,"name":"Healthy","owner":null,"sector":null,"created":"2021-10-21T14:33:37.426542Z"},{"id":16,"name":"sushi","owner":null,"sector":null,"created":"2021-10-21T19:14:06.256566Z"}],"return_period":0,"dynamic_link":"https://app.dev.woowbe.com/share/LTVM","is_franchisee_of":null,"is_favorite":false,"created":"2021-10-24T10:04:32.084157Z","offers_count":1},"online":false,"url":null,"position":{"type":"Point","coordinates":[-3.7127607,40.4304465]},"address":"Calle de Alberto Aguilera","number":"52","postal_code":"28015","state":"Madrid","city":"Madrid","merchants_count":0,"modified":"2023-03-17T08:02:20.518071Z","place_id":"ChIJASKk1GcoQg0RPndumafz86o","formatted_address":"C. de Alberto Aguilera, 52, 28015 Madrid","deleted":false,"deleted_at":null,"created":"2021-10-24T10:07:07.509366Z","selected_offer":{"id":191,"reward":"3.00","reward_type":"fixed","kind":"B","instant":false,"name":"3€ por cenas de +25€","standalone":false,"purchases":null,"online":false,"applicable":false,"available_percentage":1,"available_rewards":0,"is_used":false,"finish_date":null},"public_url":null,"is_open":false}]}