{
	"count": 579,
	"next": "https://backend.dev.woowbe.com/api/v1/points_of_sales/public/?page=47",
	"previous": "https://backend.dev.woowbe.com/api/v1/points_of_sales/public/?page=45",
	"results": [
		{
			"id": 321,
			"business": {
				"id": 101,
				"name": "Udon",
				"country": null,
				"description": "La historia de UDON empieza hace más de 15 años. Viajes, mucha curiosidad y un paladar abierto a nuevos sabores, llevó a los dos fundadores a enamorarse de la cultura y gastronomía asiática. Así nació el primer UDON el 2004, en el corazón del barrio del Born de Barcelona, inspirado en las tascas tradicionales japonesas, con más de 400 años de historia.",
				"url": "https://www.udon.com/",
				"square_picture": "https://woowbe-dev.s3.amazonaws.com/media/pictures/square_picture_HE3Up8p.jpg",
				"widescreen_picture": "https://woowbe-dev.s3.amazonaws.com/media/pictures/1635068691.jpeg",
				"cover": "https://woowbe-dev.s3.amazonaws.com/media/covers/cover_jUju1r9.jpg",
				"sector": {
					"id": 37,
					"name": "Restaurante temático",
					"icon": "https://woowbe-dev.s3.amazonaws.com/media/icons/toeat_T2kMSVS.svg",
					"created": "2021-10-21T14:32:58.019404Z"
				},
				"descriptive_categories": [
					{
						"id": 29,
						"name": "asiatica",
						"owner": null,
						"sector": 2,
						"created": "2021-10-24T09:41:55.016467Z"
					},
					{
						"id": 22,
						"name": "asiática",
						"owner": null,
						"sector": 2,
						"created": "2021-10-21T20:53:02.997177Z"
					}
				],
				"return_period": 0,
				"dynamic_link": "https://app.dev.woowbe.com/share/vyJw",
				"is_franchisee_of": null,
				"is_favorite": false,
				"created": "2021-10-24T09:42:03.509058Z",
				"offers_count": 0
			},
			"online": false,
			"url": null,
			"position": {
				"type": "Point",
				"coordinates": [
					-3.707023,
					40.4798322
				]
			},
			"address": "Avenida de Monforte de Lemos",
			"number": "36",
			"postal_code": "28029",
			"state": "Madrid",
			"city": "Madrid",
			"merchants_count": 0,
			"modified": "2023-03-17T08:02:21.303708Z",
			"place_id": "ChIJN8jMP5wpQg0R4ex88Tkmgis",
			"formatted_address": "Av. de Monforte de Lemos, 36, 28029 Madrid",
			"deleted": false,
			"deleted_at": null,
			"created": "2021-10-24T09:45:44.868775Z",
			"selected_offer": {
				"reward": null,
				"reward_type": null,
				"kind": null,
				"instant": false,
				"name": "",
				"standalone": false,
				"purchases": null,
				"online": false,
				"finish_date": null
			},
			"public_url": null,
			"is_open": false
		},
		{
			"id": 320,
			"business": {
				"id": 101,
				"name": "Udon",
				"country": null,
				"description": "La historia de UDON empieza hace más de 15 años. Viajes, mucha curiosidad y un paladar abierto a nuevos sabores, llevó a los dos fundadores a enamorarse de la cultura y gastronomía asiática. Así nació el primer UDON el 2004, en el corazón del barrio del Born de Barcelona, inspirado en las tascas tradicionales japonesas, con más de 400 años de historia.",
				"url": "https://www.udon.com/",
				"square_picture": "https://woowbe-dev.s3.amazonaws.com/media/pictures/square_picture_HE3Up8p.jpg",
				"widescreen_picture": "https://woowbe-dev.s3.amazonaws.com/media/pictures/1635068691.jpeg",
				"cover": "https://woowbe-dev.s3.amazonaws.com/media/covers/cover_jUju1r9.jpg",
				"sector": {
					"id": 37,
					"name": "Restaurante temático",
					"icon": "https://woowbe-dev.s3.amazonaws.com/media/icons/toeat_T2kMSVS.svg",
					"created": "2021-10-21T14:32:58.019404Z"
				},
				"descriptive_categories": [
					{
						"id": 29,
						"name": "asiatica",
						"owner": null,
						"sector": 2,
						"created": "2021-10-24T09:41:55.016467Z"
					},
					{
						"id": 22,
						"name": "asiática",
						"owner": null,
						"sector": 2,
						"created": "2021-10-21T20:53:02.997177Z"
					}
				],
				"return_period": 0,
				"dynamic_link": "https://app.dev.woowbe.com/share/vyJw",
				"is_franchisee_of": null,
				"is_favorite": false,
				"created": "2021-10-24T09:42:03.509058Z",
				"offers_count": 0
			},
			"online": false,
			"url": null,
			"position": {
				"type": "Point",
				"coordinates": [
					-3.6992275,
					40.4202619
				]
			},
			"address": "Calle del Clavel",
			"number": "6",
			"postal_code": "28004",
			"state": "Madrid",
			"city": "Madrid",
			"merchants_count": 0,
			"modified": "2023-03-17T08:02:21.338727Z",
			"place_id": "ChIJda2S84YoQg0Rj9S2UJPdSf0",
			"formatted_address": "Calle del Clavel, 6, 28004 Madrid",
			"deleted": false,
			"deleted_at": null,
			"created": "2021-10-24T09:45:29.564397Z",
			"selected_offer": {
				"reward": null,
				"reward_type": null,
				"kind": null,
				"instant": false,
				"name": "",
				"standalone": false,
				"purchases": null,
				"online": false,
				"finish_date": null
			},
			"public_url": null,
			"is_open": false
		},
		{
			"id": 319,
			"business": {
				"id": 101,
				"name": "Udon",
				"country": null,
				"description": "La historia de UDON empieza hace más de 15 años. Viajes, mucha curiosidad y un paladar abierto a nuevos sabores, llevó a los dos fundadores a enamorarse de la cultura y gastronomía asiática. Así nació el primer UDON el 2004, en el corazón del barrio del Born de Barcelona, inspirado en las tascas tradicionales japonesas, con más de 400 años de historia.",
				"url": "https://www.udon.com/",
				"square_picture": "https://woowbe-dev.s3.amazonaws.com/media/pictures/square_picture_HE3Up8p.jpg",
				"widescreen_picture": "https://woowbe-dev.s3.amazonaws.com/media/pictures/1635068691.jpeg",
				"cover": "https://woowbe-dev.s3.amazonaws.com/media/covers/cover_jUju1r9.jpg",
				"sector": {
					"id": 37,
					"name": "Restaurante temático",
					"icon": "https://woowbe-dev.s3.amazonaws.com/media/icons/toeat_T2kMSVS.svg",
					"created": "2021-10-21T14:32:58.019404Z"
				},
				"descriptive_categories": [
					{
						"id": 29,
						"name": "asiatica",
						"owner": null,
						"sector": 2,
						"created": "2021-10-24T09:41:55.016467Z"
					},
					{
						"id": 22,
						"name": "asiática",
						"owner": null,
						"sector": 2,
						"created": "2021-10-21T20:53:02.997177Z"
					}
				],
				"return_period": 0,
				"dynamic_link": "https://app.dev.woowbe.com/share/vyJw",
				"is_franchisee_of": null,
				"is_favorite": false,
				"created": "2021-10-24T09:42:03.509058Z",
				"offers_count": 0
			},
			"online": false,
			"url": null,
			"position": {
				"type": "Point",
				"coordinates": [
					-3.7024839,
					40.4176516
				]
			},
			"address": "Calle de la Montera",
			"number": "12",
			"postal_code": "28013",
			"state": "Madrid",
			"city": "Madrid",
			"merchants_count": 0,
			"modified": "2023-03-17T08:02:21.374261Z",
			"place_id": "ChIJV8pUqYAoQg0RDu6apRMHC68",
			"formatted_address": "C. de la Montera, 12, 28013 Madrid",
			"deleted": false,
			"deleted_at": null,
			"created": "2021-10-24T09:45:12.225541Z",
			"selected_offer": {
				"reward": null,
				"reward_type": null,
				"kind": null,
				"instant": false,
				"name": "",
				"standalone": false,
				"purchases": null,
				"online": false,
				"finish_date": null
			},
			"public_url": null,
			"is_open": false
		},
		{
			"id": 318,
			"business": {
				"id": 100,
				"name": "Juicy Avenue",
				"country": null,
				"description": "Somos más que tu tienda de Zumos Naturales favoritos. En Juicy Avenue, encontrarás un espacio ideal para amar la hora de la comida.",
				"url": "https://www.juicyavenue.es/",
				"square_picture": "https://woowbe-dev.s3.amazonaws.com/media/pictures/juicy-avenue-logo-16-9.png",
				"widescreen_picture": "https://woowbe-dev.s3.amazonaws.com/media/pictures/1634978514.jpeg",
				"cover": "https://woowbe-dev.s3.amazonaws.com/media/covers/cover_vNoSs89.jpg",
				"sector": {
					"id": 5,
					"name": "Cafetería",
					"icon": "https://woowbe-dev.s3.amazonaws.com/media/icons/toeat.svg",
					"created": "2021-05-25T10:48:41.547333Z"
				},
				"descriptive_categories": [
					{
						"id": 28,
						"name": "batidos",
						"owner": 100,
						"sector": null,
						"created": "2021-10-23T08:39:27.122811Z"
					},
					{
						"id": 26,
						"name": "detox",
						"owner": null,
						"sector": null,
						"created": "2021-10-23T08:39:01.453615Z"
					},
					{
						"id": 27,
						"name": "zumos",
						"owner": null,
						"sector": null,
						"created": "2021-10-23T08:39:21.905307Z"
					}
				],
				"return_period": 0,
				"dynamic_link": "https://app.dev.woowbe.com/share/aL7u",
				"is_franchisee_of": null,
				"is_favorite": false,
				"created": "2021-10-23T08:39:45.676166Z",
				"offers_count": 0
			},
			"online": false,
			"url": null,
			"position": {
				"type": "Point",
				"coordinates": [
					-3.6507593,
					40.4499968
				]
			},
			"address": "Calle de Arturo Soria",
			"number": "126",
			"postal_code": "28043",
			"state": "Madrid",
			"city": "Madrid",
			"merchants_count": 0,
			"modified": "2023-03-17T08:02:21.426696Z",
			"place_id": "ChIJTeIb3yUvQg0R2H7kBOwDufI",
			"formatted_address": "C. de Arturo Soria, 126, 28043 Madrid",
			"deleted": false,
			"deleted_at": null,
			"created": "2021-10-23T08:45:27.621243Z",
			"selected_offer": {
				"reward": null,
				"reward_type": null,
				"kind": null,
				"instant": false,
				"name": "",
				"standalone": false,
				"purchases": null,
				"online": false,
				"finish_date": null
			},
			"public_url": null,
			"is_open": false
		},
		{
			"id": 317,
			"business": {
				"id": 100,
				"name": "Juicy Avenue",
				"country": null,
				"description": "Somos más que tu tienda de Zumos Naturales favoritos. En Juicy Avenue, encontrarás un espacio ideal para amar la hora de la comida.",
				"url": "https://www.juicyavenue.es/",
				"square_picture": "https://woowbe-dev.s3.amazonaws.com/media/pictures/juicy-avenue-logo-16-9.png",
				"widescreen_picture": "https://woowbe-dev.s3.amazonaws.com/media/pictures/1634978514.jpeg",
				"cover": "https://woowbe-dev.s3.amazonaws.com/media/covers/cover_vNoSs89.jpg",
				"sector": {
					"id": 5,
					"name": "Cafetería",
					"icon": "https://woowbe-dev.s3.amazonaws.com/media/icons/toeat.svg",
					"created": "2021-05-25T10:48:41.547333Z"
				},
				"descriptive_categories": [
					{
						"id": 28,
						"name": "batidos",
						"owner": 100,
						"sector": null,
						"created": "2021-10-23T08:39:27.122811Z"
					},
					{
						"id": 26,
						"name": "detox",
						"owner": null,
						"sector": null,
						"created": "2021-10-23T08:39:01.453615Z"
					},
					{
						"id": 27,
						"name": "zumos",
						"owner": null,
						"sector": null,
						"created": "2021-10-23T08:39:21.905307Z"
					}
				],
				"return_period": 0,
				"dynamic_link": "https://app.dev.woowbe.com/share/aL7u",
				"is_franchisee_of": null,
				"is_favorite": false,
				"created": "2021-10-23T08:39:45.676166Z",
				"offers_count": 0
			},
			"online": false,
			"url": null,
			"position": {
				"type": "Point",
				"coordinates": [
					-3.6553541,
					40.5186645
				]
			},
			"address": "Avenida de Europa",
			"number": "13",
			"postal_code": "28108",
			"state": "Madrid",
			"city": "Alcobendas",
			"merchants_count": 0,
			"modified": "2023-03-17T08:02:21.524210Z",
			"place_id": "ChIJIwi8DHQsQg0RPvsnpfEVuRE",
			"formatted_address": "Av. de Europa, 13, 28108 Alcobendas, Madrid",
			"deleted": false,
			"deleted_at": null,
			"created": "2021-10-23T08:44:59.755721Z",
			"selected_offer": {
				"reward": null,
				"reward_type": null,
				"kind": null,
				"instant": false,
				"name": "",
				"standalone": false,
				"purchases": null,
				"online": false,
				"finish_date": null
			},
			"public_url": null,
			"is_open": false
		},
		{
			"id": 316,
			"business": {
				"id": 100,
				"name": "Juicy Avenue",
				"country": null,
				"description": "Somos más que tu tienda de Zumos Naturales favoritos. En Juicy Avenue, encontrarás un espacio ideal para amar la hora de la comida.",
				"url": "https://www.juicyavenue.es/",
				"square_picture": "https://woowbe-dev.s3.amazonaws.com/media/pictures/juicy-avenue-logo-16-9.png",
				"widescreen_picture": "https://woowbe-dev.s3.amazonaws.com/media/pictures/1634978514.jpeg",
				"cover": "https://woowbe-dev.s3.amazonaws.com/media/covers/cover_vNoSs89.jpg",
				"sector": {
					"id": 5,
					"name": "Cafetería",
					"icon": "https://woowbe-dev.s3.amazonaws.com/media/icons/toeat.svg",
					"created": "2021-05-25T10:48:41.547333Z"
				},
				"descriptive_categories": [
					{
						"id": 28,
						"name": "batidos",
						"owner": 100,
						"sector": null,
						"created": "2021-10-23T08:39:27.122811Z"
					},
					{
						"id": 26,
						"name": "detox",
						"owner": null,
						"sector": null,
						"created": "2021-10-23T08:39:01.453615Z"
					},
					{
						"id": 27,
						"name": "zumos",
						"owner": null,
						"sector": null,
						"created": "2021-10-23T08:39:21.905307Z"
					}
				],
				"return_period": 0,
				"dynamic_link": "https://app.dev.woowbe.com/share/aL7u",
				"is_franchisee_of": null,
				"is_favorite": false,
				"created": "2021-10-23T08:39:45.676166Z",
				"offers_count": 0
			},
			"online": false,
			"url": null,
			"position": {
				"type": "Point",
				"coordinates": [
					-3.7865681,
					40.4402574
				]
			},
			"address": "Vía de las Dos Castillas",
			"number": "33",
			"postal_code": "28224",
			"state": "Madrid",
			"city": "Pozuelo de Alarcón",
			"merchants_count": 0,
			"modified": "2023-03-17T08:02:21.557467Z",
			"place_id": "ChIJ4VVIXE2GQQ0R_isTr7_2_WQ",
			"formatted_address": "Vía de las Dos Castillas, 33, 28224 Pozuelo de Alarcón, Madrid",
			"deleted": false,
			"deleted_at": null,
			"created": "2021-10-23T08:44:38.723084Z",
			"selected_offer": {
				"reward": null,
				"reward_type": null,
				"kind": null,
				"instant": false,
				"name": "",
				"standalone": false,
				"purchases": null,
				"online": false,
				"finish_date": null
			},
			"public_url": null,
			"is_open": false
		},
		{
			"id": 315,
			"business": {
				"id": 100,
				"name": "Juicy Avenue",
				"country": null,
				"description": "Somos más que tu tienda de Zumos Naturales favoritos. En Juicy Avenue, encontrarás un espacio ideal para amar la hora de la comida.",
				"url": "https://www.juicyavenue.es/",
				"square_picture": "https://woowbe-dev.s3.amazonaws.com/media/pictures/juicy-avenue-logo-16-9.png",
				"widescreen_picture": "https://woowbe-dev.s3.amazonaws.com/media/pictures/1634978514.jpeg",
				"cover": "https://woowbe-dev.s3.amazonaws.com/media/covers/cover_vNoSs89.jpg",
				"sector": {
					"id": 5,
					"name": "Cafetería",
					"icon": "https://woowbe-dev.s3.amazonaws.com/media/icons/toeat.svg",
					"created": "2021-05-25T10:48:41.547333Z"
				},
				"descriptive_categories": [
					{
						"id": 28,
						"name": "batidos",
						"owner": 100,
						"sector": null,
						"created": "2021-10-23T08:39:27.122811Z"
					},
					{
						"id": 26,
						"name": "detox",
						"owner": null,
						"sector": null,
						"created": "2021-10-23T08:39:01.453615Z"
					},
					{
						"id": 27,
						"name": "zumos",
						"owner": null,
						"sector": null,
						"created": "2021-10-23T08:39:21.905307Z"
					}
				],
				"return_period": 0,
				"dynamic_link": "https://app.dev.woowbe.com/share/aL7u",
				"is_franchisee_of": null,
				"is_favorite": false,
				"created": "2021-10-23T08:39:45.676166Z",
				"offers_count": 0
			},
			"online": false,
			"url": null,
			"position": {
				"type": "Point",
				"coordinates": [
					-3.6764324,
					40.4581822
				]
			},
			"address": "Plaza de la R. Dominicana",
			"number": "8",
			"postal_code": "28016",
			"state": "Madrid",
			"city": "Madrid",
			"merchants_count": 0,
			"modified": "2023-03-17T08:02:21.608805Z",
			"place_id": "ChIJ1zyKwCYpQg0RpjdsxRszrZE",
			"formatted_address": "Pl. de la R. Dominicana, 8, 28016 Madrid",
			"deleted": false,
			"deleted_at": null,
			"created": "2021-10-23T08:44:21.762069Z",
			"selected_offer": {
				"reward": null,
				"reward_type": null,
				"kind": null,
				"instant": false,
				"name": "",
				"standalone": false,
				"purchases": null,
				"online": false,
				"finish_date": null
			},
			"public_url": null,
			"is_open": false
		},
		{
			"id": 314,
			"business": {
				"id": 100,
				"name": "Juicy Avenue",
				"country": null,
				"description": "Somos más que tu tienda de Zumos Naturales favoritos. En Juicy Avenue, encontrarás un espacio ideal para amar la hora de la comida.",
				"url": "https://www.juicyavenue.es/",
				"square_picture": "https://woowbe-dev.s3.amazonaws.com/media/pictures/juicy-avenue-logo-16-9.png",
				"widescreen_picture": "https://woowbe-dev.s3.amazonaws.com/media/pictures/1634978514.jpeg",
				"cover": "https://woowbe-dev.s3.amazonaws.com/media/covers/cover_vNoSs89.jpg",
				"sector": {
					"id": 5,
					"name": "Cafetería",
					"icon": "https://woowbe-dev.s3.amazonaws.com/media/icons/toeat.svg",
					"created": "2021-05-25T10:48:41.547333Z"
				},
				"descriptive_categories": [
					{
						"id": 28,
						"name": "batidos",
						"owner": 100,
						"sector": null,
						"created": "2021-10-23T08:39:27.122811Z"
					},
					{
						"id": 26,
						"name": "detox",
						"owner": null,
						"sector": null,
						"created": "2021-10-23T08:39:01.453615Z"
					},
					{
						"id": 27,
						"name": "zumos",
						"owner": null,
						"sector": null,
						"created": "2021-10-23T08:39:21.905307Z"
					}
				],
				"return_period": 0,
				"dynamic_link": "https://app.dev.woowbe.com/share/aL7u",
				"is_franchisee_of": null,
				"is_favorite": false,
				"created": "2021-10-23T08:39:45.676166Z",
				"offers_count": 0
			},
			"online": false,
			"url": null,
			"position": {
				"type": "Point",
				"coordinates": [
					-3.6889393,
					40.4627184
				]
			},
			"address": "Paseo de la Castellana",
			"number": "200",
			"postal_code": "28046",
			"state": "Madrid",
			"city": "Madrid",
			"merchants_count": 0,
			"modified": "2023-03-17T08:02:21.642059Z",
			"place_id": "ChIJwcrqRxopQg0RlaSl8CYF1LI",
			"formatted_address": "P.º de la Castellana, 200, 28046 Madrid",
			"deleted": false,
			"deleted_at": null,
			"created": "2021-10-23T08:44:05.024747Z",
			"selected_offer": {
				"reward": null,
				"reward_type": null,
				"kind": null,
				"instant": false,
				"name": "",
				"standalone": false,
				"purchases": null,
				"online": false,
				"finish_date": null
			},
			"public_url": null,
			"is_open": false
		},
		{
			"id": 313,
			"business": {
				"id": 100,
				"name": "Juicy Avenue",
				"country": null,
				"description": "Somos más que tu tienda de Zumos Naturales favoritos. En Juicy Avenue, encontrarás un espacio ideal para amar la hora de la comida.",
				"url": "https://www.juicyavenue.es/",
				"square_picture": "https://woowbe-dev.s3.amazonaws.com/media/pictures/juicy-avenue-logo-16-9.png",
				"widescreen_picture": "https://woowbe-dev.s3.amazonaws.com/media/pictures/1634978514.jpeg",
				"cover": "https://woowbe-dev.s3.amazonaws.com/media/covers/cover_vNoSs89.jpg",
				"sector": {
					"id": 5,
					"name": "Cafetería",
					"icon": "https://woowbe-dev.s3.amazonaws.com/media/icons/toeat.svg",
					"created": "2021-05-25T10:48:41.547333Z"
				},
				"descriptive_categories": [
					{
						"id": 28,
						"name": "batidos",
						"owner": 100,
						"sector": null,
						"created": "2021-10-23T08:39:27.122811Z"
					},
					{
						"id": 26,
						"name": "detox",
						"owner": null,
						"sector": null,
						"created": "2021-10-23T08:39:01.453615Z"
					},
					{
						"id": 27,
						"name": "zumos",
						"owner": null,
						"sector": null,
						"created": "2021-10-23T08:39:21.905307Z"
					}
				],
				"return_period": 0,
				"dynamic_link": "https://app.dev.woowbe.com/share/aL7u",
				"is_franchisee_of": null,
				"is_favorite": false,
				"created": "2021-10-23T08:39:45.676166Z",
				"offers_count": 0
			},
			"online": false,
			"url": null,
			"position": {
				"type": "Point",
				"coordinates": [
					-3.6792123,
					40.3941029
				]
			},
			"address": "Calle de Méndez Álvaro",
			"number": "74",
			"postal_code": "28045",
			"state": "Madrid",
			"city": "Madrid",
			"merchants_count": 0,
			"modified": "2023-03-17T08:02:21.675778Z",
			"place_id": "ChIJsw9JxBQmQg0RCqPRBRjrRlM",
			"formatted_address": "C. de Méndez Álvaro, 74, 28045 Madrid",
			"deleted": false,
			"deleted_at": null,
			"created": "2021-10-23T08:43:45.224667Z",
			"selected_offer": {
				"reward": null,
				"reward_type": null,
				"kind": null,
				"instant": false,
				"name": "",
				"standalone": false,
				"purchases": null,
				"online": false,
				"finish_date": null
			},
			"public_url": null,
			"is_open": false
		},
		{
			"id": 312,
			"business": {
				"id": 100,
				"name": "Juicy Avenue",
				"country": null,
				"description": "Somos más que tu tienda de Zumos Naturales favoritos. En Juicy Avenue, encontrarás un espacio ideal para amar la hora de la comida.",
				"url": "https://www.juicyavenue.es/",
				"square_picture": "https://woowbe-dev.s3.amazonaws.com/media/pictures/juicy-avenue-logo-16-9.png",
				"widescreen_picture": "https://woowbe-dev.s3.amazonaws.com/media/pictures/1634978514.jpeg",
				"cover": "https://woowbe-dev.s3.amazonaws.com/media/covers/cover_vNoSs89.jpg",
				"sector": {
					"id": 5,
					"name": "Cafetería",
					"icon": "https://woowbe-dev.s3.amazonaws.com/media/icons/toeat.svg",
					"created": "2021-05-25T10:48:41.547333Z"
				},
				"descriptive_categories": [
					{
						"id": 28,
						"name": "batidos",
						"owner": 100,
						"sector": null,
						"created": "2021-10-23T08:39:27.122811Z"
					},
					{
						"id": 26,
						"name": "detox",
						"owner": null,
						"sector": null,
						"created": "2021-10-23T08:39:01.453615Z"
					},
					{
						"id": 27,
						"name": "zumos",
						"owner": null,
						"sector": null,
						"created": "2021-10-23T08:39:21.905307Z"
					}
				],
				"return_period": 0,
				"dynamic_link": "https://app.dev.woowbe.com/share/aL7u",
				"is_franchisee_of": null,
				"is_favorite": false,
				"created": "2021-10-23T08:39:45.676166Z",
				"offers_count": 0
			},
			"online": false,
			"url": null,
			"position": {
				"type": "Point",
				"coordinates": [
					-3.7017494,
					40.4268742
				]
			},
			"address": "Calle de Fuencarral",
			"number": "93",
			"postal_code": "28004",
			"state": "Madrid",
			"city": "Madrid",
			"merchants_count": 0,
			"modified": "2023-03-17T08:02:21.711971Z",
			"place_id": "ChIJWaE6wIkoQg0RYHbdj6UprGM",
			"formatted_address": "Calle de Fuencarral, 93, 28004 Madrid",
			"deleted": false,
			"deleted_at": null,
			"created": "2021-10-23T08:43:27.509671Z",
			"selected_offer": {
				"reward": null,
				"reward_type": null,
				"kind": null,
				"instant": false,
				"name": "",
				"standalone": false,
				"purchases": null,
				"online": false,
				"finish_date": null
			},
			"public_url": null,
			"is_open": false
		}
	]
}
