{"count":579,"next":"https://backend.dev.woowbe.com/api/v1/points_of_sales/public/?page=49","previous":"https://backend.dev.woowbe.com/api/v1/points_of_sales/public/?page=47","results":[{"id":296,"business":{"id":97,"name":"Tuk Tuk","country":{"id":3,"name":"España","code":"es"},"description":"Los orígenes de Tuk Tuk se remontan a las locas aventuras del ex actor de Hong Kong Ricardo Alexander y el empresario Olivier Blomme en las calles de Asia. Rick y Olivier viajaron por Asia durante muchos años y fue entonces cuando se enamoraron de la auténtica Asian Street Food.\r\n\r\nDespués de mucho degustar y conocer los mejores platos del sudeste asiático, aterrizaron en España para que tú también puedas trasladarte a Tailandia, Filipinas, Hong Kong, Malasia, Indonesia... pero en metro, en coche o a pie. Sin hacer escalas, sin renovar el pasaporte y, por supuesto, sin jet lag.","url":"https://tuktukstreetfood.es/","square_picture":"https://woowbe-dev.s3.amazonaws.com/media/pictures/square_picture_ZHDrOBd.jpg","widescreen_picture":"https://woowbe-dev.s3.amazonaws.com/media/pictures/1634849689.jpeg","cover":"https://woowbe-dev.s3.amazonaws.com/media/covers/cover_dwnCJpQ.jpg","sector":{"id":37,"name":"Restaurante temático","icon":"https://woowbe-dev.s3.amazonaws.com/media/icons/toeat_T2kMSVS.svg","created":"2021-10-21T14:32:58.019404Z"},"descriptive_categories":[{"id":29,"name":"asiatica","owner":null,"sector":2,"created":"2021-10-24T09:41:55.016467Z"},{"id":22,"name":"asiática","owner":null,"sector":2,"created":"2021-10-21T20:53:02.997177Z"},{"id":17,"name":"japonesa","owner":null,"sector":null,"created":"2021-10-21T19:14:13.483887Z"}],"return_period":0,"dynamic_link":"https://app.dev.woowbe.com/share/5WrR","is_franchisee_of":null,"is_favorite":false,"created":"2021-10-21T20:53:45.090171Z","offers_count":0},"online":false,"url":null,"position":{"type":"Point","coordinates":[-3.6743958,40.4971644]},"address":"Calle Estella","number":"21","postal_code":"28050","state":"Madrid","city":"Madrid","merchants_count":0,"modified":"2023-03-17T08:02:23.412433Z","place_id":"ChIJNeqo-uIrQg0RtvvYdVL_pw8","formatted_address":"C. Estella, 21, 28050 Madrid","deleted":false,"deleted_at":null,"created":"2021-10-21T20:56:47.651414Z","selected_offer":{"reward":null,"reward_type":null,"kind":null,"instant":false,"name":"","standalone":false,"purchases":null,"online":false,"finish_date":null},"public_url":null,"is_open":false},{"id":295,"business":{"id":97,"name":"Tuk Tuk","country":{"id":3,"name":"España","code":"es"},"description":"Los orígenes de Tuk Tuk se remontan a las locas aventuras del ex actor de Hong Kong Ricardo Alexander y el empresario Olivier Blomme en las calles de Asia. Rick y Olivier viajaron por Asia durante muchos años y fue entonces cuando se enamoraron de la auténtica Asian Street Food.\r\n\r\nDespués de mucho degustar y conocer los mejores platos del sudeste asiático, aterrizaron en España para que tú también puedas trasladarte a Tailandia, Filipinas, Hong Kong, Malasia, Indonesia... pero en metro, en coche o a pie. Sin hacer escalas, sin renovar el pasaporte y, por supuesto, sin jet lag.","url":"https://tuktukstreetfood.es/","square_picture":"https://woowbe-dev.s3.amazonaws.com/media/pictures/square_picture_ZHDrOBd.jpg","widescreen_picture":"https://woowbe-dev.s3.amazonaws.com/media/pictures/1634849689.jpeg","cover":"https://woowbe-dev.s3.amazonaws.com/media/covers/cover_dwnCJpQ.jpg","sector":{"id":37,"name":"Restaurante temático","icon":"https://woowbe-dev.s3.amazonaws.com/media/icons/toeat_T2kMSVS.svg","created":"2021-10-21T14:32:58.019404Z"},"descriptive_categories":[{"id":29,"name":"asiatica","owner":null,"sector":2,"created":"2021-10-24T09:41:55.016467Z"},{"id":22,"name":"asiática","owner":null,"sector":2,"created":"2021-10-21T20:53:02.997177Z"},{"id":17,"name":"japonesa","owner":null,"sector":null,"created":"2021-10-21T19:14:13.483887Z"}],"return_period":0,"dynamic_link":"https://app.dev.woowbe.com/share/5WrR","is_franchisee_of":null,"is_favorite":false,"created":"2021-10-21T20:53:45.090171Z","offers_count":0},"online":false,"url":null,"position":{"type":"Point","coordinates":[-3.73349,40.33946]},"address":"Avenida de Gran Bretaña","number":"1","postal_code":"28916","state":"Madrid","city":"Leganés","merchants_count":0,"modified":"2023-03-17T08:02:23.596538Z","place_id":"ChIJD1qvH1AnQg0RriPApVLCM7o","formatted_address":"Av. de Gran Bretaña, 1, 28916 Leganés, Madrid","deleted":false,"deleted_at":null,"created":"2021-10-21T20:56:30.554125Z","selected_offer":{"reward":null,"reward_type":null,"kind":null,"instant":false,"name":"","standalone":false,"purchases":null,"online":false,"finish_date":null},"public_url":null,"is_open":false},{"id":294,"business":{"id":97,"name":"Tuk Tuk","country":{"id":3,"name":"España","code":"es"},"description":"Los orígenes de Tuk Tuk se remontan a las locas aventuras del ex actor de Hong Kong Ricardo Alexander y el empresario Olivier Blomme en las calles de Asia. Rick y Olivier viajaron por Asia durante muchos años y fue entonces cuando se enamoraron de la auténtica Asian Street Food.\r\n\r\nDespués de mucho degustar y conocer los mejores platos del sudeste asiático, aterrizaron en España para que tú también puedas trasladarte a Tailandia, Filipinas, Hong Kong, Malasia, Indonesia... pero en metro, en coche o a pie. Sin hacer escalas, sin renovar el pasaporte y, por supuesto, sin jet lag.","url":"https://tuktukstreetfood.es/","square_picture":"https://woowbe-dev.s3.amazonaws.com/media/pictures/square_picture_ZHDrOBd.jpg","widescreen_picture":"https://woowbe-dev.s3.amazonaws.com/media/pictures/1634849689.jpeg","cover":"https://woowbe-dev.s3.amazonaws.com/media/covers/cover_dwnCJpQ.jpg","sector":{"id":37,"name":"Restaurante temático","icon":"https://woowbe-dev.s3.amazonaws.com/media/icons/toeat_T2kMSVS.svg","created":"2021-10-21T14:32:58.019404Z"},"descriptive_categories":[{"id":29,"name":"asiatica","owner":null,"sector":2,"created":"2021-10-24T09:41:55.016467Z"},{"id":22,"name":"asiática","owner":null,"sector":2,"created":"2021-10-21T20:53:02.997177Z"},{"id":17,"name":"japonesa","owner":null,"sector":null,"created":"2021-10-21T19:14:13.483887Z"}],"return_period":0,"dynamic_link":"https://app.dev.woowbe.com/share/5WrR","is_franchisee_of":null,"is_favorite":false,"created":"2021-10-21T20:53:45.090171Z","offers_count":0},"online":false,"url":null,"position":{"type":"Point","coordinates":[-3.7014533,40.4299682]},"address":"Calle del Cardenal Cisneros","number":"6","postal_code":"28010","state":"Madrid","city":"Madrid","merchants_count":0,"modified":"2023-03-17T08:02:23.711164Z","place_id":"ChIJmS0GQ4ooQg0RO5WygZH1t5U","formatted_address":"Calle del Cardenal Cisneros, 6, 28010 Madrid","deleted":false,"deleted_at":null,"created":"2021-10-21T20:56:13.402578Z","selected_offer":{"reward":null,"reward_type":null,"kind":null,"instant":false,"name":"","standalone":false,"purchases":null,"online":false,"finish_date":null},"public_url":null,"is_open":false},{"id":293,"business":{"id":97,"name":"Tuk Tuk","country":{"id":3,"name":"España","code":"es"},"description":"Los orígenes de Tuk Tuk se remontan a las locas aventuras del ex actor de Hong Kong Ricardo Alexander y el empresario Olivier Blomme en las calles de Asia. Rick y Olivier viajaron por Asia durante muchos años y fue entonces cuando se enamoraron de la auténtica Asian Street Food.\r\n\r\nDespués de mucho degustar y conocer los mejores platos del sudeste asiático, aterrizaron en España para que tú también puedas trasladarte a Tailandia, Filipinas, Hong Kong, Malasia, Indonesia... pero en metro, en coche o a pie. Sin hacer escalas, sin renovar el pasaporte y, por supuesto, sin jet lag.","url":"https://tuktukstreetfood.es/","square_picture":"https://woowbe-dev.s3.amazonaws.com/media/pictures/square_picture_ZHDrOBd.jpg","widescreen_picture":"https://woowbe-dev.s3.amazonaws.com/media/pictures/1634849689.jpeg","cover":"https://woowbe-dev.s3.amazonaws.com/media/covers/cover_dwnCJpQ.jpg","sector":{"id":37,"name":"Restaurante temático","icon":"https://woowbe-dev.s3.amazonaws.com/media/icons/toeat_T2kMSVS.svg","created":"2021-10-21T14:32:58.019404Z"},"descriptive_categories":[{"id":29,"name":"asiatica","owner":null,"sector":2,"created":"2021-10-24T09:41:55.016467Z"},{"id":22,"name":"asiática","owner":null,"sector":2,"created":"2021-10-21T20:53:02.997177Z"},{"id":17,"name":"japonesa","owner":null,"sector":null,"created":"2021-10-21T19:14:13.483887Z"}],"return_period":0,"dynamic_link":"https://app.dev.woowbe.com/share/5WrR","is_franchisee_of":null,"is_favorite":false,"created":"2021-10-21T20:53:45.090171Z","offers_count":0},"online":false,"url":null,"position":{"type":"Point","coordinates":[-3.6968825,40.4522305]},"address":"Avenida del General Perón","number":"16","postal_code":"28020","state":"Madrid","city":"Madrid","merchants_count":0,"modified":"2023-03-17T08:02:23.818623Z","place_id":"ChIJY83iw_0oQg0RNiROwkk2xGI","formatted_address":"Av. del General Perón, 16, 28020 Madrid","deleted":false,"deleted_at":null,"created":"2021-10-21T20:55:55.211409Z","selected_offer":{"reward":null,"reward_type":null,"kind":null,"instant":false,"name":"","standalone":false,"purchases":null,"online":false,"finish_date":null},"public_url":null,"is_open":false},{"id":292,"business":{"id":97,"name":"Tuk Tuk","country":{"id":3,"name":"España","code":"es"},"description":"Los orígenes de Tuk Tuk se remontan a las locas aventuras del ex actor de Hong Kong Ricardo Alexander y el empresario Olivier Blomme en las calles de Asia. Rick y Olivier viajaron por Asia durante muchos años y fue entonces cuando se enamoraron de la auténtica Asian Street Food.\r\n\r\nDespués de mucho degustar y conocer los mejores platos del sudeste asiático, aterrizaron en España para que tú también puedas trasladarte a Tailandia, Filipinas, Hong Kong, Malasia, Indonesia... pero en metro, en coche o a pie. Sin hacer escalas, sin renovar el pasaporte y, por supuesto, sin jet lag.","url":"https://tuktukstreetfood.es/","square_picture":"https://woowbe-dev.s3.amazonaws.com/media/pictures/square_picture_ZHDrOBd.jpg","widescreen_picture":"https://woowbe-dev.s3.amazonaws.com/media/pictures/1634849689.jpeg","cover":"https://woowbe-dev.s3.amazonaws.com/media/covers/cover_dwnCJpQ.jpg","sector":{"id":37,"name":"Restaurante temático","icon":"https://woowbe-dev.s3.amazonaws.com/media/icons/toeat_T2kMSVS.svg","created":"2021-10-21T14:32:58.019404Z"},"descriptive_categories":[{"id":29,"name":"asiatica","owner":null,"sector":2,"created":"2021-10-24T09:41:55.016467Z"},{"id":22,"name":"asiática","owner":null,"sector":2,"created":"2021-10-21T20:53:02.997177Z"},{"id":17,"name":"japonesa","owner":null,"sector":null,"created":"2021-10-21T19:14:13.483887Z"}],"return_period":0,"dynamic_link":"https://app.dev.woowbe.com/share/5WrR","is_franchisee_of":null,"is_favorite":false,"created":"2021-10-21T20:53:45.090171Z","offers_count":0},"online":false,"url":null,"position":{"type":"Point","coordinates":[-3.6730394,40.4263406]},"address":"Calle de Alcalá","number":"167","postal_code":"28009","state":"Madrid","city":"Madrid","merchants_count":0,"modified":"2023-03-17T08:02:24.091627Z","place_id":"ChIJG7BMj7ooQg0Rm3TRG4GLOcQ","formatted_address":"C. de Alcalá, 167, 28009 Madrid","deleted":false,"deleted_at":null,"created":"2021-10-21T20:55:39.453571Z","selected_offer":{"reward":null,"reward_type":null,"kind":null,"instant":false,"name":"","standalone":false,"purchases":null,"online":false,"finish_date":null},"public_url":null,"is_open":false},{"id":291,"business":{"id":97,"name":"Tuk Tuk","country":{"id":3,"name":"España","code":"es"},"description":"Los orígenes de Tuk Tuk se remontan a las locas aventuras del ex actor de Hong Kong Ricardo Alexander y el empresario Olivier Blomme en las calles de Asia. Rick y Olivier viajaron por Asia durante muchos años y fue entonces cuando se enamoraron de la auténtica Asian Street Food.\r\n\r\nDespués de mucho degustar y conocer los mejores platos del sudeste asiático, aterrizaron en España para que tú también puedas trasladarte a Tailandia, Filipinas, Hong Kong, Malasia, Indonesia... pero en metro, en coche o a pie. Sin hacer escalas, sin renovar el pasaporte y, por supuesto, sin jet lag.","url":"https://tuktukstreetfood.es/","square_picture":"https://woowbe-dev.s3.amazonaws.com/media/pictures/square_picture_ZHDrOBd.jpg","widescreen_picture":"https://woowbe-dev.s3.amazonaws.com/media/pictures/1634849689.jpeg","cover":"https://woowbe-dev.s3.amazonaws.com/media/covers/cover_dwnCJpQ.jpg","sector":{"id":37,"name":"Restaurante temático","icon":"https://woowbe-dev.s3.amazonaws.com/media/icons/toeat_T2kMSVS.svg","created":"2021-10-21T14:32:58.019404Z"},"descriptive_categories":[{"id":29,"name":"asiatica","owner":null,"sector":2,"created":"2021-10-24T09:41:55.016467Z"},{"id":22,"name":"asiática","owner":null,"sector":2,"created":"2021-10-21T20:53:02.997177Z"},{"id":17,"name":"japonesa","owner":null,"sector":null,"created":"2021-10-21T19:14:13.483887Z"}],"return_period":0,"dynamic_link":"https://app.dev.woowbe.com/share/5WrR","is_franchisee_of":null,"is_favorite":false,"created":"2021-10-21T20:53:45.090171Z","offers_count":0},"online":false,"url":null,"position":{"type":"Point","coordinates":[-3.6955542,40.4224006]},"address":"Calle del Barquillo","number":"26","postal_code":"28004","state":"Madrid","city":"Madrid","merchants_count":0,"modified":"2023-03-17T08:02:24.133443Z","place_id":"ChIJNfERnIUoQg0RtRuFs6yzLtw","formatted_address":"C. del Barquillo, 26, 28004 Madrid","deleted":false,"deleted_at":null,"created":"2021-10-21T20:55:23.808695Z","selected_offer":{"reward":null,"reward_type":null,"kind":null,"instant":false,"name":"","standalone":false,"purchases":null,"online":false,"finish_date":null},"public_url":null,"is_open":false},{"id":287,"business":{"id":95,"name":"Grosso Napoletano","country":null,"description":"Con la cantidad de pizzas que te habrás zampado, es probable que todavía no hayas probado la original. En Grosso Napoletano queremos compartir contigo el secreto mejor guardado de Nápoles: La Verace Pizza Napolitana.","url":"https://www.grossonapoletano.com/","square_picture":"https://woowbe-dev.s3.amazonaws.com/media/pictures/square_picture_zTR4rhR.jpg","widescreen_picture":"https://woowbe-dev.s3.amazonaws.com/media/pictures/1634847890.jpeg","cover":"https://woowbe-dev.s3.amazonaws.com/media/covers/cover_J5Qu0Se.jpg","sector":{"id":37,"name":"Restaurante temático","icon":"https://woowbe-dev.s3.amazonaws.com/media/icons/toeat_T2kMSVS.svg","created":"2021-10-21T14:32:58.019404Z"},"descriptive_categories":[{"id":20,"name":"italiano","owner":null,"sector":null,"created":"2021-10-21T20:22:55.462166Z"},{"id":19,"name":"pizza","owner":null,"sector":3,"created":"2021-10-21T20:22:48.209376Z"}],"return_period":0,"dynamic_link":"https://app.dev.woowbe.com/share/47bd","is_franchisee_of":null,"is_favorite":false,"created":"2021-10-21T20:23:07.362551Z","offers_count":0},"online":false,"url":null,"position":{"type":"Point","coordinates":[-3.8614004,40.4587535]},"address":"Calle Moreras","number":"42","postal_code":"28221","state":"Madrid","city":"Majadahonda","merchants_count":0,"modified":"2023-03-17T08:02:24.402701Z","place_id":"ChIJybR_4VmEQQ0RRlynY-X1AaY","formatted_address":"C. Moreras, 42, 28221 Majadahonda, Madrid","deleted":false,"deleted_at":null,"created":"2021-10-21T20:30:01.626013Z","selected_offer":{"reward":null,"reward_type":null,"kind":null,"instant":false,"name":"","standalone":false,"purchases":null,"online":false,"finish_date":null},"public_url":null,"is_open":false},{"id":286,"business":{"id":95,"name":"Grosso Napoletano","country":null,"description":"Con la cantidad de pizzas que te habrás zampado, es probable que todavía no hayas probado la original. En Grosso Napoletano queremos compartir contigo el secreto mejor guardado de Nápoles: La Verace Pizza Napolitana.","url":"https://www.grossonapoletano.com/","square_picture":"https://woowbe-dev.s3.amazonaws.com/media/pictures/square_picture_zTR4rhR.jpg","widescreen_picture":"https://woowbe-dev.s3.amazonaws.com/media/pictures/1634847890.jpeg","cover":"https://woowbe-dev.s3.amazonaws.com/media/covers/cover_J5Qu0Se.jpg","sector":{"id":37,"name":"Restaurante temático","icon":"https://woowbe-dev.s3.amazonaws.com/media/icons/toeat_T2kMSVS.svg","created":"2021-10-21T14:32:58.019404Z"},"descriptive_categories":[{"id":20,"name":"italiano","owner":null,"sector":null,"created":"2021-10-21T20:22:55.462166Z"},{"id":19,"name":"pizza","owner":null,"sector":3,"created":"2021-10-21T20:22:48.209376Z"}],"return_period":0,"dynamic_link":"https://app.dev.woowbe.com/share/47bd","is_franchisee_of":null,"is_favorite":false,"created":"2021-10-21T20:23:07.362551Z","offers_count":0},"online":false,"url":null,"position":{"type":"Point","coordinates":[-3.6553541,40.5186645]},"address":"Avenida de Europa","number":"13","postal_code":"28108","state":"Madrid","city":"Alcobendas","merchants_count":0,"modified":"2023-03-17T08:02:24.700021Z","place_id":"ChIJIwi8DHQsQg0RPvsnpfEVuRE","formatted_address":"Av. de Europa, 13, 28108 Alcobendas, Madrid","deleted":false,"deleted_at":null,"created":"2021-10-21T20:29:45.117945Z","selected_offer":{"reward":null,"reward_type":null,"kind":null,"instant":false,"name":"","standalone":false,"purchases":null,"online":false,"finish_date":null},"public_url":null,"is_open":false},{"id":285,"business":{"id":95,"name":"Grosso Napoletano","country":null,"description":"Con la cantidad de pizzas que te habrás zampado, es probable que todavía no hayas probado la original. En Grosso Napoletano queremos compartir contigo el secreto mejor guardado de Nápoles: La Verace Pizza Napolitana.","url":"https://www.grossonapoletano.com/","square_picture":"https://woowbe-dev.s3.amazonaws.com/media/pictures/square_picture_zTR4rhR.jpg","widescreen_picture":"https://woowbe-dev.s3.amazonaws.com/media/pictures/1634847890.jpeg","cover":"https://woowbe-dev.s3.amazonaws.com/media/covers/cover_J5Qu0Se.jpg","sector":{"id":37,"name":"Restaurante temático","icon":"https://woowbe-dev.s3.amazonaws.com/media/icons/toeat_T2kMSVS.svg","created":"2021-10-21T14:32:58.019404Z"},"descriptive_categories":[{"id":20,"name":"italiano","owner":null,"sector":null,"created":"2021-10-21T20:22:55.462166Z"},{"id":19,"name":"pizza","owner":null,"sector":3,"created":"2021-10-21T20:22:48.209376Z"}],"return_period":0,"dynamic_link":"https://app.dev.woowbe.com/share/47bd","is_franchisee_of":null,"is_favorite":false,"created":"2021-10-21T20:23:07.362551Z","offers_count":0},"online":false,"url":null,"position":{"type":"Point","coordinates":[-3.7480874,40.3796114]},"address":"Calle Binéfar","number":"7","postal_code":"28025","state":"Madrid","city":"Madrid","merchants_count":0,"modified":"2023-03-17T08:02:24.818149Z","place_id":"ChIJ5RLXtyiIQQ0RiWOhv_BBJqw","formatted_address":"C. Binéfar, 7, 28025 Madrid","deleted":false,"deleted_at":null,"created":"2021-10-21T20:29:25.037166Z","selected_offer":{"reward":null,"reward_type":null,"kind":null,"instant":false,"name":"","standalone":false,"purchases":null,"online":false,"finish_date":null},"public_url":null,"is_open":false},{"id":284,"business":{"id":95,"name":"Grosso Napoletano","country":null,"description":"Con la cantidad de pizzas que te habrás zampado, es probable que todavía no hayas probado la original. En Grosso Napoletano queremos compartir contigo el secreto mejor guardado de Nápoles: La Verace Pizza Napolitana.","url":"https://www.grossonapoletano.com/","square_picture":"https://woowbe-dev.s3.amazonaws.com/media/pictures/square_picture_zTR4rhR.jpg","widescreen_picture":"https://woowbe-dev.s3.amazonaws.com/media/pictures/1634847890.jpeg","cover":"https://woowbe-dev.s3.amazonaws.com/media/covers/cover_J5Qu0Se.jpg","sector":{"id":37,"name":"Restaurante temático","icon":"https://woowbe-dev.s3.amazonaws.com/media/icons/toeat_T2kMSVS.svg","created":"2021-10-21T14:32:58.019404Z"},"descriptive_categories":[{"id":20,"name":"italiano","owner":null,"sector":null,"created":"2021-10-21T20:22:55.462166Z"},{"id":19,"name":"pizza","owner":null,"sector":3,"created":"2021-10-21T20:22:48.209376Z"}],"return_period":0,"dynamic_link":"https://app.dev.woowbe.com/share/47bd","is_franchisee_of":null,"is_favorite":false,"created":"2021-10-21T20:23:07.362551Z","offers_count":0},"online":false,"url":null,"position":{"type":"Point","coordinates":[-3.6662652,40.3969721]},"address":"Avenida de la Albufera","number":"33","postal_code":"28038","state":"Madrid","city":"Madrid","merchants_count":0,"modified":"2023-03-17T08:02:25.498698Z","place_id":"ChIJW5WylwsmQg0Rk4xAavtPQZQ","formatted_address":"Av. de la Albufera, 33, 28038 Madrid","deleted":false,"deleted_at":null,"created":"2021-10-21T20:29:05.853728Z","selected_offer":{"reward":null,"reward_type":null,"kind":null,"instant":false,"name":"","standalone":false,"purchases":null,"online":false,"finish_date":null},"public_url":null,"is_open":false}]}