{
	"count": 579,
	"next": "https://backend.dev.woowbe.com/api/v1/points_of_sales/public/?page=6",
	"previous": "https://backend.dev.woowbe.com/api/v1/points_of_sales/public/?page=4",
	"results": [
		{
			"id": 849,
			"business": {
				"id": 143,
				"name": "Test App",
				"country": {
					"id": 2,
					"name": "Malta",
					"code": "mt"
				},
				"description": "Descri",
				"url": "https://google.com",
				"square_picture": "https://woowbe-dev.s3.amazonaws.com/media/pictures/1667494635.jpeg",
				"widescreen_picture": "https://woowbe-dev.s3.amazonaws.com/media/pictures/widescreen_picture_ZiLjO4p.jpg",
				"cover": "https://woowbe-dev.s3.amazonaws.com/media/covers/cover_kvUvSKN.jpg",
				"sector": {
					"id": 22,
					"name": "Alimentación animal",
					"icon": "https://woowbe-dev.s3.amazonaws.com/media/icons/pets.svg",
					"created": "2021-05-25T11:07:08.658870Z"
				},
				"descriptive_categories": [
					{
						"id": 30,
						"name": "afterwork",
						"owner": null,
						"sector": 4,
						"created": "2021-10-24T10:04:24.581445Z"
					}
				],
				"return_period": 0,
				"dynamic_link": "https://app.dev.woowbe.com/share/9CqB",
				"is_franchisee_of": null,
				"is_favorite": false,
				"created": "2022-05-18T16:12:43.026936Z",
				"offers_count": 16
			},
			"online": true,
			"url": "https://www.google.com",
			"position": null,
			"address": null,
			"number": null,
			"postal_code": null,
			"state": null,
			"city": null,
			"merchants_count": 0,
			"modified": "2023-03-17T08:00:57.963902Z",
			"place_id": null,
			"formatted_address": "",
			"deleted": false,
			"deleted_at": null,
			"created": "2023-02-27T15:34:48.169977Z",
			"selected_offer": {
				"id": 578,
				"reward": "10.00",
				"reward_type": "percentage",
				"kind": "A",
				"instant": false,
				"name": "Ejemplpo",
				"standalone": false,
				"purchases": null,
				"online": true,
				"applicable": false,
				"available_percentage": 1,
				"available_rewards": null,
				"is_used": false,
				"finish_date": "2023-08-29"
			},
			"public_url": "www.google.com",
			"is_open": false
		},
		{
			"id": 826,
			"business": {
				"id": 184,
				"name": "Floristeria MariPepis QA",
				"country": {
					"id": 3,
					"name": "España",
					"code": "es"
				},
				"description": "Floristeria con todo tipo de flores.",
				"url": "http://www.floristeriamaripepis.com",
				"square_picture": "https://woowbe-dev.s3.amazonaws.com/media/pictures/square_picture_wRtqmQ7.jpg",
				"widescreen_picture": "https://woowbe-dev.s3.amazonaws.com/media/pictures/1662040876.jpeg",
				"cover": "https://woowbe-dev.s3.amazonaws.com/media/covers/cover_J8HYh2d.jpg",
				"sector": {
					"id": 42,
					"name": "Floristerias",
					"icon": null,
					"created": "2022-09-01T14:00:20.722960Z"
				},
				"descriptive_categories": [
					{
						"id": 70,
						"name": "flores",
						"owner": null,
						"sector": 42,
						"created": "2022-09-01T14:00:58.674922Z"
					}
				],
				"return_period": 0,
				"dynamic_link": "https://app.dev.woowbe.com/share/duMz",
				"is_franchisee_of": null,
				"is_favorite": false,
				"created": "2022-09-01T13:51:53.835339Z",
				"offers_count": 1
			},
			"online": false,
			"url": null,
			"position": {
				"type": "Point",
				"coordinates": [
					-3.6995116,
					40.4376685
				]
			},
			"address": "Calle de Ponzano",
			"number": "5",
			"postal_code": "28010",
			"state": "Madrid",
			"city": "Madrid",
			"merchants_count": 0,
			"modified": "2023-03-17T08:00:58.207056Z",
			"place_id": "ChIJcZoOO_QoQg0R7aB_59-QQqg",
			"formatted_address": "C. de Ponzano, 5, 28010 Madrid",
			"deleted": false,
			"deleted_at": null,
			"created": "2023-02-22T17:00:13.167707Z",
			"selected_offer": {
				"reward": null,
				"reward_type": null,
				"kind": null,
				"instant": false,
				"name": "",
				"standalone": false,
				"purchases": null,
				"online": false,
				"finish_date": null
			},
			"public_url": null,
			"is_open": false
		},
		{
			"id": 824,
			"business": {
				"id": 238,
				"name": "Yogui QA",
				"country": {
					"id": 3,
					"name": "España",
					"code": "es"
				},
				"description": "Yogui QA es el comercio offline \n\nLorem Ipsum is simply dummy text of the printing and typesetting industry. Lorem Ipsum has been the industry's standard dummy text ever since the 1500s, when an unknown printer took a galley of type and scrambled it to make a type specimen book. It has survived not only five centuries, but also the leap into electronic typesetting, remaining essentially unchanged. It was popularised in the 1960s with the release of Letraset sheets containing Lorem Ipsum passages",
				"url": "https://www.yogui.com",
				"square_picture": "https://woowbe-dev.s3.amazonaws.com/media/pictures/1676631811.jpeg",
				"widescreen_picture": "https://woowbe-dev.s3.amazonaws.com/media/pictures/1665492408_Z9SKuNG.jpeg",
				"cover": "https://woowbe-dev.s3.amazonaws.com/media/covers/cover_HYuhoAb.jpg",
				"sector": {
					"id": 24,
					"name": "Gimnasio",
					"icon": "https://woowbe-dev.s3.amazonaws.com/media/icons/sport.svg",
					"created": "2021-05-25T11:07:47.157431Z"
				},
				"descriptive_categories": [
					{
						"id": 10,
						"name": "Healthy",
						"owner": null,
						"sector": null,
						"created": "2021-10-21T14:33:37.426542Z"
					}
				],
				"return_period": 0,
				"dynamic_link": "https://app.dev.woowbe.com/share/8UT1",
				"is_franchisee_of": 236,
				"is_favorite": false,
				"created": "2022-10-17T15:15:08.575890Z",
				"offers_count": 0
			},
			"online": false,
			"url": null,
			"position": {
				"type": "Point",
				"coordinates": [
					-5.9876603,
					37.3938564
				]
			},
			"address": "Calle Sol",
			"number": "8",
			"postal_code": "41003",
			"state": "Sevilla",
			"city": "Sevilla",
			"merchants_count": 0,
			"modified": "2023-03-17T08:00:58.226794Z",
			"place_id": "ChIJN8rDdgNsEg0RA97GUvMTFa0",
			"formatted_address": "C. Sol, 8, 41003 Sevilla",
			"deleted": false,
			"deleted_at": null,
			"created": "2023-02-22T15:59:45.923618Z",
			"selected_offer": {
				"reward": null,
				"reward_type": null,
				"kind": null,
				"instant": false,
				"name": "",
				"standalone": false,
				"purchases": null,
				"online": false,
				"finish_date": null
			},
			"public_url": null,
			"is_open": false
		},
		{
			"id": 822,
			"business": {
				"id": 273,
				"name": "Veterinaria QA aaaaaddddddbbbbbbb",
				"country": {
					"id": 3,
					"name": "España",
					"code": "es"
				},
				"description": "clinica veterinaria con mucha experiencia en el cuidado de animales. Tratamos a todos los animales como si fuesen parte de nuestra familia.",
				"url": "http://www.vete.com",
				"square_picture": "https://woowbe-dev.s3.amazonaws.com/media/pictures/1667842927.jpeg",
				"widescreen_picture": "https://woowbe-dev.s3.amazonaws.com/media/pictures/1669722210.jpeg",
				"cover": "https://woowbe-dev.s3.amazonaws.com/media/covers/cover_0hwbWev.jpg",
				"sector": {
					"id": 33,
					"name": "Veterinario",
					"icon": null,
					"created": "2021-05-25T11:17:24.318169Z"
				},
				"descriptive_categories": [
					{
						"id": 84,
						"name": "perro",
						"owner": 246,
						"sector": null,
						"created": "2022-11-07T17:42:00.446793Z"
					}
				],
				"return_period": 0,
				"dynamic_link": "https://app.dev.woowbe.com/share/2NAX",
				"is_franchisee_of": 246,
				"is_favorite": false,
				"created": "2023-02-22T10:44:22.390923Z",
				"offers_count": 0
			},
			"online": false,
			"url": null,
			"position": {
				"type": "Point",
				"coordinates": [
					-5.9924117,
					37.3894538
				]
			},
			"address": "Calle Francos",
			"number": "5",
			"postal_code": "41004",
			"state": "Sevilla",
			"city": "Sevilla",
			"merchants_count": 0,
			"modified": "2023-03-17T08:00:58.679181Z",
			"place_id": "ChIJ9_vB7BpsEg0RFHhWUgCy8fQ",
			"formatted_address": "C. Francos, 5, 41004 Sevilla",
			"deleted": false,
			"deleted_at": null,
			"created": "2023-02-22T10:44:23.609009Z",
			"selected_offer": {
				"reward": null,
				"reward_type": null,
				"kind": null,
				"instant": false,
				"name": "",
				"standalone": false,
				"purchases": null,
				"online": false,
				"finish_date": null
			},
			"public_url": null,
			"is_open": false
		},
		{
			"id": 816,
			"business": {
				"id": 269,
				"name": "Negocio Facturacion",
				"country": {
					"id": 3,
					"name": "España",
					"code": "es"
				},
				"description": "Negocio Facturacion descripcion",
				"url": "https://www.facturacion.com",
				"square_picture": "https://woowbe-dev.s3.amazonaws.com/media/pictures/1676987353.jpeg",
				"widescreen_picture": "https://woowbe-dev.s3.amazonaws.com/media/pictures/1666952262_2VZ6Qea.jpeg",
				"cover": "https://woowbe-dev.s3.amazonaws.com/media/covers/cover_PjPUN60.jpg",
				"sector": {
					"id": 4,
					"name": "Bar",
					"icon": "https://woowbe-dev.s3.amazonaws.com/media/icons/food.svg",
					"created": "2021-05-25T10:47:46.399740Z"
				},
				"descriptive_categories": [
					{
						"id": 44,
						"name": "barbería",
						"owner": null,
						"sector": null,
						"created": "2021-10-26T07:38:49.830200Z"
					}
				],
				"return_period": 0,
				"dynamic_link": "https://app.dev.woowbe.com/share/FfNj",
				"is_franchisee_of": 243,
				"is_favorite": false,
				"created": "2023-02-21T13:49:12.354463Z",
				"offers_count": 0
			},
			"online": false,
			"url": null,
			"position": null,
			"address": null,
			"number": null,
			"postal_code": null,
			"state": null,
			"city": null,
			"merchants_count": 0,
			"modified": "2023-03-17T08:00:58.705642Z",
			"place_id": null,
			"formatted_address": "",
			"deleted": false,
			"deleted_at": null,
			"created": "2023-02-21T13:49:13.561113Z",
			"selected_offer": {
				"reward": null,
				"reward_type": null,
				"kind": null,
				"instant": false,
				"name": "",
				"standalone": false,
				"purchases": null,
				"online": false,
				"finish_date": null
			},
			"public_url": null,
			"is_open": false
		},
		{
			"id": 811,
			"business": {
				"id": 268,
				"name": "Vancasti Business",
				"country": {
					"id": 3,
					"name": "España",
					"code": "es"
				},
				"description": "Victor's fake company",
				"url": "https://vancasti.com",
				"square_picture": "https://woowbe-dev.s3.amazonaws.com/media/pictures/square_picture_XVUR02p.jpg",
				"widescreen_picture": "https://woowbe-dev.s3.amazonaws.com/media/pictures/1675342216.jpeg",
				"cover": "https://woowbe-dev.s3.amazonaws.com/media/covers/cover_wxVwunN.jpg",
				"sector": {
					"id": 14,
					"name": "Electrónica",
					"icon": "https://woowbe-dev.s3.amazonaws.com/media/icons/electronic.svg",
					"created": "2021-05-25T11:03:50.040033Z"
				},
				"descriptive_categories": [
					{
						"id": 96,
						"name": "tecnología",
						"owner": 268,
						"sector": null,
						"created": "2023-02-02T12:50:12.472748Z"
					}
				],
				"return_period": 10,
				"dynamic_link": "https://app.dev.woowbe.com/share/jisP",
				"is_franchisee_of": null,
				"is_favorite": false,
				"created": "2023-02-02T12:16:49.061385Z",
				"offers_count": 0
			},
			"online": true,
			"url": "https://vancasti.com",
			"position": null,
			"address": null,
			"number": null,
			"postal_code": null,
			"state": null,
			"city": null,
			"merchants_count": 0,
			"modified": "2023-03-17T08:00:58.731433Z",
			"place_id": null,
			"formatted_address": "",
			"deleted": false,
			"deleted_at": null,
			"created": "2023-02-02T16:21:05.227353Z",
			"selected_offer": {
				"reward": null,
				"reward_type": null,
				"kind": null,
				"instant": false,
				"name": "",
				"standalone": false,
				"purchases": null,
				"online": false,
				"finish_date": null
			},
			"public_url": "vancasti.com",
			"is_open": false
		},
		{
			"id": 810,
			"business": {
				"id": 268,
				"name": "Vancasti Business",
				"country": {
					"id": 3,
					"name": "España",
					"code": "es"
				},
				"description": "Victor's fake company",
				"url": "https://vancasti.com",
				"square_picture": "https://woowbe-dev.s3.amazonaws.com/media/pictures/square_picture_XVUR02p.jpg",
				"widescreen_picture": "https://woowbe-dev.s3.amazonaws.com/media/pictures/1675342216.jpeg",
				"cover": "https://woowbe-dev.s3.amazonaws.com/media/covers/cover_wxVwunN.jpg",
				"sector": {
					"id": 14,
					"name": "Electrónica",
					"icon": "https://woowbe-dev.s3.amazonaws.com/media/icons/electronic.svg",
					"created": "2021-05-25T11:03:50.040033Z"
				},
				"descriptive_categories": [
					{
						"id": 96,
						"name": "tecnología",
						"owner": 268,
						"sector": null,
						"created": "2023-02-02T12:50:12.472748Z"
					}
				],
				"return_period": 10,
				"dynamic_link": "https://app.dev.woowbe.com/share/jisP",
				"is_franchisee_of": null,
				"is_favorite": false,
				"created": "2023-02-02T12:16:49.061385Z",
				"offers_count": 0
			},
			"online": false,
			"url": null,
			"position": {
				"type": "Point",
				"coordinates": [
					-6.0857663,
					40.02957809999999
				]
			},
			"address": "Avenida del Valle",
			"number": "33",
			"postal_code": "10600",
			"state": "Cáceres",
			"city": "Plasencia",
			"merchants_count": 0,
			"modified": "2023-03-17T08:00:58.766044Z",
			"place_id": "EihBdmVuaWRhIGRlbCBWYWxsZSwgMzNiLCBQbGFzZW5jaWEsIFNwYWluIjASLgoUChIJj9EZWjQWPg0RySk7qwnjeZoQISoUChIJYeaZazQWPg0Rm3qUA8rHOQA",
			"formatted_address": "Av. del Valle, 33, 10600 Plasencia, Cáceres",
			"deleted": false,
			"deleted_at": null,
			"created": "2023-02-02T16:20:40.443728Z",
			"selected_offer": {
				"reward": null,
				"reward_type": null,
				"kind": null,
				"instant": false,
				"name": "",
				"standalone": false,
				"purchases": null,
				"online": false,
				"finish_date": null
			},
			"public_url": null,
			"is_open": false
		},
		{
			"id": 809,
			"business": {
				"id": 268,
				"name": "Vancasti Business",
				"country": {
					"id": 3,
					"name": "España",
					"code": "es"
				},
				"description": "Victor's fake company",
				"url": "https://vancasti.com",
				"square_picture": "https://woowbe-dev.s3.amazonaws.com/media/pictures/square_picture_XVUR02p.jpg",
				"widescreen_picture": "https://woowbe-dev.s3.amazonaws.com/media/pictures/1675342216.jpeg",
				"cover": "https://woowbe-dev.s3.amazonaws.com/media/covers/cover_wxVwunN.jpg",
				"sector": {
					"id": 14,
					"name": "Electrónica",
					"icon": "https://woowbe-dev.s3.amazonaws.com/media/icons/electronic.svg",
					"created": "2021-05-25T11:03:50.040033Z"
				},
				"descriptive_categories": [
					{
						"id": 96,
						"name": "tecnología",
						"owner": 268,
						"sector": null,
						"created": "2023-02-02T12:50:12.472748Z"
					}
				],
				"return_period": 10,
				"dynamic_link": "https://app.dev.woowbe.com/share/jisP",
				"is_franchisee_of": null,
				"is_favorite": false,
				"created": "2023-02-02T12:16:49.061385Z",
				"offers_count": 0
			},
			"online": false,
			"url": null,
			"position": {
				"type": "Point",
				"coordinates": [
					-3.8166943,
					40.354554
				]
			},
			"address": "Calle Porto Alegre",
			"number": "2",
			"postal_code": "28950",
			"state": "Madrid",
			"city": "Alcorcón",
			"merchants_count": 0,
			"modified": "2023-03-17T08:00:58.795880Z",
			"place_id": "ChIJG5cZ5zCJQQ0RxS__OUKrgzo",
			"formatted_address": "C. Porto Alegre, 2, 28950 Alcorcón, Madrid",
			"deleted": false,
			"deleted_at": null,
			"created": "2023-02-02T16:20:18.533445Z",
			"selected_offer": {
				"reward": null,
				"reward_type": null,
				"kind": null,
				"instant": false,
				"name": "",
				"standalone": false,
				"purchases": null,
				"online": false,
				"finish_date": null
			},
			"public_url": null,
			"is_open": false
		},
		{
			"id": 805,
			"business": {
				"id": 184,
				"name": "Floristeria MariPepis QA",
				"country": {
					"id": 3,
					"name": "España",
					"code": "es"
				},
				"description": "Floristeria con todo tipo de flores.",
				"url": "http://www.floristeriamaripepis.com",
				"square_picture": "https://woowbe-dev.s3.amazonaws.com/media/pictures/square_picture_wRtqmQ7.jpg",
				"widescreen_picture": "https://woowbe-dev.s3.amazonaws.com/media/pictures/1662040876.jpeg",
				"cover": "https://woowbe-dev.s3.amazonaws.com/media/covers/cover_J8HYh2d.jpg",
				"sector": {
					"id": 42,
					"name": "Floristerias",
					"icon": null,
					"created": "2022-09-01T14:00:20.722960Z"
				},
				"descriptive_categories": [
					{
						"id": 70,
						"name": "flores",
						"owner": null,
						"sector": 42,
						"created": "2022-09-01T14:00:58.674922Z"
					}
				],
				"return_period": 0,
				"dynamic_link": "https://app.dev.woowbe.com/share/duMz",
				"is_franchisee_of": null,
				"is_favorite": false,
				"created": "2022-09-01T13:51:53.835339Z",
				"offers_count": 1
			},
			"online": false,
			"url": null,
			"position": {
				"type": "Point",
				"coordinates": [
					-4.5037407,
					36.6198878
				]
			},
			"address": "Calle Pez Dorado",
			"number": "3",
			"postal_code": "29620",
			"state": "Málaga",
			"city": "Torremolinos",
			"merchants_count": 0,
			"modified": "2023-03-17T08:00:59.102012Z",
			"place_id": "ChIJbQW3pI37cg0R_iq-7ecTRmo",
			"formatted_address": "C. Pez Dorado, 3, 29620 Torremolinos, Málaga",
			"deleted": false,
			"deleted_at": null,
			"created": "2023-02-01T17:17:20.013275Z",
			"selected_offer": {
				"id": 403,
				"reward": "4.00",
				"reward_type": "fixed",
				"kind": "C",
				"instant": false,
				"name": "geo lejos torremolinos",
				"standalone": false,
				"purchases": 4,
				"online": false,
				"applicable": false,
				"available_percentage": 0.6,
				"available_rewards": 1,
				"is_used": false,
				"finish_date": "2023-08-01"
			},
			"public_url": null,
			"is_open": false
		},
		{
			"id": 802,
			"business": {
				"id": 267,
				"name": "New York Burger",
				"country": {
					"id": 3,
					"name": "España",
					"code": "es"
				},
				"description": "Como tú, somos apasionados de la buena comida americana.\r\n\r\nDe aquí evolucionamos a la barbacoa, creando recetas auténticas americanas a base de brasa, madera y humo.\r\n\r\nEn NYB queremos verte disfrutar, sean cuáles sean tus gustos o principios. Por ello, nuestra apuesta más reciente es New York Green con ensaladas y bowls veganos y vegetarianos, que preparamos cada día con ingredientes frescos y de proximidad.",
				"url": "https://newyorkburger.es/",
				"square_picture": "https://woowbe-dev.s3.amazonaws.com/media/pictures/newyorkburger-logo-1-1.jpeg",
				"widescreen_picture": "https://woowbe-dev.s3.amazonaws.com/media/pictures/newyorkburger-logo-16-9.jpeg",
				"cover": "https://woowbe-dev.s3.amazonaws.com/media/covers/newyorkburger-portada.jpeg",
				"sector": {
					"id": 2,
					"name": "Restaurante",
					"icon": "https://woowbe-dev.s3.amazonaws.com/media/icons/food_Yc99kSV.svg",
					"created": "2021-05-25T10:46:14.371617Z"
				},
				"descriptive_categories": [
					{
						"id": 87,
						"name": "adidas",
						"owner": 248,
						"sector": null,
						"created": "2022-11-15T16:16:47.536980Z"
					},
					{
						"id": 46,
						"name": "americana",
						"owner": null,
						"sector": null,
						"created": "2021-11-29T09:27:36.991965Z"
					},
					{
						"id": 47,
						"name": "brasas",
						"owner": null,
						"sector": null,
						"created": "2021-11-29T09:27:43.625917Z"
					},
					{
						"id": 48,
						"name": "burger",
						"owner": null,
						"sector": null,
						"created": "2021-11-29T09:27:58.948006Z"
					},
					{
						"id": 39,
						"name": "ensaladas",
						"owner": null,
						"sector": null,
						"created": "2021-10-25T12:45:54.528824Z"
					},
					{
						"id": 37,
						"name": "hamburguesa",
						"owner": null,
						"sector": null,
						"created": "2021-10-25T11:59:24.358507Z"
					},
					{
						"id": 10,
						"name": "Healthy",
						"owner": null,
						"sector": null,
						"created": "2021-10-21T14:33:37.426542Z"
					},
					{
						"id": 49,
						"name": "niños",
						"owner": 118,
						"sector": null,
						"created": "2021-11-29T09:30:23.079267Z"
					},
					{
						"id": 50,
						"name": "saludable",
						"owner": 118,
						"sector": null,
						"created": "2021-11-29T09:30:31.798207Z"
					},
					{
						"id": 51,
						"name": "vegana",
						"owner": 118,
						"sector": null,
						"created": "2021-11-29T09:30:34.948300Z"
					},
					{
						"id": 52,
						"name": "vegano",
						"owner": 118,
						"sector": null,
						"created": "2021-11-29T09:30:37.746041Z"
					}
				],
				"return_period": 0,
				"dynamic_link": "https://app.dev.woowbe.com/share/Q4zA",
				"is_franchisee_of": 118,
				"is_favorite": false,
				"created": "2023-02-01T10:40:47.131211Z",
				"offers_count": 0
			},
			"online": false,
			"url": null,
			"position": {
				"type": "Point",
				"coordinates": [
					-3.6767191,
					40.45633369999999
				]
			},
			"address": "Calle del Príncipe de Vergara",
			"number": "260",
			"postal_code": "28016",
			"state": "Madrid",
			"city": "Madrid",
			"merchants_count": 0,
			"modified": "2023-03-17T08:00:59.116951Z",
			"place_id": "ChIJ89HRJScpQg0Rqz2FaAH0xII",
			"formatted_address": "C. del Príncipe de Vergara, 260, 28016 Madrid",
			"deleted": false,
			"deleted_at": null,
			"created": "2023-02-01T10:51:18.124251Z",
			"selected_offer": {
				"reward": null,
				"reward_type": null,
				"kind": null,
				"instant": false,
				"name": "",
				"standalone": false,
				"purchases": null,
				"online": false,
				"finish_date": null
			},
			"public_url": null,
			"is_open": false
		}
	]
}
