{"count":579,"next":"https://backend.dev.woowbe.com/api/v1/points_of_sales/public/?page=51","previous":"https://backend.dev.woowbe.com/api/v1/points_of_sales/public/?page=49","results":[{"id":272,"business":{"id":94,"name":"Saona","country":null,"description":"Saona empezó con un pequeño restaurante familiar, hoy son muchos más restaurantes familiares, la única diferencia es que la familia ahora es mucho más grande. Descubre la personalidad de cada uno de ellos","url":"https://www.gruposaona.com/","square_picture":"https://woowbe-dev.s3.amazonaws.com/media/pictures/square_picture_TEKrspD.jpg","widescreen_picture":"https://woowbe-dev.s3.amazonaws.com/media/pictures/1634846102.jpeg","cover":"https://woowbe-dev.s3.amazonaws.com/media/covers/cover_wmnj91d.jpg","sector":{"id":38,"name":"Casual food","icon":"https://woowbe-dev.s3.amazonaws.com/media/icons/food_hlfMlAY.svg","created":"2021-10-21T19:51:53.839559Z"},"descriptive_categories":[{"id":18,"name":"mediterráneo","owner":null,"sector":null,"created":"2021-10-21T19:52:31.502016Z"}],"return_period":0,"dynamic_link":"https://app.dev.woowbe.com/share/o7L9","is_franchisee_of":null,"is_favorite":false,"created":"2021-10-21T19:52:42.042306Z","offers_count":0},"online":false,"url":null,"position":{"type":"Point","coordinates":[-3.651646,40.514862]},"address":"Calle de la Estafeta","number":"1","postal_code":"28109","state":"Madrid","city":"Alcobendas","merchants_count":0,"modified":"2023-03-17T08:02:26.419902Z","place_id":"ChIJ1QHOfA0sQg0RyyM-GPFCV7s","formatted_address":"C. de la Estafeta, 1, 28109 Alcobendas, Madrid","deleted":false,"deleted_at":null,"created":"2021-10-21T19:59:59.064493Z","selected_offer":{"reward":null,"reward_type":null,"kind":null,"instant":false,"name":"","standalone":false,"purchases":null,"online":false,"finish_date":null},"public_url":null,"is_open":false},{"id":271,"business":{"id":94,"name":"Saona","country":null,"description":"Saona empezó con un pequeño restaurante familiar, hoy son muchos más restaurantes familiares, la única diferencia es que la familia ahora es mucho más grande. Descubre la personalidad de cada uno de ellos","url":"https://www.gruposaona.com/","square_picture":"https://woowbe-dev.s3.amazonaws.com/media/pictures/square_picture_TEKrspD.jpg","widescreen_picture":"https://woowbe-dev.s3.amazonaws.com/media/pictures/1634846102.jpeg","cover":"https://woowbe-dev.s3.amazonaws.com/media/covers/cover_wmnj91d.jpg","sector":{"id":38,"name":"Casual food","icon":"https://woowbe-dev.s3.amazonaws.com/media/icons/food_hlfMlAY.svg","created":"2021-10-21T19:51:53.839559Z"},"descriptive_categories":[{"id":18,"name":"mediterráneo","owner":null,"sector":null,"created":"2021-10-21T19:52:31.502016Z"}],"return_period":0,"dynamic_link":"https://app.dev.woowbe.com/share/o7L9","is_franchisee_of":null,"is_favorite":false,"created":"2021-10-21T19:52:42.042306Z","offers_count":0},"online":false,"url":null,"position":{"type":"Point","coordinates":[-3.6903619,40.4205352]},"address":"Calle de Salustiano Olózaga","number":"12","postal_code":"28001","state":"Madrid","city":"Madrid","merchants_count":0,"modified":"2023-03-17T08:02:26.461655Z","place_id":"ChIJkUogB5soQg0RerOzfqbarvs","formatted_address":"C. de Salustiano Olózaga, 12, 28001 Madrid","deleted":false,"deleted_at":null,"created":"2021-10-21T19:59:38.978177Z","selected_offer":{"reward":null,"reward_type":null,"kind":null,"instant":false,"name":"","standalone":false,"purchases":null,"online":false,"finish_date":null},"public_url":null,"is_open":false},{"id":270,"business":{"id":94,"name":"Saona","country":null,"description":"Saona empezó con un pequeño restaurante familiar, hoy son muchos más restaurantes familiares, la única diferencia es que la familia ahora es mucho más grande. Descubre la personalidad de cada uno de ellos","url":"https://www.gruposaona.com/","square_picture":"https://woowbe-dev.s3.amazonaws.com/media/pictures/square_picture_TEKrspD.jpg","widescreen_picture":"https://woowbe-dev.s3.amazonaws.com/media/pictures/1634846102.jpeg","cover":"https://woowbe-dev.s3.amazonaws.com/media/covers/cover_wmnj91d.jpg","sector":{"id":38,"name":"Casual food","icon":"https://woowbe-dev.s3.amazonaws.com/media/icons/food_hlfMlAY.svg","created":"2021-10-21T19:51:53.839559Z"},"descriptive_categories":[{"id":18,"name":"mediterráneo","owner":null,"sector":null,"created":"2021-10-21T19:52:31.502016Z"}],"return_period":0,"dynamic_link":"https://app.dev.woowbe.com/share/o7L9","is_franchisee_of":null,"is_favorite":false,"created":"2021-10-21T19:52:42.042306Z","offers_count":0},"online":false,"url":null,"position":{"type":"Point","coordinates":[-3.6539466,40.444775]},"address":"Calle Condesa de Venadito","number":"5A","postal_code":"28027","state":"Madrid","city":"Madrid","merchants_count":0,"modified":"2023-03-17T08:02:26.499538Z","place_id":"ChIJfUpXJjAvQg0R9TaWTbh3DwQ","formatted_address":"C. Condesa de Venadito, 5A, 28027 Madrid","deleted":false,"deleted_at":null,"created":"2021-10-21T19:59:23.481699Z","selected_offer":{"reward":null,"reward_type":null,"kind":null,"instant":false,"name":"","standalone":false,"purchases":null,"online":false,"finish_date":null},"public_url":null,"is_open":false},{"id":269,"business":{"id":94,"name":"Saona","country":null,"description":"Saona empezó con un pequeño restaurante familiar, hoy son muchos más restaurantes familiares, la única diferencia es que la familia ahora es mucho más grande. Descubre la personalidad de cada uno de ellos","url":"https://www.gruposaona.com/","square_picture":"https://woowbe-dev.s3.amazonaws.com/media/pictures/square_picture_TEKrspD.jpg","widescreen_picture":"https://woowbe-dev.s3.amazonaws.com/media/pictures/1634846102.jpeg","cover":"https://woowbe-dev.s3.amazonaws.com/media/covers/cover_wmnj91d.jpg","sector":{"id":38,"name":"Casual food","icon":"https://woowbe-dev.s3.amazonaws.com/media/icons/food_hlfMlAY.svg","created":"2021-10-21T19:51:53.839559Z"},"descriptive_categories":[{"id":18,"name":"mediterráneo","owner":null,"sector":null,"created":"2021-10-21T19:52:31.502016Z"}],"return_period":0,"dynamic_link":"https://app.dev.woowbe.com/share/o7L9","is_franchisee_of":null,"is_favorite":false,"created":"2021-10-21T19:52:42.042306Z","offers_count":0},"online":false,"url":null,"position":{"type":"Point","coordinates":[-3.6728413,40.4294474]},"address":"Calle de José Ortega y Gasset","number":"84","postal_code":"28006","state":"Madrid","city":"Madrid","merchants_count":0,"modified":"2023-03-17T08:02:26.541324Z","place_id":"ChIJ575Y-bkoQg0RFX1We5DrKiw","formatted_address":"C. de José Ortega y Gasset, 84, 28006 Madrid","deleted":false,"deleted_at":null,"created":"2021-10-21T19:59:06.036836Z","selected_offer":{"reward":null,"reward_type":null,"kind":null,"instant":false,"name":"","standalone":false,"purchases":null,"online":false,"finish_date":null},"public_url":null,"is_open":false},{"id":268,"business":{"id":94,"name":"Saona","country":null,"description":"Saona empezó con un pequeño restaurante familiar, hoy son muchos más restaurantes familiares, la única diferencia es que la familia ahora es mucho más grande. Descubre la personalidad de cada uno de ellos","url":"https://www.gruposaona.com/","square_picture":"https://woowbe-dev.s3.amazonaws.com/media/pictures/square_picture_TEKrspD.jpg","widescreen_picture":"https://woowbe-dev.s3.amazonaws.com/media/pictures/1634846102.jpeg","cover":"https://woowbe-dev.s3.amazonaws.com/media/covers/cover_wmnj91d.jpg","sector":{"id":38,"name":"Casual food","icon":"https://woowbe-dev.s3.amazonaws.com/media/icons/food_hlfMlAY.svg","created":"2021-10-21T19:51:53.839559Z"},"descriptive_categories":[{"id":18,"name":"mediterráneo","owner":null,"sector":null,"created":"2021-10-21T19:52:31.502016Z"}],"return_period":0,"dynamic_link":"https://app.dev.woowbe.com/share/o7L9","is_franchisee_of":null,"is_favorite":false,"created":"2021-10-21T19:52:42.042306Z","offers_count":0},"online":false,"url":null,"position":{"type":"Point","coordinates":[-3.6916425,40.4294078]},"address":"Calle de Zurbarán","number":"18","postal_code":"28010","state":"Madrid","city":"Madrid","merchants_count":0,"modified":"2023-03-17T08:02:26.701723Z","place_id":"ChIJBwZiFpIoQg0RBaYqpnM2rmQ","formatted_address":"C. de Zurbarán, 18, 28010 Madrid","deleted":false,"deleted_at":null,"created":"2021-10-21T19:58:45.663767Z","selected_offer":{"reward":null,"reward_type":null,"kind":null,"instant":false,"name":"","standalone":false,"purchases":null,"online":false,"finish_date":null},"public_url":null,"is_open":false},{"id":267,"business":{"id":94,"name":"Saona","country":null,"description":"Saona empezó con un pequeño restaurante familiar, hoy son muchos más restaurantes familiares, la única diferencia es que la familia ahora es mucho más grande. Descubre la personalidad de cada uno de ellos","url":"https://www.gruposaona.com/","square_picture":"https://woowbe-dev.s3.amazonaws.com/media/pictures/square_picture_TEKrspD.jpg","widescreen_picture":"https://woowbe-dev.s3.amazonaws.com/media/pictures/1634846102.jpeg","cover":"https://woowbe-dev.s3.amazonaws.com/media/covers/cover_wmnj91d.jpg","sector":{"id":38,"name":"Casual food","icon":"https://woowbe-dev.s3.amazonaws.com/media/icons/food_hlfMlAY.svg","created":"2021-10-21T19:51:53.839559Z"},"descriptive_categories":[{"id":18,"name":"mediterráneo","owner":null,"sector":null,"created":"2021-10-21T19:52:31.502016Z"}],"return_period":0,"dynamic_link":"https://app.dev.woowbe.com/share/o7L9","is_franchisee_of":null,"is_favorite":false,"created":"2021-10-21T19:52:42.042306Z","offers_count":0},"online":false,"url":null,"position":{"type":"Point","coordinates":[-3.6645254,40.5077347]},"address":"Paseo Tierra de Melide","number":"","postal_code":"28050","state":"Madrid","city":"Madrid","merchants_count":0,"modified":"2023-03-17T08:02:26.788987Z","place_id":"Ei1QYXNlbyBUaWVycmEgZGUgTWVsaWRlLCAyODA1MCBNYWRyaWQsIEVzcGHDsWEiLiosChQKEgkDevjv9itCDRGMkvD1lWhJIhIUChIJMSXmxB0sQg0R4KqLM_dAAxw","formatted_address":"P.º Tierra de Melide, 28050 Madrid","deleted":false,"deleted_at":null,"created":"2021-10-21T19:58:20.702558Z","selected_offer":{"reward":null,"reward_type":null,"kind":null,"instant":false,"name":"","standalone":false,"purchases":null,"online":false,"finish_date":null},"public_url":null,"is_open":false},{"id":266,"business":{"id":94,"name":"Saona","country":null,"description":"Saona empezó con un pequeño restaurante familiar, hoy son muchos más restaurantes familiares, la única diferencia es que la familia ahora es mucho más grande. Descubre la personalidad de cada uno de ellos","url":"https://www.gruposaona.com/","square_picture":"https://woowbe-dev.s3.amazonaws.com/media/pictures/square_picture_TEKrspD.jpg","widescreen_picture":"https://woowbe-dev.s3.amazonaws.com/media/pictures/1634846102.jpeg","cover":"https://woowbe-dev.s3.amazonaws.com/media/covers/cover_wmnj91d.jpg","sector":{"id":38,"name":"Casual food","icon":"https://woowbe-dev.s3.amazonaws.com/media/icons/food_hlfMlAY.svg","created":"2021-10-21T19:51:53.839559Z"},"descriptive_categories":[{"id":18,"name":"mediterráneo","owner":null,"sector":null,"created":"2021-10-21T19:52:31.502016Z"}],"return_period":0,"dynamic_link":"https://app.dev.woowbe.com/share/o7L9","is_franchisee_of":null,"is_favorite":false,"created":"2021-10-21T19:52:42.042306Z","offers_count":0},"online":false,"url":null,"position":{"type":"Point","coordinates":[-3.685924,40.4609234]},"address":"Calle del General Gallegos","number":"2","postal_code":"28036","state":"Madrid","city":"Madrid","merchants_count":0,"modified":"2023-03-17T08:02:26.848566Z","place_id":"ChIJY2rjEBkpQg0REd4-i65BtmY","formatted_address":"Calle del Gral. Gallegos, 2, 28036 Madrid","deleted":false,"deleted_at":null,"created":"2021-10-21T19:57:47.314962Z","selected_offer":{"reward":null,"reward_type":null,"kind":null,"instant":false,"name":"","standalone":false,"purchases":null,"online":false,"finish_date":null},"public_url":null,"is_open":false},{"id":265,"business":{"id":94,"name":"Saona","country":null,"description":"Saona empezó con un pequeño restaurante familiar, hoy son muchos más restaurantes familiares, la única diferencia es que la familia ahora es mucho más grande. Descubre la personalidad de cada uno de ellos","url":"https://www.gruposaona.com/","square_picture":"https://woowbe-dev.s3.amazonaws.com/media/pictures/square_picture_TEKrspD.jpg","widescreen_picture":"https://woowbe-dev.s3.amazonaws.com/media/pictures/1634846102.jpeg","cover":"https://woowbe-dev.s3.amazonaws.com/media/covers/cover_wmnj91d.jpg","sector":{"id":38,"name":"Casual food","icon":"https://woowbe-dev.s3.amazonaws.com/media/icons/food_hlfMlAY.svg","created":"2021-10-21T19:51:53.839559Z"},"descriptive_categories":[{"id":18,"name":"mediterráneo","owner":null,"sector":null,"created":"2021-10-21T19:52:31.502016Z"}],"return_period":0,"dynamic_link":"https://app.dev.woowbe.com/share/o7L9","is_franchisee_of":null,"is_favorite":false,"created":"2021-10-21T19:52:42.042306Z","offers_count":0},"online":false,"url":null,"position":{"type":"Point","coordinates":[-3.6942395,40.4548241]},"address":"Calle de Pedro Teixeira","number":"8","postal_code":"28020","state":"Madrid","city":"Madrid","merchants_count":0,"modified":"2023-03-17T08:02:26.887796Z","place_id":"ChIJi1WhlQIpQg0RhiwpwpuxpEM","formatted_address":"C. de Pedro Teixeira, 8, 28020 Madrid","deleted":false,"deleted_at":null,"created":"2021-10-21T19:56:02.741898Z","selected_offer":{"reward":null,"reward_type":null,"kind":null,"instant":false,"name":"","standalone":false,"purchases":null,"online":false,"finish_date":null},"public_url":null,"is_open":false},{"id":264,"business":{"id":94,"name":"Saona","country":null,"description":"Saona empezó con un pequeño restaurante familiar, hoy son muchos más restaurantes familiares, la única diferencia es que la familia ahora es mucho más grande. Descubre la personalidad de cada uno de ellos","url":"https://www.gruposaona.com/","square_picture":"https://woowbe-dev.s3.amazonaws.com/media/pictures/square_picture_TEKrspD.jpg","widescreen_picture":"https://woowbe-dev.s3.amazonaws.com/media/pictures/1634846102.jpeg","cover":"https://woowbe-dev.s3.amazonaws.com/media/covers/cover_wmnj91d.jpg","sector":{"id":38,"name":"Casual food","icon":"https://woowbe-dev.s3.amazonaws.com/media/icons/food_hlfMlAY.svg","created":"2021-10-21T19:51:53.839559Z"},"descriptive_categories":[{"id":18,"name":"mediterráneo","owner":null,"sector":null,"created":"2021-10-21T19:52:31.502016Z"}],"return_period":0,"dynamic_link":"https://app.dev.woowbe.com/share/o7L9","is_franchisee_of":null,"is_favorite":false,"created":"2021-10-21T19:52:42.042306Z","offers_count":0},"online":false,"url":null,"position":{"type":"Point","coordinates":[-3.6816372,40.4358857]},"address":"Calle del General Oraá","number":"38","postal_code":"28006","state":"Madrid","city":"Madrid","merchants_count":0,"modified":"2023-03-17T08:02:26.931285Z","place_id":"ChIJ11s0N8AoQg0RAFUfr-H1WEI","formatted_address":"Calle del Gral Oraá, 38, 28006 Madrid","deleted":false,"deleted_at":null,"created":"2021-10-21T19:55:41.679911Z","selected_offer":{"reward":null,"reward_type":null,"kind":null,"instant":false,"name":"","standalone":false,"purchases":null,"online":false,"finish_date":null},"public_url":null,"is_open":false},{"id":262,"business":{"id":93,"name":"Go Sushing","country":null,"description":"Restaurante japonés con servicio de sushi a domicilio, take away o en mesa. Una gran variedad de productos hechos al momento: makis, rolls, nigiris, temakis, pokés, menú mediodía, platos vegetarianos ¡y mucho más!","url":"https://gosushing.com/","square_picture":"https://woowbe-dev.s3.amazonaws.com/media/pictures/go-sushing-logo-1-1.png","widescreen_picture":"https://woowbe-dev.s3.amazonaws.com/media/pictures/1634843662.png","cover":"https://woowbe-dev.s3.amazonaws.com/media/covers/cover_Edp12ch.jpg","sector":{"id":3,"name":"Fast Food","icon":"https://woowbe-dev.s3.amazonaws.com/media/icons/food_TPGNuc7.svg","created":"2021-05-25T10:47:39.210359Z"},"descriptive_categories":[{"id":17,"name":"japonesa","owner":null,"sector":null,"created":"2021-10-21T19:14:13.483887Z"},{"id":16,"name":"sushi","owner":null,"sector":null,"created":"2021-10-21T19:14:06.256566Z"}],"return_period":0,"dynamic_link":"https://app.dev.woowbe.com/share/2eWh","is_franchisee_of":null,"is_favorite":false,"created":"2021-10-21T19:14:22.845920Z","offers_count":0},"online":false,"url":null,"position":{"type":"Point","coordinates":[-3.8806604,40.4083149]},"address":"Calle Isabel II","number":"1","postal_code":"28660","state":"Madrid","city":"Boadilla del Monte","merchants_count":0,"modified":"2023-03-17T08:02:26.971416Z","place_id":"ChIJdVZri2GFQQ0RKvL5lNaB3_Y","formatted_address":"C. Isabel II, 1, 28660 Boadilla del Monte, Madrid","deleted":false,"deleted_at":null,"created":"2021-10-21T19:39:08.825526Z","selected_offer":{"reward":null,"reward_type":null,"kind":null,"instant":false,"name":"","standalone":false,"purchases":null,"online":false,"finish_date":null},"public_url":null,"is_open":false}]}