{
	"count": 579,
	"next": "https://backend.dev.woowbe.com/api/v1/points_of_sales/public/?page=53",
	"previous": "https://backend.dev.woowbe.com/api/v1/points_of_sales/public/?page=51",
	"results": [
		{
			"id": 251,
			"business": {
				"id": 93,
				"name": "Go Sushing",
				"country": null,
				"description": "Restaurante japonés con servicio de sushi a domicilio, take away o en mesa. Una gran variedad de productos hechos al momento: makis, rolls, nigiris, temakis, pokés, menú mediodía, platos vegetarianos ¡y mucho más!",
				"url": "https://gosushing.com/",
				"square_picture": "https://woowbe-dev.s3.amazonaws.com/media/pictures/go-sushing-logo-1-1.png",
				"widescreen_picture": "https://woowbe-dev.s3.amazonaws.com/media/pictures/1634843662.png",
				"cover": "https://woowbe-dev.s3.amazonaws.com/media/covers/cover_Edp12ch.jpg",
				"sector": {
					"id": 3,
					"name": "Fast Food",
					"icon": "https://woowbe-dev.s3.amazonaws.com/media/icons/food_TPGNuc7.svg",
					"created": "2021-05-25T10:47:39.210359Z"
				},
				"descriptive_categories": [
					{
						"id": 17,
						"name": "japonesa",
						"owner": null,
						"sector": null,
						"created": "2021-10-21T19:14:13.483887Z"
					},
					{
						"id": 16,
						"name": "sushi",
						"owner": null,
						"sector": null,
						"created": "2021-10-21T19:14:06.256566Z"
					}
				],
				"return_period": 0,
				"dynamic_link": "https://app.dev.woowbe.com/share/2eWh",
				"is_franchisee_of": null,
				"is_favorite": false,
				"created": "2021-10-21T19:14:22.845920Z",
				"offers_count": 0
			},
			"online": false,
			"url": null,
			"position": {
				"type": "Point",
				"coordinates": [
					-3.6073563,
					40.4243165
				]
			},
			"address": "Avenida de Guadalajara",
			"number": "127",
			"postal_code": "28022",
			"state": "Madrid",
			"city": "Madrid",
			"merchants_count": 0,
			"modified": "2023-03-17T08:02:27.575962Z",
			"place_id": "ChIJdXisb44vQg0RpDCQ67XFAaI",
			"formatted_address": "Av. de Guadalajara, 127, 28022 Madrid",
			"deleted": false,
			"deleted_at": null,
			"created": "2021-10-21T19:35:29.334965Z",
			"selected_offer": {
				"reward": null,
				"reward_type": null,
				"kind": null,
				"instant": false,
				"name": "",
				"standalone": false,
				"purchases": null,
				"online": false,
				"finish_date": null
			},
			"public_url": null,
			"is_open": false
		},
		{
			"id": 250,
			"business": {
				"id": 93,
				"name": "Go Sushing",
				"country": null,
				"description": "Restaurante japonés con servicio de sushi a domicilio, take away o en mesa. Una gran variedad de productos hechos al momento: makis, rolls, nigiris, temakis, pokés, menú mediodía, platos vegetarianos ¡y mucho más!",
				"url": "https://gosushing.com/",
				"square_picture": "https://woowbe-dev.s3.amazonaws.com/media/pictures/go-sushing-logo-1-1.png",
				"widescreen_picture": "https://woowbe-dev.s3.amazonaws.com/media/pictures/1634843662.png",
				"cover": "https://woowbe-dev.s3.amazonaws.com/media/covers/cover_Edp12ch.jpg",
				"sector": {
					"id": 3,
					"name": "Fast Food",
					"icon": "https://woowbe-dev.s3.amazonaws.com/media/icons/food_TPGNuc7.svg",
					"created": "2021-05-25T10:47:39.210359Z"
				},
				"descriptive_categories": [
					{
						"id": 17,
						"name": "japonesa",
						"owner": null,
						"sector": null,
						"created": "2021-10-21T19:14:13.483887Z"
					},
					{
						"id": 16,
						"name": "sushi",
						"owner": null,
						"sector": null,
						"created": "2021-10-21T19:14:06.256566Z"
					}
				],
				"return_period": 0,
				"dynamic_link": "https://app.dev.woowbe.com/share/2eWh",
				"is_franchisee_of": null,
				"is_favorite": false,
				"created": "2021-10-21T19:14:22.845920Z",
				"offers_count": 0
			},
			"online": false,
			"url": null,
			"position": {
				"type": "Point",
				"coordinates": [
					-3.789749,
					40.4453363
				]
			},
			"address": "Avenida de Europa",
			"number": "42",
			"postal_code": "28224",
			"state": "Madrid",
			"city": "Pozuelo de Alarcón",
			"merchants_count": 0,
			"modified": "2023-03-17T08:02:27.622247Z",
			"place_id": "ChIJoTetT1GGQQ0RlqBXOOcwLIA",
			"formatted_address": "Av. de Europa, 42, 28224 Pozuelo de Alarcón, Madrid",
			"deleted": false,
			"deleted_at": null,
			"created": "2021-10-21T19:30:58.689372Z",
			"selected_offer": {
				"reward": null,
				"reward_type": null,
				"kind": null,
				"instant": false,
				"name": "",
				"standalone": false,
				"purchases": null,
				"online": false,
				"finish_date": null
			},
			"public_url": null,
			"is_open": false
		},
		{
			"id": 249,
			"business": {
				"id": 93,
				"name": "Go Sushing",
				"country": null,
				"description": "Restaurante japonés con servicio de sushi a domicilio, take away o en mesa. Una gran variedad de productos hechos al momento: makis, rolls, nigiris, temakis, pokés, menú mediodía, platos vegetarianos ¡y mucho más!",
				"url": "https://gosushing.com/",
				"square_picture": "https://woowbe-dev.s3.amazonaws.com/media/pictures/go-sushing-logo-1-1.png",
				"widescreen_picture": "https://woowbe-dev.s3.amazonaws.com/media/pictures/1634843662.png",
				"cover": "https://woowbe-dev.s3.amazonaws.com/media/covers/cover_Edp12ch.jpg",
				"sector": {
					"id": 3,
					"name": "Fast Food",
					"icon": "https://woowbe-dev.s3.amazonaws.com/media/icons/food_TPGNuc7.svg",
					"created": "2021-05-25T10:47:39.210359Z"
				},
				"descriptive_categories": [
					{
						"id": 17,
						"name": "japonesa",
						"owner": null,
						"sector": null,
						"created": "2021-10-21T19:14:13.483887Z"
					},
					{
						"id": 16,
						"name": "sushi",
						"owner": null,
						"sector": null,
						"created": "2021-10-21T19:14:06.256566Z"
					}
				],
				"return_period": 0,
				"dynamic_link": "https://app.dev.woowbe.com/share/2eWh",
				"is_franchisee_of": null,
				"is_favorite": false,
				"created": "2021-10-21T19:14:22.845920Z",
				"offers_count": 0
			},
			"online": false,
			"url": null,
			"position": {
				"type": "Point",
				"coordinates": [
					-3.6034664,
					40.3661583
				]
			},
			"address": "Calle de José Gutiérrez Maroto",
			"number": "26",
			"postal_code": "28031",
			"state": "Madrid",
			"city": "Madrid",
			"merchants_count": 0,
			"modified": "2023-03-17T08:02:27.650536Z",
			"place_id": "ChIJL0KkyOckQg0RjAAXdnDRkMI",
			"formatted_address": "C. de José Gutiérrez Maroto, 26, 28031 Madrid",
			"deleted": false,
			"deleted_at": null,
			"created": "2021-10-21T19:30:38.810504Z",
			"selected_offer": {
				"reward": null,
				"reward_type": null,
				"kind": null,
				"instant": false,
				"name": "",
				"standalone": false,
				"purchases": null,
				"online": false,
				"finish_date": null
			},
			"public_url": null,
			"is_open": false
		},
		{
			"id": 248,
			"business": {
				"id": 93,
				"name": "Go Sushing",
				"country": null,
				"description": "Restaurante japonés con servicio de sushi a domicilio, take away o en mesa. Una gran variedad de productos hechos al momento: makis, rolls, nigiris, temakis, pokés, menú mediodía, platos vegetarianos ¡y mucho más!",
				"url": "https://gosushing.com/",
				"square_picture": "https://woowbe-dev.s3.amazonaws.com/media/pictures/go-sushing-logo-1-1.png",
				"widescreen_picture": "https://woowbe-dev.s3.amazonaws.com/media/pictures/1634843662.png",
				"cover": "https://woowbe-dev.s3.amazonaws.com/media/covers/cover_Edp12ch.jpg",
				"sector": {
					"id": 3,
					"name": "Fast Food",
					"icon": "https://woowbe-dev.s3.amazonaws.com/media/icons/food_TPGNuc7.svg",
					"created": "2021-05-25T10:47:39.210359Z"
				},
				"descriptive_categories": [
					{
						"id": 17,
						"name": "japonesa",
						"owner": null,
						"sector": null,
						"created": "2021-10-21T19:14:13.483887Z"
					},
					{
						"id": 16,
						"name": "sushi",
						"owner": null,
						"sector": null,
						"created": "2021-10-21T19:14:06.256566Z"
					}
				],
				"return_period": 0,
				"dynamic_link": "https://app.dev.woowbe.com/share/2eWh",
				"is_franchisee_of": null,
				"is_favorite": false,
				"created": "2021-10-21T19:14:22.845920Z",
				"offers_count": 0
			},
			"online": false,
			"url": null,
			"position": {
				"type": "Point",
				"coordinates": [
					-3.7557882,
					40.3615692
				]
			},
			"address": "Calle de los Morales",
			"number": "62",
			"postal_code": "28054",
			"state": "Madrid",
			"city": "Madrid",
			"merchants_count": 0,
			"modified": "2023-03-17T08:02:27.694628Z",
			"place_id": "ChIJf5l2os-JQQ0RIM-E9VmL_aQ",
			"formatted_address": "C. de los Morales, 62, 28054 Madrid",
			"deleted": false,
			"deleted_at": null,
			"created": "2021-10-21T19:30:14.949009Z",
			"selected_offer": {
				"reward": null,
				"reward_type": null,
				"kind": null,
				"instant": false,
				"name": "",
				"standalone": false,
				"purchases": null,
				"online": false,
				"finish_date": null
			},
			"public_url": null,
			"is_open": false
		},
		{
			"id": 247,
			"business": {
				"id": 93,
				"name": "Go Sushing",
				"country": null,
				"description": "Restaurante japonés con servicio de sushi a domicilio, take away o en mesa. Una gran variedad de productos hechos al momento: makis, rolls, nigiris, temakis, pokés, menú mediodía, platos vegetarianos ¡y mucho más!",
				"url": "https://gosushing.com/",
				"square_picture": "https://woowbe-dev.s3.amazonaws.com/media/pictures/go-sushing-logo-1-1.png",
				"widescreen_picture": "https://woowbe-dev.s3.amazonaws.com/media/pictures/1634843662.png",
				"cover": "https://woowbe-dev.s3.amazonaws.com/media/covers/cover_Edp12ch.jpg",
				"sector": {
					"id": 3,
					"name": "Fast Food",
					"icon": "https://woowbe-dev.s3.amazonaws.com/media/icons/food_TPGNuc7.svg",
					"created": "2021-05-25T10:47:39.210359Z"
				},
				"descriptive_categories": [
					{
						"id": 17,
						"name": "japonesa",
						"owner": null,
						"sector": null,
						"created": "2021-10-21T19:14:13.483887Z"
					},
					{
						"id": 16,
						"name": "sushi",
						"owner": null,
						"sector": null,
						"created": "2021-10-21T19:14:06.256566Z"
					}
				],
				"return_period": 0,
				"dynamic_link": "https://app.dev.woowbe.com/share/2eWh",
				"is_franchisee_of": null,
				"is_favorite": false,
				"created": "2021-10-21T19:14:22.845920Z",
				"offers_count": 0
			},
			"online": false,
			"url": null,
			"position": {
				"type": "Point",
				"coordinates": [
					-3.7054868,
					40.4208604
				]
			},
			"address": "Calle de Miguel Moya",
			"number": "6",
			"postal_code": "28004",
			"state": "Madrid",
			"city": "Madrid",
			"merchants_count": 0,
			"modified": "2023-03-17T08:02:27.791911Z",
			"place_id": "ChIJca2H_XwoQg0R0PoAcaIG81U",
			"formatted_address": "C de Miguel Moya, 6, 28004 Madrid",
			"deleted": false,
			"deleted_at": null,
			"created": "2021-10-21T19:29:57.285947Z",
			"selected_offer": {
				"reward": null,
				"reward_type": null,
				"kind": null,
				"instant": false,
				"name": "",
				"standalone": false,
				"purchases": null,
				"online": false,
				"finish_date": null
			},
			"public_url": null,
			"is_open": false
		},
		{
			"id": 246,
			"business": {
				"id": 93,
				"name": "Go Sushing",
				"country": null,
				"description": "Restaurante japonés con servicio de sushi a domicilio, take away o en mesa. Una gran variedad de productos hechos al momento: makis, rolls, nigiris, temakis, pokés, menú mediodía, platos vegetarianos ¡y mucho más!",
				"url": "https://gosushing.com/",
				"square_picture": "https://woowbe-dev.s3.amazonaws.com/media/pictures/go-sushing-logo-1-1.png",
				"widescreen_picture": "https://woowbe-dev.s3.amazonaws.com/media/pictures/1634843662.png",
				"cover": "https://woowbe-dev.s3.amazonaws.com/media/covers/cover_Edp12ch.jpg",
				"sector": {
					"id": 3,
					"name": "Fast Food",
					"icon": "https://woowbe-dev.s3.amazonaws.com/media/icons/food_TPGNuc7.svg",
					"created": "2021-05-25T10:47:39.210359Z"
				},
				"descriptive_categories": [
					{
						"id": 17,
						"name": "japonesa",
						"owner": null,
						"sector": null,
						"created": "2021-10-21T19:14:13.483887Z"
					},
					{
						"id": 16,
						"name": "sushi",
						"owner": null,
						"sector": null,
						"created": "2021-10-21T19:14:06.256566Z"
					}
				],
				"return_period": 0,
				"dynamic_link": "https://app.dev.woowbe.com/share/2eWh",
				"is_franchisee_of": null,
				"is_favorite": false,
				"created": "2021-10-21T19:14:22.845920Z",
				"offers_count": 0
			},
			"online": false,
			"url": null,
			"position": {
				"type": "Point",
				"coordinates": [
					-3.6791801,
					40.4544038
				]
			},
			"address": "Calle Víctor Andrés Belaunde",
			"number": "1",
			"postal_code": "28016",
			"state": "Madrid",
			"city": "Madrid",
			"merchants_count": 0,
			"modified": "2023-03-17T08:02:27.824178Z",
			"place_id": "ChIJd4M7Yt8oQg0RjVaqt8q9trE",
			"formatted_address": "C. Víctor Andrés Belaunde, 1, 28016 Madrid",
			"deleted": false,
			"deleted_at": null,
			"created": "2021-10-21T19:29:35.834222Z",
			"selected_offer": {
				"reward": null,
				"reward_type": null,
				"kind": null,
				"instant": false,
				"name": "",
				"standalone": false,
				"purchases": null,
				"online": false,
				"finish_date": null
			},
			"public_url": null,
			"is_open": false
		},
		{
			"id": 245,
			"business": {
				"id": 93,
				"name": "Go Sushing",
				"country": null,
				"description": "Restaurante japonés con servicio de sushi a domicilio, take away o en mesa. Una gran variedad de productos hechos al momento: makis, rolls, nigiris, temakis, pokés, menú mediodía, platos vegetarianos ¡y mucho más!",
				"url": "https://gosushing.com/",
				"square_picture": "https://woowbe-dev.s3.amazonaws.com/media/pictures/go-sushing-logo-1-1.png",
				"widescreen_picture": "https://woowbe-dev.s3.amazonaws.com/media/pictures/1634843662.png",
				"cover": "https://woowbe-dev.s3.amazonaws.com/media/covers/cover_Edp12ch.jpg",
				"sector": {
					"id": 3,
					"name": "Fast Food",
					"icon": "https://woowbe-dev.s3.amazonaws.com/media/icons/food_TPGNuc7.svg",
					"created": "2021-05-25T10:47:39.210359Z"
				},
				"descriptive_categories": [
					{
						"id": 17,
						"name": "japonesa",
						"owner": null,
						"sector": null,
						"created": "2021-10-21T19:14:13.483887Z"
					},
					{
						"id": 16,
						"name": "sushi",
						"owner": null,
						"sector": null,
						"created": "2021-10-21T19:14:06.256566Z"
					}
				],
				"return_period": 0,
				"dynamic_link": "https://app.dev.woowbe.com/share/2eWh",
				"is_franchisee_of": null,
				"is_favorite": false,
				"created": "2021-10-21T19:14:22.845920Z",
				"offers_count": 0
			},
			"online": false,
			"url": null,
			"position": {
				"type": "Point",
				"coordinates": [
					-3.671732,
					40.3999808
				]
			},
			"address": "Avenida de la Ciudad de Barcelona",
			"number": "97",
			"postal_code": "28007",
			"state": "Madrid",
			"city": "Madrid",
			"merchants_count": 0,
			"modified": "2023-03-17T08:02:27.918283Z",
			"place_id": "ChIJrb9IPA4mQg0RdLPIzdYiAtg",
			"formatted_address": "Av. de la Ciudad de Barcelona, 97, 28007 Madrid",
			"deleted": false,
			"deleted_at": null,
			"created": "2021-10-21T19:29:19.248975Z",
			"selected_offer": {
				"reward": null,
				"reward_type": null,
				"kind": null,
				"instant": false,
				"name": "",
				"standalone": false,
				"purchases": null,
				"online": false,
				"finish_date": null
			},
			"public_url": null,
			"is_open": false
		},
		{
			"id": 244,
			"business": {
				"id": 93,
				"name": "Go Sushing",
				"country": null,
				"description": "Restaurante japonés con servicio de sushi a domicilio, take away o en mesa. Una gran variedad de productos hechos al momento: makis, rolls, nigiris, temakis, pokés, menú mediodía, platos vegetarianos ¡y mucho más!",
				"url": "https://gosushing.com/",
				"square_picture": "https://woowbe-dev.s3.amazonaws.com/media/pictures/go-sushing-logo-1-1.png",
				"widescreen_picture": "https://woowbe-dev.s3.amazonaws.com/media/pictures/1634843662.png",
				"cover": "https://woowbe-dev.s3.amazonaws.com/media/covers/cover_Edp12ch.jpg",
				"sector": {
					"id": 3,
					"name": "Fast Food",
					"icon": "https://woowbe-dev.s3.amazonaws.com/media/icons/food_TPGNuc7.svg",
					"created": "2021-05-25T10:47:39.210359Z"
				},
				"descriptive_categories": [
					{
						"id": 17,
						"name": "japonesa",
						"owner": null,
						"sector": null,
						"created": "2021-10-21T19:14:13.483887Z"
					},
					{
						"id": 16,
						"name": "sushi",
						"owner": null,
						"sector": null,
						"created": "2021-10-21T19:14:06.256566Z"
					}
				],
				"return_period": 0,
				"dynamic_link": "https://app.dev.woowbe.com/share/2eWh",
				"is_franchisee_of": null,
				"is_favorite": false,
				"created": "2021-10-21T19:14:22.845920Z",
				"offers_count": 0
			},
			"online": false,
			"url": null,
			"position": {
				"type": "Point",
				"coordinates": [
					-3.6957985,
					40.4430436
				]
			},
			"address": "Calle de Modesto Lafuente",
			"number": "56",
			"postal_code": "28003",
			"state": "Madrid",
			"city": "Madrid",
			"merchants_count": 0,
			"modified": "2023-03-17T08:02:27.947181Z",
			"place_id": "ChIJ4WN6hfAoQg0R_AjC_Rclu9s",
			"formatted_address": "Calle de Modesto Lafuente, 56, 28003 Madrid",
			"deleted": false,
			"deleted_at": null,
			"created": "2021-10-21T19:28:59.360107Z",
			"selected_offer": {
				"reward": null,
				"reward_type": null,
				"kind": null,
				"instant": false,
				"name": "",
				"standalone": false,
				"purchases": null,
				"online": false,
				"finish_date": null
			},
			"public_url": null,
			"is_open": false
		},
		{
			"id": 243,
			"business": {
				"id": 93,
				"name": "Go Sushing",
				"country": null,
				"description": "Restaurante japonés con servicio de sushi a domicilio, take away o en mesa. Una gran variedad de productos hechos al momento: makis, rolls, nigiris, temakis, pokés, menú mediodía, platos vegetarianos ¡y mucho más!",
				"url": "https://gosushing.com/",
				"square_picture": "https://woowbe-dev.s3.amazonaws.com/media/pictures/go-sushing-logo-1-1.png",
				"widescreen_picture": "https://woowbe-dev.s3.amazonaws.com/media/pictures/1634843662.png",
				"cover": "https://woowbe-dev.s3.amazonaws.com/media/covers/cover_Edp12ch.jpg",
				"sector": {
					"id": 3,
					"name": "Fast Food",
					"icon": "https://woowbe-dev.s3.amazonaws.com/media/icons/food_TPGNuc7.svg",
					"created": "2021-05-25T10:47:39.210359Z"
				},
				"descriptive_categories": [
					{
						"id": 17,
						"name": "japonesa",
						"owner": null,
						"sector": null,
						"created": "2021-10-21T19:14:13.483887Z"
					},
					{
						"id": 16,
						"name": "sushi",
						"owner": null,
						"sector": null,
						"created": "2021-10-21T19:14:06.256566Z"
					}
				],
				"return_period": 0,
				"dynamic_link": "https://app.dev.woowbe.com/share/2eWh",
				"is_franchisee_of": null,
				"is_favorite": false,
				"created": "2021-10-21T19:14:22.845920Z",
				"offers_count": 0
			},
			"online": false,
			"url": null,
			"position": {
				"type": "Point",
				"coordinates": [
					-3.6737866,
					40.4273385
				]
			},
			"address": "Calle de Ayala",
			"number": "87",
			"postal_code": "28006",
			"state": "Madrid",
			"city": "Madrid",
			"merchants_count": 0,
			"modified": "2023-03-17T08:02:27.976838Z",
			"place_id": "ChIJtz0Vb7ooQg0ROMItBK2x1Ng",
			"formatted_address": "Cl. de Ayala, 87, 28006 Madrid",
			"deleted": false,
			"deleted_at": null,
			"created": "2021-10-21T19:28:43.645949Z",
			"selected_offer": {
				"reward": null,
				"reward_type": null,
				"kind": null,
				"instant": false,
				"name": "",
				"standalone": false,
				"purchases": null,
				"online": false,
				"finish_date": null
			},
			"public_url": null,
			"is_open": false
		},
		{
			"id": 241,
			"business": {
				"id": 92,
				"name": "Tierra Burrito",
				"country": null,
				"description": "En Tierra nos gusta hacer las cosas bien.\r\nTodos los días, llegan hasta nosotros frutas y verduras frescas de productores locales y carne procedente de ganaderías cercanas de cría no intensiva. Estos productos constituyen los ingredientes que empleamos para preparar, delante de ti, nuestros platos saludables y auténticos: burritos, desnudos, nachos y mucho más.\r\n\r\nDesde nuestra cocina abierta, los eficientes y simpáticos camareros de Tierra te ayudarán a personalizar tu plato a tu gusto con una gran variedad de sabores y guarniciones distintas. Acompaña tu comida con nuestras margaritas caseras o con una cerveza artesanal, que tienes a tu disposición en la nevera.",
				"url": "https://www.tierraburritos.com/",
				"square_picture": "https://woowbe-dev.s3.amazonaws.com/media/pictures/tierra-burrito-logo-1-1.png",
				"widescreen_picture": "https://woowbe-dev.s3.amazonaws.com/media/pictures/1634832127.jpeg",
				"cover": "https://woowbe-dev.s3.amazonaws.com/media/covers/cover_UuinGHQ.jpg",
				"sector": {
					"id": 3,
					"name": "Fast Food",
					"icon": "https://woowbe-dev.s3.amazonaws.com/media/icons/food_TPGNuc7.svg",
					"created": "2021-05-25T10:47:39.210359Z"
				},
				"descriptive_categories": [
					{
						"id": 15,
						"name": "burrito",
						"owner": 92,
						"sector": null,
						"created": "2021-10-21T16:01:53.692876Z"
					},
					{
						"id": 13,
						"name": "mexicano",
						"owner": null,
						"sector": null,
						"created": "2021-10-21T15:08:54.024427Z"
					}
				],
				"return_period": 0,
				"dynamic_link": "https://app.dev.woowbe.com/share/KPoa",
				"is_franchisee_of": null,
				"is_favorite": false,
				"created": "2021-10-21T16:00:35.632774Z",
				"offers_count": 1
			},
			"online": false,
			"url": null,
			"position": {
				"type": "Point",
				"coordinates": [
					-3.7989341,
					40.4342856
				]
			},
			"address": "Calle Atenas",
			"number": "2",
			"postal_code": "28224",
			"state": "Madrid",
			"city": "Pozuelo de Alarcón",
			"merchants_count": 0,
			"modified": "2023-03-17T08:02:28.008663Z",
			"place_id": "ChIJzyphX_uHQQ0ReDMoJnRR9gI",
			"formatted_address": "C. Atenas, 2, 28224 Pozuelo de Alarcón, Madrid",
			"deleted": false,
			"deleted_at": null,
			"created": "2021-10-21T16:10:00.875589Z",
			"selected_offer": {
				"id": 168,
				"reward": "4.00",
				"reward_type": "fixed",
				"kind": "B",
				"instant": false,
				"name": "4€ por cada comida",
				"standalone": false,
				"purchases": null,
				"online": false,
				"applicable": false,
				"available_percentage": 1,
				"available_rewards": 0,
				"is_used": false,
				"finish_date": null
			},
			"public_url": null,
			"is_open": false
		}
	]
}
