{
	"count": 579,
	"next": "https://backend.dev.woowbe.com/api/v1/points_of_sales/public/?page=54",
	"previous": "https://backend.dev.woowbe.com/api/v1/points_of_sales/public/?page=52",
	"results": [
		{
			"id": 240,
			"business": {
				"id": 92,
				"name": "Tierra Burrito",
				"country": null,
				"description": "En Tierra nos gusta hacer las cosas bien.\r\nTodos los días, llegan hasta nosotros frutas y verduras frescas de productores locales y carne procedente de ganaderías cercanas de cría no intensiva. Estos productos constituyen los ingredientes que empleamos para preparar, delante de ti, nuestros platos saludables y auténticos: burritos, desnudos, nachos y mucho más.\r\n\r\nDesde nuestra cocina abierta, los eficientes y simpáticos camareros de Tierra te ayudarán a personalizar tu plato a tu gusto con una gran variedad de sabores y guarniciones distintas. Acompaña tu comida con nuestras margaritas caseras o con una cerveza artesanal, que tienes a tu disposición en la nevera.",
				"url": "https://www.tierraburritos.com/",
				"square_picture": "https://woowbe-dev.s3.amazonaws.com/media/pictures/tierra-burrito-logo-1-1.png",
				"widescreen_picture": "https://woowbe-dev.s3.amazonaws.com/media/pictures/1634832127.jpeg",
				"cover": "https://woowbe-dev.s3.amazonaws.com/media/covers/cover_UuinGHQ.jpg",
				"sector": {
					"id": 3,
					"name": "Fast Food",
					"icon": "https://woowbe-dev.s3.amazonaws.com/media/icons/food_TPGNuc7.svg",
					"created": "2021-05-25T10:47:39.210359Z"
				},
				"descriptive_categories": [
					{
						"id": 15,
						"name": "burrito",
						"owner": 92,
						"sector": null,
						"created": "2021-10-21T16:01:53.692876Z"
					},
					{
						"id": 13,
						"name": "mexicano",
						"owner": null,
						"sector": null,
						"created": "2021-10-21T15:08:54.024427Z"
					}
				],
				"return_period": 0,
				"dynamic_link": "https://app.dev.woowbe.com/share/KPoa",
				"is_franchisee_of": null,
				"is_favorite": false,
				"created": "2021-10-21T16:00:35.632774Z",
				"offers_count": 1
			},
			"online": false,
			"url": null,
			"position": {
				"type": "Point",
				"coordinates": [
					-3.6572364,
					40.5176143
				]
			},
			"address": "Avenida de Europa",
			"number": "13",
			"postal_code": "28108",
			"state": "Madrid",
			"city": "Alcobendas",
			"merchants_count": 0,
			"modified": "2023-03-17T08:02:28.194960Z",
			"place_id": "ChIJDQu8DHQsQg0Rl5EWPWtlxZc",
			"formatted_address": "Av. de Europa, 13, 28108 Alcobendas, Madrid",
			"deleted": false,
			"deleted_at": null,
			"created": "2021-10-21T16:09:46.936053Z",
			"selected_offer": {
				"id": 168,
				"reward": "4.00",
				"reward_type": "fixed",
				"kind": "B",
				"instant": false,
				"name": "4€ por cada comida",
				"standalone": false,
				"purchases": null,
				"online": false,
				"applicable": false,
				"available_percentage": 1,
				"available_rewards": 0,
				"is_used": false,
				"finish_date": null
			},
			"public_url": null,
			"is_open": false
		},
		{
			"id": 239,
			"business": {
				"id": 92,
				"name": "Tierra Burrito",
				"country": null,
				"description": "En Tierra nos gusta hacer las cosas bien.\r\nTodos los días, llegan hasta nosotros frutas y verduras frescas de productores locales y carne procedente de ganaderías cercanas de cría no intensiva. Estos productos constituyen los ingredientes que empleamos para preparar, delante de ti, nuestros platos saludables y auténticos: burritos, desnudos, nachos y mucho más.\r\n\r\nDesde nuestra cocina abierta, los eficientes y simpáticos camareros de Tierra te ayudarán a personalizar tu plato a tu gusto con una gran variedad de sabores y guarniciones distintas. Acompaña tu comida con nuestras margaritas caseras o con una cerveza artesanal, que tienes a tu disposición en la nevera.",
				"url": "https://www.tierraburritos.com/",
				"square_picture": "https://woowbe-dev.s3.amazonaws.com/media/pictures/tierra-burrito-logo-1-1.png",
				"widescreen_picture": "https://woowbe-dev.s3.amazonaws.com/media/pictures/1634832127.jpeg",
				"cover": "https://woowbe-dev.s3.amazonaws.com/media/covers/cover_UuinGHQ.jpg",
				"sector": {
					"id": 3,
					"name": "Fast Food",
					"icon": "https://woowbe-dev.s3.amazonaws.com/media/icons/food_TPGNuc7.svg",
					"created": "2021-05-25T10:47:39.210359Z"
				},
				"descriptive_categories": [
					{
						"id": 15,
						"name": "burrito",
						"owner": 92,
						"sector": null,
						"created": "2021-10-21T16:01:53.692876Z"
					},
					{
						"id": 13,
						"name": "mexicano",
						"owner": null,
						"sector": null,
						"created": "2021-10-21T15:08:54.024427Z"
					}
				],
				"return_period": 0,
				"dynamic_link": "https://app.dev.woowbe.com/share/KPoa",
				"is_franchisee_of": null,
				"is_favorite": false,
				"created": "2021-10-21T16:00:35.632774Z",
				"offers_count": 1
			},
			"online": false,
			"url": null,
			"position": {
				"type": "Point",
				"coordinates": [
					-3.6931925,
					40.40173679999999
				]
			},
			"address": "Plaza Luca de Tena",
			"number": "5",
			"postal_code": "28045",
			"state": "Madrid",
			"city": "Madrid",
			"merchants_count": 0,
			"modified": "2023-03-17T08:02:28.226290Z",
			"place_id": "ChIJeWjXcjAmQg0RPuJI6ibYJ1Y",
			"formatted_address": "Pl. Luca de Tena, 5, 28045 Madrid",
			"deleted": false,
			"deleted_at": null,
			"created": "2021-10-21T16:09:29.684528Z",
			"selected_offer": {
				"id": 168,
				"reward": "4.00",
				"reward_type": "fixed",
				"kind": "B",
				"instant": false,
				"name": "4€ por cada comida",
				"standalone": false,
				"purchases": null,
				"online": false,
				"applicable": false,
				"available_percentage": 1,
				"available_rewards": 0,
				"is_used": false,
				"finish_date": null
			},
			"public_url": null,
			"is_open": false
		},
		{
			"id": 238,
			"business": {
				"id": 92,
				"name": "Tierra Burrito",
				"country": null,
				"description": "En Tierra nos gusta hacer las cosas bien.\r\nTodos los días, llegan hasta nosotros frutas y verduras frescas de productores locales y carne procedente de ganaderías cercanas de cría no intensiva. Estos productos constituyen los ingredientes que empleamos para preparar, delante de ti, nuestros platos saludables y auténticos: burritos, desnudos, nachos y mucho más.\r\n\r\nDesde nuestra cocina abierta, los eficientes y simpáticos camareros de Tierra te ayudarán a personalizar tu plato a tu gusto con una gran variedad de sabores y guarniciones distintas. Acompaña tu comida con nuestras margaritas caseras o con una cerveza artesanal, que tienes a tu disposición en la nevera.",
				"url": "https://www.tierraburritos.com/",
				"square_picture": "https://woowbe-dev.s3.amazonaws.com/media/pictures/tierra-burrito-logo-1-1.png",
				"widescreen_picture": "https://woowbe-dev.s3.amazonaws.com/media/pictures/1634832127.jpeg",
				"cover": "https://woowbe-dev.s3.amazonaws.com/media/covers/cover_UuinGHQ.jpg",
				"sector": {
					"id": 3,
					"name": "Fast Food",
					"icon": "https://woowbe-dev.s3.amazonaws.com/media/icons/food_TPGNuc7.svg",
					"created": "2021-05-25T10:47:39.210359Z"
				},
				"descriptive_categories": [
					{
						"id": 15,
						"name": "burrito",
						"owner": 92,
						"sector": null,
						"created": "2021-10-21T16:01:53.692876Z"
					},
					{
						"id": 13,
						"name": "mexicano",
						"owner": null,
						"sector": null,
						"created": "2021-10-21T15:08:54.024427Z"
					}
				],
				"return_period": 0,
				"dynamic_link": "https://app.dev.woowbe.com/share/KPoa",
				"is_franchisee_of": null,
				"is_favorite": false,
				"created": "2021-10-21T16:00:35.632774Z",
				"offers_count": 1
			},
			"online": false,
			"url": null,
			"position": {
				"type": "Point",
				"coordinates": [
					-3.7093819,
					40.418584
				]
			},
			"address": "Plaza de Isabel II",
			"number": "5",
			"postal_code": "28013",
			"state": "Madrid",
			"city": "Madrid",
			"merchants_count": 0,
			"modified": "2023-03-17T08:02:28.292551Z",
			"place_id": "ChIJV4tBwnsoQg0RAYH5tdEw5BI",
			"formatted_address": "Pl. de Isabel II, 5, 28013 Madrid",
			"deleted": false,
			"deleted_at": null,
			"created": "2021-10-21T16:08:54.154988Z",
			"selected_offer": {
				"id": 168,
				"reward": "4.00",
				"reward_type": "fixed",
				"kind": "B",
				"instant": false,
				"name": "4€ por cada comida",
				"standalone": false,
				"purchases": null,
				"online": false,
				"applicable": false,
				"available_percentage": 1,
				"available_rewards": 0,
				"is_used": false,
				"finish_date": null
			},
			"public_url": null,
			"is_open": false
		},
		{
			"id": 237,
			"business": {
				"id": 92,
				"name": "Tierra Burrito",
				"country": null,
				"description": "En Tierra nos gusta hacer las cosas bien.\r\nTodos los días, llegan hasta nosotros frutas y verduras frescas de productores locales y carne procedente de ganaderías cercanas de cría no intensiva. Estos productos constituyen los ingredientes que empleamos para preparar, delante de ti, nuestros platos saludables y auténticos: burritos, desnudos, nachos y mucho más.\r\n\r\nDesde nuestra cocina abierta, los eficientes y simpáticos camareros de Tierra te ayudarán a personalizar tu plato a tu gusto con una gran variedad de sabores y guarniciones distintas. Acompaña tu comida con nuestras margaritas caseras o con una cerveza artesanal, que tienes a tu disposición en la nevera.",
				"url": "https://www.tierraburritos.com/",
				"square_picture": "https://woowbe-dev.s3.amazonaws.com/media/pictures/tierra-burrito-logo-1-1.png",
				"widescreen_picture": "https://woowbe-dev.s3.amazonaws.com/media/pictures/1634832127.jpeg",
				"cover": "https://woowbe-dev.s3.amazonaws.com/media/covers/cover_UuinGHQ.jpg",
				"sector": {
					"id": 3,
					"name": "Fast Food",
					"icon": "https://woowbe-dev.s3.amazonaws.com/media/icons/food_TPGNuc7.svg",
					"created": "2021-05-25T10:47:39.210359Z"
				},
				"descriptive_categories": [
					{
						"id": 15,
						"name": "burrito",
						"owner": 92,
						"sector": null,
						"created": "2021-10-21T16:01:53.692876Z"
					},
					{
						"id": 13,
						"name": "mexicano",
						"owner": null,
						"sector": null,
						"created": "2021-10-21T15:08:54.024427Z"
					}
				],
				"return_period": 0,
				"dynamic_link": "https://app.dev.woowbe.com/share/KPoa",
				"is_franchisee_of": null,
				"is_favorite": false,
				"created": "2021-10-21T16:00:35.632774Z",
				"offers_count": 1
			},
			"online": false,
			"url": null,
			"position": {
				"type": "Point",
				"coordinates": [
					-3.714987,
					40.4261675
				]
			},
			"address": "Calle de Martín de los Heros",
			"number": "34",
			"postal_code": "28008",
			"state": "Madrid",
			"city": "Madrid",
			"merchants_count": 0,
			"modified": "2023-03-17T08:02:28.323169Z",
			"place_id": "ChIJv8gCGm8oQg0RfUXmhbVX-f4",
			"formatted_address": "C. de Martín de los Heros, 34, 28008 Madrid",
			"deleted": false,
			"deleted_at": null,
			"created": "2021-10-21T16:07:11.217749Z",
			"selected_offer": {
				"id": 168,
				"reward": "4.00",
				"reward_type": "fixed",
				"kind": "B",
				"instant": false,
				"name": "4€ por cada comida",
				"standalone": false,
				"purchases": null,
				"online": false,
				"applicable": false,
				"available_percentage": 1,
				"available_rewards": 0,
				"is_used": false,
				"finish_date": null
			},
			"public_url": null,
			"is_open": false
		},
		{
			"id": 236,
			"business": {
				"id": 92,
				"name": "Tierra Burrito",
				"country": null,
				"description": "En Tierra nos gusta hacer las cosas bien.\r\nTodos los días, llegan hasta nosotros frutas y verduras frescas de productores locales y carne procedente de ganaderías cercanas de cría no intensiva. Estos productos constituyen los ingredientes que empleamos para preparar, delante de ti, nuestros platos saludables y auténticos: burritos, desnudos, nachos y mucho más.\r\n\r\nDesde nuestra cocina abierta, los eficientes y simpáticos camareros de Tierra te ayudarán a personalizar tu plato a tu gusto con una gran variedad de sabores y guarniciones distintas. Acompaña tu comida con nuestras margaritas caseras o con una cerveza artesanal, que tienes a tu disposición en la nevera.",
				"url": "https://www.tierraburritos.com/",
				"square_picture": "https://woowbe-dev.s3.amazonaws.com/media/pictures/tierra-burrito-logo-1-1.png",
				"widescreen_picture": "https://woowbe-dev.s3.amazonaws.com/media/pictures/1634832127.jpeg",
				"cover": "https://woowbe-dev.s3.amazonaws.com/media/covers/cover_UuinGHQ.jpg",
				"sector": {
					"id": 3,
					"name": "Fast Food",
					"icon": "https://woowbe-dev.s3.amazonaws.com/media/icons/food_TPGNuc7.svg",
					"created": "2021-05-25T10:47:39.210359Z"
				},
				"descriptive_categories": [
					{
						"id": 15,
						"name": "burrito",
						"owner": 92,
						"sector": null,
						"created": "2021-10-21T16:01:53.692876Z"
					},
					{
						"id": 13,
						"name": "mexicano",
						"owner": null,
						"sector": null,
						"created": "2021-10-21T15:08:54.024427Z"
					}
				],
				"return_period": 0,
				"dynamic_link": "https://app.dev.woowbe.com/share/KPoa",
				"is_franchisee_of": null,
				"is_favorite": false,
				"created": "2021-10-21T16:00:35.632774Z",
				"offers_count": 1
			},
			"online": false,
			"url": null,
			"position": {
				"type": "Point",
				"coordinates": [
					-3.7046841,
					40.4340185
				]
			},
			"address": "Glorieta de Quevedo",
			"number": "6",
			"postal_code": "28015",
			"state": "Madrid",
			"city": "Madrid",
			"merchants_count": 0,
			"modified": "2023-03-17T08:02:28.352996Z",
			"place_id": "ChIJNQX-xF8oQg0R281J1_IjrBQ",
			"formatted_address": "Gta. de Quevedo, 6, 28015 Madrid",
			"deleted": false,
			"deleted_at": null,
			"created": "2021-10-21T16:06:55.235644Z",
			"selected_offer": {
				"id": 168,
				"reward": "4.00",
				"reward_type": "fixed",
				"kind": "B",
				"instant": false,
				"name": "4€ por cada comida",
				"standalone": false,
				"purchases": null,
				"online": false,
				"applicable": false,
				"available_percentage": 1,
				"available_rewards": 0,
				"is_used": false,
				"finish_date": null
			},
			"public_url": null,
			"is_open": false
		},
		{
			"id": 235,
			"business": {
				"id": 92,
				"name": "Tierra Burrito",
				"country": null,
				"description": "En Tierra nos gusta hacer las cosas bien.\r\nTodos los días, llegan hasta nosotros frutas y verduras frescas de productores locales y carne procedente de ganaderías cercanas de cría no intensiva. Estos productos constituyen los ingredientes que empleamos para preparar, delante de ti, nuestros platos saludables y auténticos: burritos, desnudos, nachos y mucho más.\r\n\r\nDesde nuestra cocina abierta, los eficientes y simpáticos camareros de Tierra te ayudarán a personalizar tu plato a tu gusto con una gran variedad de sabores y guarniciones distintas. Acompaña tu comida con nuestras margaritas caseras o con una cerveza artesanal, que tienes a tu disposición en la nevera.",
				"url": "https://www.tierraburritos.com/",
				"square_picture": "https://woowbe-dev.s3.amazonaws.com/media/pictures/tierra-burrito-logo-1-1.png",
				"widescreen_picture": "https://woowbe-dev.s3.amazonaws.com/media/pictures/1634832127.jpeg",
				"cover": "https://woowbe-dev.s3.amazonaws.com/media/covers/cover_UuinGHQ.jpg",
				"sector": {
					"id": 3,
					"name": "Fast Food",
					"icon": "https://woowbe-dev.s3.amazonaws.com/media/icons/food_TPGNuc7.svg",
					"created": "2021-05-25T10:47:39.210359Z"
				},
				"descriptive_categories": [
					{
						"id": 15,
						"name": "burrito",
						"owner": 92,
						"sector": null,
						"created": "2021-10-21T16:01:53.692876Z"
					},
					{
						"id": 13,
						"name": "mexicano",
						"owner": null,
						"sector": null,
						"created": "2021-10-21T15:08:54.024427Z"
					}
				],
				"return_period": 0,
				"dynamic_link": "https://app.dev.woowbe.com/share/KPoa",
				"is_franchisee_of": null,
				"is_favorite": false,
				"created": "2021-10-21T16:00:35.632774Z",
				"offers_count": 1
			},
			"online": false,
			"url": null,
			"position": {
				"type": "Point",
				"coordinates": [
					-3.7026362,
					40.4160307
				]
			},
			"address": "Calle de Espoz y Mina",
			"number": "8",
			"postal_code": "28012",
			"state": "Madrid",
			"city": "Madrid",
			"merchants_count": 0,
			"modified": "2023-03-17T08:02:28.509225Z",
			"place_id": "ChIJN5NXg4AoQg0ROFzp9ekdp9c",
			"formatted_address": "C. de Espoz y Mina, 8, 28012 Madrid",
			"deleted": false,
			"deleted_at": null,
			"created": "2021-10-21T16:06:38.400383Z",
			"selected_offer": {
				"id": 168,
				"reward": "4.00",
				"reward_type": "fixed",
				"kind": "B",
				"instant": false,
				"name": "4€ por cada comida",
				"standalone": false,
				"purchases": null,
				"online": false,
				"applicable": false,
				"available_percentage": 1,
				"available_rewards": 0,
				"is_used": false,
				"finish_date": null
			},
			"public_url": null,
			"is_open": false
		},
		{
			"id": 234,
			"business": {
				"id": 92,
				"name": "Tierra Burrito",
				"country": null,
				"description": "En Tierra nos gusta hacer las cosas bien.\r\nTodos los días, llegan hasta nosotros frutas y verduras frescas de productores locales y carne procedente de ganaderías cercanas de cría no intensiva. Estos productos constituyen los ingredientes que empleamos para preparar, delante de ti, nuestros platos saludables y auténticos: burritos, desnudos, nachos y mucho más.\r\n\r\nDesde nuestra cocina abierta, los eficientes y simpáticos camareros de Tierra te ayudarán a personalizar tu plato a tu gusto con una gran variedad de sabores y guarniciones distintas. Acompaña tu comida con nuestras margaritas caseras o con una cerveza artesanal, que tienes a tu disposición en la nevera.",
				"url": "https://www.tierraburritos.com/",
				"square_picture": "https://woowbe-dev.s3.amazonaws.com/media/pictures/tierra-burrito-logo-1-1.png",
				"widescreen_picture": "https://woowbe-dev.s3.amazonaws.com/media/pictures/1634832127.jpeg",
				"cover": "https://woowbe-dev.s3.amazonaws.com/media/covers/cover_UuinGHQ.jpg",
				"sector": {
					"id": 3,
					"name": "Fast Food",
					"icon": "https://woowbe-dev.s3.amazonaws.com/media/icons/food_TPGNuc7.svg",
					"created": "2021-05-25T10:47:39.210359Z"
				},
				"descriptive_categories": [
					{
						"id": 15,
						"name": "burrito",
						"owner": 92,
						"sector": null,
						"created": "2021-10-21T16:01:53.692876Z"
					},
					{
						"id": 13,
						"name": "mexicano",
						"owner": null,
						"sector": null,
						"created": "2021-10-21T15:08:54.024427Z"
					}
				],
				"return_period": 0,
				"dynamic_link": "https://app.dev.woowbe.com/share/KPoa",
				"is_franchisee_of": null,
				"is_favorite": false,
				"created": "2021-10-21T16:00:35.632774Z",
				"offers_count": 1
			},
			"online": false,
			"url": null,
			"position": {
				"type": "Point",
				"coordinates": [
					-3.7129304,
					40.4360599
				]
			},
			"address": "Calle de Guzmán el Bueno",
			"number": "52",
			"postal_code": "28015",
			"state": "Madrid",
			"city": "Madrid",
			"merchants_count": 0,
			"modified": "2023-03-17T08:02:28.620322Z",
			"place_id": "ChIJu6fa21woQg0R3zq8IypflIM",
			"formatted_address": "C. de Guzmán el Bueno, 52, 28015 Madrid",
			"deleted": false,
			"deleted_at": null,
			"created": "2021-10-21T16:06:23.343538Z",
			"selected_offer": {
				"id": 168,
				"reward": "4.00",
				"reward_type": "fixed",
				"kind": "B",
				"instant": false,
				"name": "4€ por cada comida",
				"standalone": false,
				"purchases": null,
				"online": false,
				"applicable": false,
				"available_percentage": 1,
				"available_rewards": 0,
				"is_used": false,
				"finish_date": null
			},
			"public_url": null,
			"is_open": false
		},
		{
			"id": 233,
			"business": {
				"id": 92,
				"name": "Tierra Burrito",
				"country": null,
				"description": "En Tierra nos gusta hacer las cosas bien.\r\nTodos los días, llegan hasta nosotros frutas y verduras frescas de productores locales y carne procedente de ganaderías cercanas de cría no intensiva. Estos productos constituyen los ingredientes que empleamos para preparar, delante de ti, nuestros platos saludables y auténticos: burritos, desnudos, nachos y mucho más.\r\n\r\nDesde nuestra cocina abierta, los eficientes y simpáticos camareros de Tierra te ayudarán a personalizar tu plato a tu gusto con una gran variedad de sabores y guarniciones distintas. Acompaña tu comida con nuestras margaritas caseras o con una cerveza artesanal, que tienes a tu disposición en la nevera.",
				"url": "https://www.tierraburritos.com/",
				"square_picture": "https://woowbe-dev.s3.amazonaws.com/media/pictures/tierra-burrito-logo-1-1.png",
				"widescreen_picture": "https://woowbe-dev.s3.amazonaws.com/media/pictures/1634832127.jpeg",
				"cover": "https://woowbe-dev.s3.amazonaws.com/media/covers/cover_UuinGHQ.jpg",
				"sector": {
					"id": 3,
					"name": "Fast Food",
					"icon": "https://woowbe-dev.s3.amazonaws.com/media/icons/food_TPGNuc7.svg",
					"created": "2021-05-25T10:47:39.210359Z"
				},
				"descriptive_categories": [
					{
						"id": 15,
						"name": "burrito",
						"owner": 92,
						"sector": null,
						"created": "2021-10-21T16:01:53.692876Z"
					},
					{
						"id": 13,
						"name": "mexicano",
						"owner": null,
						"sector": null,
						"created": "2021-10-21T15:08:54.024427Z"
					}
				],
				"return_period": 0,
				"dynamic_link": "https://app.dev.woowbe.com/share/KPoa",
				"is_franchisee_of": null,
				"is_favorite": false,
				"created": "2021-10-21T16:00:35.632774Z",
				"offers_count": 1
			},
			"online": false,
			"url": null,
			"position": {
				"type": "Point",
				"coordinates": [
					-3.6969297,
					40.42774989999999
				]
			},
			"address": "Calle de Sagasta",
			"number": "30",
			"postal_code": "28004",
			"state": "Madrid",
			"city": "Madrid",
			"merchants_count": 0,
			"modified": "2023-03-17T08:02:28.711730Z",
			"place_id": "ChIJVw26pI4oQg0RBhGtivIrqIE",
			"formatted_address": "C. de Sagasta, 30, 28004 Madrid",
			"deleted": false,
			"deleted_at": null,
			"created": "2021-10-21T16:06:09.759834Z",
			"selected_offer": {
				"id": 168,
				"reward": "4.00",
				"reward_type": "fixed",
				"kind": "B",
				"instant": false,
				"name": "4€ por cada comida",
				"standalone": false,
				"purchases": null,
				"online": false,
				"applicable": false,
				"available_percentage": 1,
				"available_rewards": 0,
				"is_used": false,
				"finish_date": null
			},
			"public_url": null,
			"is_open": false
		},
		{
			"id": 232,
			"business": {
				"id": 92,
				"name": "Tierra Burrito",
				"country": null,
				"description": "En Tierra nos gusta hacer las cosas bien.\r\nTodos los días, llegan hasta nosotros frutas y verduras frescas de productores locales y carne procedente de ganaderías cercanas de cría no intensiva. Estos productos constituyen los ingredientes que empleamos para preparar, delante de ti, nuestros platos saludables y auténticos: burritos, desnudos, nachos y mucho más.\r\n\r\nDesde nuestra cocina abierta, los eficientes y simpáticos camareros de Tierra te ayudarán a personalizar tu plato a tu gusto con una gran variedad de sabores y guarniciones distintas. Acompaña tu comida con nuestras margaritas caseras o con una cerveza artesanal, que tienes a tu disposición en la nevera.",
				"url": "https://www.tierraburritos.com/",
				"square_picture": "https://woowbe-dev.s3.amazonaws.com/media/pictures/tierra-burrito-logo-1-1.png",
				"widescreen_picture": "https://woowbe-dev.s3.amazonaws.com/media/pictures/1634832127.jpeg",
				"cover": "https://woowbe-dev.s3.amazonaws.com/media/covers/cover_UuinGHQ.jpg",
				"sector": {
					"id": 3,
					"name": "Fast Food",
					"icon": "https://woowbe-dev.s3.amazonaws.com/media/icons/food_TPGNuc7.svg",
					"created": "2021-05-25T10:47:39.210359Z"
				},
				"descriptive_categories": [
					{
						"id": 15,
						"name": "burrito",
						"owner": 92,
						"sector": null,
						"created": "2021-10-21T16:01:53.692876Z"
					},
					{
						"id": 13,
						"name": "mexicano",
						"owner": null,
						"sector": null,
						"created": "2021-10-21T15:08:54.024427Z"
					}
				],
				"return_period": 0,
				"dynamic_link": "https://app.dev.woowbe.com/share/KPoa",
				"is_franchisee_of": null,
				"is_favorite": false,
				"created": "2021-10-21T16:00:35.632774Z",
				"offers_count": 1
			},
			"online": false,
			"url": null,
			"position": {
				"type": "Point",
				"coordinates": [
					-3.7050404,
					40.4479935
				]
			},
			"address": "Calle de Bravo Murillo",
			"number": "107",
			"postal_code": "28020",
			"state": "Madrid",
			"city": "Madrid",
			"merchants_count": 0,
			"modified": "2023-03-17T08:02:28.806285Z",
			"place_id": "ChIJTSXRclYoQg0RLUbhjtcWn6k",
			"formatted_address": "C. de Bravo Murillo, 107, 28020 Madrid",
			"deleted": false,
			"deleted_at": null,
			"created": "2021-10-21T16:05:54.363115Z",
			"selected_offer": {
				"id": 168,
				"reward": "4.00",
				"reward_type": "fixed",
				"kind": "B",
				"instant": false,
				"name": "4€ por cada comida",
				"standalone": false,
				"purchases": null,
				"online": false,
				"applicable": false,
				"available_percentage": 1,
				"available_rewards": 0,
				"is_used": false,
				"finish_date": null
			},
			"public_url": null,
			"is_open": false
		},
		{
			"id": 231,
			"business": {
				"id": 92,
				"name": "Tierra Burrito",
				"country": null,
				"description": "En Tierra nos gusta hacer las cosas bien.\r\nTodos los días, llegan hasta nosotros frutas y verduras frescas de productores locales y carne procedente de ganaderías cercanas de cría no intensiva. Estos productos constituyen los ingredientes que empleamos para preparar, delante de ti, nuestros platos saludables y auténticos: burritos, desnudos, nachos y mucho más.\r\n\r\nDesde nuestra cocina abierta, los eficientes y simpáticos camareros de Tierra te ayudarán a personalizar tu plato a tu gusto con una gran variedad de sabores y guarniciones distintas. Acompaña tu comida con nuestras margaritas caseras o con una cerveza artesanal, que tienes a tu disposición en la nevera.",
				"url": "https://www.tierraburritos.com/",
				"square_picture": "https://woowbe-dev.s3.amazonaws.com/media/pictures/tierra-burrito-logo-1-1.png",
				"widescreen_picture": "https://woowbe-dev.s3.amazonaws.com/media/pictures/1634832127.jpeg",
				"cover": "https://woowbe-dev.s3.amazonaws.com/media/covers/cover_UuinGHQ.jpg",
				"sector": {
					"id": 3,
					"name": "Fast Food",
					"icon": "https://woowbe-dev.s3.amazonaws.com/media/icons/food_TPGNuc7.svg",
					"created": "2021-05-25T10:47:39.210359Z"
				},
				"descriptive_categories": [
					{
						"id": 15,
						"name": "burrito",
						"owner": 92,
						"sector": null,
						"created": "2021-10-21T16:01:53.692876Z"
					},
					{
						"id": 13,
						"name": "mexicano",
						"owner": null,
						"sector": null,
						"created": "2021-10-21T15:08:54.024427Z"
					}
				],
				"return_period": 0,
				"dynamic_link": "https://app.dev.woowbe.com/share/KPoa",
				"is_franchisee_of": null,
				"is_favorite": false,
				"created": "2021-10-21T16:00:35.632774Z",
				"offers_count": 1
			},
			"online": false,
			"url": null,
			"position": {
				"type": "Point",
				"coordinates": [
					-3.6865379,
					40.437542
				]
			},
			"address": "Calle Serrano",
			"number": "93",
			"postal_code": "28006",
			"state": "Madrid",
			"city": "Madrid",
			"merchants_count": 0,
			"modified": "2023-03-17T08:02:29.105710Z",
			"place_id": "ChIJgyQ0lesoQg0RHmLj2UVC7yw",
			"formatted_address": "C. Serrano, 93, 28006 Madrid",
			"deleted": false,
			"deleted_at": null,
			"created": "2021-10-21T16:03:00.510914Z",
			"selected_offer": {
				"id": 168,
				"reward": "4.00",
				"reward_type": "fixed",
				"kind": "B",
				"instant": false,
				"name": "4€ por cada comida",
				"standalone": false,
				"purchases": null,
				"online": false,
				"applicable": false,
				"available_percentage": 1,
				"available_rewards": 0,
				"is_used": false,
				"finish_date": null
			},
			"public_url": null,
			"is_open": false
		}
	]
}
