{"count":579,"next":"https://backend.dev.woowbe.com/api/v1/points_of_sales/public/?page=56","previous":"https://backend.dev.woowbe.com/api/v1/points_of_sales/public/?page=54","results":[{"id":218,"business":{"id":90,"name":"Taco Bell","country":null,"description":"Taco Bell es una cadena de restaurantes de comida rápida, especializada en cocina Tex-Mex. La cadena fue fundada en 1962 por Glen Bell y actualmente pertenece a la multinacional Yum! Brands.","url":"https://tacobell.es/","square_picture":"https://woowbe-dev.s3.amazonaws.com/media/pictures/taco-bell-logo-1-1.png","widescreen_picture":"https://woowbe-dev.s3.amazonaws.com/media/pictures/1634828991.jpeg","cover":"https://woowbe-dev.s3.amazonaws.com/media/covers/cover_hu1AWga.jpg","sector":{"id":3,"name":"Fast Food","icon":"https://woowbe-dev.s3.amazonaws.com/media/icons/food_TPGNuc7.svg","created":"2021-05-25T10:47:39.210359Z"},"descriptive_categories":[{"id":13,"name":"mexicano","owner":null,"sector":null,"created":"2021-10-21T15:08:54.024427Z"},{"id":12,"name":"taco","owner":null,"sector":null,"created":"2021-10-21T15:08:41.941999Z"}],"return_period":0,"dynamic_link":"https://app.dev.woowbe.com/share/hd53","is_franchisee_of":null,"is_favorite":false,"created":"2021-10-21T15:09:06.170930Z","offers_count":0},"online":false,"url":null,"position":{"type":"Point","coordinates":[-3.5990357,40.3690139]},"address":"Calle Adolfo Bioy Casares","number":"2","postal_code":"28051","state":"Madrid","city":"Madrid","merchants_count":0,"modified":"2023-03-17T08:02:32.009075Z","place_id":"ChIJedXaFdwkQg0R2-BMyAo3-cs","formatted_address":"C. Adolfo Bioy Casares, 2, 28051 Madrid","deleted":false,"deleted_at":null,"created":"2021-10-21T15:16:29.365051Z","selected_offer":{"reward":null,"reward_type":null,"kind":null,"instant":false,"name":"","standalone":false,"purchases":null,"online":false,"finish_date":null},"public_url":null,"is_open":false},{"id":217,"business":{"id":90,"name":"Taco Bell","country":null,"description":"Taco Bell es una cadena de restaurantes de comida rápida, especializada en cocina Tex-Mex. La cadena fue fundada en 1962 por Glen Bell y actualmente pertenece a la multinacional Yum! Brands.","url":"https://tacobell.es/","square_picture":"https://woowbe-dev.s3.amazonaws.com/media/pictures/taco-bell-logo-1-1.png","widescreen_picture":"https://woowbe-dev.s3.amazonaws.com/media/pictures/1634828991.jpeg","cover":"https://woowbe-dev.s3.amazonaws.com/media/covers/cover_hu1AWga.jpg","sector":{"id":3,"name":"Fast Food","icon":"https://woowbe-dev.s3.amazonaws.com/media/icons/food_TPGNuc7.svg","created":"2021-05-25T10:47:39.210359Z"},"descriptive_categories":[{"id":13,"name":"mexicano","owner":null,"sector":null,"created":"2021-10-21T15:08:54.024427Z"},{"id":12,"name":"taco","owner":null,"sector":null,"created":"2021-10-21T15:08:41.941999Z"}],"return_period":0,"dynamic_link":"https://app.dev.woowbe.com/share/hd53","is_franchisee_of":null,"is_favorite":false,"created":"2021-10-21T15:09:06.170930Z","offers_count":0},"online":false,"url":null,"position":{"type":"Point","coordinates":[-3.7052886,40.4170949]},"address":"Calle del Arenal","number":"6","postal_code":"28013","state":"Madrid","city":"Madrid","merchants_count":0,"modified":"2023-03-17T08:02:32.203276Z","place_id":"ChIJ6ZNWYn4oQg0RlmbgAGCSnpg","formatted_address":"C. del Arenal, 6, 28013 Madrid","deleted":false,"deleted_at":null,"created":"2021-10-21T15:15:58.648935Z","selected_offer":{"reward":null,"reward_type":null,"kind":null,"instant":false,"name":"","standalone":false,"purchases":null,"online":false,"finish_date":null},"public_url":null,"is_open":false},{"id":216,"business":{"id":90,"name":"Taco Bell","country":null,"description":"Taco Bell es una cadena de restaurantes de comida rápida, especializada en cocina Tex-Mex. La cadena fue fundada en 1962 por Glen Bell y actualmente pertenece a la multinacional Yum! Brands.","url":"https://tacobell.es/","square_picture":"https://woowbe-dev.s3.amazonaws.com/media/pictures/taco-bell-logo-1-1.png","widescreen_picture":"https://woowbe-dev.s3.amazonaws.com/media/pictures/1634828991.jpeg","cover":"https://woowbe-dev.s3.amazonaws.com/media/covers/cover_hu1AWga.jpg","sector":{"id":3,"name":"Fast Food","icon":"https://woowbe-dev.s3.amazonaws.com/media/icons/food_TPGNuc7.svg","created":"2021-05-25T10:47:39.210359Z"},"descriptive_categories":[{"id":13,"name":"mexicano","owner":null,"sector":null,"created":"2021-10-21T15:08:54.024427Z"},{"id":12,"name":"taco","owner":null,"sector":null,"created":"2021-10-21T15:08:41.941999Z"}],"return_period":0,"dynamic_link":"https://app.dev.woowbe.com/share/hd53","is_franchisee_of":null,"is_favorite":false,"created":"2021-10-21T15:09:06.170930Z","offers_count":0},"online":false,"url":null,"position":{"type":"Point","coordinates":[-3.7374791,40.3637278]},"address":"Calle Calderilla","number":"1","postal_code":"28054","state":"Madrid","city":"Madrid","merchants_count":0,"modified":"2023-03-17T08:02:32.294303Z","place_id":"ChIJwwsdmnsnQg0Rzwydo1f4Foc","formatted_address":"C. Calderilla, 1, 28054 Madrid","deleted":false,"deleted_at":null,"created":"2021-10-21T15:15:43.996489Z","selected_offer":{"reward":null,"reward_type":null,"kind":null,"instant":false,"name":"","standalone":false,"purchases":null,"online":false,"finish_date":null},"public_url":null,"is_open":false},{"id":215,"business":{"id":90,"name":"Taco Bell","country":null,"description":"Taco Bell es una cadena de restaurantes de comida rápida, especializada en cocina Tex-Mex. La cadena fue fundada en 1962 por Glen Bell y actualmente pertenece a la multinacional Yum! Brands.","url":"https://tacobell.es/","square_picture":"https://woowbe-dev.s3.amazonaws.com/media/pictures/taco-bell-logo-1-1.png","widescreen_picture":"https://woowbe-dev.s3.amazonaws.com/media/pictures/1634828991.jpeg","cover":"https://woowbe-dev.s3.amazonaws.com/media/covers/cover_hu1AWga.jpg","sector":{"id":3,"name":"Fast Food","icon":"https://woowbe-dev.s3.amazonaws.com/media/icons/food_TPGNuc7.svg","created":"2021-05-25T10:47:39.210359Z"},"descriptive_categories":[{"id":13,"name":"mexicano","owner":null,"sector":null,"created":"2021-10-21T15:08:54.024427Z"},{"id":12,"name":"taco","owner":null,"sector":null,"created":"2021-10-21T15:08:41.941999Z"}],"return_period":0,"dynamic_link":"https://app.dev.woowbe.com/share/hd53","is_franchisee_of":null,"is_favorite":false,"created":"2021-10-21T15:09:06.170930Z","offers_count":0},"online":false,"url":null,"position":{"type":"Point","coordinates":[-3.5815856,40.4456379]},"address":"Calle de Campezo","number":"7","postal_code":"28022","state":"Madrid","city":"Madrid","merchants_count":0,"modified":"2023-03-17T08:02:32.500839Z","place_id":"ChIJL4qDZdgvQg0RUUf8kIlREGg","formatted_address":"Polígono Industrial Las Mercedes, C. de Campezo, 7, 28022 Madrid","deleted":false,"deleted_at":null,"created":"2021-10-21T15:15:27.781952Z","selected_offer":{"reward":null,"reward_type":null,"kind":null,"instant":false,"name":"","standalone":false,"purchases":null,"online":false,"finish_date":null},"public_url":null,"is_open":false},{"id":214,"business":{"id":90,"name":"Taco Bell","country":null,"description":"Taco Bell es una cadena de restaurantes de comida rápida, especializada en cocina Tex-Mex. La cadena fue fundada en 1962 por Glen Bell y actualmente pertenece a la multinacional Yum! Brands.","url":"https://tacobell.es/","square_picture":"https://woowbe-dev.s3.amazonaws.com/media/pictures/taco-bell-logo-1-1.png","widescreen_picture":"https://woowbe-dev.s3.amazonaws.com/media/pictures/1634828991.jpeg","cover":"https://woowbe-dev.s3.amazonaws.com/media/covers/cover_hu1AWga.jpg","sector":{"id":3,"name":"Fast Food","icon":"https://woowbe-dev.s3.amazonaws.com/media/icons/food_TPGNuc7.svg","created":"2021-05-25T10:47:39.210359Z"},"descriptive_categories":[{"id":13,"name":"mexicano","owner":null,"sector":null,"created":"2021-10-21T15:08:54.024427Z"},{"id":12,"name":"taco","owner":null,"sector":null,"created":"2021-10-21T15:08:41.941999Z"}],"return_period":0,"dynamic_link":"https://app.dev.woowbe.com/share/hd53","is_franchisee_of":null,"is_favorite":false,"created":"2021-10-21T15:09:06.170930Z","offers_count":0},"online":false,"url":null,"position":{"type":"Point","coordinates":[-3.6925688,40.409005]},"address":"Plaza del Emperador Carlos V","number":"11","postal_code":"28012","state":"Madrid","city":"Madrid","merchants_count":0,"modified":"2023-03-17T08:02:32.712689Z","place_id":"ChIJjTw2HCYmQg0RzHzT0jt0OV4","formatted_address":"Pl. del Emperador Carlos V, 11, 28012 Madrid","deleted":false,"deleted_at":null,"created":"2021-10-21T15:15:08.522700Z","selected_offer":{"reward":null,"reward_type":null,"kind":null,"instant":false,"name":"","standalone":false,"purchases":null,"online":false,"finish_date":null},"public_url":null,"is_open":false},{"id":213,"business":{"id":90,"name":"Taco Bell","country":null,"description":"Taco Bell es una cadena de restaurantes de comida rápida, especializada en cocina Tex-Mex. La cadena fue fundada en 1962 por Glen Bell y actualmente pertenece a la multinacional Yum! Brands.","url":"https://tacobell.es/","square_picture":"https://woowbe-dev.s3.amazonaws.com/media/pictures/taco-bell-logo-1-1.png","widescreen_picture":"https://woowbe-dev.s3.amazonaws.com/media/pictures/1634828991.jpeg","cover":"https://woowbe-dev.s3.amazonaws.com/media/covers/cover_hu1AWga.jpg","sector":{"id":3,"name":"Fast Food","icon":"https://woowbe-dev.s3.amazonaws.com/media/icons/food_TPGNuc7.svg","created":"2021-05-25T10:47:39.210359Z"},"descriptive_categories":[{"id":13,"name":"mexicano","owner":null,"sector":null,"created":"2021-10-21T15:08:54.024427Z"},{"id":12,"name":"taco","owner":null,"sector":null,"created":"2021-10-21T15:08:41.941999Z"}],"return_period":0,"dynamic_link":"https://app.dev.woowbe.com/share/hd53","is_franchisee_of":null,"is_favorite":false,"created":"2021-10-21T15:09:06.170930Z","offers_count":0},"online":false,"url":null,"position":{"type":"Point","coordinates":[-3.7086683,40.42226429999999]},"address":"Calle Gran Vía","number":"64","postal_code":"28013","state":"Madrid","city":"Madrid","merchants_count":0,"modified":"2023-03-17T08:02:32.814430Z","place_id":"ChIJOfa4UHsoQg0R-vEpgF8uJu8","formatted_address":"C/ Gran Vía, 64, 28013 Madrid","deleted":false,"deleted_at":null,"created":"2021-10-21T15:14:49.857329Z","selected_offer":{"reward":null,"reward_type":null,"kind":null,"instant":false,"name":"","standalone":false,"purchases":null,"online":false,"finish_date":null},"public_url":null,"is_open":false},{"id":212,"business":{"id":90,"name":"Taco Bell","country":null,"description":"Taco Bell es una cadena de restaurantes de comida rápida, especializada en cocina Tex-Mex. La cadena fue fundada en 1962 por Glen Bell y actualmente pertenece a la multinacional Yum! Brands.","url":"https://tacobell.es/","square_picture":"https://woowbe-dev.s3.amazonaws.com/media/pictures/taco-bell-logo-1-1.png","widescreen_picture":"https://woowbe-dev.s3.amazonaws.com/media/pictures/1634828991.jpeg","cover":"https://woowbe-dev.s3.amazonaws.com/media/covers/cover_hu1AWga.jpg","sector":{"id":3,"name":"Fast Food","icon":"https://woowbe-dev.s3.amazonaws.com/media/icons/food_TPGNuc7.svg","created":"2021-05-25T10:47:39.210359Z"},"descriptive_categories":[{"id":13,"name":"mexicano","owner":null,"sector":null,"created":"2021-10-21T15:08:54.024427Z"},{"id":12,"name":"taco","owner":null,"sector":null,"created":"2021-10-21T15:08:41.941999Z"}],"return_period":0,"dynamic_link":"https://app.dev.woowbe.com/share/hd53","is_franchisee_of":null,"is_favorite":false,"created":"2021-10-21T15:09:06.170930Z","offers_count":0},"online":false,"url":null,"position":{"type":"Point","coordinates":[-3.70638,40.4195564]},"address":"Calle de Preciados","number":"29","postal_code":"28013","state":"Madrid","city":"Madrid","merchants_count":0,"modified":"2023-03-17T08:02:33.096290Z","place_id":"ChIJ90KKQ3woQg0RM4Juh0xWuGs","formatted_address":"C. de Preciados, 29, 28013 Madrid","deleted":false,"deleted_at":null,"created":"2021-10-21T15:14:33.636830Z","selected_offer":{"reward":null,"reward_type":null,"kind":null,"instant":false,"name":"","standalone":false,"purchases":null,"online":false,"finish_date":null},"public_url":null,"is_open":false},{"id":211,"business":{"id":90,"name":"Taco Bell","country":null,"description":"Taco Bell es una cadena de restaurantes de comida rápida, especializada en cocina Tex-Mex. La cadena fue fundada en 1962 por Glen Bell y actualmente pertenece a la multinacional Yum! Brands.","url":"https://tacobell.es/","square_picture":"https://woowbe-dev.s3.amazonaws.com/media/pictures/taco-bell-logo-1-1.png","widescreen_picture":"https://woowbe-dev.s3.amazonaws.com/media/pictures/1634828991.jpeg","cover":"https://woowbe-dev.s3.amazonaws.com/media/covers/cover_hu1AWga.jpg","sector":{"id":3,"name":"Fast Food","icon":"https://woowbe-dev.s3.amazonaws.com/media/icons/food_TPGNuc7.svg","created":"2021-05-25T10:47:39.210359Z"},"descriptive_categories":[{"id":13,"name":"mexicano","owner":null,"sector":null,"created":"2021-10-21T15:08:54.024427Z"},{"id":12,"name":"taco","owner":null,"sector":null,"created":"2021-10-21T15:08:41.941999Z"}],"return_period":0,"dynamic_link":"https://app.dev.woowbe.com/share/hd53","is_franchisee_of":null,"is_favorite":false,"created":"2021-10-21T15:09:06.170930Z","offers_count":0},"online":false,"url":null,"position":{"type":"Point","coordinates":[-3.7019879,40.4194612]},"address":"Calle de la Montera","number":"45","postal_code":"28013","state":"Madrid","city":"Madrid","merchants_count":0,"modified":"2023-03-17T08:02:33.292315Z","place_id":"ChIJ-5OeaYcoQg0RG6lsHvgYpWM","formatted_address":"C. de la Montera, 45, 28013 Madrid","deleted":false,"deleted_at":null,"created":"2021-10-21T15:14:19.435745Z","selected_offer":{"reward":null,"reward_type":null,"kind":null,"instant":false,"name":"","standalone":false,"purchases":null,"online":false,"finish_date":null},"public_url":null,"is_open":false},{"id":210,"business":{"id":90,"name":"Taco Bell","country":null,"description":"Taco Bell es una cadena de restaurantes de comida rápida, especializada en cocina Tex-Mex. La cadena fue fundada en 1962 por Glen Bell y actualmente pertenece a la multinacional Yum! Brands.","url":"https://tacobell.es/","square_picture":"https://woowbe-dev.s3.amazonaws.com/media/pictures/taco-bell-logo-1-1.png","widescreen_picture":"https://woowbe-dev.s3.amazonaws.com/media/pictures/1634828991.jpeg","cover":"https://woowbe-dev.s3.amazonaws.com/media/covers/cover_hu1AWga.jpg","sector":{"id":3,"name":"Fast Food","icon":"https://woowbe-dev.s3.amazonaws.com/media/icons/food_TPGNuc7.svg","created":"2021-05-25T10:47:39.210359Z"},"descriptive_categories":[{"id":13,"name":"mexicano","owner":null,"sector":null,"created":"2021-10-21T15:08:54.024427Z"},{"id":12,"name":"taco","owner":null,"sector":null,"created":"2021-10-21T15:08:41.941999Z"}],"return_period":0,"dynamic_link":"https://app.dev.woowbe.com/share/hd53","is_franchisee_of":null,"is_favorite":false,"created":"2021-10-21T15:09:06.170930Z","offers_count":0},"online":false,"url":null,"position":{"type":"Point","coordinates":[-3.7180652,40.4349613]},"address":"Calle de Isaac Peral","number":"4","postal_code":"28015","state":"Madrid","city":"Madrid","merchants_count":0,"modified":"2023-03-17T08:02:33.406191Z","place_id":"ChIJx3_tKUIoQg0R33Mc8wFymgk","formatted_address":"C. de Isaac Peral, 4, 28015 Madrid","deleted":false,"deleted_at":null,"created":"2021-10-21T15:14:02.581219Z","selected_offer":{"reward":null,"reward_type":null,"kind":null,"instant":false,"name":"","standalone":false,"purchases":null,"online":false,"finish_date":null},"public_url":null,"is_open":false},{"id":209,"business":{"id":90,"name":"Taco Bell","country":null,"description":"Taco Bell es una cadena de restaurantes de comida rápida, especializada en cocina Tex-Mex. La cadena fue fundada en 1962 por Glen Bell y actualmente pertenece a la multinacional Yum! Brands.","url":"https://tacobell.es/","square_picture":"https://woowbe-dev.s3.amazonaws.com/media/pictures/taco-bell-logo-1-1.png","widescreen_picture":"https://woowbe-dev.s3.amazonaws.com/media/pictures/1634828991.jpeg","cover":"https://woowbe-dev.s3.amazonaws.com/media/covers/cover_hu1AWga.jpg","sector":{"id":3,"name":"Fast Food","icon":"https://woowbe-dev.s3.amazonaws.com/media/icons/food_TPGNuc7.svg","created":"2021-05-25T10:47:39.210359Z"},"descriptive_categories":[{"id":13,"name":"mexicano","owner":null,"sector":null,"created":"2021-10-21T15:08:54.024427Z"},{"id":12,"name":"taco","owner":null,"sector":null,"created":"2021-10-21T15:08:41.941999Z"}],"return_period":0,"dynamic_link":"https://app.dev.woowbe.com/share/hd53","is_franchisee_of":null,"is_favorite":false,"created":"2021-10-21T15:09:06.170930Z","offers_count":0},"online":false,"url":null,"position":{"type":"Point","coordinates":[-3.7128501,40.4249941]},"address":"Calle de la Princesa","number":"3","postal_code":"28008","state":"Madrid","city":"Madrid","merchants_count":0,"modified":"2023-03-17T08:02:33.513014Z","place_id":"ChIJ1TXrAmspQg0RO2yBt0xq4L0","formatted_address":"C. de la Princesa, 3, 28008 Madrid","deleted":false,"deleted_at":null,"created":"2021-10-21T15:12:48.013127Z","selected_offer":{"reward":null,"reward_type":null,"kind":null,"instant":false,"name":"","standalone":false,"purchases":null,"online":false,"finish_date":null},"public_url":null,"is_open":false}]}