{"count":579,"next":"https://backend.dev.woowbe.com/api/v1/points_of_sales/public/?page=58","previous":"https://backend.dev.woowbe.com/api/v1/points_of_sales/public/?page=56","results":[{"id":198,"business":{"id":89,"name":"Aloha Poke","country":{"id":3,"name":"España","code":"es"},"description":"Conocemos el poder de una alimentación saludable para nutrir una vida activa, equilibrada y feliz.\r\n\r\nCansados de no encontrar opciones de comida sana y sabrosa en la ciudad, decidimos comenzar nuestra propia revolución:\r\n\r\nLa Revolución de la Healthy Fast Food","url":"https://www.alohapoke.es/","square_picture":"https://woowbe-dev.s3.amazonaws.com/media/pictures/aloha-poke-logo-1-1.png","widescreen_picture":"https://woowbe-dev.s3.amazonaws.com/media/pictures/1634827016.jpeg","cover":"https://woowbe-dev.s3.amazonaws.com/media/covers/cover_0XysFRk.jpg","sector":{"id":37,"name":"Restaurante temático","icon":"https://woowbe-dev.s3.amazonaws.com/media/icons/toeat_T2kMSVS.svg","created":"2021-10-21T14:32:58.019404Z"},"descriptive_categories":[{"id":11,"name":"Hawaiana","owner":89,"sector":null,"created":"2021-10-21T14:41:44.180293Z"},{"id":10,"name":"Healthy","owner":null,"sector":null,"created":"2021-10-21T14:33:37.426542Z"},{"id":9,"name":"Poke","owner":null,"sector":null,"created":"2021-10-21T14:33:26.133578Z"}],"return_period":0,"dynamic_link":"https://app.dev.woowbe.com/share/Fu3N","is_franchisee_of":null,"is_favorite":false,"created":"2021-10-21T14:33:52.942982Z","offers_count":4},"online":false,"url":null,"position":{"type":"Point","coordinates":[-3.6765097,40.4238357]},"address":"Avenida de Felipe II","number":"8","postal_code":"28009","state":"Madrid","city":"Madrid","merchants_count":0,"modified":"2023-03-17T08:02:38.366289Z","place_id":"ChIJC3a_tKQoQg0R2yx2JBDlzwA","formatted_address":"Av. de Felipe II, 8, 28009 Madrid","deleted":false,"deleted_at":null,"created":"2021-10-21T14:48:01.013382Z","selected_offer":{"id":397,"reward":"15.00","reward_type":"percentage","kind":"A","instant":false,"name":"Prueba franquicias","standalone":false,"purchases":null,"online":false,"applicable":false,"available_percentage":1,"available_rewards":null,"is_used":false,"finish_date":"2023-07-31"},"public_url":null,"is_open":false},{"id":197,"business":{"id":89,"name":"Aloha Poke","country":{"id":3,"name":"España","code":"es"},"description":"Conocemos el poder de una alimentación saludable para nutrir una vida activa, equilibrada y feliz.\r\n\r\nCansados de no encontrar opciones de comida sana y sabrosa en la ciudad, decidimos comenzar nuestra propia revolución:\r\n\r\nLa Revolución de la Healthy Fast Food","url":"https://www.alohapoke.es/","square_picture":"https://woowbe-dev.s3.amazonaws.com/media/pictures/aloha-poke-logo-1-1.png","widescreen_picture":"https://woowbe-dev.s3.amazonaws.com/media/pictures/1634827016.jpeg","cover":"https://woowbe-dev.s3.amazonaws.com/media/covers/cover_0XysFRk.jpg","sector":{"id":37,"name":"Restaurante temático","icon":"https://woowbe-dev.s3.amazonaws.com/media/icons/toeat_T2kMSVS.svg","created":"2021-10-21T14:32:58.019404Z"},"descriptive_categories":[{"id":11,"name":"Hawaiana","owner":89,"sector":null,"created":"2021-10-21T14:41:44.180293Z"},{"id":10,"name":"Healthy","owner":null,"sector":null,"created":"2021-10-21T14:33:37.426542Z"},{"id":9,"name":"Poke","owner":null,"sector":null,"created":"2021-10-21T14:33:26.133578Z"}],"return_period":0,"dynamic_link":"https://app.dev.woowbe.com/share/Fu3N","is_franchisee_of":null,"is_favorite":false,"created":"2021-10-21T14:33:52.942982Z","offers_count":4},"online":false,"url":null,"position":{"type":"Point","coordinates":[-3.7133467,40.4366626]},"address":"Calle de Guzmán el Bueno","number":"73","postal_code":"28015","state":"Madrid","city":"Madrid","merchants_count":0,"modified":"2023-03-17T08:02:39.395775Z","place_id":"ChIJZeJ3NkMoQg0RLed_DW2FM18","formatted_address":"C. de Guzmán el Bueno, 73, 28015 Madrid","deleted":false,"deleted_at":null,"created":"2021-10-21T14:47:39.254155Z","selected_offer":{"id":397,"reward":"15.00","reward_type":"percentage","kind":"A","instant":false,"name":"Prueba franquicias","standalone":false,"purchases":null,"online":false,"applicable":false,"available_percentage":1,"available_rewards":null,"is_used":false,"finish_date":"2023-07-31"},"public_url":null,"is_open":false},{"id":196,"business":{"id":89,"name":"Aloha Poke","country":{"id":3,"name":"España","code":"es"},"description":"Conocemos el poder de una alimentación saludable para nutrir una vida activa, equilibrada y feliz.\r\n\r\nCansados de no encontrar opciones de comida sana y sabrosa en la ciudad, decidimos comenzar nuestra propia revolución:\r\n\r\nLa Revolución de la Healthy Fast Food","url":"https://www.alohapoke.es/","square_picture":"https://woowbe-dev.s3.amazonaws.com/media/pictures/aloha-poke-logo-1-1.png","widescreen_picture":"https://woowbe-dev.s3.amazonaws.com/media/pictures/1634827016.jpeg","cover":"https://woowbe-dev.s3.amazonaws.com/media/covers/cover_0XysFRk.jpg","sector":{"id":37,"name":"Restaurante temático","icon":"https://woowbe-dev.s3.amazonaws.com/media/icons/toeat_T2kMSVS.svg","created":"2021-10-21T14:32:58.019404Z"},"descriptive_categories":[{"id":11,"name":"Hawaiana","owner":89,"sector":null,"created":"2021-10-21T14:41:44.180293Z"},{"id":10,"name":"Healthy","owner":null,"sector":null,"created":"2021-10-21T14:33:37.426542Z"},{"id":9,"name":"Poke","owner":null,"sector":null,"created":"2021-10-21T14:33:26.133578Z"}],"return_period":0,"dynamic_link":"https://app.dev.woowbe.com/share/Fu3N","is_franchisee_of":null,"is_favorite":false,"created":"2021-10-21T14:33:52.942982Z","offers_count":4},"online":false,"url":null,"position":{"type":"Point","coordinates":[-3.6681468,40.4483749]},"address":"Calle de López de Hoyos","number":"153","postal_code":"28002","state":"Madrid","city":"Madrid","merchants_count":0,"modified":"2023-03-17T08:02:40.907605Z","place_id":"ChIJsTv7adEoQg0Rh9fYuugpKgk","formatted_address":"C. de López de Hoyos, 153, 28002 Madrid","deleted":false,"deleted_at":null,"created":"2021-10-21T14:47:15.721341Z","selected_offer":{"id":397,"reward":"15.00","reward_type":"percentage","kind":"A","instant":false,"name":"Prueba franquicias","standalone":false,"purchases":null,"online":false,"applicable":false,"available_percentage":1,"available_rewards":null,"is_used":false,"finish_date":"2023-07-31"},"public_url":null,"is_open":false},{"id":195,"business":{"id":89,"name":"Aloha Poke","country":{"id":3,"name":"España","code":"es"},"description":"Conocemos el poder de una alimentación saludable para nutrir una vida activa, equilibrada y feliz.\r\n\r\nCansados de no encontrar opciones de comida sana y sabrosa en la ciudad, decidimos comenzar nuestra propia revolución:\r\n\r\nLa Revolución de la Healthy Fast Food","url":"https://www.alohapoke.es/","square_picture":"https://woowbe-dev.s3.amazonaws.com/media/pictures/aloha-poke-logo-1-1.png","widescreen_picture":"https://woowbe-dev.s3.amazonaws.com/media/pictures/1634827016.jpeg","cover":"https://woowbe-dev.s3.amazonaws.com/media/covers/cover_0XysFRk.jpg","sector":{"id":37,"name":"Restaurante temático","icon":"https://woowbe-dev.s3.amazonaws.com/media/icons/toeat_T2kMSVS.svg","created":"2021-10-21T14:32:58.019404Z"},"descriptive_categories":[{"id":11,"name":"Hawaiana","owner":89,"sector":null,"created":"2021-10-21T14:41:44.180293Z"},{"id":10,"name":"Healthy","owner":null,"sector":null,"created":"2021-10-21T14:33:37.426542Z"},{"id":9,"name":"Poke","owner":null,"sector":null,"created":"2021-10-21T14:33:26.133578Z"}],"return_period":0,"dynamic_link":"https://app.dev.woowbe.com/share/Fu3N","is_franchisee_of":null,"is_favorite":false,"created":"2021-10-21T14:33:52.942982Z","offers_count":4},"online":false,"url":null,"position":{"type":"Point","coordinates":[-3.6974478,40.4211367]},"address":"Calle de la Libertad","number":"17","postal_code":"28004","state":"Madrid","city":"Madrid","merchants_count":0,"modified":"2023-03-17T08:02:42.195891Z","place_id":"ChIJNdkX0YUoQg0R1d4vCVnK-OM","formatted_address":"C. de la Libertad, 17, 28004 Madrid","deleted":false,"deleted_at":null,"created":"2021-10-21T14:46:38.698777Z","selected_offer":{"id":397,"reward":"15.00","reward_type":"percentage","kind":"A","instant":false,"name":"Prueba franquicias","standalone":false,"purchases":null,"online":false,"applicable":false,"available_percentage":1,"available_rewards":null,"is_used":false,"finish_date":"2023-07-31"},"public_url":null,"is_open":false},{"id":194,"business":{"id":89,"name":"Aloha Poke","country":{"id":3,"name":"España","code":"es"},"description":"Conocemos el poder de una alimentación saludable para nutrir una vida activa, equilibrada y feliz.\r\n\r\nCansados de no encontrar opciones de comida sana y sabrosa en la ciudad, decidimos comenzar nuestra propia revolución:\r\n\r\nLa Revolución de la Healthy Fast Food","url":"https://www.alohapoke.es/","square_picture":"https://woowbe-dev.s3.amazonaws.com/media/pictures/aloha-poke-logo-1-1.png","widescreen_picture":"https://woowbe-dev.s3.amazonaws.com/media/pictures/1634827016.jpeg","cover":"https://woowbe-dev.s3.amazonaws.com/media/covers/cover_0XysFRk.jpg","sector":{"id":37,"name":"Restaurante temático","icon":"https://woowbe-dev.s3.amazonaws.com/media/icons/toeat_T2kMSVS.svg","created":"2021-10-21T14:32:58.019404Z"},"descriptive_categories":[{"id":11,"name":"Hawaiana","owner":89,"sector":null,"created":"2021-10-21T14:41:44.180293Z"},{"id":10,"name":"Healthy","owner":null,"sector":null,"created":"2021-10-21T14:33:37.426542Z"},{"id":9,"name":"Poke","owner":null,"sector":null,"created":"2021-10-21T14:33:26.133578Z"}],"return_period":0,"dynamic_link":"https://app.dev.woowbe.com/share/Fu3N","is_franchisee_of":null,"is_favorite":false,"created":"2021-10-21T14:33:52.942982Z","offers_count":4},"online":false,"url":null,"position":{"type":"Point","coordinates":[-3.693104,40.4566394]},"address":"Calle de San Germán","number":"12","postal_code":"28020","state":"Madrid","city":"Madrid","merchants_count":0,"modified":"2023-03-17T08:02:42.837913Z","place_id":"ChIJRyp5KgMpQg0RzJqxY7IQlVI","formatted_address":"C. de San Germán, 12, 28020 Madrid","deleted":false,"deleted_at":null,"created":"2021-10-21T14:46:12.616200Z","selected_offer":{"id":397,"reward":"15.00","reward_type":"percentage","kind":"A","instant":false,"name":"Prueba franquicias","standalone":false,"purchases":null,"online":false,"applicable":false,"available_percentage":1,"available_rewards":null,"is_used":false,"finish_date":"2023-07-31"},"public_url":null,"is_open":false},{"id":193,"business":{"id":89,"name":"Aloha Poke","country":{"id":3,"name":"España","code":"es"},"description":"Conocemos el poder de una alimentación saludable para nutrir una vida activa, equilibrada y feliz.\r\n\r\nCansados de no encontrar opciones de comida sana y sabrosa en la ciudad, decidimos comenzar nuestra propia revolución:\r\n\r\nLa Revolución de la Healthy Fast Food","url":"https://www.alohapoke.es/","square_picture":"https://woowbe-dev.s3.amazonaws.com/media/pictures/aloha-poke-logo-1-1.png","widescreen_picture":"https://woowbe-dev.s3.amazonaws.com/media/pictures/1634827016.jpeg","cover":"https://woowbe-dev.s3.amazonaws.com/media/covers/cover_0XysFRk.jpg","sector":{"id":37,"name":"Restaurante temático","icon":"https://woowbe-dev.s3.amazonaws.com/media/icons/toeat_T2kMSVS.svg","created":"2021-10-21T14:32:58.019404Z"},"descriptive_categories":[{"id":11,"name":"Hawaiana","owner":89,"sector":null,"created":"2021-10-21T14:41:44.180293Z"},{"id":10,"name":"Healthy","owner":null,"sector":null,"created":"2021-10-21T14:33:37.426542Z"},{"id":9,"name":"Poke","owner":null,"sector":null,"created":"2021-10-21T14:33:26.133578Z"}],"return_period":0,"dynamic_link":"https://app.dev.woowbe.com/share/Fu3N","is_franchisee_of":null,"is_favorite":false,"created":"2021-10-21T14:33:52.942982Z","offers_count":4},"online":false,"url":null,"position":{"type":"Point","coordinates":[-3.693104,40.4566394]},"address":"Calle de San Germán","number":"12","postal_code":"28020","state":"Madrid","city":"Madrid","merchants_count":0,"modified":"2023-03-17T08:02:43.120379Z","place_id":"ChIJRyp5KgMpQg0RzJqxY7IQlVI","formatted_address":"C. de San Germán, 12, 28020 Madrid","deleted":false,"deleted_at":null,"created":"2021-10-21T14:45:33.752273Z","selected_offer":{"id":397,"reward":"15.00","reward_type":"percentage","kind":"A","instant":false,"name":"Prueba franquicias","standalone":false,"purchases":null,"online":false,"applicable":false,"available_percentage":1,"available_rewards":null,"is_used":false,"finish_date":"2023-07-31"},"public_url":null,"is_open":false},{"id":192,"business":{"id":89,"name":"Aloha Poke","country":{"id":3,"name":"España","code":"es"},"description":"Conocemos el poder de una alimentación saludable para nutrir una vida activa, equilibrada y feliz.\r\n\r\nCansados de no encontrar opciones de comida sana y sabrosa en la ciudad, decidimos comenzar nuestra propia revolución:\r\n\r\nLa Revolución de la Healthy Fast Food","url":"https://www.alohapoke.es/","square_picture":"https://woowbe-dev.s3.amazonaws.com/media/pictures/aloha-poke-logo-1-1.png","widescreen_picture":"https://woowbe-dev.s3.amazonaws.com/media/pictures/1634827016.jpeg","cover":"https://woowbe-dev.s3.amazonaws.com/media/covers/cover_0XysFRk.jpg","sector":{"id":37,"name":"Restaurante temático","icon":"https://woowbe-dev.s3.amazonaws.com/media/icons/toeat_T2kMSVS.svg","created":"2021-10-21T14:32:58.019404Z"},"descriptive_categories":[{"id":11,"name":"Hawaiana","owner":89,"sector":null,"created":"2021-10-21T14:41:44.180293Z"},{"id":10,"name":"Healthy","owner":null,"sector":null,"created":"2021-10-21T14:33:37.426542Z"},{"id":9,"name":"Poke","owner":null,"sector":null,"created":"2021-10-21T14:33:26.133578Z"}],"return_period":0,"dynamic_link":"https://app.dev.woowbe.com/share/Fu3N","is_franchisee_of":null,"is_favorite":false,"created":"2021-10-21T14:33:52.942982Z","offers_count":4},"online":false,"url":null,"position":{"type":"Point","coordinates":[-3.696122,40.4266602]},"address":"Plaza de Santa Bárbara","number":"9","postal_code":"28004","state":"Madrid","city":"Madrid","merchants_count":0,"modified":"2023-03-17T08:02:43.722793Z","place_id":"ChIJUULk744oQg0RjnFp2qU5eEA","formatted_address":"Plaza de Sta. Bárbara, 9, 28004 Madrid","deleted":false,"deleted_at":null,"created":"2021-10-21T14:44:06.820169Z","selected_offer":{"id":397,"reward":"15.00","reward_type":"percentage","kind":"A","instant":false,"name":"Prueba franquicias","standalone":false,"purchases":null,"online":false,"applicable":false,"available_percentage":1,"available_rewards":null,"is_used":false,"finish_date":"2023-07-31"},"public_url":null,"is_open":false},{"id":106,"business":{"id":21,"name":"Levadura Madre","country":null,"description":"","url":null,"square_picture":"https://woowbe-dev.s3.amazonaws.com/media/pictures/levadura-madre.jpg","widescreen_picture":"https://woowbe-dev.s3.amazonaws.com/media/pictures/1623932500.jpeg","cover":"https://woowbe-dev.s3.amazonaws.com/media/covers/levadura-madre.jpg","sector":{"id":19,"name":"Panadería","icon":"https://woowbe-dev.s3.amazonaws.com/media/icons/toeat_I8A0AM0.svg","created":"2021-05-25T11:05:24.276505Z"},"descriptive_categories":[],"return_period":0,"dynamic_link":"https://app.dev.woowbe.com/share/AY2a","is_franchisee_of":null,"is_favorite":false,"created":"2021-06-10T09:24:34.720193Z","offers_count":1},"online":false,"url":null,"position":{"type":"Point","coordinates":[-3.6838166,40.4362934]},"address":"Calle del General Oraá","number":"29","postal_code":"28006","state":"Madrid","city":"Madrid","merchants_count":0,"modified":"2023-03-17T08:02:43.790558Z","place_id":null,"formatted_address":"Calle del General Oraá, 29, 28006, Madrid","deleted":false,"deleted_at":null,"created":"2021-06-18T07:51:31.942813Z","selected_offer":{"id":33,"reward":"10.00","reward_type":"fixed","kind":"C","instant":true,"name":"Levadura madre test","standalone":false,"purchases":10,"online":false,"applicable":false,"available_percentage":0.99,"available_rewards":99,"is_used":false,"finish_date":null},"public_url":null,"is_open":false},{"id":103,"business":{"id":21,"name":"Levadura Madre","country":null,"description":"","url":null,"square_picture":"https://woowbe-dev.s3.amazonaws.com/media/pictures/levadura-madre.jpg","widescreen_picture":"https://woowbe-dev.s3.amazonaws.com/media/pictures/1623932500.jpeg","cover":"https://woowbe-dev.s3.amazonaws.com/media/covers/levadura-madre.jpg","sector":{"id":19,"name":"Panadería","icon":"https://woowbe-dev.s3.amazonaws.com/media/icons/toeat_I8A0AM0.svg","created":"2021-05-25T11:05:24.276505Z"},"descriptive_categories":[],"return_period":0,"dynamic_link":"https://app.dev.woowbe.com/share/AY2a","is_franchisee_of":null,"is_favorite":false,"created":"2021-06-10T09:24:34.720193Z","offers_count":1},"online":false,"url":null,"position":{"type":"Point","coordinates":[-3.6942195,40.4283904]},"address":"Calle de Fernando el Santo","number":"5","postal_code":"28010","state":"Madrid","city":"Madrid","merchants_count":0,"modified":"2023-03-17T08:02:43.825275Z","place_id":null,"formatted_address":"Calle de Fernando el Santo, 5, 28010, Madrid","deleted":false,"deleted_at":null,"created":"2021-06-18T07:50:58.009962Z","selected_offer":{"id":33,"reward":"10.00","reward_type":"fixed","kind":"C","instant":true,"name":"Levadura madre test","standalone":false,"purchases":10,"online":false,"applicable":false,"available_percentage":0.99,"available_rewards":99,"is_used":false,"finish_date":null},"public_url":null,"is_open":false},{"id":102,"business":{"id":21,"name":"Levadura Madre","country":null,"description":"","url":null,"square_picture":"https://woowbe-dev.s3.amazonaws.com/media/pictures/levadura-madre.jpg","widescreen_picture":"https://woowbe-dev.s3.amazonaws.com/media/pictures/1623932500.jpeg","cover":"https://woowbe-dev.s3.amazonaws.com/media/covers/levadura-madre.jpg","sector":{"id":19,"name":"Panadería","icon":"https://woowbe-dev.s3.amazonaws.com/media/icons/toeat_I8A0AM0.svg","created":"2021-05-25T11:05:24.276505Z"},"descriptive_categories":[],"return_period":0,"dynamic_link":"https://app.dev.woowbe.com/share/AY2a","is_franchisee_of":null,"is_favorite":false,"created":"2021-06-10T09:24:34.720193Z","offers_count":1},"online":false,"url":null,"position":{"type":"Point","coordinates":[-3.6826811,40.427926]},"address":"Calle de Núñez de Balboa","number":"57","postal_code":"28001","state":"Madrid","city":"Madrid","merchants_count":0,"modified":"2023-03-17T08:02:43.860409Z","place_id":null,"formatted_address":"Calle de Núñez de Balboa, 57, 28001, Madrid","deleted":false,"deleted_at":null,"created":"2021-06-18T07:50:40.769885Z","selected_offer":{"id":33,"reward":"10.00","reward_type":"fixed","kind":"C","instant":true,"name":"Levadura madre test","standalone":false,"purchases":10,"online":false,"applicable":false,"available_percentage":0.99,"available_rewards":99,"is_used":false,"finish_date":null},"public_url":null,"is_open":false}]}