{"count":579,"next":"https://backend.dev.woowbe.com/api/v1/points_of_sales/public/?page=7","previous":"https://backend.dev.woowbe.com/api/v1/points_of_sales/public/?page=5","results":[{"id":801,"business":{"id":267,"name":"New York Burger","country":{"id":3,"name":"España","code":"es"},"description":"Como tú, somos apasionados de la buena comida americana.\r\n\r\nDe aquí evolucionamos a la barbacoa, creando recetas auténticas americanas a base de brasa, madera y humo.\r\n\r\nEn NYB queremos verte disfrutar, sean cuáles sean tus gustos o principios. Por ello, nuestra apuesta más reciente es New York Green con ensaladas y bowls veganos y vegetarianos, que preparamos cada día con ingredientes frescos y de proximidad.","url":"https://newyorkburger.es/","square_picture":"https://woowbe-dev.s3.amazonaws.com/media/pictures/newyorkburger-logo-1-1.jpeg","widescreen_picture":"https://woowbe-dev.s3.amazonaws.com/media/pictures/newyorkburger-logo-16-9.jpeg","cover":"https://woowbe-dev.s3.amazonaws.com/media/covers/newyorkburger-portada.jpeg","sector":{"id":2,"name":"Restaurante","icon":"https://woowbe-dev.s3.amazonaws.com/media/icons/food_Yc99kSV.svg","created":"2021-05-25T10:46:14.371617Z"},"descriptive_categories":[{"id":87,"name":"adidas","owner":248,"sector":null,"created":"2022-11-15T16:16:47.536980Z"},{"id":46,"name":"americana","owner":null,"sector":null,"created":"2021-11-29T09:27:36.991965Z"},{"id":47,"name":"brasas","owner":null,"sector":null,"created":"2021-11-29T09:27:43.625917Z"},{"id":48,"name":"burger","owner":null,"sector":null,"created":"2021-11-29T09:27:58.948006Z"},{"id":39,"name":"ensaladas","owner":null,"sector":null,"created":"2021-10-25T12:45:54.528824Z"},{"id":37,"name":"hamburguesa","owner":null,"sector":null,"created":"2021-10-25T11:59:24.358507Z"},{"id":10,"name":"Healthy","owner":null,"sector":null,"created":"2021-10-21T14:33:37.426542Z"},{"id":49,"name":"niños","owner":118,"sector":null,"created":"2021-11-29T09:30:23.079267Z"},{"id":50,"name":"saludable","owner":118,"sector":null,"created":"2021-11-29T09:30:31.798207Z"},{"id":51,"name":"vegana","owner":118,"sector":null,"created":"2021-11-29T09:30:34.948300Z"},{"id":52,"name":"vegano","owner":118,"sector":null,"created":"2021-11-29T09:30:37.746041Z"}],"return_period":0,"dynamic_link":"https://app.dev.woowbe.com/share/Q4zA","is_franchisee_of":118,"is_favorite":false,"created":"2023-02-01T10:40:47.131211Z","offers_count":0},"online":false,"url":null,"position":{"type":"Point","coordinates":[-3.6991641,40.4197586]},"address":"Calle Gran Vía","number":"14","postal_code":"28013","state":"Madrid","city":"Madrid","merchants_count":0,"modified":"2023-03-17T08:00:59.193677Z","place_id":"ChIJndi67IYoQg0R97877CXpmAU","formatted_address":"C/ Gran Vía, 14, 28013 Madrid","deleted":false,"deleted_at":null,"created":"2023-02-01T10:51:01.015374Z","selected_offer":{"reward":null,"reward_type":null,"kind":null,"instant":false,"name":"","standalone":false,"purchases":null,"online":false,"finish_date":null},"public_url":null,"is_open":false},{"id":800,"business":{"id":267,"name":"New York Burger","country":{"id":3,"name":"España","code":"es"},"description":"Como tú, somos apasionados de la buena comida americana.\r\n\r\nDe aquí evolucionamos a la barbacoa, creando recetas auténticas americanas a base de brasa, madera y humo.\r\n\r\nEn NYB queremos verte disfrutar, sean cuáles sean tus gustos o principios. Por ello, nuestra apuesta más reciente es New York Green con ensaladas y bowls veganos y vegetarianos, que preparamos cada día con ingredientes frescos y de proximidad.","url":"https://newyorkburger.es/","square_picture":"https://woowbe-dev.s3.amazonaws.com/media/pictures/newyorkburger-logo-1-1.jpeg","widescreen_picture":"https://woowbe-dev.s3.amazonaws.com/media/pictures/newyorkburger-logo-16-9.jpeg","cover":"https://woowbe-dev.s3.amazonaws.com/media/covers/newyorkburger-portada.jpeg","sector":{"id":2,"name":"Restaurante","icon":"https://woowbe-dev.s3.amazonaws.com/media/icons/food_Yc99kSV.svg","created":"2021-05-25T10:46:14.371617Z"},"descriptive_categories":[{"id":87,"name":"adidas","owner":248,"sector":null,"created":"2022-11-15T16:16:47.536980Z"},{"id":46,"name":"americana","owner":null,"sector":null,"created":"2021-11-29T09:27:36.991965Z"},{"id":47,"name":"brasas","owner":null,"sector":null,"created":"2021-11-29T09:27:43.625917Z"},{"id":48,"name":"burger","owner":null,"sector":null,"created":"2021-11-29T09:27:58.948006Z"},{"id":39,"name":"ensaladas","owner":null,"sector":null,"created":"2021-10-25T12:45:54.528824Z"},{"id":37,"name":"hamburguesa","owner":null,"sector":null,"created":"2021-10-25T11:59:24.358507Z"},{"id":10,"name":"Healthy","owner":null,"sector":null,"created":"2021-10-21T14:33:37.426542Z"},{"id":49,"name":"niños","owner":118,"sector":null,"created":"2021-11-29T09:30:23.079267Z"},{"id":50,"name":"saludable","owner":118,"sector":null,"created":"2021-11-29T09:30:31.798207Z"},{"id":51,"name":"vegana","owner":118,"sector":null,"created":"2021-11-29T09:30:34.948300Z"},{"id":52,"name":"vegano","owner":118,"sector":null,"created":"2021-11-29T09:30:37.746041Z"}],"return_period":0,"dynamic_link":"https://app.dev.woowbe.com/share/Q4zA","is_franchisee_of":118,"is_favorite":false,"created":"2023-02-01T10:40:47.131211Z","offers_count":0},"online":false,"url":null,"position":{"type":"Point","coordinates":[-3.6980391,40.4365544]},"address":"Calle de Alonso Cano","number":"17","postal_code":"28010","state":"Madrid","city":"Madrid","merchants_count":0,"modified":"2023-03-17T08:00:59.298756Z","place_id":"ChIJ0RjdefQoQg0ReO1Gog6Fd98","formatted_address":"C. de Alonso Cano, 17, 28010 Madrid","deleted":false,"deleted_at":null,"created":"2023-02-01T10:45:16.172868Z","selected_offer":{"id":400,"reward":"15.00","reward_type":"percentage","kind":"A","instant":false,"name":"Prueba franquicias","standalone":false,"purchases":null,"online":false,"applicable":false,"available_percentage":1,"available_rewards":null,"is_used":false,"finish_date":"2023-08-01"},"public_url":null,"is_open":false},{"id":799,"business":{"id":267,"name":"New York Burger","country":{"id":3,"name":"España","code":"es"},"description":"Como tú, somos apasionados de la buena comida americana.\r\n\r\nDe aquí evolucionamos a la barbacoa, creando recetas auténticas americanas a base de brasa, madera y humo.\r\n\r\nEn NYB queremos verte disfrutar, sean cuáles sean tus gustos o principios. Por ello, nuestra apuesta más reciente es New York Green con ensaladas y bowls veganos y vegetarianos, que preparamos cada día con ingredientes frescos y de proximidad.","url":"https://newyorkburger.es/","square_picture":"https://woowbe-dev.s3.amazonaws.com/media/pictures/newyorkburger-logo-1-1.jpeg","widescreen_picture":"https://woowbe-dev.s3.amazonaws.com/media/pictures/newyorkburger-logo-16-9.jpeg","cover":"https://woowbe-dev.s3.amazonaws.com/media/covers/newyorkburger-portada.jpeg","sector":{"id":2,"name":"Restaurante","icon":"https://woowbe-dev.s3.amazonaws.com/media/icons/food_Yc99kSV.svg","created":"2021-05-25T10:46:14.371617Z"},"descriptive_categories":[{"id":87,"name":"adidas","owner":248,"sector":null,"created":"2022-11-15T16:16:47.536980Z"},{"id":46,"name":"americana","owner":null,"sector":null,"created":"2021-11-29T09:27:36.991965Z"},{"id":47,"name":"brasas","owner":null,"sector":null,"created":"2021-11-29T09:27:43.625917Z"},{"id":48,"name":"burger","owner":null,"sector":null,"created":"2021-11-29T09:27:58.948006Z"},{"id":39,"name":"ensaladas","owner":null,"sector":null,"created":"2021-10-25T12:45:54.528824Z"},{"id":37,"name":"hamburguesa","owner":null,"sector":null,"created":"2021-10-25T11:59:24.358507Z"},{"id":10,"name":"Healthy","owner":null,"sector":null,"created":"2021-10-21T14:33:37.426542Z"},{"id":49,"name":"niños","owner":118,"sector":null,"created":"2021-11-29T09:30:23.079267Z"},{"id":50,"name":"saludable","owner":118,"sector":null,"created":"2021-11-29T09:30:31.798207Z"},{"id":51,"name":"vegana","owner":118,"sector":null,"created":"2021-11-29T09:30:34.948300Z"},{"id":52,"name":"vegano","owner":118,"sector":null,"created":"2021-11-29T09:30:37.746041Z"}],"return_period":0,"dynamic_link":"https://app.dev.woowbe.com/share/Q4zA","is_franchisee_of":118,"is_favorite":false,"created":"2023-02-01T10:40:47.131211Z","offers_count":0},"online":false,"url":null,"position":{"type":"Point","coordinates":[-3.6988371,40.4197392]},"address":"Calle Gran Vía","number":"12","postal_code":"28013","state":"Madrid","city":"Madrid","merchants_count":0,"modified":"2023-03-17T08:00:59.395344Z","place_id":"ChIJ29RxlIYoQg0R0MZA_eNdwGU","formatted_address":"C/ Gran Vía, 12, 28013 Madrid","deleted":false,"deleted_at":null,"created":"2023-02-01T10:40:47.792942Z","selected_offer":{"id":400,"reward":"15.00","reward_type":"percentage","kind":"A","instant":false,"name":"Prueba franquicias","standalone":false,"purchases":null,"online":false,"applicable":false,"available_percentage":1,"available_rewards":null,"is_used":false,"finish_date":"2023-08-01"},"public_url":null,"is_open":false},{"id":797,"business":{"id":265,"name":"Aloha Poke","country":{"id":3,"name":"España","code":"es"},"description":"Conocemos el poder de una alimentación saludable para nutrir una vida activa, equilibrada y feliz.\r\n\r\nCansados de no encontrar opciones de comida sana y sabrosa en la ciudad, decidimos comenzar nuestra propia revolución:\r\n\r\nLa Revolución de la Healthy Fast Food","url":"https://www.alohapoke.es/","square_picture":"https://woowbe-dev.s3.amazonaws.com/media/pictures/aloha-poke-logo-1-1.png","widescreen_picture":"https://woowbe-dev.s3.amazonaws.com/media/pictures/1634827016.jpeg","cover":"https://woowbe-dev.s3.amazonaws.com/media/covers/cover_0XysFRk.jpg","sector":{"id":37,"name":"Restaurante temático","icon":"https://woowbe-dev.s3.amazonaws.com/media/icons/toeat_T2kMSVS.svg","created":"2021-10-21T14:32:58.019404Z"},"descriptive_categories":[{"id":11,"name":"Hawaiana","owner":89,"sector":null,"created":"2021-10-21T14:41:44.180293Z"},{"id":10,"name":"Healthy","owner":null,"sector":null,"created":"2021-10-21T14:33:37.426542Z"},{"id":9,"name":"Poke","owner":null,"sector":null,"created":"2021-10-21T14:33:26.133578Z"}],"return_period":0,"dynamic_link":"https://app.dev.woowbe.com/share/maZC","is_franchisee_of":89,"is_favorite":false,"created":"2023-01-31T15:46:45.251504Z","offers_count":0},"online":false,"url":null,"position":{"type":"Point","coordinates":[-3.6767191,40.45633369999999]},"address":"Calle del Príncipe de Vergara","number":"260","postal_code":"28016","state":"Madrid","city":"Madrid","merchants_count":0,"modified":"2023-03-17T08:00:59.518397Z","place_id":"ChIJ89HRJScpQg0Rqz2FaAH0xII","formatted_address":"C. del Príncipe de Vergara, 260, 28016 Madrid","deleted":false,"deleted_at":null,"created":"2023-01-31T16:03:45.633790Z","selected_offer":{"id":397,"reward":"15.00","reward_type":"percentage","kind":"A","instant":false,"name":"Prueba franquicias","standalone":false,"purchases":null,"online":false,"applicable":false,"available_percentage":1,"available_rewards":null,"is_used":false,"finish_date":"2023-07-31"},"public_url":null,"is_open":false},{"id":796,"business":{"id":265,"name":"Aloha Poke","country":{"id":3,"name":"España","code":"es"},"description":"Conocemos el poder de una alimentación saludable para nutrir una vida activa, equilibrada y feliz.\r\n\r\nCansados de no encontrar opciones de comida sana y sabrosa en la ciudad, decidimos comenzar nuestra propia revolución:\r\n\r\nLa Revolución de la Healthy Fast Food","url":"https://www.alohapoke.es/","square_picture":"https://woowbe-dev.s3.amazonaws.com/media/pictures/aloha-poke-logo-1-1.png","widescreen_picture":"https://woowbe-dev.s3.amazonaws.com/media/pictures/1634827016.jpeg","cover":"https://woowbe-dev.s3.amazonaws.com/media/covers/cover_0XysFRk.jpg","sector":{"id":37,"name":"Restaurante temático","icon":"https://woowbe-dev.s3.amazonaws.com/media/icons/toeat_T2kMSVS.svg","created":"2021-10-21T14:32:58.019404Z"},"descriptive_categories":[{"id":11,"name":"Hawaiana","owner":89,"sector":null,"created":"2021-10-21T14:41:44.180293Z"},{"id":10,"name":"Healthy","owner":null,"sector":null,"created":"2021-10-21T14:33:37.426542Z"},{"id":9,"name":"Poke","owner":null,"sector":null,"created":"2021-10-21T14:33:26.133578Z"}],"return_period":0,"dynamic_link":"https://app.dev.woowbe.com/share/maZC","is_franchisee_of":89,"is_favorite":false,"created":"2023-01-31T15:46:45.251504Z","offers_count":0},"online":false,"url":null,"position":{"type":"Point","coordinates":[-3.707365,40.4210389]},"address":"Calle Gran Vía","number":"45","postal_code":"28013","state":"Madrid","city":"Madrid","merchants_count":0,"modified":"2023-03-17T08:01:00.191099Z","place_id":"ChIJT7WumnwoQg0RvZZpgKWZ3bo","formatted_address":"C/ Gran Vía, 45, 28013 Madrid","deleted":false,"deleted_at":null,"created":"2023-01-31T16:03:26.171548Z","selected_offer":{"id":397,"reward":"15.00","reward_type":"percentage","kind":"A","instant":false,"name":"Prueba franquicias","standalone":false,"purchases":null,"online":false,"applicable":false,"available_percentage":1,"available_rewards":null,"is_used":false,"finish_date":"2023-07-31"},"public_url":null,"is_open":false},{"id":795,"business":{"id":265,"name":"Aloha Poke","country":{"id":3,"name":"España","code":"es"},"description":"Conocemos el poder de una alimentación saludable para nutrir una vida activa, equilibrada y feliz.\r\n\r\nCansados de no encontrar opciones de comida sana y sabrosa en la ciudad, decidimos comenzar nuestra propia revolución:\r\n\r\nLa Revolución de la Healthy Fast Food","url":"https://www.alohapoke.es/","square_picture":"https://woowbe-dev.s3.amazonaws.com/media/pictures/aloha-poke-logo-1-1.png","widescreen_picture":"https://woowbe-dev.s3.amazonaws.com/media/pictures/1634827016.jpeg","cover":"https://woowbe-dev.s3.amazonaws.com/media/covers/cover_0XysFRk.jpg","sector":{"id":37,"name":"Restaurante temático","icon":"https://woowbe-dev.s3.amazonaws.com/media/icons/toeat_T2kMSVS.svg","created":"2021-10-21T14:32:58.019404Z"},"descriptive_categories":[{"id":11,"name":"Hawaiana","owner":89,"sector":null,"created":"2021-10-21T14:41:44.180293Z"},{"id":10,"name":"Healthy","owner":null,"sector":null,"created":"2021-10-21T14:33:37.426542Z"},{"id":9,"name":"Poke","owner":null,"sector":null,"created":"2021-10-21T14:33:26.133578Z"}],"return_period":0,"dynamic_link":"https://app.dev.woowbe.com/share/maZC","is_franchisee_of":89,"is_favorite":false,"created":"2023-01-31T15:46:45.251504Z","offers_count":0},"online":false,"url":null,"position":{"type":"Point","coordinates":[-3.6980606,40.4352036]},"address":"Calle de Alonso Cano","number":"1","postal_code":"28010","state":"Madrid","city":"Madrid","merchants_count":0,"modified":"2023-03-17T08:01:00.800907Z","place_id":"EihDYWxsZSBkZSBBbG9uc28gQ2FubywgMSwgTWFkcmlkLCBFc3Bhw7FhIjASLgoUChIJSY8Wg_QoQg0R2l7F36Zi37UQASoUChIJ5-6IK_EoQg0RKBaPAb_oXQ0","formatted_address":"C. de Alonso Cano, 1, 28010 Madrid","deleted":false,"deleted_at":null,"created":"2023-01-31T16:01:42.811029Z","selected_offer":{"id":397,"reward":"15.00","reward_type":"percentage","kind":"A","instant":false,"name":"Prueba franquicias","standalone":false,"purchases":null,"online":false,"applicable":false,"available_percentage":1,"available_rewards":null,"is_used":false,"finish_date":"2023-07-31"},"public_url":null,"is_open":false},{"id":794,"business":{"id":265,"name":"Aloha Poke","country":{"id":3,"name":"España","code":"es"},"description":"Conocemos el poder de una alimentación saludable para nutrir una vida activa, equilibrada y feliz.\r\n\r\nCansados de no encontrar opciones de comida sana y sabrosa en la ciudad, decidimos comenzar nuestra propia revolución:\r\n\r\nLa Revolución de la Healthy Fast Food","url":"https://www.alohapoke.es/","square_picture":"https://woowbe-dev.s3.amazonaws.com/media/pictures/aloha-poke-logo-1-1.png","widescreen_picture":"https://woowbe-dev.s3.amazonaws.com/media/pictures/1634827016.jpeg","cover":"https://woowbe-dev.s3.amazonaws.com/media/covers/cover_0XysFRk.jpg","sector":{"id":37,"name":"Restaurante temático","icon":"https://woowbe-dev.s3.amazonaws.com/media/icons/toeat_T2kMSVS.svg","created":"2021-10-21T14:32:58.019404Z"},"descriptive_categories":[{"id":11,"name":"Hawaiana","owner":89,"sector":null,"created":"2021-10-21T14:41:44.180293Z"},{"id":10,"name":"Healthy","owner":null,"sector":null,"created":"2021-10-21T14:33:37.426542Z"},{"id":9,"name":"Poke","owner":null,"sector":null,"created":"2021-10-21T14:33:26.133578Z"}],"return_period":0,"dynamic_link":"https://app.dev.woowbe.com/share/maZC","is_franchisee_of":89,"is_favorite":false,"created":"2023-01-31T15:46:45.251504Z","offers_count":0},"online":false,"url":null,"position":{"type":"Point","coordinates":[-3.6988371,40.4197392]},"address":"Calle Gran Vía","number":"12","postal_code":"28013","state":"Madrid","city":"Madrid","merchants_count":0,"modified":"2023-03-17T08:01:01.298822Z","place_id":"ChIJ29RxlIYoQg0R0MZA_eNdwGU","formatted_address":"C/ Gran Vía, 12, 28013 Madrid","deleted":false,"deleted_at":null,"created":"2023-01-31T15:46:46.200812Z","selected_offer":{"id":397,"reward":"15.00","reward_type":"percentage","kind":"A","instant":false,"name":"Prueba franquicias","standalone":false,"purchases":null,"online":false,"applicable":false,"available_percentage":1,"available_rewards":null,"is_used":false,"finish_date":"2023-07-31"},"public_url":null,"is_open":false},{"id":792,"business":{"id":236,"name":"Yogui QA","country":{"id":3,"name":"España","code":"es"},"description":"Yogui QA es el comercio offline \n\nLorem Ipsum is simply dummy text of the printing and typesetting industry. Lorem Ipsum has been the industry's standard dummy text ever since the 1500s, when an unknown printer took a galley of type and scrambled it to make a type specimen book. It has survived not only five centuries, but also the leap into electronic typesetting, remaining essentially unchanged. It was popularised in the 1960s with the release of Letraset sheets containing Lorem Ipsum passages","url":"https://www.yogui.com","square_picture":"https://woowbe-dev.s3.amazonaws.com/media/pictures/1676631810.jpeg","widescreen_picture":"https://woowbe-dev.s3.amazonaws.com/media/pictures/1665492408_Z9SKuNG.jpeg","cover":"https://woowbe-dev.s3.amazonaws.com/media/covers/cover_HYuhoAb.jpg","sector":{"id":24,"name":"Gimnasio","icon":"https://woowbe-dev.s3.amazonaws.com/media/icons/sport.svg","created":"2021-05-25T11:07:47.157431Z"},"descriptive_categories":[{"id":10,"name":"Healthy","owner":null,"sector":null,"created":"2021-10-21T14:33:37.426542Z"}],"return_period":0,"dynamic_link":"https://app.dev.woowbe.com/share/KcyB","is_franchisee_of":null,"is_favorite":false,"created":"2022-10-11T11:27:09.183229Z","offers_count":1},"online":false,"url":null,"position":{"type":"Point","coordinates":[2.1740864,41.3848323]},"address":"Avinguda del Portal de l'Àngel","number":"4","postal_code":"08002","state":"Barcelona","city":"Barcelona","merchants_count":0,"modified":"2023-03-17T08:01:03.009876Z","place_id":"ChIJRxePW_eipBIRv890gyD_lEk","formatted_address":"Avinguda del Portal de l'Àngel, 4, 08002 Barcelona","deleted":false,"deleted_at":null,"created":"2023-01-31T15:19:59.353444Z","selected_offer":{"reward":null,"reward_type":null,"kind":null,"instant":false,"name":"","standalone":false,"purchases":null,"online":false,"finish_date":null},"public_url":null,"is_open":false},{"id":789,"business":{"id":264,"name":"Negocio Facturacion","country":{"id":3,"name":"España","code":"es"},"description":"Negocio Facturacion descripcion","url":"https://www.facturacion.com","square_picture":"https://woowbe-dev.s3.amazonaws.com/media/pictures/1676631820.jpeg","widescreen_picture":"https://woowbe-dev.s3.amazonaws.com/media/pictures/1666952262_2VZ6Qea.jpeg","cover":"https://woowbe-dev.s3.amazonaws.com/media/covers/cover_PjPUN60.jpg","sector":{"id":4,"name":"Bar","icon":"https://woowbe-dev.s3.amazonaws.com/media/icons/food.svg","created":"2021-05-25T10:47:46.399740Z"},"descriptive_categories":[{"id":44,"name":"barbería","owner":null,"sector":null,"created":"2021-10-26T07:38:49.830200Z"}],"return_period":0,"dynamic_link":"https://app.dev.woowbe.com/share/7oFa","is_franchisee_of":243,"is_favorite":false,"created":"2023-01-30T16:25:43.312231Z","offers_count":0},"online":false,"url":null,"position":{"type":"Point","coordinates":[-3.4782129,40.4583738]},"address":"Calle Soledad","number":"5","postal_code":"28850","state":"Madrid","city":"Torrejón de Ardoz","merchants_count":0,"modified":"2023-03-17T08:01:03.200803Z","place_id":"ChIJV7J7rx83Qg0RXfua7F-zABk","formatted_address":"C. Soledad, 5, 28850 Torrejón de Ardoz, Madrid","deleted":false,"deleted_at":null,"created":"2023-01-30T16:25:44.175029Z","selected_offer":{"reward":null,"reward_type":null,"kind":null,"instant":false,"name":"","standalone":false,"purchases":null,"online":false,"finish_date":null},"public_url":null,"is_open":false},{"id":786,"business":{"id":243,"name":"Negocio Facturacion","country":{"id":3,"name":"España","code":"es"},"description":"Negocio Facturacion descripcion","url":"https://www.facturacion.com","square_picture":"https://woowbe-dev.s3.amazonaws.com/media/pictures/1676631813.jpeg","widescreen_picture":"https://woowbe-dev.s3.amazonaws.com/media/pictures/1666952262_2VZ6Qea.jpeg","cover":"https://woowbe-dev.s3.amazonaws.com/media/covers/cover_PjPUN60.jpg","sector":{"id":4,"name":"Bar","icon":"https://woowbe-dev.s3.amazonaws.com/media/icons/food.svg","created":"2021-05-25T10:47:46.399740Z"},"descriptive_categories":[{"id":44,"name":"barbería","owner":null,"sector":null,"created":"2021-10-26T07:38:49.830200Z"}],"return_period":0,"dynamic_link":"https://app.dev.woowbe.com/share/4q1m","is_franchisee_of":null,"is_favorite":false,"created":"2022-10-28T10:12:30.694988Z","offers_count":0},"online":false,"url":null,"position":{"type":"Point","coordinates":[-3.7726321,40.27937319999999]},"address":"Calle de la Constitución","number":"124","postal_code":"28946","state":"Madrid","city":"Fuenlabrada","merchants_count":0,"modified":"2023-03-17T08:01:04.316845Z","place_id":"ChIJ0du3E_CKQQ0RSU66goXHAiE","formatted_address":"C/ de la Constitución, 124, 28946 Fuenlabrada, Madrid","deleted":false,"deleted_at":null,"created":"2023-01-26T16:42:45.349412Z","selected_offer":{"reward":null,"reward_type":null,"kind":null,"instant":false,"name":"","standalone":false,"purchases":null,"online":false,"finish_date":null},"public_url":null,"is_open":false}]}