{
	"count": 579,
	"next": "https://backend.dev.woowbe.com/api/v1/points_of_sales/public/?page=9",
	"previous": "https://backend.dev.woowbe.com/api/v1/points_of_sales/public/?page=7",
	"results": [
		{
			"id": 769,
			"business": {
				"id": 258,
				"name": "prueba FRANQUICIAS MARCA iñigo",
				"country": {
					"id": 3,
					"name": "España",
					"code": "es"
				},
				"description": "es un test para iñigo",
				"url": "http://www.iñigo.es",
				"square_picture": "https://woowbe-dev.s3.amazonaws.com/media/pictures/square_picture_re1giyA.jpg",
				"widescreen_picture": "https://woowbe-dev.s3.amazonaws.com/media/pictures/1671614454.jpeg",
				"cover": "https://woowbe-dev.s3.amazonaws.com/media/covers/cover_YpmEHUW.jpg",
				"sector": {
					"id": 28,
					"name": "Alquiler de coches",
					"icon": "https://woowbe-dev.s3.amazonaws.com/media/icons/mobility.svg",
					"created": "2021-05-25T11:10:59.951129Z"
				},
				"descriptive_categories": [
					{
						"id": 94,
						"name": "coches guapos",
						"owner": 254,
						"sector": null,
						"created": "2022-12-21T09:20:50.342666Z"
					}
				],
				"return_period": 12,
				"dynamic_link": "https://app.dev.woowbe.com/share/GTKQ",
				"is_franchisee_of": 254,
				"is_favorite": false,
				"created": "2023-01-04T11:02:16.780362Z",
				"offers_count": 0
			},
			"online": false,
			"url": null,
			"position": null,
			"address": null,
			"number": null,
			"postal_code": null,
			"state": null,
			"city": null,
			"merchants_count": 0,
			"modified": "2023-03-17T08:01:07.838912Z",
			"place_id": null,
			"formatted_address": "",
			"deleted": false,
			"deleted_at": null,
			"created": "2023-01-04T11:02:17.362486Z",
			"selected_offer": {
				"reward": null,
				"reward_type": null,
				"kind": null,
				"instant": false,
				"name": "",
				"standalone": false,
				"purchases": null,
				"online": false,
				"finish_date": null
			},
			"public_url": null,
			"is_open": false
		},
		{
			"id": 768,
			"business": {
				"id": 257,
				"name": "prueba FRANQUICIAS MARCA iñigo",
				"country": {
					"id": 3,
					"name": "España",
					"code": "es"
				},
				"description": "es un test para iñigo",
				"url": "http://www.iñigo.es",
				"square_picture": "https://woowbe-dev.s3.amazonaws.com/media/pictures/square_picture_re1giyA.jpg",
				"widescreen_picture": "https://woowbe-dev.s3.amazonaws.com/media/pictures/1671614454.jpeg",
				"cover": "https://woowbe-dev.s3.amazonaws.com/media/covers/cover_YpmEHUW.jpg",
				"sector": {
					"id": 28,
					"name": "Alquiler de coches",
					"icon": "https://woowbe-dev.s3.amazonaws.com/media/icons/mobility.svg",
					"created": "2021-05-25T11:10:59.951129Z"
				},
				"descriptive_categories": [
					{
						"id": 94,
						"name": "coches guapos",
						"owner": 254,
						"sector": null,
						"created": "2022-12-21T09:20:50.342666Z"
					}
				],
				"return_period": 12,
				"dynamic_link": "https://app.dev.woowbe.com/share/psru",
				"is_franchisee_of": 254,
				"is_favorite": false,
				"created": "2023-01-04T10:57:42.602790Z",
				"offers_count": 0
			},
			"online": false,
			"url": null,
			"position": null,
			"address": null,
			"number": null,
			"postal_code": null,
			"state": null,
			"city": null,
			"merchants_count": 0,
			"modified": "2023-03-17T08:01:07.911162Z",
			"place_id": null,
			"formatted_address": "",
			"deleted": false,
			"deleted_at": null,
			"created": "2023-01-04T10:57:43.276996Z",
			"selected_offer": {
				"reward": null,
				"reward_type": null,
				"kind": null,
				"instant": false,
				"name": "",
				"standalone": false,
				"purchases": null,
				"online": false,
				"finish_date": null
			},
			"public_url": null,
			"is_open": false
		},
		{
			"id": 766,
			"business": {
				"id": 255,
				"name": "prueba FRANQUICIAS MARCA iñigo",
				"country": {
					"id": 3,
					"name": "España",
					"code": "es"
				},
				"description": "es un test para iñigo",
				"url": "http://www.iñigo.es",
				"square_picture": "https://woowbe-dev.s3.amazonaws.com/media/pictures/square_picture_re1giyA.jpg",
				"widescreen_picture": "https://woowbe-dev.s3.amazonaws.com/media/pictures/1671614454.jpeg",
				"cover": "https://woowbe-dev.s3.amazonaws.com/media/covers/cover_YpmEHUW.jpg",
				"sector": {
					"id": 28,
					"name": "Alquiler de coches",
					"icon": "https://woowbe-dev.s3.amazonaws.com/media/icons/mobility.svg",
					"created": "2021-05-25T11:10:59.951129Z"
				},
				"descriptive_categories": [
					{
						"id": 94,
						"name": "coches guapos",
						"owner": 254,
						"sector": null,
						"created": "2022-12-21T09:20:50.342666Z"
					}
				],
				"return_period": 12,
				"dynamic_link": "https://app.dev.woowbe.com/share/sG1v",
				"is_franchisee_of": 254,
				"is_favorite": false,
				"created": "2023-01-04T10:48:43.957269Z",
				"offers_count": 0
			},
			"online": false,
			"url": null,
			"position": null,
			"address": null,
			"number": null,
			"postal_code": null,
			"state": null,
			"city": null,
			"merchants_count": 0,
			"modified": "2023-03-17T08:01:07.992344Z",
			"place_id": null,
			"formatted_address": "",
			"deleted": false,
			"deleted_at": null,
			"created": "2023-01-04T10:48:44.616149Z",
			"selected_offer": {
				"reward": null,
				"reward_type": null,
				"kind": null,
				"instant": false,
				"name": "",
				"standalone": false,
				"purchases": null,
				"online": false,
				"finish_date": null
			},
			"public_url": null,
			"is_open": false
		},
		{
			"id": 765,
			"business": {
				"id": 254,
				"name": "prueba FRANQUICIAS MARCA iñigo",
				"country": {
					"id": 3,
					"name": "España",
					"code": "es"
				},
				"description": "es un test para iñigo",
				"url": "http://www.iñigo.es",
				"square_picture": "https://woowbe-dev.s3.amazonaws.com/media/pictures/square_picture_re1giyA.jpg",
				"widescreen_picture": "https://woowbe-dev.s3.amazonaws.com/media/pictures/1671614454.jpeg",
				"cover": "https://woowbe-dev.s3.amazonaws.com/media/covers/cover_YpmEHUW.jpg",
				"sector": {
					"id": 28,
					"name": "Alquiler de coches",
					"icon": "https://woowbe-dev.s3.amazonaws.com/media/icons/mobility.svg",
					"created": "2021-05-25T11:10:59.951129Z"
				},
				"descriptive_categories": [
					{
						"id": 94,
						"name": "coches guapos",
						"owner": 254,
						"sector": null,
						"created": "2022-12-21T09:20:50.342666Z"
					}
				],
				"return_period": 12,
				"dynamic_link": "https://app.dev.woowbe.com/share/TKHo",
				"is_franchisee_of": null,
				"is_favorite": false,
				"created": "2022-12-21T09:18:50.664837Z",
				"offers_count": 0
			},
			"online": true,
			"url": "http://www.as.com",
			"position": null,
			"address": null,
			"number": null,
			"postal_code": null,
			"state": null,
			"city": null,
			"merchants_count": 0,
			"modified": "2023-03-17T08:01:08.095326Z",
			"place_id": null,
			"formatted_address": "",
			"deleted": false,
			"deleted_at": null,
			"created": "2022-12-23T08:43:16.092885Z",
			"selected_offer": {
				"reward": null,
				"reward_type": null,
				"kind": null,
				"instant": false,
				"name": "",
				"standalone": false,
				"purchases": null,
				"online": false,
				"finish_date": null
			},
			"public_url": "www.as.com",
			"is_open": false
		},
		{
			"id": 764,
			"business": {
				"id": 89,
				"name": "Aloha Poke",
				"country": {
					"id": 3,
					"name": "España",
					"code": "es"
				},
				"description": "Conocemos el poder de una alimentación saludable para nutrir una vida activa, equilibrada y feliz.\r\n\r\nCansados de no encontrar opciones de comida sana y sabrosa en la ciudad, decidimos comenzar nuestra propia revolución:\r\n\r\nLa Revolución de la Healthy Fast Food",
				"url": "https://www.alohapoke.es/",
				"square_picture": "https://woowbe-dev.s3.amazonaws.com/media/pictures/aloha-poke-logo-1-1.png",
				"widescreen_picture": "https://woowbe-dev.s3.amazonaws.com/media/pictures/1634827016.jpeg",
				"cover": "https://woowbe-dev.s3.amazonaws.com/media/covers/cover_0XysFRk.jpg",
				"sector": {
					"id": 37,
					"name": "Restaurante temático",
					"icon": "https://woowbe-dev.s3.amazonaws.com/media/icons/toeat_T2kMSVS.svg",
					"created": "2021-10-21T14:32:58.019404Z"
				},
				"descriptive_categories": [
					{
						"id": 11,
						"name": "Hawaiana",
						"owner": 89,
						"sector": null,
						"created": "2021-10-21T14:41:44.180293Z"
					},
					{
						"id": 10,
						"name": "Healthy",
						"owner": null,
						"sector": null,
						"created": "2021-10-21T14:33:37.426542Z"
					},
					{
						"id": 9,
						"name": "Poke",
						"owner": null,
						"sector": null,
						"created": "2021-10-21T14:33:26.133578Z"
					}
				],
				"return_period": 0,
				"dynamic_link": "https://app.dev.woowbe.com/share/Fu3N",
				"is_franchisee_of": null,
				"is_favorite": false,
				"created": "2021-10-21T14:33:52.942982Z",
				"offers_count": 4
			},
			"online": false,
			"url": null,
			"position": {
				"type": "Point",
				"coordinates": [
					-3.6925385,
					40.4262704
				]
			},
			"address": "Calle de Génova",
			"number": "25",
			"postal_code": "28004",
			"state": "Madrid",
			"city": "Madrid",
			"merchants_count": 0,
			"modified": "2023-03-17T08:01:08.701499Z",
			"place_id": "ChIJg4cq1JEoQg0R3oTzoOrct5Y",
			"formatted_address": "Calle de Génova, 25, 28004 Madrid",
			"deleted": false,
			"deleted_at": null,
			"created": "2022-12-22T10:18:13.397183Z",
			"selected_offer": {
				"id": 397,
				"reward": "15.00",
				"reward_type": "percentage",
				"kind": "A",
				"instant": false,
				"name": "Prueba franquicias",
				"standalone": false,
				"purchases": null,
				"online": false,
				"applicable": false,
				"available_percentage": 1,
				"available_rewards": null,
				"is_used": false,
				"finish_date": "2023-07-31"
			},
			"public_url": null,
			"is_open": false
		},
		{
			"id": 763,
			"business": {
				"id": 89,
				"name": "Aloha Poke",
				"country": {
					"id": 3,
					"name": "España",
					"code": "es"
				},
				"description": "Conocemos el poder de una alimentación saludable para nutrir una vida activa, equilibrada y feliz.\r\n\r\nCansados de no encontrar opciones de comida sana y sabrosa en la ciudad, decidimos comenzar nuestra propia revolución:\r\n\r\nLa Revolución de la Healthy Fast Food",
				"url": "https://www.alohapoke.es/",
				"square_picture": "https://woowbe-dev.s3.amazonaws.com/media/pictures/aloha-poke-logo-1-1.png",
				"widescreen_picture": "https://woowbe-dev.s3.amazonaws.com/media/pictures/1634827016.jpeg",
				"cover": "https://woowbe-dev.s3.amazonaws.com/media/covers/cover_0XysFRk.jpg",
				"sector": {
					"id": 37,
					"name": "Restaurante temático",
					"icon": "https://woowbe-dev.s3.amazonaws.com/media/icons/toeat_T2kMSVS.svg",
					"created": "2021-10-21T14:32:58.019404Z"
				},
				"descriptive_categories": [
					{
						"id": 11,
						"name": "Hawaiana",
						"owner": 89,
						"sector": null,
						"created": "2021-10-21T14:41:44.180293Z"
					},
					{
						"id": 10,
						"name": "Healthy",
						"owner": null,
						"sector": null,
						"created": "2021-10-21T14:33:37.426542Z"
					},
					{
						"id": 9,
						"name": "Poke",
						"owner": null,
						"sector": null,
						"created": "2021-10-21T14:33:26.133578Z"
					}
				],
				"return_period": 0,
				"dynamic_link": "https://app.dev.woowbe.com/share/Fu3N",
				"is_franchisee_of": null,
				"is_favorite": false,
				"created": "2021-10-21T14:33:52.942982Z",
				"offers_count": 4
			},
			"online": false,
			"url": null,
			"position": {
				"type": "Point",
				"coordinates": [
					-3.6925385,
					40.4262704
				]
			},
			"address": "Calle de Génova",
			"number": "25",
			"postal_code": "28004",
			"state": "Madrid",
			"city": "Madrid",
			"merchants_count": 0,
			"modified": "2023-03-17T08:01:09.104658Z",
			"place_id": "ChIJg4cq1JEoQg0R3oTzoOrct5Y",
			"formatted_address": "Calle de Génova, 25, 28004 Madrid",
			"deleted": false,
			"deleted_at": null,
			"created": "2022-12-22T10:17:55.478137Z",
			"selected_offer": {
				"id": 397,
				"reward": "15.00",
				"reward_type": "percentage",
				"kind": "A",
				"instant": false,
				"name": "Prueba franquicias",
				"standalone": false,
				"purchases": null,
				"online": false,
				"applicable": false,
				"available_percentage": 1,
				"available_rewards": null,
				"is_used": false,
				"finish_date": "2023-07-31"
			},
			"public_url": null,
			"is_open": false
		},
		{
			"id": 762,
			"business": {
				"id": 89,
				"name": "Aloha Poke",
				"country": {
					"id": 3,
					"name": "España",
					"code": "es"
				},
				"description": "Conocemos el poder de una alimentación saludable para nutrir una vida activa, equilibrada y feliz.\r\n\r\nCansados de no encontrar opciones de comida sana y sabrosa en la ciudad, decidimos comenzar nuestra propia revolución:\r\n\r\nLa Revolución de la Healthy Fast Food",
				"url": "https://www.alohapoke.es/",
				"square_picture": "https://woowbe-dev.s3.amazonaws.com/media/pictures/aloha-poke-logo-1-1.png",
				"widescreen_picture": "https://woowbe-dev.s3.amazonaws.com/media/pictures/1634827016.jpeg",
				"cover": "https://woowbe-dev.s3.amazonaws.com/media/covers/cover_0XysFRk.jpg",
				"sector": {
					"id": 37,
					"name": "Restaurante temático",
					"icon": "https://woowbe-dev.s3.amazonaws.com/media/icons/toeat_T2kMSVS.svg",
					"created": "2021-10-21T14:32:58.019404Z"
				},
				"descriptive_categories": [
					{
						"id": 11,
						"name": "Hawaiana",
						"owner": 89,
						"sector": null,
						"created": "2021-10-21T14:41:44.180293Z"
					},
					{
						"id": 10,
						"name": "Healthy",
						"owner": null,
						"sector": null,
						"created": "2021-10-21T14:33:37.426542Z"
					},
					{
						"id": 9,
						"name": "Poke",
						"owner": null,
						"sector": null,
						"created": "2021-10-21T14:33:26.133578Z"
					}
				],
				"return_period": 0,
				"dynamic_link": "https://app.dev.woowbe.com/share/Fu3N",
				"is_franchisee_of": null,
				"is_favorite": false,
				"created": "2021-10-21T14:33:52.942982Z",
				"offers_count": 4
			},
			"online": false,
			"url": null,
			"position": {
				"type": "Point",
				"coordinates": [
					-3.6925385,
					40.4262704
				]
			},
			"address": "Calle de Génova",
			"number": "25",
			"postal_code": "28004",
			"state": "Madrid",
			"city": "Madrid",
			"merchants_count": 0,
			"modified": "2023-03-17T08:01:09.596764Z",
			"place_id": "ChIJg4cq1JEoQg0R3oTzoOrct5Y",
			"formatted_address": "Calle de Génova, 25, 28004 Madrid",
			"deleted": false,
			"deleted_at": null,
			"created": "2022-12-22T10:17:41.631357Z",
			"selected_offer": {
				"id": 397,
				"reward": "15.00",
				"reward_type": "percentage",
				"kind": "A",
				"instant": false,
				"name": "Prueba franquicias",
				"standalone": false,
				"purchases": null,
				"online": false,
				"applicable": false,
				"available_percentage": 1,
				"available_rewards": null,
				"is_used": false,
				"finish_date": "2023-07-31"
			},
			"public_url": null,
			"is_open": false
		},
		{
			"id": 761,
			"business": {
				"id": 243,
				"name": "Negocio Facturacion",
				"country": {
					"id": 3,
					"name": "España",
					"code": "es"
				},
				"description": "Negocio Facturacion descripcion",
				"url": "https://www.facturacion.com",
				"square_picture": "https://woowbe-dev.s3.amazonaws.com/media/pictures/1676631813.jpeg",
				"widescreen_picture": "https://woowbe-dev.s3.amazonaws.com/media/pictures/1666952262_2VZ6Qea.jpeg",
				"cover": "https://woowbe-dev.s3.amazonaws.com/media/covers/cover_PjPUN60.jpg",
				"sector": {
					"id": 4,
					"name": "Bar",
					"icon": "https://woowbe-dev.s3.amazonaws.com/media/icons/food.svg",
					"created": "2021-05-25T10:47:46.399740Z"
				},
				"descriptive_categories": [
					{
						"id": 44,
						"name": "barbería",
						"owner": null,
						"sector": null,
						"created": "2021-10-26T07:38:49.830200Z"
					}
				],
				"return_period": 0,
				"dynamic_link": "https://app.dev.woowbe.com/share/4q1m",
				"is_franchisee_of": null,
				"is_favorite": false,
				"created": "2022-10-28T10:12:30.694988Z",
				"offers_count": 0
			},
			"online": true,
			"url": "https://www.prueba.com",
			"position": null,
			"address": null,
			"number": null,
			"postal_code": null,
			"state": null,
			"city": null,
			"merchants_count": 0,
			"modified": "2023-03-17T08:01:09.611065Z",
			"place_id": null,
			"formatted_address": "",
			"deleted": false,
			"deleted_at": null,
			"created": "2022-12-21T10:11:59.161823Z",
			"selected_offer": {
				"reward": null,
				"reward_type": null,
				"kind": null,
				"instant": false,
				"name": "",
				"standalone": false,
				"purchases": null,
				"online": false,
				"finish_date": null
			},
			"public_url": "www.prueba.com",
			"is_open": false
		},
		{
			"id": 760,
			"business": {
				"id": 254,
				"name": "prueba FRANQUICIAS MARCA iñigo",
				"country": {
					"id": 3,
					"name": "España",
					"code": "es"
				},
				"description": "es un test para iñigo",
				"url": "http://www.iñigo.es",
				"square_picture": "https://woowbe-dev.s3.amazonaws.com/media/pictures/square_picture_re1giyA.jpg",
				"widescreen_picture": "https://woowbe-dev.s3.amazonaws.com/media/pictures/1671614454.jpeg",
				"cover": "https://woowbe-dev.s3.amazonaws.com/media/covers/cover_YpmEHUW.jpg",
				"sector": {
					"id": 28,
					"name": "Alquiler de coches",
					"icon": "https://woowbe-dev.s3.amazonaws.com/media/icons/mobility.svg",
					"created": "2021-05-25T11:10:59.951129Z"
				},
				"descriptive_categories": [
					{
						"id": 94,
						"name": "coches guapos",
						"owner": 254,
						"sector": null,
						"created": "2022-12-21T09:20:50.342666Z"
					}
				],
				"return_period": 12,
				"dynamic_link": "https://app.dev.woowbe.com/share/TKHo",
				"is_franchisee_of": null,
				"is_favorite": false,
				"created": "2022-12-21T09:18:50.664837Z",
				"offers_count": 0
			},
			"online": false,
			"url": null,
			"position": {
				"type": "Point",
				"coordinates": [
					-3.6977867,
					40.4413131
				]
			},
			"address": "Calle de Alonso Cano",
			"number": "67",
			"postal_code": "28003",
			"state": "Madrid",
			"city": "Madrid",
			"merchants_count": 0,
			"modified": "2023-03-17T08:01:10.011241Z",
			"place_id": "ChIJ-1ml1PAoQg0RsPrrI8PRKRI",
			"formatted_address": "C. de Alonso Cano, 67, 28003 Madrid",
			"deleted": false,
			"deleted_at": null,
			"created": "2022-12-21T09:22:14.195749Z",
			"selected_offer": {
				"reward": null,
				"reward_type": null,
				"kind": null,
				"instant": false,
				"name": "",
				"standalone": false,
				"purchases": null,
				"online": false,
				"finish_date": null
			},
			"public_url": null,
			"is_open": false
		},
		{
			"id": 759,
			"business": {
				"id": 254,
				"name": "prueba FRANQUICIAS MARCA iñigo",
				"country": {
					"id": 3,
					"name": "España",
					"code": "es"
				},
				"description": "es un test para iñigo",
				"url": "http://www.iñigo.es",
				"square_picture": "https://woowbe-dev.s3.amazonaws.com/media/pictures/square_picture_re1giyA.jpg",
				"widescreen_picture": "https://woowbe-dev.s3.amazonaws.com/media/pictures/1671614454.jpeg",
				"cover": "https://woowbe-dev.s3.amazonaws.com/media/covers/cover_YpmEHUW.jpg",
				"sector": {
					"id": 28,
					"name": "Alquiler de coches",
					"icon": "https://woowbe-dev.s3.amazonaws.com/media/icons/mobility.svg",
					"created": "2021-05-25T11:10:59.951129Z"
				},
				"descriptive_categories": [
					{
						"id": 94,
						"name": "coches guapos",
						"owner": 254,
						"sector": null,
						"created": "2022-12-21T09:20:50.342666Z"
					}
				],
				"return_period": 12,
				"dynamic_link": "https://app.dev.woowbe.com/share/TKHo",
				"is_franchisee_of": null,
				"is_favorite": false,
				"created": "2022-12-21T09:18:50.664837Z",
				"offers_count": 0
			},
			"online": false,
			"url": null,
			"position": {
				"type": "Point",
				"coordinates": [
					-3.6988371,
					40.4197392
				]
			},
			"address": "Calle Gran Vía",
			"number": "12",
			"postal_code": "28013",
			"state": "Madrid",
			"city": "Madrid",
			"merchants_count": 0,
			"modified": "2023-03-17T08:01:10.315892Z",
			"place_id": "ChIJ29RxlIYoQg0R0MZA_eNdwGU",
			"formatted_address": "C/ Gran Vía, 12, 28013 Madrid",
			"deleted": false,
			"deleted_at": null,
			"created": "2022-12-21T09:21:56.385170Z",
			"selected_offer": {
				"reward": null,
				"reward_type": null,
				"kind": null,
				"instant": false,
				"name": "",
				"standalone": false,
				"purchases": null,
				"online": false,
				"finish_date": null
			},
			"public_url": null,
			"is_open": false
		}
	]
}
